# OBJ file
v 2.580750 325.201508 -53.390533
v 3.254950 325.324738 -52.254372
v 2.328408 324.161865 -52.437569
v 3.254950 325.324738 -52.254372
v 2.580750 325.201508 -53.390533
v 2.996027 326.431000 -53.491932
v 3.254950 325.324738 -52.254372
v 2.996027 326.431000 -53.491932
v 3.550565 326.886719 -52.073467
v 2.328408 324.161865 -52.437569
v 1.499259 324.485229 -53.765839
v 2.580750 325.201508 -53.390533
v 1.024806 323.404175 -52.623192
v 1.499259 324.485229 -53.765839
v 2.328408 324.161865 -52.437569
v 1.916039 325.832611 -54.341621
v 2.996027 326.431000 -53.491932
v 2.580750 325.201508 -53.390533
v 1.916039 325.832611 -54.341621
v 2.580750 325.201508 -53.390533
v 1.499259 324.485229 -53.765839
v 3.550565 326.886719 -52.073467
v 2.996027 326.431000 -53.491932
v 2.996981 327.971741 -53.216064
v 3.550565 326.886719 -52.073467
v 2.996981 327.971741 -53.216064
v 3.252518 328.426758 -51.797611
v 2.093041 327.442444 -54.350311
v 2.996027 326.431000 -53.491932
v 1.916039 325.832611 -54.341621
v 2.093041 327.442444 -54.350311
v 2.996981 327.971741 -53.216064
v 2.996027 326.431000 -53.491932
v 3.252518 328.426758 -51.797611
v 2.996981 327.971741 -53.216064
v 2.578199 329.080536 -52.843613
v 2.578199 329.080536 -52.843613
v 2.327192 329.590363 -51.614407
v 3.252518 328.426758 -51.797611
v 1.914227 328.559784 -53.977013
v 2.996981 327.971741 -53.216064
v 2.093041 327.442444 -54.350311
v 1.914227 328.559784 -53.977013
v 2.578199 329.080536 -52.843613
v 2.996981 327.971741 -53.216064
v 2.327192 329.590363 -51.614407
v 2.578199 329.080536 -52.843613
v 1.503241 329.911621 -52.942966
v 1.914227 328.559784 -53.977013
v 1.503241 329.911621 -52.942966
v 2.578199 329.080536 -52.843613
v 2.327192 329.590363 -51.614407
v 1.503241 329.911621 -52.942966
v 1.022184 330.399109 -51.619072
v 0.979388 327.961884 -54.826935
v 1.914227 328.559784 -53.977013
v 2.093041 327.442444 -54.350311
v 1.022184 330.399109 -51.619072
v 1.503241 329.911621 -52.942966
v 0.205648 330.299133 -52.849918
v 1.022184 330.399109 -51.619072
v 0.205648 330.299133 -52.849918
v -0.465119 330.320892 -51.523880
v 0.571549 329.387085 -54.076412
v 1.503241 329.911621 -52.942966
v 1.914227 328.559784 -53.977013
v 0.571549 329.387085 -54.076412
v 0.205648 330.299133 -52.849918
v 1.503241 329.911621 -52.942966
v 0.979388 327.961884 -54.826935
v 0.571549 329.387085 -54.076412
v 1.914227 328.559784 -53.977013
v -0.465119 330.320892 -51.523880
v 0.205648 330.299133 -52.849918
v -1.136100 330.190369 -52.660137
v -1.136100 330.190369 -52.660137
v -1.956546 329.935883 -51.616398
v -0.465119 330.320892 -51.523880
v -0.877130 329.717712 -53.794113
v 0.205648 330.299133 -52.849918
v 0.571549 329.387085 -54.076412
v -0.877130 329.717712 -53.794113
v -1.136100 330.190369 -52.660137
v 0.205648 330.299133 -52.849918
v -1.956546 329.935883 -51.616398
v -1.136100 330.190369 -52.660137
v -2.219188 329.477722 -53.034920
v -0.877130 329.717712 -53.794113
v -2.219188 329.477722 -53.034920
v -1.136100 330.190369 -52.660137
v -1.956546 329.935883 -51.616398
v -2.219188 329.477722 -53.034920
v -3.061831 329.154205 -51.707367
v -0.518334 328.720825 -54.641525
v -0.877130 329.717712 -53.794113
v 0.571549 329.387085 -54.076412
v -0.518334 328.720825 -54.641525
v 0.571549 329.387085 -54.076412
v 0.979388 327.961884 -54.826935
v -1.882637 328.574036 -54.262032
v -2.219188 329.477722 -53.034920
v -0.877130 329.717712 -53.794113
v -0.518334 328.720825 -54.641525
v -1.882637 328.574036 -54.262032
v -0.877130 329.717712 -53.794113
v -3.061831 329.154205 -51.707367
v -2.219188 329.477722 -53.034920
v -3.018010 328.316162 -53.218319
v -1.882637 328.574036 -54.262032
v -3.018010 328.316162 -53.218319
v -2.219188 329.477722 -53.034920
v -3.061831 329.154205 -51.707367
v -3.018010 328.316162 -53.218319
v -3.687084 327.613495 -51.983223
v -1.437485 327.121399 -54.917416
v -1.882637 328.574036 -54.262032
v -0.518334 328.720825 -54.641525
v -3.687084 327.613495 -51.983223
v -3.018010 328.316162 -53.218319
v -3.424561 327.086212 -53.116684
v -3.424561 327.086212 -53.116684
v -3.682053 326.048553 -52.163929
v -3.687084 327.613495 -51.983223
v -2.604091 327.340698 -54.160419
v -3.018010 328.316162 -53.218319
v -1.882637 328.574036 -54.262032
v -2.604091 327.340698 -54.160419
v -3.424561 327.086212 -53.116684
v -3.018010 328.316162 -53.218319
v -1.437485 327.121399 -54.917416
v -2.604091 327.340698 -54.160419
v -1.882637 328.574036 -54.262032
v -3.682053 326.048553 -52.163929
v -3.424561 327.086212 -53.116684
v -3.012908 325.974152 -53.489914
v -2.604091 327.340698 -54.160419
v -3.012908 325.974152 -53.489914
v -3.424561 327.086212 -53.116684
v -3.682053 326.048553 -52.163929
v -3.012908 325.974152 -53.489914
v -3.066170 324.888367 -52.347328
v -1.880872 325.846893 -54.626156
v -3.012908 325.974152 -53.489914
v -2.604091 327.340698 -54.160419
v -1.437485 327.121399 -54.917416
v -1.880872 325.846893 -54.626156
v -2.604091 327.340698 -54.160419
v -3.066170 324.888367 -52.347328
v -3.012908 325.974152 -53.489914
v -2.215326 324.809265 -53.673138
v -1.880872 325.846893 -54.626156
v -2.215326 324.809265 -53.673138
v -3.012908 325.974152 -53.489914
v -3.066170 324.888367 -52.347328
v -2.215326 324.809265 -53.673138
v -1.958811 323.728790 -52.530220
v -0.522530 326.018005 -55.100815
v -1.880872 325.846893 -54.626156
v -1.437485 327.121399 -54.917416
v -1.958811 323.728790 -52.530220
v -2.215326 324.809265 -53.673138
v -1.129639 323.982849 -53.573719
v -1.129639 323.982849 -53.573719
v -0.462496 323.325928 -52.528000
v -1.958811 323.728790 -52.530220
v -0.874889 324.996674 -54.432053
v -2.215326 324.809265 -53.673138
v -1.880872 325.846893 -54.626156
v -0.874889 324.996674 -54.432053
v -1.129639 323.982849 -53.573719
v -2.215326 324.809265 -53.673138
v -0.522530 326.018005 -55.100815
v -0.874889 324.996674 -54.432053
v -1.880872 325.846893 -54.626156
v -0.462496 323.325928 -52.528000
v -1.129639 323.982849 -53.573719
v 0.208104 324.081329 -53.763630
v -0.874889 324.996674 -54.432053
v 0.208104 324.081329 -53.763630
v -1.129639 323.982849 -53.573719
v -0.462496 323.325928 -52.528000
v 0.208104 324.081329 -53.763630
v 1.024806 323.404175 -52.623192
v 1.024806 323.404175 -52.623192
v 0.208104 324.081329 -53.763630
v 1.499259 324.485229 -53.765839
v 0.575936 325.120880 -54.716385
v 0.208104 324.081329 -53.763630
v -0.874889 324.996674 -54.432053
v 0.575936 325.120880 -54.716385
v 1.499259 324.485229 -53.765839
v 0.208104 324.081329 -53.763630
v -0.522530 326.018005 -55.100815
v 0.575936 325.120880 -54.716385
v -0.874889 324.996674 -54.432053
v 1.916039 325.832611 -54.341621
v 1.499259 324.485229 -53.765839
v 0.575936 325.120880 -54.716385
v 0.975668 326.397308 -55.007862
v 1.916039 325.832611 -54.341621
v 0.575936 325.120880 -54.716385
v 0.975668 326.397308 -55.007862
v 0.575936 325.120880 -54.716385
v -0.522530 326.018005 -55.100815
v 0.975668 326.397308 -55.007862
v 2.093041 327.442444 -54.350311
v 1.916039 325.832611 -54.341621
v 0.979388 327.961884 -54.826935
v 2.093041 327.442444 -54.350311
v 0.975668 326.397308 -55.007862
v -0.121152 327.249908 -55.201920
v 0.975668 326.397308 -55.007862
v -0.522530 326.018005 -55.100815
v -0.121152 327.249908 -55.201920
v 0.979388 327.961884 -54.826935
v 0.975668 326.397308 -55.007862
v -0.121152 327.249908 -55.201920
v -0.522530 326.018005 -55.100815
v -1.437485 327.121399 -54.917416
v -0.121152 327.249908 -55.201920
v -0.518334 328.720825 -54.641525
v 0.979388 327.961884 -54.826935
v -0.121152 327.249908 -55.201920
v -1.437485 327.121399 -54.917416
v -0.518334 328.720825 -54.641525
v 2.579582 -313.334137 -55.511513
v 3.253043 -312.755341 -54.567341
v 2.324903 -313.920074 -54.324253
v 3.253043 -312.755341 -54.567341
v 2.579582 -313.334137 -55.511513
v 2.992117 -312.198975 -56.015266
v 3.253043 -312.755341 -54.567341
v 2.992117 -312.198975 -56.015266
v 3.549540 -311.285736 -54.836140
v 2.324903 -313.920074 -54.324253
v 1.498568 -314.198578 -55.649185
v 2.579582 -313.334137 -55.511513
v 1.027334 -314.742218 -54.272408
v 1.498568 -314.198578 -55.649185
v 2.324903 -313.920074 -54.324253
v 1.918638 -313.044983 -56.673714
v 2.992117 -312.198975 -56.015266
v 2.579582 -313.334137 -55.511513
v 1.918638 -313.044983 -56.673714
v 2.579582 -313.334137 -55.511513
v 1.498568 -314.198578 -55.649185
v 3.549540 -311.285736 -54.836140
v 2.992117 -312.198975 -56.015266
v 3.001940 -310.844818 -56.235931
v 3.549540 -311.285736 -54.836140
v 3.001940 -310.844818 -56.235931
v 3.257859 -309.830963 -55.033081
v 2.095783 -311.621521 -57.155258
v 2.992117 -312.198975 -56.015266
v 1.918638 -313.044983 -56.673714
v 2.095783 -311.621521 -57.155258
v 3.001940 -310.844818 -56.235931
v 2.992117 -312.198975 -56.015266
v 3.257859 -309.830963 -55.033081
v 3.001940 -310.844818 -56.235931
v 2.572358 -309.544159 -56.195316
v 2.572358 -309.544159 -56.195316
v 2.329743 -308.569336 -55.253464
v 3.257859 -309.830963 -55.033081
v 1.910841 -310.206787 -57.186451
v 3.001940 -310.844818 -56.235931
v 2.095783 -311.621521 -57.155258
v 1.910841 -310.206787 -57.186451
v 2.572358 -309.544159 -56.195316
v 3.001940 -310.844818 -56.235931
v 2.329743 -308.569336 -55.253464
v 2.572358 -309.544159 -56.195316
v 1.504099 -308.753723 -56.554966
v 1.910841 -310.206787 -57.186451
v 1.504099 -308.753723 -56.554966
v 2.572358 -309.544159 -56.195316
v 2.329743 -308.569336 -55.253464
v 1.504099 -308.753723 -56.554966
v 1.025188 -307.826752 -55.423271
v 0.972140 -310.972198 -57.775036
v 1.910841 -310.206787 -57.186451
v 2.095783 -311.621521 -57.155258
v 1.025188 -307.826752 -55.423271
v 1.504099 -308.753723 -56.554966
v 0.206101 -308.334381 -56.628273
v 1.025188 -307.826752 -55.423271
v 0.206101 -308.334381 -56.628273
v -0.459492 -307.632874 -55.401051
v 0.571072 -309.623108 -57.521366
v 1.504099 -308.753723 -56.554966
v 1.910841 -310.206787 -57.186451
v 0.571072 -309.623108 -57.521366
v 0.206101 -308.334381 -56.628273
v 1.504099 -308.753723 -56.554966
v 0.972140 -310.972198 -57.775036
v 0.571072 -309.623108 -57.521366
v 1.910841 -310.206787 -57.186451
v -0.459492 -307.632874 -55.401051
v 0.206101 -308.334381 -56.628273
v -1.124585 -308.353577 -56.368031
v -1.124585 -308.353577 -56.368031
v -1.961935 -308.205017 -55.326515
v -0.459492 -307.632874 -55.401051
v -0.874865 -309.268646 -57.334000
v 0.206101 -308.334381 -56.628273
v 0.571072 -309.623108 -57.521366
v -0.874865 -309.268646 -57.334000
v -1.124585 -308.353577 -56.368031
v 0.206101 -308.334381 -56.628273
v -1.961935 -308.205017 -55.326515
v -1.124585 -308.353577 -56.368031
v -2.210748 -309.215729 -56.528843
v -0.874865 -309.268646 -57.334000
v -2.210748 -309.215729 -56.528843
v -1.124585 -308.353577 -56.368031
v -1.961935 -308.205017 -55.326515
v -2.210748 -309.215729 -56.528843
v -3.064263 -309.236267 -55.202583
v -0.511968 -310.451843 -57.848522
v -0.874865 -309.268646 -57.334000
v 0.571072 -309.623108 -57.521366
v -0.511968 -310.451843 -57.848522
v 0.571072 -309.623108 -57.521366
v 0.972140 -310.972198 -57.775036
v -1.882350 -310.422943 -57.375477
v -2.210748 -309.215729 -56.528843
v -0.874865 -309.268646 -57.334000
v -0.511968 -310.451843 -57.848522
v -1.882350 -310.422943 -57.375477
v -0.874865 -309.268646 -57.334000
v -3.064263 -309.236267 -55.202583
v -2.210748 -309.215729 -56.528843
v -3.020346 -310.271515 -56.333950
v -1.882350 -310.422943 -57.375477
v -3.020346 -310.271515 -56.333950
v -2.210748 -309.215729 -56.528843
v -3.064263 -309.236267 -55.202583
v -3.020346 -310.271515 -56.333950
v -3.682935 -310.520355 -54.911438
v -1.445973 -311.764893 -57.628586
v -1.882350 -310.422943 -57.375477
v -0.511968 -310.451843 -57.848522
v -3.682935 -310.520355 -54.911438
v -3.020346 -310.271515 -56.333950
v -3.428066 -311.493927 -55.853523
v -3.428066 -311.493927 -55.853523
v -3.684700 -312.085083 -54.666088
v -3.682935 -310.520355 -54.911438
v -2.602613 -311.634644 -56.918610
v -3.020346 -310.271515 -56.333950
v -1.882350 -310.422943 -57.375477
v -2.602613 -311.634644 -56.918610
v -3.428066 -311.493927 -55.853523
v -3.020346 -310.271515 -56.333950
v -1.445973 -311.764893 -57.628586
v -2.602613 -311.634644 -56.918610
v -1.882350 -310.422943 -57.375477
v -3.684700 -312.085083 -54.666088
v -3.428066 -311.493927 -55.853523
v -3.015912 -312.793823 -55.893909
v -2.602613 -311.634644 -56.918610
v -3.015912 -312.793823 -55.893909
v -3.428066 -311.493927 -55.853523
v -3.684700 -312.085083 -54.666088
v -3.015912 -312.793823 -55.893909
v -3.059947 -313.442902 -54.469372
v -1.885378 -313.033844 -56.958778
v -3.015912 -312.793823 -55.893909
v -2.602613 -311.634644 -56.918610
v -1.445973 -311.764893 -57.628586
v -1.885378 -313.033844 -56.958778
v -2.602613 -311.634644 -56.918610
v -3.059947 -313.442902 -54.469372
v -3.015912 -312.793823 -55.893909
v -2.217162 -313.937012 -55.721817
v -1.885378 -313.033844 -56.958778
v -2.217162 -313.937012 -55.721817
v -3.015912 -312.793823 -55.893909
v -3.059947 -313.442902 -54.469372
v -2.217162 -313.937012 -55.721817
v -1.957500 -314.404449 -54.251068
v -0.517857 -312.970215 -57.408691
v -1.885378 -313.033844 -56.958778
v -1.445973 -311.764893 -57.628586
v -1.957500 -314.404449 -54.251068
v -2.217162 -313.937012 -55.721817
v -1.131165 -314.643127 -55.315437
v -1.131165 -314.643127 -55.315437
v -0.459135 -314.862244 -54.176994
v -1.957500 -314.404449 -54.251068
v -0.876129 -313.991882 -56.526764
v -2.217162 -313.937012 -55.721817
v -1.885378 -313.033844 -56.958778
v -0.876129 -313.991882 -56.526764
v -1.131165 -314.643127 -55.315437
v -2.217162 -313.937012 -55.721817
v -0.517857 -312.970215 -57.408691
v -0.876129 -313.991882 -56.526764
v -1.885378 -313.033844 -56.958778
v -0.459135 -314.862244 -54.176994
v -1.131165 -314.643127 -55.315437
v 0.206649 -314.620850 -55.575916
v -0.876129 -313.991882 -56.526764
v 0.206649 -314.620850 -55.575916
v -1.131165 -314.643127 -55.315437
v -0.459135 -314.862244 -54.176994
v 0.206649 -314.620850 -55.575916
v 1.027334 -314.742218 -54.272408
v 1.027334 -314.742218 -54.272408
v 0.206649 -314.620850 -55.575916
v 1.498568 -314.198578 -55.649185
v 0.574934 -313.722717 -56.812435
v 0.206649 -314.620850 -55.575916
v -0.876129 -313.991882 -56.526764
v 0.574934 -313.722717 -56.812435
v 1.498568 -314.198578 -55.649185
v 0.206649 -314.620850 -55.575916
v -0.517857 -312.970215 -57.408691
v 0.574934 -313.722717 -56.812435
v -0.876129 -313.991882 -56.526764
v 1.918638 -313.044983 -56.673714
v 1.498568 -314.198578 -55.649185
v 0.574934 -313.722717 -56.812435
v 0.977123 -312.542816 -57.505569
v 1.918638 -313.044983 -56.673714
v 0.574934 -313.722717 -56.812435
v 0.977123 -312.542816 -57.505569
v 0.574934 -313.722717 -56.812435
v -0.517857 -312.970215 -57.408691
v 0.977123 -312.542816 -57.505569
v 2.095783 -311.621521 -57.155258
v 1.918638 -313.044983 -56.673714
v 0.972140 -310.972198 -57.775036
v 2.095783 -311.621521 -57.155258
v 0.977123 -312.542816 -57.505569
v -0.120842 -311.752838 -57.865253
v 0.977123 -312.542816 -57.505569
v -0.517857 -312.970215 -57.408691
v -0.120842 -311.752838 -57.865253
v 0.972140 -310.972198 -57.775036
v 0.977123 -312.542816 -57.505569
v -0.120842 -311.752838 -57.865253
v -0.517857 -312.970215 -57.408691
v -1.445973 -311.764893 -57.628586
v -0.120842 -311.752838 -57.865253
v -0.511968 -310.451843 -57.848522
v 0.972140 -310.972198 -57.775036
v -0.120842 -311.752838 -57.865253
v -1.445973 -311.764893 -57.628586
v -0.511968 -310.451843 -57.848522
v -0.549901 327.712646 -47.435944
v 0.336540 327.709686 -47.435986
v 0.382507 327.803375 -47.815201
v 0.382507 327.803375 -47.815201
v -0.600326 327.801941 -47.815216
v -0.549901 327.712646 -47.435944
v -1.254976 326.925232 -47.526478
v -0.549901 327.712646 -47.435944
v -0.600326 327.801941 -47.815216
v 1.177585 327.400513 -47.813454
v 0.382507 327.803375 -47.815201
v 0.336540 327.709686 -47.435986
v 0.336540 327.709686 -47.435986
v 1.037490 326.923981 -47.526493
v 1.177585 327.400513 -47.813454
v -0.600326 327.801941 -47.815216
v -1.389349 327.403656 -47.813416
v -1.254976 326.925232 -47.526478
v -1.523411 326.166687 -47.711399
v -1.254976 326.925232 -47.526478
v -1.389349 327.403656 -47.813416
v 1.482165 326.238342 -47.996403
v 1.177585 327.400513 -47.813454
v 1.037490 326.923981 -47.526493
v 1.037490 326.923981 -47.526493
v 1.312864 326.163727 -47.711437
v 1.482165 326.238342 -47.996403
v -1.389349 327.403656 -47.813416
v -1.695144 326.239105 -47.996391
v -1.523411 326.166687 -47.711399
v -1.252377 325.386108 -47.802322
v -1.523411 326.166687 -47.711399
v -1.695144 326.239105 -47.996391
v 1.181233 325.455627 -48.086639
v 1.482165 326.238342 -47.996403
v 1.312864 326.163727 -47.711437
v 1.312864 326.163727 -47.711437
v 1.040065 325.384857 -47.802338
v 1.181233 325.455627 -48.086639
v -1.695144 326.239105 -47.996391
v -1.387680 325.453522 -48.086662
v -1.252377 325.386108 -47.802322
v -0.540984 324.988739 -47.800026
v -1.252377 325.386108 -47.802322
v -1.387680 325.453522 -48.086662
v 0.386536 324.697815 -48.272266
v 1.181233 325.455627 -48.086639
v 1.040065 325.384857 -47.802338
v 1.040065 325.384857 -47.802338
v 0.334775 324.980927 -47.800129
v 0.386536 324.697815 -48.272266
v 0.334775 324.980927 -47.800129
v -0.540984 324.988739 -47.800026
v -0.596297 324.696381 -48.272285
v -0.596297 324.696381 -48.272285
v 0.386536 324.697815 -48.272266
v 0.334775 324.980927 -47.800129
v -1.387680 325.453522 -48.086662
v -0.596297 324.696381 -48.272285
v -0.540984 324.988739 -47.800026
v 1.605427 325.227692 -48.559261
v 1.181233 325.455627 -48.086639
v 0.386536 324.697815 -48.272266
v -0.761497 324.410736 -48.744427
v -0.596297 324.696381 -48.272285
v -1.387680 325.453522 -48.086662
v 0.548112 324.464264 -48.744461
v 0.386536 324.697815 -48.272266
v -0.596297 324.696381 -48.272285
v -0.596297 324.696381 -48.272285
v -0.761497 324.410736 -48.744427
v 0.548112 324.464264 -48.744461
v 0.386536 324.697815 -48.272266
v 0.548112 324.464264 -48.744461
v 1.605427 325.227692 -48.559261
v -1.387680 325.453522 -48.086662
v -1.822174 325.167633 -48.559311
v -0.761497 324.410736 -48.744427
v -1.822174 325.167633 -48.559311
v -1.387680 325.453522 -48.086662
v -1.695144 326.239105 -47.996391
v 0.548112 324.464264 -48.744461
v -0.761497 324.410736 -48.744427
v -0.607955 323.746429 -49.309040
v -1.695144 326.239105 -47.996391
v -2.221954 326.352753 -48.470566
v -1.822174 325.167633 -48.559311
v -2.221954 326.352753 -48.470566
v -1.695144 326.239105 -47.996391
v -1.389349 327.403656 -47.813416
v -1.822174 325.167633 -48.559311
v -1.569235 324.147980 -49.311039
v -0.761497 324.410736 -48.744427
v -0.761497 324.410736 -48.744427
v -1.569235 324.147980 -49.311039
v -0.607955 323.746429 -49.309040
v -1.389349 327.403656 -47.813416
v -1.814973 327.510834 -48.287457
v -2.221954 326.352753 -48.470566
v -1.814973 327.510834 -48.287457
v -1.389349 327.403656 -47.813416
v -0.600326 327.801941 -47.815216
v -2.221954 326.352753 -48.470566
v -2.739894 325.688690 -49.035175
v -1.822174 325.167633 -48.559311
v -0.600326 327.801941 -47.815216
v -0.758517 328.296539 -48.196922
v -1.814973 327.510834 -48.287457
v -0.758517 328.296539 -48.196922
v -0.600326 327.801941 -47.815216
v 0.382507 327.803375 -47.815201
v -1.814973 327.510834 -48.287457
v -2.734578 327.249725 -48.854519
v -2.221954 326.352753 -48.470566
v -2.221954 326.352753 -48.470566
v -2.734578 327.249725 -48.854519
v -2.739894 325.688690 -49.035175
v 0.382507 327.803375 -47.815201
v 0.553143 328.355164 -48.196888
v -0.758517 328.296539 -48.196922
v 0.553143 328.355164 -48.196888
v 0.382507 327.803375 -47.815201
v 1.177585 327.400513 -47.813454
v -1.814973 327.510834 -48.287457
v -0.758517 328.296539 -48.196922
v -0.948656 329.225403 -48.486214
v 1.177585 327.400513 -47.813454
v 1.605856 327.576385 -48.287338
v 0.553143 328.355164 -48.196888
v 1.605856 327.576385 -48.287338
v 1.177585 327.400513 -47.813454
v 1.482165 326.238342 -47.996403
v -0.758517 328.296539 -48.196922
v 0.553143 328.355164 -48.196888
v 0.428808 329.254059 -48.580822
v 0.428808 329.254059 -48.580822
v -0.948656 329.225403 -48.486214
v -0.758517 328.296539 -48.196922
v 1.605856 327.576385 -48.287338
v 1.617563 328.467468 -48.671104
v 0.553143 328.355164 -48.196888
v 0.553143 328.355164 -48.196888
v 1.617563 328.467468 -48.671104
v 0.428808 329.254059 -48.580822
v 1.482165 326.238342 -47.996403
v 2.015126 326.409729 -48.470554
v 1.605856 327.576385 -48.287338
v 2.015126 326.409729 -48.470554
v 1.482165 326.238342 -47.996403
v 1.181233 325.455627 -48.086639
v 1.181233 325.455627 -48.086639
v 1.605427 325.227692 -48.559261
v 2.015126 326.409729 -48.470554
v 1.605856 327.576385 -48.287338
v 2.425849 327.307281 -48.854507
v 1.617563 328.467468 -48.671104
v 2.015126 326.409729 -48.470554
v 2.425849 327.307281 -48.854507
v 1.605856 327.576385 -48.287338
v 0.919831 329.841583 -49.341991
v 0.428808 329.254059 -48.580822
v 1.617563 328.467468 -48.671104
v 1.605427 325.227692 -48.559261
v 2.424371 325.364349 -49.128139
v 2.015126 326.409729 -48.470554
v 0.428808 329.254059 -48.580822
v 0.919831 329.841583 -49.341991
v -0.422680 329.770416 -49.057243
v 0.428808 329.254059 -48.580822
v -0.422680 329.770416 -49.057243
v -0.948656 329.225403 -48.486214
v 1.605427 325.227692 -48.559261
v 1.612985 324.585175 -49.218563
v 2.424371 325.364349 -49.128139
v 0.548112 324.464264 -48.744461
v 1.612985 324.585175 -49.218563
v 1.605427 325.227692 -48.559261
v 2.015126 326.409729 -48.470554
v 2.424371 325.364349 -49.128139
v 2.743256 326.548615 -49.039906
v 2.015126 326.409729 -48.470554
v 2.743256 326.548615 -49.039906
v 2.425849 327.307281 -48.854507
v 2.806199 325.503143 -49.697464
v 2.424371 325.364349 -49.128139
v 1.612985 324.585175 -49.218563
v 2.743256 326.548615 -49.039906
v 2.424371 325.364349 -49.128139
v 2.806199 325.503143 -49.697464
v 0.548112 324.464264 -48.744461
v 0.775397 323.848053 -49.498665
v 1.612985 324.585175 -49.218563
v 2.799499 327.848724 -49.426056
v 2.425849 327.307281 -48.854507
v 2.743256 326.548615 -49.039906
v 0.548112 324.464264 -48.744461
v 0.073826 323.798370 -49.309090
v 0.775397 323.848053 -49.498665
v -0.607955 323.746429 -49.309040
v 0.073826 323.798370 -49.309090
v 0.548112 324.464264 -48.744461
v 2.000248 324.338348 -49.880421
v 1.612985 324.585175 -49.218563
v 0.775397 323.848053 -49.498665
v 1.612985 324.585175 -49.218563
v 2.000248 324.338348 -49.880421
v 2.806199 325.503143 -49.697464
v 0.922716 323.632385 -50.255604
v 0.775397 323.848053 -49.498665
v 0.073826 323.798370 -49.309090
v 0.775397 323.848053 -49.498665
v 0.922716 323.632385 -50.255604
v 2.000248 324.338348 -49.880421
v -0.607955 323.746429 -49.309040
v -0.416625 323.554077 -49.971413
v 0.073826 323.798370 -49.309090
v 0.073826 323.798370 -49.309090
v -0.416625 323.554077 -49.971413
v 0.922716 323.632385 -50.255604
v -0.416625 323.554077 -49.971413
v -0.607955 323.746429 -49.309040
v -1.569235 324.147980 -49.311039
v 1.745379 323.508453 -51.391800
v 2.000248 324.338348 -49.880421
v 0.922716 323.632385 -50.255604
v 0.253141 323.104889 -51.389816
v 0.922716 323.632385 -50.255604
v -0.416625 323.554077 -49.971413
v 0.922716 323.632385 -50.255604
v 0.253141 323.104889 -51.389816
v 1.745379 323.508453 -51.391800
v -1.569235 324.147980 -49.311039
v -1.709878 323.905609 -49.973335
v -0.416625 323.554077 -49.971413
v 0.253141 323.104889 -51.389816
v 1.024806 323.404175 -52.623192
v 1.745379 323.508453 -51.391800
v 0.253141 323.104889 -51.389816
v -0.462496 323.325928 -52.528000
v 1.024806 323.404175 -52.623192
v 1.745379 323.508453 -51.391800
v 1.024806 323.404175 -52.623192
v 2.328408 324.161865 -52.437569
v -0.462496 323.325928 -52.528000
v 0.253141 323.104889 -51.389816
v -1.235592 323.423706 -51.296925
v 0.253141 323.104889 -51.389816
v -0.416625 323.554077 -49.971413
v -1.235592 323.423706 -51.296925
v -1.235592 323.423706 -51.296925
v -0.416625 323.554077 -49.971413
v -1.709878 323.905609 -49.973335
v -0.462496 323.325928 -52.528000
v -1.235592 323.423706 -51.296925
v -1.958811 323.728790 -52.530220
v 2.328408 324.161865 -52.437569
v 2.854383 324.644470 -51.113972
v 1.745379 323.508453 -51.391800
v 2.854383 324.644470 -51.113972
v 2.000248 324.338348 -49.880421
v 1.745379 323.508453 -51.391800
v 3.254950 325.324738 -52.254372
v 2.854383 324.644470 -51.113972
v 2.328408 324.161865 -52.437569
v 2.854383 324.644470 -51.113972
v 2.806199 325.503143 -49.697464
v 2.000248 324.338348 -49.880421
v 3.254950 325.324738 -52.254372
v 3.475916 325.830902 -51.025711
v 2.854383 324.644470 -51.113972
v 3.475916 325.830902 -51.025711
v 2.806199 325.503143 -49.697464
v 2.854383 324.644470 -51.113972
v 3.475916 325.830902 -51.025711
v 3.254950 325.324738 -52.254372
v 3.550565 326.886719 -52.073467
v 3.475916 325.830902 -51.025711
v 3.212726 326.733154 -49.798622
v 2.806199 325.503143 -49.697464
v 2.806199 325.503143 -49.697464
v 3.212726 326.733154 -49.798622
v 2.743256 326.548615 -49.039906
v 2.743256 326.548615 -49.039906
v 3.212726 326.733154 -49.798622
v 2.799499 327.848724 -49.426056
v 3.475916 325.830902 -51.025711
v 3.550565 326.886719 -52.073467
v 3.474081 327.388702 -50.844597
v 3.212726 326.733154 -49.798622
v 3.475916 325.830902 -51.025711
v 3.474081 327.388702 -50.844597
v 3.474081 327.388702 -50.844597
v 2.799499 327.848724 -49.426056
v 3.212726 326.733154 -49.798622
v 3.474081 327.388702 -50.844597
v 3.550565 326.886719 -52.073467
v 3.252518 328.426758 -51.797611
v 3.252518 328.426758 -51.797611
v 2.852738 328.934509 -50.568665
v 3.474081 327.388702 -50.844597
v 2.852738 328.934509 -50.568665
v 2.799499 327.848724 -49.426056
v 3.474081 327.388702 -50.844597
v 2.327192 329.590363 -51.614407
v 2.852738 328.934509 -50.568665
v 3.252518 328.426758 -51.797611
v 2.852738 328.934509 -50.568665
v 2.008712 329.007965 -49.242672
v 2.799499 327.848724 -49.426056
v 2.425849 327.307281 -48.854507
v 2.799499 327.848724 -49.426056
v 2.008712 329.007965 -49.242672
v 2.008712 329.007965 -49.242672
v 1.617563 328.467468 -48.671104
v 2.425849 327.307281 -48.854507
v 1.617563 328.467468 -48.671104
v 2.008712 329.007965 -49.242672
v 0.919831 329.841583 -49.341991
v 2.327192 329.590363 -51.614407
v 1.747644 329.715607 -50.478218
v 2.852738 328.934509 -50.568665
v 1.747644 329.715607 -50.478218
v 2.008712 329.007965 -49.242672
v 2.852738 328.934509 -50.568665
v 1.747644 329.715607 -50.478218
v 0.919831 329.841583 -49.341991
v 2.008712 329.007965 -49.242672
v 1.747644 329.715607 -50.478218
v 2.327192 329.590363 -51.614407
v 1.022184 330.399109 -51.619072
v 0.919831 329.841583 -49.341991
v 1.747644 329.715607 -50.478218
v 0.255048 330.472748 -50.292831
v 1.747644 329.715607 -50.478218
v 1.022184 330.399109 -51.619072
v 0.255048 330.472748 -50.292831
v 0.255048 330.472748 -50.292831
v -0.422680 329.770416 -49.057243
v 0.919831 329.841583 -49.341991
v 0.255048 330.472748 -50.292831
v 1.022184 330.399109 -51.619072
v -0.465119 330.320892 -51.523880
v -0.465119 330.320892 -51.523880
v -1.234376 330.036682 -50.385792
v 0.255048 330.472748 -50.292831
v -1.234376 330.036682 -50.385792
v -0.422680 329.770416 -49.057243
v 0.255048 330.472748 -50.292831
v -1.956546 329.935883 -51.616398
v -1.234376 330.036682 -50.385792
v -0.465119 330.320892 -51.523880
v -1.234376 330.036682 -50.385792
v -1.707470 329.335693 -49.150162
v -0.422680 329.770416 -49.057243
v -0.948656 329.225403 -48.486214
v -0.422680 329.770416 -49.057243
v -1.707470 329.335693 -49.150162
v -1.956546 329.935883 -51.616398
v -2.537978 329.278992 -50.570683
v -1.234376 330.036682 -50.385792
v -2.537978 329.278992 -50.570683
v -1.707470 329.335693 -49.150162
v -1.234376 330.036682 -50.385792
v -2.537978 329.278992 -50.570683
v -1.956546 329.935883 -51.616398
v -3.061831 329.154205 -51.707367
v -0.948656 329.225403 -48.486214
v -1.707470 329.335693 -49.150162
v -2.129686 328.414673 -48.671066
v -0.948656 329.225403 -48.486214
v -2.129686 328.414673 -48.671066
v -1.814973 327.510834 -48.287457
v -1.814973 327.510834 -48.287457
v -2.129686 328.414673 -48.671066
v -2.734578 327.249725 -48.854519
v -2.537978 329.278992 -50.570683
v -2.790606 328.623016 -49.525417
v -1.707470 329.335693 -49.150162
v -2.129686 328.414673 -48.671066
v -1.707470 329.335693 -49.150162
v -2.790606 328.623016 -49.525417
v -2.537978 329.278992 -50.570683
v -3.061831 329.154205 -51.707367
v -3.465664 328.088776 -50.658993
v -2.790606 328.623016 -49.525417
v -2.537978 329.278992 -50.570683
v -3.465664 328.088776 -50.658993
v -3.465664 328.088776 -50.658993
v -3.061831 329.154205 -51.707367
v -3.687084 327.613495 -51.983223
v -2.129686 328.414673 -48.671066
v -2.790606 328.623016 -49.525417
v -3.203619 327.014984 -49.516228
v -3.465664 328.088776 -50.658993
v -3.203619 327.014984 -49.516228
v -2.790606 328.623016 -49.525417
v -3.203619 327.014984 -49.516228
v -2.734578 327.249725 -48.854519
v -2.129686 328.414673 -48.671066
v -3.687084 327.613495 -51.983223
v -3.762901 326.530304 -50.840107
v -3.465664 328.088776 -50.658993
v -3.762901 326.530304 -50.840107
v -3.203619 327.014984 -49.516228
v -3.465664 328.088776 -50.658993
v -3.682053 326.048553 -52.163929
v -3.762901 326.530304 -50.840107
v -3.687084 327.613495 -51.983223
v -2.734578 327.249725 -48.854519
v -3.203619 327.014984 -49.516228
v -3.205240 325.849152 -49.699215
v -3.762901 326.530304 -50.840107
v -3.205240 325.849152 -49.699215
v -3.203619 327.014984 -49.516228
v -3.205240 325.849152 -49.699215
v -2.739894 325.688690 -49.035175
v -2.734578 327.249725 -48.854519
v -3.682053 326.048553 -52.163929
v -3.459918 325.371826 -51.022984
v -3.762901 326.530304 -50.840107
v -3.459918 325.371826 -51.022984
v -3.205240 325.849152 -49.699215
v -3.762901 326.530304 -50.840107
v -3.459918 325.371826 -51.022984
v -3.682053 326.048553 -52.163929
v -3.066170 324.888367 -52.347328
v -2.739894 325.688690 -49.035175
v -3.205240 325.849152 -49.699215
v -2.788436 324.735199 -50.072472
v -3.459918 325.371826 -51.022984
v -2.788436 324.735199 -50.072472
v -3.205240 325.849152 -49.699215
v -3.459918 325.371826 -51.022984
v -3.066170 324.888367 -52.347328
v -2.539551 323.826691 -51.298908
v -2.788436 324.735199 -50.072472
v -3.459918 325.371826 -51.022984
v -2.539551 323.826691 -51.298908
v -2.539551 323.826691 -51.298908
v -3.066170 324.888367 -52.347328
v -1.958811 323.728790 -52.530220
v -1.958811 323.728790 -52.530220
v -1.235592 323.423706 -51.296925
v -2.539551 323.826691 -51.298908
v -1.235592 323.423706 -51.296925
v -1.709878 323.905609 -49.973335
v -2.539551 323.826691 -51.298908
v -2.539551 323.826691 -51.298908
v -1.709878 323.905609 -49.973335
v -2.788436 324.735199 -50.072472
v -2.788436 324.735199 -50.072472
v -2.410996 324.953461 -49.315746
v -2.739894 325.688690 -49.035175
v -2.410996 324.953461 -49.315746
v -2.788436 324.735199 -50.072472
v -1.709878 323.905609 -49.973335
v -1.822174 325.167633 -48.559311
v -2.739894 325.688690 -49.035175
v -2.410996 324.953461 -49.315746
v -1.709878 323.905609 -49.973335
v -1.569235 324.147980 -49.311039
v -2.410996 324.953461 -49.315746
v -1.822174 325.167633 -48.559311
v -2.410996 324.953461 -49.315746
v -1.569235 324.147980 -49.311039
v -0.543773 -309.240631 -50.654907
v 0.335515 -309.246796 -50.654987
v 0.388634 -309.149933 -51.034409
v 0.388634 -309.149933 -51.034409
v -0.601327 -309.154510 -51.034466
v -0.543773 -309.240631 -50.654907
v -1.249421 -309.769867 -50.557365
v -0.543773 -309.240631 -50.654907
v -0.601327 -309.154510 -51.034466
v 1.176250 -309.681366 -50.937126
v 0.388634 -309.149933 -51.034409
v 0.335515 -309.246796 -50.654987
v 0.335515 -309.246796 -50.654987
v 1.043046 -309.771179 -50.557381
v 1.176250 -309.681366 -50.937126
v -0.601327 -309.154510 -51.034466
v -1.392257 -309.674744 -50.937038
v -1.249421 -309.769867 -50.557365
v -1.519382 -310.605713 -50.434364
v -1.249421 -309.769867 -50.557365
v -1.392257 -309.674744 -50.937038
v 1.483834 -310.623840 -50.789867
v 1.176250 -309.681366 -50.937126
v 1.043046 -309.771179 -50.557381
v 1.043046 -309.771179 -50.557381
v 1.310098 -310.603088 -50.434334
v 1.483834 -310.623840 -50.789867
v -1.392257 -309.674744 -50.937038
v -1.691473 -310.618011 -50.789799
v -1.519382 -310.605713 -50.434364
v -1.248395 -311.351013 -50.264587
v -1.519382 -310.605713 -50.434364
v -1.691473 -310.618011 -50.789799
v 1.181042 -311.569122 -50.618713
v 1.483834 -310.623840 -50.789867
v 1.310098 -310.603088 -50.434334
v 1.310098 -310.603088 -50.434334
v 1.044071 -311.352295 -50.264606
v 1.181042 -311.569122 -50.618713
v -1.691473 -310.618011 -50.789799
v -1.391423 -311.572723 -50.618759
v -1.248395 -311.351013 -50.264587
v -0.542438 -311.871490 -50.190605
v -1.248395 -311.351013 -50.264587
v -1.391423 -311.572723 -50.618759
v 0.383008 -312.092407 -50.521305
v 1.181042 -311.569122 -50.618713
v 1.044071 -311.352295 -50.264606
v 1.044071 -311.352295 -50.264606
v 0.330102 -311.872101 -50.190617
v 0.383008 -312.092407 -50.521305
v 0.330102 -311.872101 -50.190617
v -0.542438 -311.871490 -50.190605
v -0.596273 -312.092255 -50.521305
v -0.596273 -312.092255 -50.521305
v 0.383008 -312.092407 -50.521305
v 0.330102 -311.872101 -50.190617
v -1.391423 -311.572723 -50.618759
v -0.596273 -312.092255 -50.521305
v -0.542438 -311.871490 -50.190605
v 1.603329 -311.918732 -50.995457
v 1.181042 -311.569122 -50.618713
v 0.383008 -312.092407 -50.521305
v -0.760448 -312.652130 -50.873116
v -0.596273 -312.092255 -50.521305
v -1.391423 -311.572723 -50.618759
v 0.547612 -312.651215 -50.873104
v 0.383008 -312.092407 -50.521305
v -0.596273 -312.092255 -50.521305
v -0.596273 -312.092255 -50.521305
v -0.760448 -312.652130 -50.873116
v 0.547612 -312.651215 -50.873104
v 0.383008 -312.092407 -50.521305
v 0.547612 -312.651215 -50.873104
v 1.603329 -311.918732 -50.995457
v -1.391423 -311.572723 -50.618759
v -1.817143 -311.975616 -50.995461
v -0.760448 -312.652130 -50.873116
v -1.817143 -311.975616 -50.995461
v -1.391423 -311.572723 -50.618759
v -1.691473 -310.618011 -50.789799
v 0.547612 -312.651215 -50.873104
v -0.760448 -312.652130 -50.873116
v -0.605690 -313.369507 -51.247959
v -1.691473 -310.618011 -50.789799
v -2.222502 -310.716522 -51.215630
v -1.817143 -311.975616 -50.995461
v -2.222502 -310.716522 -51.215630
v -1.691473 -310.618011 -50.789799
v -1.392257 -309.674744 -50.937038
v -1.817143 -311.975616 -50.995461
v -1.571333 -313.003845 -51.321228
v -0.760448 -312.652130 -50.873116
v -0.760448 -312.652130 -50.873116
v -1.571333 -313.003845 -51.321228
v -0.605690 -313.369507 -51.247959
v -1.392257 -309.674744 -50.937038
v -1.816785 -309.464325 -51.411465
v -2.222502 -310.716522 -51.215630
v -1.816785 -309.464325 -51.411465
v -1.392257 -309.674744 -50.937038
v -0.601327 -309.154510 -51.034466
v -2.222502 -310.716522 -51.215630
v -2.737224 -311.428497 -51.590637
v -1.817143 -311.975616 -50.995461
v -0.601327 -309.154510 -51.034466
v -0.757492 -308.730286 -51.534275
v -1.816785 -309.464325 -51.411465
v -0.757492 -308.730286 -51.534275
v -0.601327 -309.154510 -51.034466
v 0.388634 -309.149933 -51.034409
v -1.816785 -309.464325 -51.411465
v -2.741301 -310.071899 -51.811531
v -2.222502 -310.716522 -51.215630
v -2.222502 -310.716522 -51.215630
v -2.741301 -310.071899 -51.811531
v -2.737224 -311.428497 -51.590637
v 0.388634 -309.149933 -51.034409
v 0.550568 -308.673096 -51.534256
v -0.757492 -308.730286 -51.534275
v 0.550568 -308.673096 -51.534256
v 0.388634 -309.149933 -51.034409
v 1.176250 -309.681366 -50.937126
v -1.816785 -309.464325 -51.411465
v -0.757492 -308.730286 -51.534275
v -0.951779 -308.124420 -52.129421
v 1.176250 -309.681366 -50.937126
v 1.610816 -309.404236 -51.411419
v 0.550568 -308.673096 -51.534256
v 1.610816 -309.404236 -51.411419
v 1.176250 -309.681366 -50.937126
v 1.483834 -310.623840 -50.789867
v -0.757492 -308.730286 -51.534275
v 0.550568 -308.673096 -51.534256
v 0.424063 -308.091827 -52.247917
v 0.424063 -308.091827 -52.247917
v -0.951779 -308.124420 -52.129421
v -0.757492 -308.730286 -51.534275
v 1.610816 -309.404236 -51.411419
v 1.614702 -308.645996 -52.055428
v 0.550568 -308.673096 -51.534256
v 0.550568 -308.673096 -51.534256
v 1.614702 -308.645996 -52.055428
v 0.424063 -308.091827 -52.247917
v 1.483834 -310.623840 -50.789867
v 2.007449 -310.662628 -51.215660
v 1.610816 -309.404236 -51.411419
v 2.007449 -310.662628 -51.215660
v 1.483834 -310.623840 -50.789867
v 1.181042 -311.569122 -50.618713
v 1.181042 -311.569122 -50.618713
v 1.603329 -311.918732 -50.995457
v 2.007449 -310.662628 -51.215660
v 1.610816 -309.404236 -51.411419
v 2.427304 -309.791565 -51.883396
v 1.614702 -308.645996 -52.055428
v 2.007449 -310.662628 -51.215660
v 2.427304 -309.791565 -51.883396
v 1.610816 -309.404236 -51.411419
v 0.916469 -307.784515 -53.126171
v 0.424063 -308.091827 -52.247917
v 1.614702 -308.645996 -52.055428
v 1.603329 -311.918732 -50.995457
v 2.419412 -311.689545 -51.541412
v 2.007449 -310.662628 -51.215660
v 0.424063 -308.091827 -52.247917
v 0.916469 -307.784515 -53.126171
v -0.415814 -307.743774 -52.865856
v 0.424063 -308.091827 -52.247917
v -0.415814 -307.743774 -52.865856
v -0.951779 -308.124420 -52.129421
v 1.603329 -311.918732 -50.995457
v 1.621377 -312.838196 -51.369415
v 2.419412 -311.689545 -51.541412
v 0.547612 -312.651215 -50.873104
v 1.621377 -312.838196 -51.369415
v 1.603329 -311.918732 -50.995457
v 2.007449 -310.662628 -51.215660
v 2.419412 -311.689545 -51.541412
v 2.742827 -310.712280 -51.830837
v 2.007449 -310.662628 -51.215660
v 2.742827 -310.712280 -51.830837
v 2.427304 -309.791565 -51.883396
v 2.806032 -312.147095 -52.131493
v 2.419412 -311.689545 -51.541412
v 1.621377 -312.838196 -51.369415
v 2.742827 -310.712280 -51.830837
v 2.419412 -311.689545 -51.541412
v 2.806032 -312.147095 -52.131493
v 0.547612 -312.651215 -50.873104
v 0.778139 -313.431458 -51.389870
v 1.621377 -312.838196 -51.369415
v 2.806389 -309.635773 -52.547504
v 2.427304 -309.791565 -51.883396
v 2.742827 -310.712280 -51.830837
v 0.547612 -312.651215 -50.873104
v 0.072920 -313.366669 -51.247925
v 0.778139 -313.431458 -51.389870
v -0.605690 -313.369507 -51.247959
v 0.072920 -313.366669 -51.247925
v 0.547612 -312.651215 -50.873104
v 2.007139 -313.198090 -51.936016
v 1.621377 -312.838196 -51.369415
v 0.778139 -313.431458 -51.389870
v 1.621377 -312.838196 -51.369415
v 2.007139 -313.198090 -51.936016
v 2.806032 -312.147095 -52.131493
v 0.921309 -313.975128 -52.049885
v 0.778139 -313.431458 -51.389870
v 0.072920 -313.366669 -51.247925
v 0.778139 -313.431458 -51.389870
v 0.921309 -313.975128 -52.049885
v 2.007139 -313.198090 -51.936016
v -0.605690 -313.369507 -51.247959
v -0.418103 -313.937653 -51.789600
v 0.072920 -313.366669 -51.247925
v 0.072920 -313.366669 -51.247925
v -0.418103 -313.937653 -51.789600
v 0.921309 -313.975128 -52.049885
v -0.418103 -313.937653 -51.789600
v -0.605690 -313.369507 -51.247959
v -1.571333 -313.003845 -51.321228
v 1.750815 -314.220947 -53.114830
v 2.007139 -313.198090 -51.936016
v 0.921309 -313.975128 -52.049885
v 0.259387 -314.646759 -53.017685
v 0.921309 -313.975128 -52.049885
v -0.418103 -313.937653 -51.789600
v 0.921309 -313.975128 -52.049885
v 0.259387 -314.646759 -53.017685
v 1.750815 -314.220947 -53.114830
v -1.571333 -313.003845 -51.321228
v -1.714551 -313.578186 -51.862976
v -0.418103 -313.937653 -51.789600
v 0.259387 -314.646759 -53.017685
v 1.027334 -314.742218 -54.272408
v 1.750815 -314.220947 -53.114830
v 0.259387 -314.646759 -53.017685
v -0.459135 -314.862244 -54.176994
v 1.027334 -314.742218 -54.272408
v 1.750815 -314.220947 -53.114830
v 1.027334 -314.742218 -54.272408
v 2.324903 -313.920074 -54.324253
v -0.459135 -314.862244 -54.176994
v 0.259387 -314.646759 -53.017685
v -1.232016 -314.503571 -52.995132
v 0.259387 -314.646759 -53.017685
v -0.418103 -313.937653 -51.789600
v -1.232016 -314.503571 -52.995132
v -1.232016 -314.503571 -52.995132
v -0.418103 -313.937653 -51.789600
v -1.714551 -313.578186 -51.862976
v -0.459135 -314.862244 -54.176994
v -1.232016 -314.503571 -52.995132
v -1.957500 -314.404449 -54.251068
v 2.324903 -313.920074 -54.324253
v 2.853525 -313.181000 -53.238647
v 1.750815 -314.220947 -53.114830
v 2.853525 -313.181000 -53.238647
v 2.007139 -313.198090 -51.936016
v 1.750815 -314.220947 -53.114830
v 3.253043 -312.755341 -54.567341
v 2.853525 -313.181000 -53.238647
v 2.324903 -313.920074 -54.324253
v 2.853525 -313.181000 -53.238647
v 2.806032 -312.147095 -52.131493
v 2.007139 -313.198090 -51.936016
v 3.253043 -312.755341 -54.567341
v 3.476131 -311.809967 -53.506733
v 2.853525 -313.181000 -53.238647
v 3.476131 -311.809967 -53.506733
v 2.806032 -312.147095 -52.131493
v 2.853525 -313.181000 -53.238647
v 3.476131 -311.809967 -53.506733
v 3.253043 -312.755341 -54.567341
v 3.549540 -311.285736 -54.836140
v 3.476131 -311.809967 -53.506733
v 3.215349 -310.928467 -52.587769
v 2.806032 -312.147095 -52.131493
v 2.806032 -312.147095 -52.131493
v 3.215349 -310.928467 -52.587769
v 2.742827 -310.712280 -51.830837
v 2.742827 -310.712280 -51.830837
v 3.215349 -310.928467 -52.587769
v 2.806389 -309.635773 -52.547504
v 3.476131 -311.809967 -53.506733
v 3.549540 -311.285736 -54.836140
v 3.473938 -310.331909 -53.799339
v 3.215349 -310.928467 -52.587769
v 3.476131 -311.809967 -53.506733
v 3.473938 -310.331909 -53.799339
v 3.473938 -310.331909 -53.799339
v 2.806389 -309.635773 -52.547504
v 3.215349 -310.928467 -52.587769
v 3.473938 -310.331909 -53.799339
v 3.549540 -311.285736 -54.836140
v 3.257859 -309.830963 -55.033081
v 3.257859 -309.830963 -55.033081
v 2.852380 -308.981506 -53.972183
v 3.473938 -310.331909 -53.799339
v 2.852380 -308.981506 -53.972183
v 2.806389 -309.635773 -52.547504
v 3.473938 -310.331909 -53.799339
v 2.329743 -308.569336 -55.253464
v 2.852380 -308.981506 -53.972183
v 3.257859 -309.830963 -55.033081
v 2.852380 -308.981506 -53.972183
v 2.004445 -308.485413 -52.719475
v 2.806389 -309.635773 -52.547504
v 2.427304 -309.791565 -51.883396
v 2.806389 -309.635773 -52.547504
v 2.004445 -308.485413 -52.719475
v 2.004445 -308.485413 -52.719475
v 1.614702 -308.645996 -52.055428
v 2.427304 -309.791565 -51.883396
v 1.614702 -308.645996 -52.055428
v 2.004445 -308.485413 -52.719475
v 0.916469 -307.784515 -53.126171
v 2.329743 -308.569336 -55.253464
v 1.753843 -307.932983 -54.167431
v 2.852380 -308.981506 -53.972183
v 1.753843 -307.932983 -54.167431
v 2.004445 -308.485413 -52.719475
v 2.852380 -308.981506 -53.972183
v 1.753843 -307.932983 -54.167431
v 0.916469 -307.784515 -53.126171
v 2.004445 -308.485413 -52.719475
v 1.753843 -307.932983 -54.167431
v 2.329743 -308.569336 -55.253464
v 1.025188 -307.826752 -55.423271
v 0.916469 -307.784515 -53.126171
v 1.753843 -307.932983 -54.167431
v 0.249970 -307.502411 -54.264290
v 1.753843 -307.932983 -54.167431
v 1.025188 -307.826752 -55.423271
v 0.249970 -307.502411 -54.264290
v 0.249970 -307.502411 -54.264290
v -0.415814 -307.743774 -52.865856
v 0.916469 -307.784515 -53.126171
v 0.249970 -307.502411 -54.264290
v 1.025188 -307.826752 -55.423271
v -0.459492 -307.632874 -55.401051
v -0.459492 -307.632874 -55.401051
v -1.238453 -307.683746 -54.168957
v 0.249970 -307.502411 -54.264290
v -1.238453 -307.683746 -54.168957
v -0.415814 -307.743774 -52.865856
v 0.249970 -307.502411 -54.264290
v -1.961935 -308.205017 -55.326515
v -1.238453 -307.683746 -54.168957
v -0.459492 -307.632874 -55.401051
v -1.238453 -307.683746 -54.168957
v -1.712883 -308.220306 -52.792564
v -0.415814 -307.743774 -52.865856
v -0.951779 -308.124420 -52.129421
v -0.415814 -307.743774 -52.865856
v -1.712883 -308.220306 -52.792564
v -1.961935 -308.205017 -55.326515
v -2.534950 -308.402802 -54.117729
v -1.238453 -307.683746 -54.168957
v -2.534950 -308.402802 -54.117729
v -1.712883 -308.220306 -52.792564
v -1.238453 -307.683746 -54.168957
v -2.534950 -308.402802 -54.117729
v -1.961935 -308.205017 -55.326515
v -3.064263 -309.236267 -55.202583
v -0.951779 -308.124420 -52.129421
v -1.712883 -308.220306 -52.792564
v -2.127683 -308.901550 -52.078224
v -0.951779 -308.124420 -52.129421
v -2.127683 -308.901550 -52.078224
v -1.816785 -309.464325 -51.411465
v -1.816785 -309.464325 -51.411465
v -2.127683 -308.901550 -52.078224
v -2.741301 -310.071899 -51.811531
v -2.534950 -308.402802 -54.117729
v -2.789986 -308.997833 -52.906410
v -1.712883 -308.220306 -52.792564
v -2.127683 -308.901550 -52.078224
v -1.712883 -308.220306 -52.792564
v -2.789986 -308.997833 -52.906410
v -2.534950 -308.402802 -54.117729
v -3.064263 -309.236267 -55.202583
v -3.461802 -309.656464 -53.897488
v -2.789986 -308.997833 -52.906410
v -2.534950 -308.402802 -54.117729
v -3.461802 -309.656464 -53.897488
v -3.461802 -309.656464 -53.897488
v -3.064263 -309.236267 -55.202583
v -3.682935 -310.520355 -54.911438
v -2.127683 -308.901550 -52.078224
v -2.789986 -308.997833 -52.906410
v -3.206432 -310.219574 -52.449909
v -3.461802 -309.656464 -53.897488
v -3.206432 -310.219574 -52.449909
v -2.789986 -308.997833 -52.906410
v -3.206432 -310.219574 -52.449909
v -2.741301 -310.071899 -51.811531
v -2.127683 -308.901550 -52.078224
v -3.682935 -310.520355 -54.911438
v -3.765857 -311.138245 -53.605438
v -3.461802 -309.656464 -53.897488
v -3.765857 -311.138245 -53.605438
v -3.206432 -310.219574 -52.449909
v -3.461802 -309.656464 -53.897488
v -3.684700 -312.085083 -54.666088
v -3.765857 -311.138245 -53.605438
v -3.682935 -310.520355 -54.911438
v -2.741301 -310.071899 -51.811531
v -3.206432 -310.219574 -52.449909
v -3.209507 -311.579315 -52.229057
v -3.765857 -311.138245 -53.605438
v -3.209507 -311.579315 -52.229057
v -3.206432 -310.219574 -52.449909
v -3.209507 -311.579315 -52.229057
v -2.737224 -311.428497 -51.590637
v -2.741301 -310.071899 -51.811531
v -3.684700 -312.085083 -54.666088
v -3.456724 -312.593872 -53.407757
v -3.765857 -311.138245 -53.605438
v -3.456724 -312.593872 -53.407757
v -3.209507 -311.579315 -52.229057
v -3.765857 -311.138245 -53.605438
v -3.456724 -312.593872 -53.407757
v -3.684700 -312.085083 -54.666088
v -3.059947 -313.442902 -54.469372
v -2.737224 -311.428497 -51.590637
v -3.209507 -311.579315 -52.229057
v -2.786648 -312.874420 -52.269627
v -3.456724 -312.593872 -53.407757
v -2.786648 -312.874420 -52.269627
v -3.209507 -311.579315 -52.229057
v -3.456724 -312.593872 -53.407757
v -3.059947 -313.442902 -54.469372
v -2.538908 -313.851501 -53.188072
v -2.786648 -312.874420 -52.269627
v -3.456724 -312.593872 -53.407757
v -2.538908 -313.851501 -53.188072
v -2.538908 -313.851501 -53.188072
v -3.059947 -313.442902 -54.469372
v -1.957500 -314.404449 -54.251068
v -1.957500 -314.404449 -54.251068
v -1.232016 -314.503571 -52.995132
v -2.538908 -313.851501 -53.188072
v -1.232016 -314.503571 -52.995132
v -1.714551 -313.578186 -51.862976
v -2.538908 -313.851501 -53.188072
v -2.538908 -313.851501 -53.188072
v -1.714551 -313.578186 -51.862976
v -2.786648 -312.874420 -52.269627
v -2.786648 -312.874420 -52.269627
v -2.406585 -312.440430 -51.561432
v -2.737224 -311.428497 -51.590637
v -2.406585 -312.440430 -51.561432
v -2.786648 -312.874420 -52.269627
v -1.714551 -313.578186 -51.862976
v -1.817143 -311.975616 -50.995461
v -2.737224 -311.428497 -51.590637
v -2.406585 -312.440430 -51.561432
v -1.714551 -313.578186 -51.862976
v -1.571333 -313.003845 -51.321228
v -2.406585 -312.440430 -51.561432
v -1.817143 -311.975616 -50.995461
v -2.406585 -312.440430 -51.561432
v -1.571333 -313.003845 -51.321228
vt 0.827637 0.144043
vt 0.831543 0.107910
vt 0.843750 0.154297
vt 0.831543 0.107910
vt 0.827637 0.144043
vt 0.813477 0.118164
vt 0.831543 0.107910
vt 0.813477 0.118164
vt 0.812012 0.076660
vt 0.843750 0.154297
vt 0.828125 0.182617
vt 0.827637 0.144043
vt 0.843750 0.205078
vt 0.828125 0.182617
vt 0.843750 0.154297
vt 0.812500 0.158203
vt 0.813477 0.118164
vt 0.827637 0.144043
vt 0.812500 0.158203
vt 0.827637 0.144043
vt 0.828125 0.182617
vt 0.812012 0.076660
vt 0.813477 0.118164
vt 0.796875 0.099121
vt 0.812012 0.076660
vt 0.796875 0.099121
vt 0.788086 0.061523
vt 0.797852 0.137207
vt 0.813477 0.118164
vt 0.812500 0.158203
vt 0.797852 0.137207
vt 0.796875 0.099121
vt 0.813477 0.118164
vt 0.788086 0.061523
vt 0.796875 0.099121
vt 0.777832 0.088867
vt 0.777832 0.088867
vt 0.761719 0.069336
vt 0.788086 0.061523
vt 0.780762 0.121582
vt 0.796875 0.099121
vt 0.797852 0.137207
vt 0.780762 0.121582
vt 0.777832 0.088867
vt 0.796875 0.099121
vt 0.761719 0.069336
vt 0.777832 0.088867
vt 0.761719 0.107910
vt 0.780762 0.121582
vt 0.761719 0.107910
vt 0.777832 0.088867
vt 0.761719 0.069336
vt 0.761719 0.107910
vt 0.741211 0.097168
vt 0.782227 0.152832
vt 0.780762 0.121582
vt 0.797852 0.137207
vt 0.741211 0.097168
vt 0.761719 0.107910
vt 0.747559 0.133789
vt 0.741211 0.097168
vt 0.747559 0.133789
vt 0.727051 0.138672
vt 0.765625 0.144043
vt 0.761719 0.107910
vt 0.780762 0.121582
vt 0.765625 0.144043
vt 0.747559 0.133789
vt 0.761719 0.107910
vt 0.782227 0.152832
vt 0.765625 0.144043
vt 0.780762 0.121582
vt 0.727051 0.138672
vt 0.747559 0.133789
vt 0.736328 0.165527
vt 0.736328 0.165527
vt 0.722168 0.189453
vt 0.727051 0.138672
vt 0.752930 0.170898
vt 0.747559 0.133789
vt 0.765625 0.144043
vt 0.752930 0.170898
vt 0.736328 0.165527
vt 0.747559 0.133789
vt 0.722168 0.189453
vt 0.736328 0.165527
vt 0.739746 0.203125
vt 0.752930 0.170898
vt 0.739746 0.203125
vt 0.736328 0.165527
vt 0.722168 0.189453
vt 0.739746 0.203125
vt 0.729004 0.238281
vt 0.767578 0.177246
vt 0.752930 0.170898
vt 0.765625 0.144043
vt 0.767578 0.177246
vt 0.765625 0.144043
vt 0.782227 0.152832
vt 0.758301 0.206543
vt 0.739746 0.203125
vt 0.752930 0.170898
vt 0.767578 0.177246
vt 0.758301 0.206543
vt 0.752930 0.170898
vt 0.729004 0.238281
vt 0.739746 0.203125
vt 0.748047 0.237793
vt 0.758301 0.206543
vt 0.748047 0.237793
vt 0.739746 0.203125
vt 0.729004 0.238281
vt 0.748047 0.237793
vt 0.744141 0.278320
vt 0.775879 0.211914
vt 0.758301 0.206543
vt 0.767578 0.177246
vt 0.744141 0.278320
vt 0.748047 0.237793
vt 0.760254 0.268066
vt 0.760254 0.268066
vt 0.767090 0.302734
vt 0.744141 0.278320
vt 0.767578 0.239746
vt 0.748047 0.237793
vt 0.758301 0.206543
vt 0.767578 0.239746
vt 0.760254 0.268066
vt 0.748047 0.237793
vt 0.775879 0.211914
vt 0.767578 0.239746
vt 0.758301 0.206543
vt 0.767090 0.302734
vt 0.760254 0.268066
vt 0.779297 0.272949
vt 0.767578 0.239746
vt 0.779297 0.272949
vt 0.760254 0.268066
vt 0.767090 0.302734
vt 0.779297 0.272949
vt 0.791992 0.305664
vt 0.786133 0.239258
vt 0.779297 0.272949
vt 0.767578 0.239746
vt 0.775879 0.211914
vt 0.786133 0.239258
vt 0.767578 0.239746
vt 0.791992 0.305664
vt 0.779297 0.272949
vt 0.798340 0.269043
vt 0.786133 0.239258
vt 0.798340 0.269043
vt 0.779297 0.272949
vt 0.791992 0.305664
vt 0.798340 0.269043
vt 0.815918 0.288574
vt 0.794434 0.208496
vt 0.786133 0.239258
vt 0.775879 0.211914
vt 0.815918 0.288574
vt 0.798340 0.269043
vt 0.815918 0.255371
vt 0.815918 0.255371
vt 0.834961 0.252441
vt 0.815918 0.288574
vt 0.805176 0.231445
vt 0.798340 0.269043
vt 0.786133 0.239258
vt 0.805176 0.231445
vt 0.815918 0.255371
vt 0.798340 0.269043
vt 0.794434 0.208496
vt 0.805176 0.231445
vt 0.786133 0.239258
vt 0.834961 0.252441
vt 0.815918 0.255371
vt 0.824219 0.220703
vt 0.805176 0.231445
vt 0.824219 0.220703
vt 0.815918 0.255371
vt 0.834961 0.252441
vt 0.824219 0.220703
vt 0.843750 0.205078
vt 0.843750 0.205078
vt 0.824219 0.220703
vt 0.828125 0.182617
vt 0.810547 0.196289
vt 0.824219 0.220703
vt 0.805176 0.231445
vt 0.810547 0.196289
vt 0.828125 0.182617
vt 0.824219 0.220703
vt 0.794434 0.208496
vt 0.810547 0.196289
vt 0.805176 0.231445
vt 0.812500 0.158203
vt 0.828125 0.182617
vt 0.810547 0.196289
vt 0.798340 0.171875
vt 0.812500 0.158203
vt 0.810547 0.196289
vt 0.798340 0.171875
vt 0.810547 0.196289
vt 0.794434 0.208496
vt 0.798340 0.171875
vt 0.797852 0.137207
vt 0.812500 0.158203
vt 0.782227 0.152832
vt 0.797852 0.137207
vt 0.798340 0.171875
vt 0.783203 0.184570
vt 0.798340 0.171875
vt 0.794434 0.208496
vt 0.783203 0.184570
vt 0.782227 0.152832
vt 0.798340 0.171875
vt 0.783203 0.184570
vt 0.794434 0.208496
vt 0.775879 0.211914
vt 0.783203 0.184570
vt 0.767578 0.177246
vt 0.782227 0.152832
vt 0.783203 0.184570
vt 0.775879 0.211914
vt 0.767578 0.177246
vt 0.827637 0.144043
vt 0.831543 0.107910
vt 0.843750 0.154297
vt 0.831543 0.107910
vt 0.827637 0.144043
vt 0.813477 0.118164
vt 0.831543 0.107910
vt 0.813477 0.118164
vt 0.812012 0.076660
vt 0.843750 0.154297
vt 0.828125 0.182617
vt 0.827637 0.144043
vt 0.843750 0.205078
vt 0.828125 0.182617
vt 0.843750 0.154297
vt 0.812500 0.158203
vt 0.813477 0.118164
vt 0.827637 0.144043
vt 0.812500 0.158203
vt 0.827637 0.144043
vt 0.828125 0.182617
vt 0.812012 0.076660
vt 0.813477 0.118164
vt 0.796875 0.099121
vt 0.812012 0.076660
vt 0.796875 0.099121
vt 0.788086 0.061523
vt 0.797852 0.137207
vt 0.813477 0.118164
vt 0.812500 0.158203
vt 0.797852 0.137207
vt 0.796875 0.099121
vt 0.813477 0.118164
vt 0.788086 0.061523
vt 0.796875 0.099121
vt 0.777832 0.088867
vt 0.777832 0.088867
vt 0.761719 0.069336
vt 0.788086 0.061523
vt 0.780762 0.121582
vt 0.796875 0.099121
vt 0.797852 0.137207
vt 0.780762 0.121582
vt 0.777832 0.088867
vt 0.796875 0.099121
vt 0.761719 0.069336
vt 0.777832 0.088867
vt 0.761719 0.107910
vt 0.780762 0.121582
vt 0.761719 0.107910
vt 0.777832 0.088867
vt 0.761719 0.069336
vt 0.761719 0.107910
vt 0.741211 0.097168
vt 0.782227 0.152832
vt 0.780762 0.121582
vt 0.797852 0.137207
vt 0.741211 0.097168
vt 0.761719 0.107910
vt 0.747559 0.133789
vt 0.741211 0.097168
vt 0.747559 0.133789
vt 0.727051 0.138672
vt 0.765625 0.144043
vt 0.761719 0.107910
vt 0.780762 0.121582
vt 0.765625 0.144043
vt 0.747559 0.133789
vt 0.761719 0.107910
vt 0.782227 0.152832
vt 0.765625 0.144043
vt 0.780762 0.121582
vt 0.727051 0.138672
vt 0.747559 0.133789
vt 0.736328 0.165527
vt 0.736328 0.165527
vt 0.722168 0.189453
vt 0.727051 0.138672
vt 0.752930 0.170898
vt 0.747559 0.133789
vt 0.765625 0.144043
vt 0.752930 0.170898
vt 0.736328 0.165527
vt 0.747559 0.133789
vt 0.722168 0.189453
vt 0.736328 0.165527
vt 0.739746 0.203125
vt 0.752930 0.170898
vt 0.739746 0.203125
vt 0.736328 0.165527
vt 0.722168 0.189453
vt 0.739746 0.203125
vt 0.729004 0.238281
vt 0.767578 0.177246
vt 0.752930 0.170898
vt 0.765625 0.144043
vt 0.767578 0.177246
vt 0.765625 0.144043
vt 0.782227 0.152832
vt 0.758301 0.206543
vt 0.739746 0.203125
vt 0.752930 0.170898
vt 0.767578 0.177246
vt 0.758301 0.206543
vt 0.752930 0.170898
vt 0.729004 0.238281
vt 0.739746 0.203125
vt 0.748047 0.237793
vt 0.758301 0.206543
vt 0.748047 0.237793
vt 0.739746 0.203125
vt 0.729004 0.238281
vt 0.748047 0.237793
vt 0.744141 0.278320
vt 0.775879 0.211914
vt 0.758301 0.206543
vt 0.767578 0.177246
vt 0.744141 0.278320
vt 0.748047 0.237793
vt 0.760254 0.268066
vt 0.760254 0.268066
vt 0.767090 0.302734
vt 0.744141 0.278320
vt 0.767578 0.239746
vt 0.748047 0.237793
vt 0.758301 0.206543
vt 0.767578 0.239746
vt 0.760254 0.268066
vt 0.748047 0.237793
vt 0.775879 0.211914
vt 0.767578 0.239746
vt 0.758301 0.206543
vt 0.767090 0.302734
vt 0.760254 0.268066
vt 0.779297 0.272949
vt 0.767578 0.239746
vt 0.779297 0.272949
vt 0.760254 0.268066
vt 0.767090 0.302734
vt 0.779297 0.272949
vt 0.791992 0.305664
vt 0.786133 0.239258
vt 0.779297 0.272949
vt 0.767578 0.239746
vt 0.775879 0.211914
vt 0.786133 0.239258
vt 0.767578 0.239746
vt 0.791992 0.305664
vt 0.779297 0.272949
vt 0.798340 0.269043
vt 0.786133 0.239258
vt 0.798340 0.269043
vt 0.779297 0.272949
vt 0.791992 0.305664
vt 0.798340 0.269043
vt 0.815918 0.288574
vt 0.794434 0.208496
vt 0.786133 0.239258
vt 0.775879 0.211914
vt 0.815918 0.288574
vt 0.798340 0.269043
vt 0.815918 0.255371
vt 0.815918 0.255371
vt 0.834961 0.252441
vt 0.815918 0.288574
vt 0.805176 0.231445
vt 0.798340 0.269043
vt 0.786133 0.239258
vt 0.805176 0.231445
vt 0.815918 0.255371
vt 0.798340 0.269043
vt 0.794434 0.208496
vt 0.805176 0.231445
vt 0.786133 0.239258
vt 0.834961 0.252441
vt 0.815918 0.255371
vt 0.824219 0.220703
vt 0.805176 0.231445
vt 0.824219 0.220703
vt 0.815918 0.255371
vt 0.834961 0.252441
vt 0.824219 0.220703
vt 0.843750 0.205078
vt 0.843750 0.205078
vt 0.824219 0.220703
vt 0.828125 0.182617
vt 0.810547 0.196289
vt 0.824219 0.220703
vt 0.805176 0.231445
vt 0.810547 0.196289
vt 0.828125 0.182617
vt 0.824219 0.220703
vt 0.794434 0.208496
vt 0.810547 0.196289
vt 0.805176 0.231445
vt 0.812500 0.158203
vt 0.828125 0.182617
vt 0.810547 0.196289
vt 0.798340 0.171875
vt 0.812500 0.158203
vt 0.810547 0.196289
vt 0.798340 0.171875
vt 0.810547 0.196289
vt 0.794434 0.208496
vt 0.798340 0.171875
vt 0.797852 0.137207
vt 0.812500 0.158203
vt 0.782227 0.152832
vt 0.797852 0.137207
vt 0.798340 0.171875
vt 0.783203 0.184570
vt 0.798340 0.171875
vt 0.794434 0.208496
vt 0.783203 0.184570
vt 0.782227 0.152832
vt 0.798340 0.171875
vt 0.783203 0.184570
vt 0.794434 0.208496
vt 0.775879 0.211914
vt 0.783203 0.184570
vt 0.767578 0.177246
vt 0.782227 0.152832
vt 0.783203 0.184570
vt 0.775879 0.211914
vt 0.767578 0.177246
vt 0.932129 0.210449
vt 0.937500 0.198730
vt 0.941895 0.199707
vt 0.941895 0.199707
vt 0.935059 0.215332
vt 0.932129 0.210449
vt 0.923340 0.212402
vt 0.932129 0.210449
vt 0.935059 0.215332
vt 0.942383 0.179199
vt 0.941895 0.199707
vt 0.937500 0.198730
vt 0.937500 0.198730
vt 0.938965 0.182617
vt 0.942383 0.179199
vt 0.935059 0.215332
vt 0.924805 0.220215
vt 0.923340 0.212402
vt 0.916504 0.205078
vt 0.923340 0.212402
vt 0.924805 0.220215
vt 0.937500 0.161621
vt 0.942383 0.179199
vt 0.938965 0.182617
vt 0.938965 0.182617
vt 0.935547 0.168457
vt 0.937500 0.161621
vt 0.924805 0.220215
vt 0.914551 0.211914
vt 0.916504 0.205078
vt 0.913086 0.189941
vt 0.916504 0.205078
vt 0.914551 0.211914
vt 0.927246 0.154297
vt 0.937500 0.161621
vt 0.935547 0.168457
vt 0.935547 0.168457
vt 0.928711 0.161133
vt 0.927246 0.154297
vt 0.914551 0.211914
vt 0.909668 0.194336
vt 0.913086 0.189941
vt 0.914551 0.174316
vt 0.913086 0.189941
vt 0.909668 0.194336
vt 0.917969 0.158203
vt 0.927246 0.154297
vt 0.928711 0.161133
vt 0.928711 0.161133
vt 0.919922 0.163574
vt 0.917969 0.158203
vt 0.919922 0.163574
vt 0.914551 0.174316
vt 0.911133 0.173828
vt 0.911133 0.173828
vt 0.917969 0.158203
vt 0.919922 0.163574
vt 0.909668 0.194336
vt 0.911133 0.173828
vt 0.914551 0.174316
vt 0.926758 0.140625
vt 0.927246 0.154297
vt 0.917969 0.158203
vt 0.904297 0.171875
vt 0.911133 0.173828
vt 0.909668 0.194336
vt 0.913086 0.149902
vt 0.917969 0.158203
vt 0.911133 0.173828
vt 0.911133 0.173828
vt 0.904297 0.171875
vt 0.913086 0.149902
vt 0.917969 0.158203
vt 0.913086 0.149902
vt 0.926758 0.140625
vt 0.909668 0.194336
vt 0.904297 0.199707
vt 0.904297 0.171875
vt 0.904297 0.199707
vt 0.909668 0.194336
vt 0.914551 0.211914
vt 0.913086 0.149902
vt 0.904297 0.171875
vt 0.897461 0.160156
vt 0.914551 0.211914
vt 0.911621 0.223633
vt 0.904297 0.199707
vt 0.911621 0.223633
vt 0.914551 0.211914
vt 0.924805 0.220215
vt 0.904297 0.199707
vt 0.895020 0.183105
vt 0.904297 0.171875
vt 0.904297 0.171875
vt 0.895020 0.183105
vt 0.897461 0.160156
vt 0.924805 0.220215
vt 0.925293 0.232910
vt 0.911621 0.223633
vt 0.925293 0.232910
vt 0.924805 0.220215
vt 0.935059 0.215332
vt 0.911621 0.223633
vt 0.902344 0.227539
vt 0.904297 0.199707
vt 0.935059 0.215332
vt 0.939453 0.224609
vt 0.925293 0.232910
vt 0.939453 0.224609
vt 0.935059 0.215332
vt 0.941895 0.199707
vt 0.925293 0.232910
vt 0.914551 0.245117
vt 0.911621 0.223633
vt 0.911621 0.223633
vt 0.914551 0.245117
vt 0.902344 0.227539
vt 0.941895 0.199707
vt 0.947754 0.201660
vt 0.939453 0.224609
vt 0.947754 0.201660
vt 0.941895 0.199707
vt 0.942383 0.179199
vt 0.925293 0.232910
vt 0.939453 0.224609
vt 0.944336 0.234375
vt 0.942383 0.179199
vt 0.947754 0.172363
vt 0.947754 0.201660
vt 0.947754 0.172363
vt 0.942383 0.179199
vt 0.937500 0.161621
vt 0.939453 0.224609
vt 0.947754 0.201660
vt 0.954590 0.210449
vt 0.954590 0.210449
vt 0.944336 0.234375
vt 0.939453 0.224609
vt 0.947754 0.172363
vt 0.957520 0.180664
vt 0.947754 0.201660
vt 0.947754 0.201660
vt 0.957520 0.180664
vt 0.954590 0.210449
vt 0.937500 0.161621
vt 0.939453 0.149414
vt 0.947754 0.172363
vt 0.939453 0.149414
vt 0.937500 0.161621
vt 0.927246 0.154297
vt 0.927246 0.154297
vt 0.926758 0.140625
vt 0.939453 0.149414
vt 0.947754 0.172363
vt 0.951660 0.151367
vt 0.957520 0.180664
vt 0.939453 0.149414
vt 0.951660 0.151367
vt 0.947754 0.172363
vt 0.965332 0.208496
vt 0.954590 0.210449
vt 0.957520 0.180664
vt 0.926758 0.140625
vt 0.933594 0.125488
vt 0.939453 0.149414
vt 0.954590 0.210449
vt 0.965332 0.208496
vt 0.955078 0.234375
vt 0.954590 0.210449
vt 0.955078 0.234375
vt 0.944336 0.234375
vt 0.926758 0.140625
vt 0.917969 0.126953
vt 0.933594 0.125488
vt 0.913086 0.149902
vt 0.917969 0.126953
vt 0.926758 0.140625
vt 0.939453 0.149414
vt 0.933594 0.125488
vt 0.945312 0.131836
vt 0.939453 0.149414
vt 0.945312 0.131836
vt 0.951660 0.151367
vt 0.932129 0.112793
vt 0.933594 0.125488
vt 0.917969 0.126953
vt 0.945312 0.131836
vt 0.933594 0.125488
vt 0.932129 0.112793
vt 0.913086 0.149902
vt 0.906250 0.134277
vt 0.917969 0.126953
vt 0.958008 0.145996
vt 0.951660 0.151367
vt 0.945312 0.131836
vt 0.913086 0.149902
vt 0.902344 0.147949
vt 0.906250 0.134277
vt 0.897461 0.160156
vt 0.902344 0.147949
vt 0.913086 0.149902
vt 0.916504 0.114258
vt 0.917969 0.126953
vt 0.906250 0.134277
vt 0.917969 0.126953
vt 0.916504 0.114258
vt 0.932129 0.112793
vt 0.900391 0.122070
vt 0.906250 0.134277
vt 0.902344 0.147949
vt 0.906250 0.134277
vt 0.900391 0.122070
vt 0.916504 0.114258
vt 0.897461 0.160156
vt 0.892090 0.149902
vt 0.902344 0.147949
vt 0.902344 0.147949
vt 0.892090 0.149902
vt 0.900391 0.122070
vt 0.892090 0.149902
vt 0.897461 0.160156
vt 0.895020 0.183105
vt 0.901367 0.091797
vt 0.916504 0.114258
vt 0.900391 0.122070
vt 0.883789 0.119629
vt 0.900391 0.122070
vt 0.892090 0.149902
vt 0.900391 0.122070
vt 0.883789 0.119629
vt 0.901367 0.091797
vt 0.895020 0.183105
vt 0.888672 0.181152
vt 0.892090 0.149902
vt 0.883789 0.119629
vt 0.881836 0.085449
vt 0.901367 0.091797
vt 0.883789 0.119629
vt 0.865723 0.129883
vt 0.881836 0.085449
vt 0.901367 0.091797
vt 0.881836 0.085449
vt 0.906250 0.060547
vt 0.865723 0.129883
vt 0.883789 0.119629
vt 0.875000 0.158691
vt 0.883789 0.119629
vt 0.892090 0.149902
vt 0.875000 0.158691
vt 0.875000 0.158691
vt 0.892090 0.149902
vt 0.888672 0.181152
vt 0.865723 0.129883
vt 0.875000 0.158691
vt 0.859375 0.184570
vt 0.906250 0.060547
vt 0.923340 0.080566
vt 0.901367 0.091797
vt 0.923340 0.080566
vt 0.916504 0.114258
vt 0.901367 0.091797
vt 0.934082 0.054199
vt 0.923340 0.080566
vt 0.906250 0.060547
vt 0.923340 0.080566
vt 0.932129 0.112793
vt 0.916504 0.114258
vt 0.934082 0.054199
vt 0.944336 0.086914
vt 0.923340 0.080566
vt 0.944336 0.086914
vt 0.932129 0.112793
vt 0.923340 0.080566
vt 0.944336 0.086914
vt 0.934082 0.054199
vt 0.959961 0.071289
vt 0.944336 0.086914
vt 0.948242 0.118164
vt 0.932129 0.112793
vt 0.932129 0.112793
vt 0.948242 0.118164
vt 0.945312 0.131836
vt 0.945312 0.131836
vt 0.948242 0.118164
vt 0.958008 0.145996
vt 0.944336 0.086914
vt 0.959961 0.071289
vt 0.963379 0.111328
vt 0.948242 0.118164
vt 0.944336 0.086914
vt 0.963379 0.111328
vt 0.963379 0.111328
vt 0.958008 0.145996
vt 0.948242 0.118164
vt 0.963379 0.111328
vt 0.959961 0.071289
vt 0.979492 0.109375
vt 0.979492 0.109375
vt 0.975586 0.147949
vt 0.963379 0.111328
vt 0.975586 0.147949
vt 0.958008 0.145996
vt 0.963379 0.111328
vt 0.991211 0.161621
vt 0.975586 0.147949
vt 0.979492 0.109375
vt 0.975586 0.147949
vt 0.963379 0.175293
vt 0.958008 0.145996
vt 0.951660 0.151367
vt 0.958008 0.145996
vt 0.963379 0.175293
vt 0.963379 0.175293
vt 0.957520 0.180664
vt 0.951660 0.151367
vt 0.957520 0.180664
vt 0.963379 0.175293
vt 0.965332 0.208496
vt 0.991211 0.161621
vt 0.979004 0.190918
vt 0.975586 0.147949
vt 0.979004 0.190918
vt 0.963379 0.175293
vt 0.975586 0.147949
vt 0.979004 0.190918
vt 0.965332 0.208496
vt 0.963379 0.175293
vt 0.979004 0.190918
vt 0.991211 0.161621
vt 0.991211 0.215820
vt 0.965332 0.208496
vt 0.979004 0.190918
vt 0.973633 0.234863
vt 0.979004 0.190918
vt 0.991211 0.215820
vt 0.973633 0.234863
vt 0.973633 0.234863
vt 0.955078 0.234375
vt 0.965332 0.208496
vt 0.973633 0.234863
vt 0.991211 0.215820
vt 0.979004 0.265625
vt 0.979004 0.265625
vt 0.959473 0.269043
vt 0.973633 0.234863
vt 0.959473 0.269043
vt 0.955078 0.234375
vt 0.973633 0.234863
vt 0.958008 0.302734
vt 0.959473 0.269043
vt 0.979004 0.265625
vt 0.959473 0.269043
vt 0.942383 0.254883
vt 0.955078 0.234375
vt 0.944336 0.234375
vt 0.955078 0.234375
vt 0.942383 0.254883
vt 0.958008 0.302734
vt 0.940430 0.289551
vt 0.959473 0.269043
vt 0.940430 0.289551
vt 0.942383 0.254883
vt 0.959473 0.269043
vt 0.940430 0.289551
vt 0.958008 0.302734
vt 0.932129 0.319824
vt 0.944336 0.234375
vt 0.942383 0.254883
vt 0.930176 0.248535
vt 0.944336 0.234375
vt 0.930176 0.248535
vt 0.925293 0.232910
vt 0.925293 0.232910
vt 0.930176 0.248535
vt 0.914551 0.245117
vt 0.940430 0.289551
vt 0.927246 0.268066
vt 0.942383 0.254883
vt 0.930176 0.248535
vt 0.942383 0.254883
vt 0.927246 0.268066
vt 0.940430 0.289551
vt 0.932129 0.319824
vt 0.916992 0.291992
vt 0.927246 0.268066
vt 0.940430 0.289551
vt 0.916992 0.291992
vt 0.916992 0.291992
vt 0.932129 0.319824
vt 0.904785 0.311523
vt 0.930176 0.248535
vt 0.927246 0.268066
vt 0.912598 0.255859
vt 0.916992 0.291992
vt 0.912598 0.255859
vt 0.927246 0.268066
vt 0.912598 0.255859
vt 0.914551 0.245117
vt 0.930176 0.248535
vt 0.904785 0.311523
vt 0.897461 0.274902
vt 0.916992 0.291992
vt 0.897461 0.274902
vt 0.912598 0.255859
vt 0.916992 0.291992
vt 0.879883 0.283203
vt 0.897461 0.274902
vt 0.904785 0.311523
vt 0.914551 0.245117
vt 0.912598 0.255859
vt 0.898926 0.238281
vt 0.897461 0.274902
vt 0.898926 0.238281
vt 0.912598 0.255859
vt 0.898926 0.238281
vt 0.902344 0.227539
vt 0.914551 0.245117
vt 0.879883 0.283203
vt 0.881348 0.245117
vt 0.897461 0.274902
vt 0.881348 0.245117
vt 0.898926 0.238281
vt 0.897461 0.274902
vt 0.881348 0.245117
vt 0.879883 0.283203
vt 0.864258 0.239258
vt 0.902344 0.227539
vt 0.898926 0.238281
vt 0.887207 0.214355
vt 0.881348 0.245117
vt 0.887207 0.214355
vt 0.898926 0.238281
vt 0.881348 0.245117
vt 0.864258 0.239258
vt 0.873047 0.202148
vt 0.887207 0.214355
vt 0.881348 0.245117
vt 0.873047 0.202148
vt 0.873047 0.202148
vt 0.864258 0.239258
vt 0.859375 0.184570
vt 0.859375 0.184570
vt 0.875000 0.158691
vt 0.873047 0.202148
vt 0.875000 0.158691
vt 0.888672 0.181152
vt 0.873047 0.202148
vt 0.873047 0.202148
vt 0.888672 0.181152
vt 0.887207 0.214355
vt 0.887207 0.214355
vt 0.895020 0.208496
vt 0.902344 0.227539
vt 0.895020 0.208496
vt 0.887207 0.214355
vt 0.888672 0.181152
vt 0.904297 0.199707
vt 0.902344 0.227539
vt 0.895020 0.208496
vt 0.888672 0.181152
vt 0.895020 0.183105
vt 0.895020 0.208496
vt 0.904297 0.199707
vt 0.895020 0.208496
vt 0.895020 0.183105
vt 0.932129 0.210449
vt 0.937500 0.198730
vt 0.941895 0.199707
vt 0.941895 0.199707
vt 0.935059 0.215332
vt 0.932129 0.210449
vt 0.923340 0.212402
vt 0.932129 0.210449
vt 0.935059 0.215332
vt 0.942383 0.179199
vt 0.941895 0.199707
vt 0.937500 0.198730
vt 0.937500 0.198730
vt 0.938965 0.182617
vt 0.942383 0.179199
vt 0.935059 0.215332
vt 0.924805 0.220215
vt 0.923340 0.212402
vt 0.916504 0.205078
vt 0.923340 0.212402
vt 0.924805 0.220215
vt 0.937500 0.161621
vt 0.942383 0.179199
vt 0.938965 0.182617
vt 0.938965 0.182617
vt 0.935547 0.168457
vt 0.937500 0.161621
vt 0.924805 0.220215
vt 0.914551 0.211914
vt 0.916504 0.205078
vt 0.913086 0.189941
vt 0.916504 0.205078
vt 0.914551 0.211914
vt 0.927246 0.154297
vt 0.937500 0.161621
vt 0.935547 0.168457
vt 0.935547 0.168457
vt 0.928711 0.161133
vt 0.927246 0.154297
vt 0.914551 0.211914
vt 0.909668 0.194336
vt 0.913086 0.189941
vt 0.914551 0.174316
vt 0.913086 0.189941
vt 0.909668 0.194336
vt 0.917969 0.158203
vt 0.927246 0.154297
vt 0.928711 0.161133
vt 0.928711 0.161133
vt 0.919922 0.163574
vt 0.917969 0.158203
vt 0.919922 0.163574
vt 0.914551 0.174316
vt 0.911133 0.173828
vt 0.911133 0.173828
vt 0.917969 0.158203
vt 0.919922 0.163574
vt 0.909668 0.194336
vt 0.911133 0.173828
vt 0.914551 0.174316
vt 0.926758 0.140625
vt 0.927246 0.154297
vt 0.917969 0.158203
vt 0.904297 0.171875
vt 0.911133 0.173828
vt 0.909668 0.194336
vt 0.913086 0.149902
vt 0.917969 0.158203
vt 0.911133 0.173828
vt 0.911133 0.173828
vt 0.904297 0.171875
vt 0.913086 0.149902
vt 0.917969 0.158203
vt 0.913086 0.149902
vt 0.926758 0.140625
vt 0.909668 0.194336
vt 0.904297 0.199707
vt 0.904297 0.171875
vt 0.904297 0.199707
vt 0.909668 0.194336
vt 0.914551 0.211914
vt 0.913086 0.149902
vt 0.904297 0.171875
vt 0.897461 0.160156
vt 0.914551 0.211914
vt 0.911621 0.223633
vt 0.904297 0.199707
vt 0.911621 0.223633
vt 0.914551 0.211914
vt 0.924805 0.220215
vt 0.904297 0.199707
vt 0.895020 0.183105
vt 0.904297 0.171875
vt 0.904297 0.171875
vt 0.895020 0.183105
vt 0.897461 0.160156
vt 0.924805 0.220215
vt 0.925293 0.232910
vt 0.911621 0.223633
vt 0.925293 0.232910
vt 0.924805 0.220215
vt 0.935059 0.215332
vt 0.911621 0.223633
vt 0.902344 0.227539
vt 0.904297 0.199707
vt 0.935059 0.215332
vt 0.939453 0.224609
vt 0.925293 0.232910
vt 0.939453 0.224609
vt 0.935059 0.215332
vt 0.941895 0.199707
vt 0.925293 0.232910
vt 0.914551 0.245117
vt 0.911621 0.223633
vt 0.911621 0.223633
vt 0.914551 0.245117
vt 0.902344 0.227539
vt 0.941895 0.199707
vt 0.947754 0.201660
vt 0.939453 0.224609
vt 0.947754 0.201660
vt 0.941895 0.199707
vt 0.942383 0.179199
vt 0.925293 0.232910
vt 0.939453 0.224609
vt 0.944336 0.234375
vt 0.942383 0.179199
vt 0.947754 0.172363
vt 0.947754 0.201660
vt 0.947754 0.172363
vt 0.942383 0.179199
vt 0.937500 0.161621
vt 0.939453 0.224609
vt 0.947754 0.201660
vt 0.954590 0.210449
vt 0.954590 0.210449
vt 0.944336 0.234375
vt 0.939453 0.224609
vt 0.947754 0.172363
vt 0.957520 0.180664
vt 0.947754 0.201660
vt 0.947754 0.201660
vt 0.957520 0.180664
vt 0.954590 0.210449
vt 0.937500 0.161621
vt 0.939453 0.149414
vt 0.947754 0.172363
vt 0.939453 0.149414
vt 0.937500 0.161621
vt 0.927246 0.154297
vt 0.927246 0.154297
vt 0.926758 0.140625
vt 0.939453 0.149414
vt 0.947754 0.172363
vt 0.951660 0.151367
vt 0.957520 0.180664
vt 0.939453 0.149414
vt 0.951660 0.151367
vt 0.947754 0.172363
vt 0.965332 0.208496
vt 0.954590 0.210449
vt 0.957520 0.180664
vt 0.926758 0.140625
vt 0.933594 0.125488
vt 0.939453 0.149414
vt 0.954590 0.210449
vt 0.965332 0.208496
vt 0.955078 0.234375
vt 0.954590 0.210449
vt 0.955078 0.234375
vt 0.944336 0.234375
vt 0.926758 0.140625
vt 0.917969 0.126953
vt 0.933594 0.125488
vt 0.913086 0.149902
vt 0.917969 0.126953
vt 0.926758 0.140625
vt 0.939453 0.149414
vt 0.933594 0.125488
vt 0.945312 0.131836
vt 0.939453 0.149414
vt 0.945312 0.131836
vt 0.951660 0.151367
vt 0.932129 0.112793
vt 0.933594 0.125488
vt 0.917969 0.126953
vt 0.945312 0.131836
vt 0.933594 0.125488
vt 0.932129 0.112793
vt 0.913086 0.149902
vt 0.906250 0.134277
vt 0.917969 0.126953
vt 0.958008 0.145996
vt 0.951660 0.151367
vt 0.945312 0.131836
vt 0.913086 0.149902
vt 0.902344 0.147949
vt 0.906250 0.134277
vt 0.897461 0.160156
vt 0.902344 0.147949
vt 0.913086 0.149902
vt 0.916504 0.114258
vt 0.917969 0.126953
vt 0.906250 0.134277
vt 0.917969 0.126953
vt 0.916504 0.114258
vt 0.932129 0.112793
vt 0.900391 0.122070
vt 0.906250 0.134277
vt 0.902344 0.147949
vt 0.906250 0.134277
vt 0.900391 0.122070
vt 0.916504 0.114258
vt 0.897461 0.160156
vt 0.892090 0.149902
vt 0.902344 0.147949
vt 0.902344 0.147949
vt 0.892090 0.149902
vt 0.900391 0.122070
vt 0.892090 0.149902
vt 0.897461 0.160156
vt 0.895020 0.183105
vt 0.901367 0.091797
vt 0.916504 0.114258
vt 0.900391 0.122070
vt 0.883789 0.119629
vt 0.900391 0.122070
vt 0.892090 0.149902
vt 0.900391 0.122070
vt 0.883789 0.119629
vt 0.901367 0.091797
vt 0.895020 0.183105
vt 0.888672 0.181152
vt 0.892090 0.149902
vt 0.883789 0.119629
vt 0.881836 0.085449
vt 0.901367 0.091797
vt 0.883789 0.119629
vt 0.865723 0.129883
vt 0.881836 0.085449
vt 0.901367 0.091797
vt 0.881836 0.085449
vt 0.906250 0.060547
vt 0.865723 0.129883
vt 0.883789 0.119629
vt 0.875000 0.158691
vt 0.883789 0.119629
vt 0.892090 0.149902
vt 0.875000 0.158691
vt 0.875000 0.158691
vt 0.892090 0.149902
vt 0.888672 0.181152
vt 0.865723 0.129883
vt 0.875000 0.158691
vt 0.859375 0.184570
vt 0.906250 0.060547
vt 0.923340 0.080566
vt 0.901367 0.091797
vt 0.923340 0.080566
vt 0.916504 0.114258
vt 0.901367 0.091797
vt 0.934082 0.054199
vt 0.923340 0.080566
vt 0.906250 0.060547
vt 0.923340 0.080566
vt 0.932129 0.112793
vt 0.916504 0.114258
vt 0.934082 0.054199
vt 0.944336 0.086914
vt 0.923340 0.080566
vt 0.944336 0.086914
vt 0.932129 0.112793
vt 0.923340 0.080566
vt 0.944336 0.086914
vt 0.934082 0.054199
vt 0.959961 0.071289
vt 0.944336 0.086914
vt 0.948242 0.118164
vt 0.932129 0.112793
vt 0.932129 0.112793
vt 0.948242 0.118164
vt 0.945312 0.131836
vt 0.945312 0.131836
vt 0.948242 0.118164
vt 0.958008 0.145996
vt 0.944336 0.086914
vt 0.959961 0.071289
vt 0.963379 0.111328
vt 0.948242 0.118164
vt 0.944336 0.086914
vt 0.963379 0.111328
vt 0.963379 0.111328
vt 0.958008 0.145996
vt 0.948242 0.118164
vt 0.963379 0.111328
vt 0.959961 0.071289
vt 0.979492 0.109375
vt 0.979492 0.109375
vt 0.975586 0.147949
vt 0.963379 0.111328
vt 0.975586 0.147949
vt 0.958008 0.145996
vt 0.963379 0.111328
vt 0.991211 0.161621
vt 0.975586 0.147949
vt 0.979492 0.109375
vt 0.975586 0.147949
vt 0.963379 0.175293
vt 0.958008 0.145996
vt 0.951660 0.151367
vt 0.958008 0.145996
vt 0.963379 0.175293
vt 0.963379 0.175293
vt 0.957520 0.180664
vt 0.951660 0.151367
vt 0.957520 0.180664
vt 0.963379 0.175293
vt 0.965332 0.208496
vt 0.991211 0.161621
vt 0.979004 0.190918
vt 0.975586 0.147949
vt 0.979004 0.190918
vt 0.963379 0.175293
vt 0.975586 0.147949
vt 0.979004 0.190918
vt 0.965332 0.208496
vt 0.963379 0.175293
vt 0.979004 0.190918
vt 0.991211 0.161621
vt 0.991211 0.215820
vt 0.965332 0.208496
vt 0.979004 0.190918
vt 0.973633 0.234863
vt 0.979004 0.190918
vt 0.991211 0.215820
vt 0.973633 0.234863
vt 0.973633 0.234863
vt 0.955078 0.234375
vt 0.965332 0.208496
vt 0.973633 0.234863
vt 0.991211 0.215820
vt 0.979004 0.265625
vt 0.979004 0.265625
vt 0.959473 0.269043
vt 0.973633 0.234863
vt 0.959473 0.269043
vt 0.955078 0.234375
vt 0.973633 0.234863
vt 0.958008 0.302734
vt 0.959473 0.269043
vt 0.979004 0.265625
vt 0.959473 0.269043
vt 0.942383 0.254883
vt 0.955078 0.234375
vt 0.944336 0.234375
vt 0.955078 0.234375
vt 0.942383 0.254883
vt 0.958008 0.302734
vt 0.940430 0.289551
vt 0.959473 0.269043
vt 0.940430 0.289551
vt 0.942383 0.254883
vt 0.959473 0.269043
vt 0.940430 0.289551
vt 0.958008 0.302734
vt 0.932129 0.319824
vt 0.944336 0.234375
vt 0.942383 0.254883
vt 0.930176 0.248535
vt 0.944336 0.234375
vt 0.930176 0.248535
vt 0.925293 0.232910
vt 0.925293 0.232910
vt 0.930176 0.248535
vt 0.914551 0.245117
vt 0.940430 0.289551
vt 0.927246 0.268066
vt 0.942383 0.254883
vt 0.930176 0.248535
vt 0.942383 0.254883
vt 0.927246 0.268066
vt 0.940430 0.289551
vt 0.932129 0.319824
vt 0.916992 0.291992
vt 0.927246 0.268066
vt 0.940430 0.289551
vt 0.916992 0.291992
vt 0.916992 0.291992
vt 0.932129 0.319824
vt 0.904785 0.311523
vt 0.930176 0.248535
vt 0.927246 0.268066
vt 0.912598 0.255859
vt 0.916992 0.291992
vt 0.912598 0.255859
vt 0.927246 0.268066
vt 0.912598 0.255859
vt 0.914551 0.245117
vt 0.930176 0.248535
vt 0.904785 0.311523
vt 0.897461 0.274902
vt 0.916992 0.291992
vt 0.897461 0.274902
vt 0.912598 0.255859
vt 0.916992 0.291992
vt 0.879883 0.283203
vt 0.897461 0.274902
vt 0.904785 0.311523
vt 0.914551 0.245117
vt 0.912598 0.255859
vt 0.898926 0.238281
vt 0.897461 0.274902
vt 0.898926 0.238281
vt 0.912598 0.255859
vt 0.898926 0.238281
vt 0.902344 0.227539
vt 0.914551 0.245117
vt 0.879883 0.283203
vt 0.881348 0.245117
vt 0.897461 0.274902
vt 0.881348 0.245117
vt 0.898926 0.238281
vt 0.897461 0.274902
vt 0.881348 0.245117
vt 0.879883 0.283203
vt 0.864258 0.239258
vt 0.902344 0.227539
vt 0.898926 0.238281
vt 0.887207 0.214355
vt 0.881348 0.245117
vt 0.887207 0.214355
vt 0.898926 0.238281
vt 0.881348 0.245117
vt 0.864258 0.239258
vt 0.873047 0.202148
vt 0.887207 0.214355
vt 0.881348 0.245117
vt 0.873047 0.202148
vt 0.873047 0.202148
vt 0.864258 0.239258
vt 0.859375 0.184570
vt 0.859375 0.184570
vt 0.875000 0.158691
vt 0.873047 0.202148
vt 0.875000 0.158691
vt 0.888672 0.181152
vt 0.873047 0.202148
vt 0.873047 0.202148
vt 0.888672 0.181152
vt 0.887207 0.214355
vt 0.887207 0.214355
vt 0.895020 0.208496
vt 0.902344 0.227539
vt 0.895020 0.208496
vt 0.887207 0.214355
vt 0.888672 0.181152
vt 0.904297 0.199707
vt 0.902344 0.227539
vt 0.895020 0.208496
vt 0.888672 0.181152
vt 0.895020 0.183105
vt 0.895020 0.208496
vt 0.904297 0.199707
vt 0.895020 0.208496
vt 0.895020 0.183105
f 1/1/1 2/2/2 3/3/3
f 4/4/4 5/5/5 6/6/6
f 7/7/7 8/8/8 9/9/9
f 10/10/10 11/11/11 12/12/12
f 13/13/13 14/14/14 15/15/15
f 16/16/16 17/17/17 18/18/18
f 19/19/19 20/20/20 21/21/21
f 22/22/22 23/23/23 24/24/24
f 25/25/25 26/26/26 27/27/27
f 28/28/28 29/29/29 30/30/30
f 31/31/31 32/32/32 33/33/33
f 34/34/34 35/35/35 36/36/36
f 37/37/37 38/38/38 39/39/39
f 40/40/40 41/41/41 42/42/42
f 43/43/43 44/44/44 45/45/45
f 46/46/46 47/47/47 48/48/48
f 49/49/49 50/50/50 51/51/51
f 52/52/52 53/53/53 54/54/54
f 55/55/55 56/56/56 57/57/57
f 58/58/58 59/59/59 60/60/60
f 61/61/61 62/62/62 63/63/63
f 64/64/64 65/65/65 66/66/66
f 67/67/67 68/68/68 69/69/69
f 70/70/70 71/71/71 72/72/72
f 73/73/73 74/74/74 75/75/75
f 76/76/76 77/77/77 78/78/78
f 79/79/79 80/80/80 81/81/81
f 82/82/82 83/83/83 84/84/84
f 85/85/85 86/86/86 87/87/87
f 88/88/88 89/89/89 90/90/90
f 91/91/91 92/92/92 93/93/93
f 94/94/94 95/95/95 96/96/96
f 97/97/97 98/98/98 99/99/99
f 100/100/100 101/101/101 102/102/102
f 103/103/103 104/104/104 105/105/105
f 106/106/106 107/107/107 108/108/108
f 109/109/109 110/110/110 111/111/111
f 112/112/112 113/113/113 114/114/114
f 115/115/115 116/116/116 117/117/117
f 118/118/118 119/119/119 120/120/120
f 121/121/121 122/122/122 123/123/123
f 124/124/124 125/125/125 126/126/126
f 127/127/127 128/128/128 129/129/129
f 130/130/130 131/131/131 132/132/132
f 133/133/133 134/134/134 135/135/135
f 136/136/136 137/137/137 138/138/138
f 139/139/139 140/140/140 141/141/141
f 142/142/142 143/143/143 144/144/144
f 145/145/145 146/146/146 147/147/147
f 148/148/148 149/149/149 150/150/150
f 151/151/151 152/152/152 153/153/153
f 154/154/154 155/155/155 156/156/156
f 157/157/157 158/158/158 159/159/159
f 160/160/160 161/161/161 162/162/162
f 163/163/163 164/164/164 165/165/165
f 166/166/166 167/167/167 168/168/168
f 169/169/169 170/170/170 171/171/171
f 172/172/172 173/173/173 174/174/174
f 175/175/175 176/176/176 177/177/177
f 178/178/178 179/179/179 180/180/180
f 181/181/181 182/182/182 183/183/183
f 184/184/184 185/185/185 186/186/186
f 187/187/187 188/188/188 189/189/189
f 190/190/190 191/191/191 192/192/192
f 193/193/193 194/194/194 195/195/195
f 196/196/196 197/197/197 198/198/198
f 199/199/199 200/200/200 201/201/201
f 202/202/202 203/203/203 204/204/204
f 205/205/205 206/206/206 207/207/207
f 208/208/208 209/209/209 210/210/210
f 211/211/211 212/212/212 213/213/213
f 214/214/214 215/215/215 216/216/216
f 217/217/217 218/218/218 219/219/219
f 220/220/220 221/221/221 222/222/222
f 223/223/223 224/224/224 225/225/225
f 226/226/226 227/227/227 228/228/228
f 229/229/229 230/230/230 231/231/231
f 232/232/232 233/233/233 234/234/234
f 235/235/235 236/236/236 237/237/237
f 238/238/238 239/239/239 240/240/240
f 241/241/241 242/242/242 243/243/243
f 244/244/244 245/245/245 246/246/246
f 247/247/247 248/248/248 249/249/249
f 250/250/250 251/251/251 252/252/252
f 253/253/253 254/254/254 255/255/255
f 256/256/256 257/257/257 258/258/258
f 259/259/259 260/260/260 261/261/261
f 262/262/262 263/263/263 264/264/264
f 265/265/265 266/266/266 267/267/267
f 268/268/268 269/269/269 270/270/270
f 271/271/271 272/272/272 273/273/273
f 274/274/274 275/275/275 276/276/276
f 277/277/277 278/278/278 279/279/279
f 280/280/280 281/281/281 282/282/282
f 283/283/283 284/284/284 285/285/285
f 286/286/286 287/287/287 288/288/288
f 289/289/289 290/290/290 291/291/291
f 292/292/292 293/293/293 294/294/294
f 295/295/295 296/296/296 297/297/297
f 298/298/298 299/299/299 300/300/300
f 301/301/301 302/302/302 303/303/303
f 304/304/304 305/305/305 306/306/306
f 307/307/307 308/308/308 309/309/309
f 310/310/310 311/311/311 312/312/312
f 313/313/313 314/314/314 315/315/315
f 316/316/316 317/317/317 318/318/318
f 319/319/319 320/320/320 321/321/321
f 322/322/322 323/323/323 324/324/324
f 325/325/325 326/326/326 327/327/327
f 328/328/328 329/329/329 330/330/330
f 331/331/331 332/332/332 333/333/333
f 334/334/334 335/335/335 336/336/336
f 337/337/337 338/338/338 339/339/339
f 340/340/340 341/341/341 342/342/342
f 343/343/343 344/344/344 345/345/345
f 346/346/346 347/347/347 348/348/348
f 349/349/349 350/350/350 351/351/351
f 352/352/352 353/353/353 354/354/354
f 355/355/355 356/356/356 357/357/357
f 358/358/358 359/359/359 360/360/360
f 361/361/361 362/362/362 363/363/363
f 364/364/364 365/365/365 366/366/366
f 367/367/367 368/368/368 369/369/369
f 370/370/370 371/371/371 372/372/372
f 373/373/373 374/374/374 375/375/375
f 376/376/376 377/377/377 378/378/378
f 379/379/379 380/380/380 381/381/381
f 382/382/382 383/383/383 384/384/384
f 385/385/385 386/386/386 387/387/387
f 388/388/388 389/389/389 390/390/390
f 391/391/391 392/392/392 393/393/393
f 394/394/394 395/395/395 396/396/396
f 397/397/397 398/398/398 399/399/399
f 400/400/400 401/401/401 402/402/402
f 403/403/403 404/404/404 405/405/405
f 406/406/406 407/407/407 408/408/408
f 409/409/409 410/410/410 411/411/411
f 412/412/412 413/413/413 414/414/414
f 415/415/415 416/416/416 417/417/417
f 418/418/418 419/419/419 420/420/420
f 421/421/421 422/422/422 423/423/423
f 424/424/424 425/425/425 426/426/426
f 427/427/427 428/428/428 429/429/429
f 430/430/430 431/431/431 432/432/432
f 433/433/433 434/434/434 435/435/435
f 436/436/436 437/437/437 438/438/438
f 439/439/439 440/440/440 441/441/441
f 442/442/442 443/443/443 444/444/444
f 445/445/445 446/446/446 447/447/447
f 448/448/448 449/449/449 450/450/450
f 451/451/451 452/452/452 453/453/453
f 454/454/454 455/455/455 456/456/456
f 457/457/457 458/458/458 459/459/459
f 460/460/460 461/461/461 462/462/462
f 463/463/463 464/464/464 465/465/465
f 466/466/466 467/467/467 468/468/468
f 469/469/469 470/470/470 471/471/471
f 472/472/472 473/473/473 474/474/474
f 475/475/475 476/476/476 477/477/477
f 478/478/478 479/479/479 480/480/480
f 481/481/481 482/482/482 483/483/483
f 484/484/484 485/485/485 486/486/486
f 487/487/487 488/488/488 489/489/489
f 490/490/490 491/491/491 492/492/492
f 493/493/493 494/494/494 495/495/495
f 496/496/496 497/497/497 498/498/498
f 499/499/499 500/500/500 501/501/501
f 502/502/502 503/503/503 504/504/504
f 505/505/505 506/506/506 507/507/507
f 508/508/508 509/509/509 510/510/510
f 511/511/511 512/512/512 513/513/513
f 514/514/514 515/515/515 516/516/516
f 517/517/517 518/518/518 519/519/519
f 520/520/520 521/521/521 522/522/522
f 523/523/523 524/524/524 525/525/525
f 526/526/526 527/527/527 528/528/528
f 529/529/529 530/530/530 531/531/531
f 532/532/532 533/533/533 534/534/534
f 535/535/535 536/536/536 537/537/537
f 538/538/538 539/539/539 540/540/540
f 541/541/541 542/542/542 543/543/543
f 544/544/544 545/545/545 546/546/546
f 547/547/547 548/548/548 549/549/549
f 550/550/550 551/551/551 552/552/552
f 553/553/553 554/554/554 555/555/555
f 556/556/556 557/557/557 558/558/558
f 559/559/559 560/560/560 561/561/561
f 562/562/562 563/563/563 564/564/564
f 565/565/565 566/566/566 567/567/567
f 568/568/568 569/569/569 570/570/570
f 571/571/571 572/572/572 573/573/573
f 574/574/574 575/575/575 576/576/576
f 577/577/577 578/578/578 579/579/579
f 580/580/580 581/581/581 582/582/582
f 583/583/583 584/584/584 585/585/585
f 586/586/586 587/587/587 588/588/588
f 589/589/589 590/590/590 591/591/591
f 592/592/592 593/593/593 594/594/594
f 595/595/595 596/596/596 597/597/597
f 598/598/598 599/599/599 600/600/600
f 601/601/601 602/602/602 603/603/603
f 604/604/604 605/605/605 606/606/606
f 607/607/607 608/608/608 609/609/609
f 610/610/610 611/611/611 612/612/612
f 613/613/613 614/614/614 615/615/615
f 616/616/616 617/617/617 618/618/618
f 619/619/619 620/620/620 621/621/621
f 622/622/622 623/623/623 624/624/624
f 625/625/625 626/626/626 627/627/627
f 628/628/628 629/629/629 630/630/630
f 631/631/631 632/632/632 633/633/633
f 634/634/634 635/635/635 636/636/636
f 637/637/637 638/638/638 639/639/639
f 640/640/640 641/641/641 642/642/642
f 643/643/643 644/644/644 645/645/645
f 646/646/646 647/647/647 648/648/648
f 649/649/649 650/650/650 651/651/651
f 652/652/652 653/653/653 654/654/654
f 655/655/655 656/656/656 657/657/657
f 658/658/658 659/659/659 660/660/660
f 661/661/661 662/662/662 663/663/663
f 664/664/664 665/665/665 666/666/666
f 667/667/667 668/668/668 669/669/669
f 670/670/670 671/671/671 672/672/672
f 673/673/673 674/674/674 675/675/675
f 676/676/676 677/677/677 678/678/678
f 679/679/679 680/680/680 681/681/681
f 682/682/682 683/683/683 684/684/684
f 685/685/685 686/686/686 687/687/687
f 688/688/688 689/689/689 690/690/690
f 691/691/691 692/692/692 693/693/693
f 694/694/694 695/695/695 696/696/696
f 697/697/697 698/698/698 699/699/699
f 700/700/700 701/701/701 702/702/702
f 703/703/703 704/704/704 705/705/705
f 706/706/706 707/707/707 708/708/708
f 709/709/709 710/710/710 711/711/711
f 712/712/712 713/713/713 714/714/714
f 715/715/715 716/716/716 717/717/717
f 718/718/718 719/719/719 720/720/720
f 721/721/721 722/722/722 723/723/723
f 724/724/724 725/725/725 726/726/726
f 727/727/727 728/728/728 729/729/729
f 730/730/730 731/731/731 732/732/732
f 733/733/733 734/734/734 735/735/735
f 736/736/736 737/737/737 738/738/738
f 739/739/739 740/740/740 741/741/741
f 742/742/742 743/743/743 744/744/744
f 745/745/745 746/746/746 747/747/747
f 748/748/748 749/749/749 750/750/750
f 751/751/751 752/752/752 753/753/753
f 754/754/754 755/755/755 756/756/756
f 757/757/757 758/758/758 759/759/759
f 760/760/760 761/761/761 762/762/762
f 763/763/763 764/764/764 765/765/765
f 766/766/766 767/767/767 768/768/768
f 769/769/769 770/770/770 771/771/771
f 772/772/772 773/773/773 774/774/774
f 775/775/775 776/776/776 777/777/777
f 778/778/778 779/779/779 780/780/780
f 781/781/781 782/782/782 783/783/783
f 784/784/784 785/785/785 786/786/786
f 787/787/787 788/788/788 789/789/789
f 790/790/790 791/791/791 792/792/792
f 793/793/793 794/794/794 795/795/795
f 796/796/796 797/797/797 798/798/798
f 799/799/799 800/800/800 801/801/801
f 802/802/802 803/803/803 804/804/804
f 805/805/805 806/806/806 807/807/807
f 808/808/808 809/809/809 810/810/810
f 811/811/811 812/812/812 813/813/813
f 814/814/814 815/815/815 816/816/816
f 817/817/817 818/818/818 819/819/819
f 820/820/820 821/821/821 822/822/822
f 823/823/823 824/824/824 825/825/825
f 826/826/826 827/827/827 828/828/828
f 829/829/829 830/830/830 831/831/831
f 832/832/832 833/833/833 834/834/834
f 835/835/835 836/836/836 837/837/837
f 838/838/838 839/839/839 840/840/840
f 841/841/841 842/842/842 843/843/843
f 844/844/844 845/845/845 846/846/846
f 847/847/847 848/848/848 849/849/849
f 850/850/850 851/851/851 852/852/852
f 853/853/853 854/854/854 855/855/855
f 856/856/856 857/857/857 858/858/858
f 859/859/859 860/860/860 861/861/861
f 862/862/862 863/863/863 864/864/864
f 865/865/865 866/866/866 867/867/867
f 868/868/868 869/869/869 870/870/870
f 871/871/871 872/872/872 873/873/873
f 874/874/874 875/875/875 876/876/876
f 877/877/877 878/878/878 879/879/879
f 880/880/880 881/881/881 882/882/882
f 883/883/883 884/884/884 885/885/885
f 886/886/886 887/887/887 888/888/888
f 889/889/889 890/890/890 891/891/891
f 892/892/892 893/893/893 894/894/894
f 895/895/895 896/896/896 897/897/897
f 898/898/898 899/899/899 900/900/900
f 901/901/901 902/902/902 903/903/903
f 904/904/904 905/905/905 906/906/906
f 907/907/907 908/908/908 909/909/909
f 910/910/910 911/911/911 912/912/912
f 913/913/913 914/914/914 915/915/915
f 916/916/916 917/917/917 918/918/918
f 919/919/919 920/920/920 921/921/921
f 922/922/922 923/923/923 924/924/924
f 925/925/925 926/926/926 927/927/927
f 928/928/928 929/929/929 930/930/930
f 931/931/931 932/932/932 933/933/933
f 934/934/934 935/935/935 936/936/936
f 937/937/937 938/938/938 939/939/939
f 940/940/940 941/941/941 942/942/942
f 943/943/943 944/944/944 945/945/945
f 946/946/946 947/947/947 948/948/948
f 949/949/949 950/950/950 951/951/951
f 952/952/952 953/953/953 954/954/954
f 955/955/955 956/956/956 957/957/957
f 958/958/958 959/959/959 960/960/960
f 961/961/961 962/962/962 963/963/963
f 964/964/964 965/965/965 966/966/966
f 967/967/967 968/968/968 969/969/969
f 970/970/970 971/971/971 972/972/972
f 973/973/973 974/974/974 975/975/975
f 976/976/976 977/977/977 978/978/978
f 979/979/979 980/980/980 981/981/981
f 982/982/982 983/983/983 984/984/984
f 985/985/985 986/986/986 987/987/987
f 988/988/988 989/989/989 990/990/990
f 991/991/991 992/992/992 993/993/993
f 994/994/994 995/995/995 996/996/996
f 997/997/997 998/998/998 999/999/999
f 1000/1000/1000 1001/1001/1001 1002/1002/1002
f 1003/1003/1003 1004/1004/1004 1005/1005/1005
f 1006/1006/1006 1007/1007/1007 1008/1008/1008
f 1009/1009/1009 1010/1010/1010 1011/1011/1011
f 1012/1012/1012 1013/1013/1013 1014/1014/1014
f 1015/1015/1015 1016/1016/1016 1017/1017/1017
f 1018/1018/1018 1019/1019/1019 1020/1020/1020
f 1021/1021/1021 1022/1022/1022 1023/1023/1023
f 1024/1024/1024 1025/1025/1025 1026/1026/1026
f 1027/1027/1027 1028/1028/1028 1029/1029/1029
f 1030/1030/1030 1031/1031/1031 1032/1032/1032
f 1033/1033/1033 1034/1034/1034 1035/1035/1035
f 1036/1036/1036 1037/1037/1037 1038/1038/1038
f 1039/1039/1039 1040/1040/1040 1041/1041/1041
f 1042/1042/1042 1043/1043/1043 1044/1044/1044
f 1045/1045/1045 1046/1046/1046 1047/1047/1047
f 1048/1048/1048 1049/1049/1049 1050/1050/1050
f 1051/1051/1051 1052/1052/1052 1053/1053/1053
f 1054/1054/1054 1055/1055/1055 1056/1056/1056
f 1057/1057/1057 1058/1058/1058 1059/1059/1059
f 1060/1060/1060 1061/1061/1061 1062/1062/1062
f 1063/1063/1063 1064/1064/1064 1065/1065/1065
f 1066/1066/1066 1067/1067/1067 1068/1068/1068
f 1069/1069/1069 1070/1070/1070 1071/1071/1071
f 1072/1072/1072 1073/1073/1073 1074/1074/1074
f 1075/1075/1075 1076/1076/1076 1077/1077/1077
f 1078/1078/1078 1079/1079/1079 1080/1080/1080
f 1081/1081/1081 1082/1082/1082 1083/1083/1083
f 1084/1084/1084 1085/1085/1085 1086/1086/1086
f 1087/1087/1087 1088/1088/1088 1089/1089/1089
f 1090/1090/1090 1091/1091/1091 1092/1092/1092
f 1093/1093/1093 1094/1094/1094 1095/1095/1095
f 1096/1096/1096 1097/1097/1097 1098/1098/1098
f 1099/1099/1099 1100/1100/1100 1101/1101/1101
f 1102/1102/1102 1103/1103/1103 1104/1104/1104
f 1105/1105/1105 1106/1106/1106 1107/1107/1107
f 1108/1108/1108 1109/1109/1109 1110/1110/1110
f 1111/1111/1111 1112/1112/1112 1113/1113/1113
f 1114/1114/1114 1115/1115/1115 1116/1116/1116
f 1117/1117/1117 1118/1118/1118 1119/1119/1119
f 1120/1120/1120 1121/1121/1121 1122/1122/1122
f 1123/1123/1123 1124/1124/1124 1125/1125/1125
f 1126/1126/1126 1127/1127/1127 1128/1128/1128
f 1129/1129/1129 1130/1130/1130 1131/1131/1131
f 1132/1132/1132 1133/1133/1133 1134/1134/1134
f 1135/1135/1135 1136/1136/1136 1137/1137/1137
f 1138/1138/1138 1139/1139/1139 1140/1140/1140
f 1141/1141/1141 1142/1142/1142 1143/1143/1143
f 1144/1144/1144 1145/1145/1145 1146/1146/1146
f 1147/1147/1147 1148/1148/1148 1149/1149/1149
f 1150/1150/1150 1151/1151/1151 1152/1152/1152
f 1153/1153/1153 1154/1154/1154 1155/1155/1155
f 1156/1156/1156 1157/1157/1157 1158/1158/1158
f 1159/1159/1159 1160/1160/1160 1161/1161/1161
f 1162/1162/1162 1163/1163/1163 1164/1164/1164
f 1165/1165/1165 1166/1166/1166 1167/1167/1167
f 1168/1168/1168 1169/1169/1169 1170/1170/1170
f 1171/1171/1171 1172/1172/1172 1173/1173/1173
f 1174/1174/1174 1175/1175/1175 1176/1176/1176
f 1177/1177/1177 1178/1178/1178 1179/1179/1179
f 1180/1180/1180 1181/1181/1181 1182/1182/1182
f 1183/1183/1183 1184/1184/1184 1185/1185/1185
f 1186/1186/1186 1187/1187/1187 1188/1188/1188
f 1189/1189/1189 1190/1190/1190 1191/1191/1191
f 1192/1192/1192 1193/1193/1193 1194/1194/1194
f 1195/1195/1195 1196/1196/1196 1197/1197/1197
f 1198/1198/1198 1199/1199/1199 1200/1200/1200
f 1201/1201/1201 1202/1202/1202 1203/1203/1203
f 1204/1204/1204 1205/1205/1205 1206/1206/1206
f 1207/1207/1207 1208/1208/1208 1209/1209/1209
f 1210/1210/1210 1211/1211/1211 1212/1212/1212
f 1213/1213/1213 1214/1214/1214 1215/1215/1215
f 1216/1216/1216 1217/1217/1217 1218/1218/1218
f 1219/1219/1219 1220/1220/1220 1221/1221/1221
f 1222/1222/1222 1223/1223/1223 1224/1224/1224
f 1225/1225/1225 1226/1226/1226 1227/1227/1227
f 1228/1228/1228 1229/1229/1229 1230/1230/1230
f 1231/1231/1231 1232/1232/1232 1233/1233/1233
f 1234/1234/1234 1235/1235/1235 1236/1236/1236
f 1237/1237/1237 1238/1238/1238 1239/1239/1239
f 1240/1240/1240 1241/1241/1241 1242/1242/1242
f 1243/1243/1243 1244/1244/1244 1245/1245/1245
f 1246/1246/1246 1247/1247/1247 1248/1248/1248
f 1249/1249/1249 1250/1250/1250 1251/1251/1251
f 1252/1252/1252 1253/1253/1253 1254/1254/1254
f 1255/1255/1255 1256/1256/1256 1257/1257/1257
f 1258/1258/1258 1259/1259/1259 1260/1260/1260
f 1261/1261/1261 1262/1262/1262 1263/1263/1263
f 1264/1264/1264 1265/1265/1265 1266/1266/1266
f 1267/1267/1267 1268/1268/1268 1269/1269/1269
f 1270/1270/1270 1271/1271/1271 1272/1272/1272
f 1273/1273/1273 1274/1274/1274 1275/1275/1275
f 1276/1276/1276 1277/1277/1277 1278/1278/1278
f 1279/1279/1279 1280/1280/1280 1281/1281/1281
f 1282/1282/1282 1283/1283/1283 1284/1284/1284
f 1285/1285/1285 1286/1286/1286 1287/1287/1287
f 1288/1288/1288 1289/1289/1289 1290/1290/1290
f 1291/1291/1291 1292/1292/1292 1293/1293/1293
f 1294/1294/1294 1295/1295/1295 1296/1296/1296
f 1297/1297/1297 1298/1298/1298 1299/1299/1299
f 1300/1300/1300 1301/1301/1301 1302/1302/1302
f 1303/1303/1303 1304/1304/1304 1305/1305/1305
f 1306/1306/1306 1307/1307/1307 1308/1308/1308
f 1309/1309/1309 1310/1310/1310 1311/1311/1311
f 1312/1312/1312 1313/1313/1313 1314/1314/1314
f 1315/1315/1315 1316/1316/1316 1317/1317/1317
f 1318/1318/1318 1319/1319/1319 1320/1320/1320
f 1321/1321/1321 1322/1322/1322 1323/1323/1323
f 1324/1324/1324 1325/1325/1325 1326/1326/1326
f 1327/1327/1327 1328/1328/1328 1329/1329/1329
f 1330/1330/1330 1331/1331/1331 1332/1332/1332
f 1333/1333/1333 1334/1334/1334 1335/1335/1335
f 1336/1336/1336 1337/1337/1337 1338/1338/1338
f 1339/1339/1339 1340/1340/1340 1341/1341/1341
f 1342/1342/1342 1343/1343/1343 1344/1344/1344
f 1345/1345/1345 1346/1346/1346 1347/1347/1347
f 1348/1348/1348 1349/1349/1349 1350/1350/1350
f 1351/1351/1351 1352/1352/1352 1353/1353/1353
f 1354/1354/1354 1355/1355/1355 1356/1356/1356
f 1357/1357/1357 1358/1358/1358 1359/1359/1359
f 1360/1360/1360 1361/1361/1361 1362/1362/1362
f 1363/1363/1363 1364/1364/1364 1365/1365/1365
f 1366/1366/1366 1367/1367/1367 1368/1368/1368
f 1369/1369/1369 1370/1370/1370 1371/1371/1371
f 1372/1372/1372 1373/1373/1373 1374/1374/1374
f 1375/1375/1375 1376/1376/1376 1377/1377/1377
f 1378/1378/1378 1379/1379/1379 1380/1380/1380
