# OBJ file
v 2.579486 -53.638035 -78.713234
v 3.253400 -53.090538 -77.650314
v 2.330530 -54.408737 -77.595703
v 3.253400 -53.090538 -77.650314
v 2.579486 -53.638035 -78.713234
v 2.994382 -52.452927 -79.027611
v 3.253400 -53.090538 -77.650314
v 2.994382 -52.452927 -79.027611
v 3.549922 -51.661518 -77.752853
v 2.330530 -54.408737 -77.595703
v 1.499259 -54.483788 -78.945396
v 2.579486 -53.638035 -78.713234
v 1.022542 -55.110630 -77.615814
v 1.499259 -54.483788 -78.945396
v 2.330530 -54.408737 -77.595703
v 1.911747 -53.266930 -79.828262
v 2.994382 -52.452927 -79.027611
v 2.579486 -53.638035 -78.713234
v 1.911747 -53.266930 -79.828262
v 2.579486 -53.638035 -78.713234
v 1.499259 -54.483788 -78.945396
v 3.549922 -51.661518 -77.752853
v 2.994382 -52.452927 -79.027611
v 3.000200 -51.034199 -79.082428
v 3.549922 -51.661518 -77.752853
v 3.000200 -51.034199 -79.082428
v 3.255093 -50.240082 -77.784180
v 2.095211 -51.783203 -80.120789
v 2.994382 -52.452927 -79.027611
v 1.911747 -53.266930 -79.828262
v 2.095211 -51.783203 -80.120789
v 3.000200 -51.034199 -79.082428
v 2.994382 -52.452927 -79.027611
v 3.255093 -50.240082 -77.784180
v 3.000200 -51.034199 -79.082428
v 2.579343 -49.774521 -78.876282
v 2.579343 -49.774521 -78.876282
v 2.329314 -48.928574 -77.814720
v 3.255093 -50.240082 -77.784180
v 1.912582 -50.318817 -79.939163
v 3.000200 -51.034199 -79.082428
v 2.095211 -51.783203 -80.120789
v 1.912582 -50.318817 -79.939163
v 2.579343 -49.774521 -78.876282
v 3.000200 -51.034199 -79.082428
v 2.329314 -48.928574 -77.814720
v 2.579343 -49.774521 -78.876282
v 1.500070 -48.998520 -79.164589
v 1.912582 -50.318817 -79.939163
v 1.500070 -48.998520 -79.164589
v 2.579343 -49.774521 -78.876282
v 2.329314 -48.928574 -77.814720
v 1.500070 -48.998520 -79.164589
v 1.029527 -48.197559 -77.913628
v 0.977790 -50.957340 -80.622841
v 1.912582 -50.318817 -79.939163
v 2.095211 -51.783203 -80.120789
v 1.029527 -48.197559 -77.913628
v 1.500070 -48.998520 -79.164589
v 0.208390 -48.594032 -79.190971
v 1.029527 -48.197559 -77.913628
v 0.208390 -48.594032 -79.190971
v -0.457132 -48.009113 -77.867294
v 0.571597 -49.646805 -80.203392
v 1.500070 -48.998520 -79.164589
v 1.912582 -50.318817 -79.939163
v 0.571597 -49.646805 -80.203392
v 0.208390 -48.594032 -79.190971
v 1.500070 -48.998520 -79.164589
v 0.977790 -50.957340 -80.622841
v 0.571597 -49.646805 -80.203392
v 1.912582 -50.318817 -79.939163
v -0.457132 -48.009113 -77.867294
v 0.208390 -48.594032 -79.190971
v -1.131022 -48.612793 -78.930214
v -1.131022 -48.612793 -78.930214
v -1.957595 -48.575600 -77.841042
v -0.457132 -48.009113 -77.867294
v -0.877416 -49.400982 -79.991508
v 0.208390 -48.594032 -79.190971
v 0.571597 -49.646805 -80.203392
v -0.877416 -49.400982 -79.991508
v -1.131022 -48.612793 -78.930214
v 0.208390 -48.594032 -79.190971
v -1.957595 -48.575600 -77.841042
v -1.131022 -48.612793 -78.930214
v -2.212107 -49.360939 -79.139633
v -0.877416 -49.400982 -79.991508
v -2.212107 -49.360939 -79.139633
v -1.131022 -48.612793 -78.930214
v -1.957595 -48.575600 -77.841042
v -2.212107 -49.360939 -79.139633
v -3.060353 -49.575241 -77.858810
v -0.516546 -50.549046 -80.648430
v -0.877416 -49.400982 -79.991508
v 0.571597 -49.646805 -80.203392
v -0.516546 -50.549046 -80.648430
v 0.571597 -49.646805 -80.203392
v 0.977790 -50.957340 -80.622841
v -1.886928 -50.520142 -80.175148
v -2.212107 -49.360939 -79.139633
v -0.877416 -49.400982 -79.991508
v -0.516546 -50.549046 -80.648430
v -1.886928 -50.520142 -80.175148
v -0.877416 -49.400982 -79.991508
v -3.060353 -49.575241 -77.858810
v -2.212107 -49.360939 -79.139633
v -3.013742 -50.470917 -79.109261
v -1.886928 -50.520142 -80.175148
v -3.013742 -50.470917 -79.109261
v -2.212107 -49.360939 -79.139633
v -3.060353 -49.575241 -77.858810
v -3.013742 -50.470917 -79.109261
v -3.679812 -50.913120 -77.733635
v -1.440251 -51.825466 -80.594536
v -1.886928 -50.520142 -80.175148
v -0.516546 -50.549046 -80.648430
v -3.679812 -50.913120 -77.733635
v -3.013742 -50.470917 -79.109261
v -3.424609 -51.761074 -78.794991
v -3.424609 -51.761074 -78.794991
v -3.686273 -52.541744 -77.677582
v -3.679812 -50.913120 -77.733635
v -2.603185 -51.796310 -79.884148
v -3.013742 -50.470917 -79.109261
v -1.886928 -50.520142 -80.175148
v -2.603185 -51.796310 -79.884148
v -3.424609 -51.761074 -78.794991
v -3.013742 -50.470917 -79.109261
v -1.440251 -51.825466 -80.594536
v -2.603185 -51.796310 -79.884148
v -1.886928 -50.520142 -80.175148
v -3.686273 -52.541744 -77.677582
v -3.424609 -51.761074 -78.794991
v -3.016031 -53.022243 -78.977211
v -2.603185 -51.796310 -79.884148
v -3.016031 -53.022243 -78.977211
v -3.424609 -51.761074 -78.794991
v -3.686273 -52.541744 -77.677582
v -3.016031 -53.022243 -78.977211
v -3.064311 -53.842793 -77.670349
v -1.887953 -53.160446 -80.066216
v -3.016031 -53.022243 -78.977211
v -2.603185 -51.796310 -79.884148
v -1.440251 -51.825466 -80.594536
v -1.887953 -53.160446 -80.066216
v -2.603185 -51.796310 -79.884148
v -3.064311 -53.842793 -77.670349
v -3.016031 -53.022243 -78.977211
v -2.214134 -54.132320 -78.947311
v -1.887953 -53.160446 -80.066216
v -2.214134 -54.132320 -78.947311
v -3.016031 -53.022243 -78.977211
v -3.064311 -53.842793 -77.670349
v -2.214134 -54.132320 -78.947311
v -1.959836 -54.874638 -77.570122
v -0.520003 -53.087776 -80.539932
v -1.887953 -53.160446 -80.066216
v -1.440251 -51.825466 -80.594536
v -1.959836 -54.874638 -77.570122
v -2.214134 -54.132320 -78.947311
v -1.129687 -54.910309 -78.659279
v -1.129687 -54.910309 -78.659279
v -0.459087 -55.317642 -77.567162
v -1.959836 -54.874638 -77.570122
v -0.876272 -54.179710 -79.776077
v -2.214134 -54.132320 -78.947311
v -1.887953 -53.160446 -80.066216
v -0.876272 -54.179710 -79.776077
v -1.129687 -54.910309 -78.659279
v -2.214134 -54.132320 -78.947311
v -0.520003 -53.087776 -80.539932
v -0.876272 -54.179710 -79.776077
v -1.887953 -53.160446 -80.066216
v -0.459087 -55.317642 -77.567162
v -1.129687 -54.910309 -78.659279
v 0.206149 -54.893135 -78.919556
v -0.876272 -54.179710 -79.776077
v 0.206149 -54.893135 -78.919556
v -1.129687 -54.910309 -78.659279
v -0.459087 -55.317642 -77.567162
v 0.206149 -54.893135 -78.919556
v 1.022542 -55.110630 -77.615814
v 1.022542 -55.110630 -77.615814
v 0.206149 -54.893135 -78.919556
v 1.499259 -54.483788 -78.945396
v 0.578344 -53.909302 -80.037827
v 0.206149 -54.893135 -78.919556
v -0.876272 -54.179710 -79.776077
v 0.578344 -53.909302 -80.037827
v 1.499259 -54.483788 -78.945396
v 0.206149 -54.893135 -78.919556
v -0.520003 -53.087776 -80.539932
v 0.578344 -53.909302 -80.037827
v -0.876272 -54.179710 -79.776077
v 1.911747 -53.266930 -79.828262
v 1.499259 -54.483788 -78.945396
v 0.578344 -53.909302 -80.037827
v 0.975287 -52.575603 -80.566628
v 1.911747 -53.266930 -79.828262
v 0.578344 -53.909302 -80.037827
v 0.975287 -52.575603 -80.566628
v 0.578344 -53.909302 -80.037827
v -0.520003 -53.087776 -80.539932
v 0.975287 -52.575603 -80.566628
v 2.095211 -51.783203 -80.120789
v 1.911747 -53.266930 -79.828262
v 0.977790 -50.957340 -80.622841
v 2.095211 -51.783203 -80.120789
v 0.975287 -52.575603 -80.566628
v -0.121868 -51.807533 -80.854797
v 0.975287 -52.575603 -80.566628
v -0.520003 -53.087776 -80.539932
v -0.121868 -51.807533 -80.854797
v 0.977790 -50.957340 -80.622841
v 0.975287 -52.575603 -80.566628
v -0.121868 -51.807533 -80.854797
v -0.520003 -53.087776 -80.539932
v -1.440251 -51.825466 -80.594536
v -0.121868 -51.807533 -80.854797
v -0.516546 -50.549046 -80.648430
v 0.977790 -50.957340 -80.622841
v -0.121868 -51.807533 -80.854797
v -1.440251 -51.825466 -80.594536
v -0.516546 -50.549046 -80.648430
v -0.545824 -50.180645 -73.332176
v 0.337446 -50.176495 -73.332123
v 0.383389 -50.082806 -73.711082
v 0.383389 -50.082806 -73.711082
v -0.590694 -50.084618 -73.711098
v -0.545824 -50.180645 -73.332176
v -1.250708 -50.691521 -73.305428
v -0.545824 -50.180645 -73.332176
v -0.590694 -50.084618 -73.711098
v 1.180542 -50.596302 -73.684868
v 0.383389 -50.082806 -73.711082
v 0.337446 -50.176495 -73.332123
v 0.337446 -50.176495 -73.332123
v 1.038206 -50.694382 -73.305466
v 1.180542 -50.596302 -73.684868
v -0.590694 -50.084618 -73.711098
v -1.386392 -50.593208 -73.684822
v -1.250708 -50.691521 -73.305428
v -1.519477 -51.500042 -73.277321
v -1.250708 -50.691521 -73.305428
v -1.386392 -50.593208 -73.684822
v 1.482165 -51.514580 -73.632271
v 1.180542 -50.596302 -73.684868
v 1.038206 -50.694382 -73.305466
v 1.038206 -50.694382 -73.305466
v 1.308429 -51.493843 -73.277237
v 1.482165 -51.514580 -73.632271
v -1.386392 -50.593208 -73.684822
v -1.696718 -51.510334 -73.632225
v -1.519477 -51.500042 -73.277321
v -1.249158 -52.414906 -73.248856
v -1.519477 -51.500042 -73.277321
v -1.696718 -51.510334 -73.632225
v 1.180208 -52.517220 -73.627121
v 1.482165 -51.514580 -73.632271
v 1.308429 -51.493843 -73.277237
v 1.308429 -51.493843 -73.277237
v 1.040113 -52.409042 -73.248787
v 1.180208 -52.517220 -73.627121
v -1.696718 -51.510334 -73.632225
v -1.385128 -52.517696 -73.627129
v -1.249158 -52.414906 -73.248856
v -0.544035 -52.913464 -73.246132
v -1.249158 -52.414906 -73.248856
v -1.385128 -52.517696 -73.627129
v 0.386107 -53.029644 -73.576744
v 1.180208 -52.517220 -73.627121
v 1.040113 -52.409042 -73.248787
v 1.040113 -52.409042 -73.248787
v 0.332105 -52.912510 -73.246117
v 0.386107 -53.029644 -73.576744
v 0.332105 -52.912510 -73.246117
v -0.544035 -52.913464 -73.246132
v -0.595129 -53.034653 -73.576797
v -0.595129 -53.034653 -73.576797
v 0.386107 -53.029644 -73.576744
v 0.332105 -52.912510 -73.246117
v -1.385128 -52.517696 -73.627129
v -0.595129 -53.034653 -73.576797
v -0.544035 -52.913464 -73.246132
v 1.605165 -52.766983 -74.028259
v 1.180208 -52.517220 -73.627121
v 0.386107 -53.029644 -73.576744
v -0.759375 -53.534641 -73.976959
v -0.595129 -53.034653 -73.576797
v -1.385128 -52.517696 -73.627129
v 0.552213 -53.475979 -73.976929
v 0.386107 -53.029644 -73.576744
v -0.595129 -53.034653 -73.576797
v -0.595129 -53.034653 -73.576797
v -0.759375 -53.534641 -73.976959
v 0.552213 -53.475979 -73.976929
v 0.386107 -53.029644 -73.576744
v 0.552213 -53.475979 -73.976929
v 1.605165 -52.766983 -74.028259
v -1.385128 -52.517696 -73.627129
v -1.815259 -52.823883 -74.028267
v -0.759375 -53.534641 -73.976959
v -1.815259 -52.823883 -74.028267
v -1.385128 -52.517696 -73.627129
v -1.696718 -51.510334 -73.632225
v 0.552213 -53.475979 -73.976929
v -0.759375 -53.534641 -73.976959
v -0.612915 -54.318443 -74.470070
v -1.696718 -51.510334 -73.632225
v -2.217042 -51.603733 -74.082161
v -1.815259 -52.823883 -74.028267
v -2.217042 -51.603733 -74.082161
v -1.696718 -51.510334 -73.632225
v -1.386392 -50.593208 -73.684822
v -1.815259 -52.823883 -74.028267
v -1.565468 -53.916916 -74.495987
v -0.759375 -53.534641 -73.976959
v -0.759375 -53.534641 -73.976959
v -1.565468 -53.916916 -74.495987
v -0.612915 -54.318443 -74.470070
v -1.386392 -50.593208 -73.684822
v -1.820886 -50.293743 -74.112968
v -2.217042 -51.603733 -74.082161
v -1.820886 -50.293743 -74.112968
v -1.386392 -50.593208 -73.684822
v -0.590694 -50.084618 -73.711098
v -2.217042 -51.603733 -74.082161
v -2.740920 -52.284092 -74.575684
v -1.815259 -52.823883 -74.028267
v -0.590694 -50.084618 -73.711098
v -0.756824 -49.515064 -74.164124
v -1.820886 -50.293743 -74.112968
v -0.756824 -49.515064 -74.164124
v -0.590694 -50.084618 -73.711098
v 0.383389 -50.082806 -73.711082
v -1.820886 -50.293743 -74.112968
v -2.735507 -50.874336 -74.606911
v -2.217042 -51.603733 -74.082161
v -2.217042 -51.603733 -74.082161
v -2.735507 -50.874336 -74.606911
v -2.740920 -52.284092 -74.575684
v 0.383389 -50.082806 -73.711082
v 0.545681 -49.520931 -74.164192
v -0.756824 -49.515064 -74.164124
v 0.545681 -49.520931 -74.164192
v 0.383389 -50.082806 -73.711082
v 1.180542 -50.596302 -73.684868
v -1.820886 -50.293743 -74.112968
v -0.756824 -49.515064 -74.164124
v -0.956333 -48.887398 -74.688690
v 1.180542 -50.596302 -73.684868
v 1.606715 -50.233700 -74.112923
v 0.545681 -49.520931 -74.164192
v 1.606715 -50.233700 -74.112923
v 1.180542 -50.596302 -73.684868
v 1.482165 -51.514580 -73.632271
v -0.756824 -49.515064 -74.164124
v 0.545681 -49.520931 -74.164192
v 0.422704 -48.862305 -74.783600
v 0.422704 -48.862305 -74.783600
v -0.956333 -48.887398 -74.688690
v -0.756824 -49.515064 -74.164124
v 1.606715 -50.233700 -74.112923
v 1.626384 -49.396942 -74.662178
v 0.545681 -49.520931 -74.164192
v 0.545681 -49.520931 -74.164192
v 1.626384 -49.396942 -74.662178
v 0.422704 -48.862305 -74.783600
v 1.482165 -51.514580 -73.632271
v 2.009737 -51.542782 -74.082100
v 1.606715 -50.233700 -74.112923
v 2.009737 -51.542782 -74.082100
v 1.482165 -51.514580 -73.632271
v 1.180208 -52.517220 -73.627121
v 1.180208 -52.517220 -73.627121
v 1.605165 -52.766983 -74.028259
v 2.009737 -51.542782 -74.082100
v 1.606715 -50.233700 -74.112923
v 2.424729 -50.508625 -74.632545
v 1.626384 -49.396942 -74.662178
v 2.009737 -51.542782 -74.082100
v 2.424729 -50.508625 -74.632545
v 1.606715 -50.233700 -74.112923
v 0.920999 -48.463081 -75.615036
v 0.422704 -48.862305 -74.783600
v 1.626384 -49.396942 -74.662178
v 1.605165 -52.766983 -74.028259
v 2.421296 -52.538147 -74.550545
v 2.009737 -51.542782 -74.082100
v 0.422704 -48.862305 -74.783600
v 0.920999 -48.463081 -75.615036
v -0.416434 -48.420456 -75.354477
v 0.422704 -48.862305 -74.783600
v -0.416434 -48.420456 -75.354477
v -0.956333 -48.887398 -74.688690
v 1.605165 -52.766983 -74.028259
v 1.622856 -53.655518 -74.497299
v 2.421296 -52.538147 -74.550545
v 0.552213 -53.475979 -73.976929
v 1.622856 -53.655518 -74.497299
v 1.605165 -52.766983 -74.028259
v 2.009737 -51.542782 -74.082100
v 2.421296 -52.538147 -74.550545
v 2.742684 -51.490574 -74.721893
v 2.009737 -51.542782 -74.082100
v 2.742684 -51.490574 -74.721893
v 2.424729 -50.508625 -74.632545
v 2.803004 -52.792278 -75.164902
v 2.421296 -52.538147 -74.550545
v 1.622856 -53.655518 -74.497299
v 2.742684 -51.490574 -74.721893
v 2.421296 -52.538147 -74.550545
v 2.803004 -52.792278 -75.164902
v 0.552213 -53.475979 -73.976929
v 0.776827 -54.231709 -74.612038
v 1.622856 -53.655518 -74.497299
v 2.802932 -50.255119 -75.273186
v 2.424729 -50.508625 -74.632545
v 2.742684 -51.490574 -74.721893
v 0.552213 -53.475979 -73.976929
v 0.079215 -54.270462 -74.470177
v 0.776827 -54.231709 -74.612038
v -0.612915 -54.318443 -74.470070
v 0.079215 -54.270462 -74.470177
v 0.552213 -53.475979 -73.976929
v 2.004540 -53.909645 -75.111656
v 1.622856 -53.655518 -74.497299
v 0.776827 -54.231709 -74.612038
v 1.622856 -53.655518 -74.497299
v 2.004540 -53.909645 -75.111656
v 2.803004 -52.792278 -75.164902
v 0.920761 -54.757072 -75.343582
v 0.776827 -54.231709 -74.612038
v 0.079215 -54.270462 -74.470177
v 0.776827 -54.231709 -74.612038
v 0.920761 -54.757072 -75.343582
v 2.004540 -53.909645 -75.111656
v -0.612915 -54.318443 -74.470070
v -0.417078 -54.723129 -75.083374
v 0.079215 -54.270462 -74.470177
v 0.079215 -54.270462 -74.470177
v -0.417078 -54.723129 -75.083374
v 0.920761 -54.757072 -75.343582
v -0.417078 -54.723129 -75.083374
v -0.612915 -54.318443 -74.470070
v -1.565468 -53.916916 -74.495987
v 1.745737 -54.790741 -76.432716
v 2.004540 -53.909645 -75.111656
v 0.920761 -54.757072 -75.343582
v 0.254023 -55.301327 -76.406960
v 0.920761 -54.757072 -75.343582
v -0.417078 -54.723129 -75.083374
v 0.920761 -54.757072 -75.343582
v 0.254023 -55.301327 -76.406960
v 1.745737 -54.790741 -76.432716
v -1.565468 -53.916916 -74.495987
v -1.711905 -54.367775 -75.109161
v -0.417078 -54.723129 -75.083374
v 0.254023 -55.301327 -76.406960
v 1.022542 -55.110630 -77.615814
v 1.745737 -54.790741 -76.432716
v 0.254023 -55.301327 -76.406960
v -0.459087 -55.317642 -77.567162
v 1.022542 -55.110630 -77.615814
v 1.745737 -54.790741 -76.432716
v 1.022542 -55.110630 -77.615814
v 2.330530 -54.408737 -77.595703
v -0.459087 -55.317642 -77.567162
v 0.254023 -55.301327 -76.406960
v -1.241386 -55.168728 -76.360130
v 0.254023 -55.301327 -76.406960
v -0.417078 -54.723129 -75.083374
v -1.241386 -55.168728 -76.360130
v -1.241386 -55.168728 -76.360130
v -0.417078 -54.723129 -75.083374
v -1.711905 -54.367775 -75.109161
v -0.459087 -55.317642 -77.567162
v -1.241386 -55.168728 -76.360130
v -1.959836 -54.874638 -77.570122
v 2.330530 -54.408737 -77.595703
v 2.857220 -53.791431 -76.414948
v 1.745737 -54.790741 -76.432716
v 2.857220 -53.791431 -76.414948
v 2.004540 -53.909645 -75.111656
v 1.745737 -54.790741 -76.432716
v 3.253400 -53.090538 -77.650314
v 2.857220 -53.791431 -76.414948
v 2.330530 -54.408737 -77.595703
v 2.857220 -53.791431 -76.414948
v 2.803004 -52.792278 -75.164902
v 2.004540 -53.909645 -75.111656
v 3.253400 -53.090538 -77.650314
v 3.472221 -52.357471 -76.517181
v 2.857220 -53.791431 -76.414948
v 3.472221 -52.357471 -76.517181
v 2.803004 -52.792278 -75.164902
v 2.857220 -53.791431 -76.414948
v 3.472221 -52.357471 -76.517181
v 3.253400 -53.090538 -77.650314
v 3.549922 -51.661518 -77.752853
v 3.472221 -52.357471 -76.517181
v 3.215897 -51.612320 -75.479347
v 2.803004 -52.792278 -75.164902
v 2.803004 -52.792278 -75.164902
v 3.215897 -51.612320 -75.479347
v 2.742684 -51.490574 -74.721893
v 2.742684 -51.490574 -74.721893
v 3.215897 -51.612320 -75.479347
v 2.802932 -50.255119 -75.273186
v 3.472221 -52.357471 -76.517181
v 3.549922 -51.661518 -77.752853
v 3.477585 -50.831699 -76.596756
v 3.215897 -51.612320 -75.479347
v 3.472221 -52.357471 -76.517181
v 3.477585 -50.831699 -76.596756
v 3.477585 -50.831699 -76.596756
v 2.802932 -50.255119 -75.273186
v 3.215897 -51.612320 -75.479347
v 3.477585 -50.831699 -76.596756
v 3.549922 -51.661518 -77.752853
v 3.255093 -50.240082 -77.784180
v 3.255093 -50.240082 -77.784180
v 2.851593 -49.425781 -76.580917
v 3.477585 -50.831699 -76.596756
v 2.851593 -49.425781 -76.580917
v 2.802932 -50.255119 -75.273186
v 3.477585 -50.831699 -76.596756
v 2.329314 -48.928574 -77.814720
v 2.851593 -49.425781 -76.580917
v 3.255093 -50.240082 -77.784180
v 2.851593 -49.425781 -76.580917
v 2.009428 -49.230785 -75.326393
v 2.802932 -50.255119 -75.273186
v 2.424729 -50.508625 -74.632545
v 2.802932 -50.255119 -75.273186
v 2.009428 -49.230785 -75.326393
v 2.009428 -49.230785 -75.326393
v 1.626384 -49.396942 -74.662178
v 2.424729 -50.508625 -74.632545
v 1.626384 -49.396942 -74.662178
v 2.009428 -49.230785 -75.326393
v 0.920999 -48.463081 -75.615036
v 2.329314 -48.928574 -77.814720
v 1.747978 -48.491646 -76.704102
v 2.851593 -49.425781 -76.580917
v 1.747978 -48.491646 -76.704102
v 2.009428 -49.230785 -75.326393
v 2.851593 -49.425781 -76.580917
v 1.747978 -48.491646 -76.704102
v 0.920999 -48.463081 -75.615036
v 2.009428 -49.230785 -75.326393
v 1.747978 -48.491646 -76.704102
v 2.329314 -48.928574 -77.814720
v 1.029527 -48.197559 -77.913628
v 0.920999 -48.463081 -75.615036
v 1.747978 -48.491646 -76.704102
v 0.247228 -47.992374 -76.706818
v 1.747978 -48.491646 -76.704102
v 1.029527 -48.197559 -77.913628
v 0.247228 -47.992374 -76.706818
v 0.247228 -47.992374 -76.706818
v -0.416434 -48.420456 -75.354477
v 0.920999 -48.463081 -75.615036
v 0.247228 -47.992374 -76.706818
v 1.029527 -48.197559 -77.913628
v -0.457132 -48.009113 -77.867294
v -0.457132 -48.009113 -77.867294
v -1.235640 -48.166725 -76.635071
v 0.247228 -47.992374 -76.706818
v -1.235640 -48.166725 -76.635071
v -0.416434 -48.420456 -75.354477
v 0.247228 -47.992374 -76.706818
v -1.957595 -48.575600 -77.841042
v -1.235640 -48.166725 -76.635071
v -0.457132 -48.009113 -77.867294
v -1.235640 -48.166725 -76.635071
v -1.709545 -48.886036 -75.328392
v -0.416434 -48.420456 -75.354477
v -0.956333 -48.887398 -74.688690
v -0.416434 -48.420456 -75.354477
v -1.709545 -48.886036 -75.328392
v -1.957595 -48.575600 -77.841042
v -2.540791 -48.961178 -76.678337
v -1.235640 -48.166725 -76.635071
v -2.540791 -48.961178 -76.678337
v -1.709545 -48.886036 -75.328392
v -1.235640 -48.166725 -76.635071
v -2.540791 -48.961178 -76.678337
v -1.957595 -48.575600 -77.841042
v -3.060353 -49.575241 -77.858810
v -0.956333 -48.887398 -74.688690
v -1.709545 -48.886036 -75.328392
v -2.130210 -49.735176 -74.731438
v -0.956333 -48.887398 -74.688690
v -2.130210 -49.735176 -74.731438
v -1.820886 -50.293743 -74.112968
v -1.820886 -50.293743 -74.112968
v -2.130210 -49.735176 -74.731438
v -2.735507 -50.874336 -74.606911
v -2.540791 -48.961178 -76.678337
v -2.791035 -49.642902 -75.537453
v -1.709545 -48.886036 -75.328392
v -2.130210 -49.735176 -74.731438
v -1.709545 -48.886036 -75.328392
v -2.791035 -49.642902 -75.537453
v -2.540791 -48.961178 -76.678337
v -3.060353 -49.575241 -77.858810
v -3.462923 -50.185204 -76.600311
v -2.791035 -49.642902 -75.537453
v -2.540791 -48.961178 -76.678337
v -3.462923 -50.185204 -76.600311
v -3.462923 -50.185204 -76.600311
v -3.060353 -49.575241 -77.858810
v -3.679812 -50.913120 -77.733635
v -2.130210 -49.735176 -74.731438
v -2.791035 -49.642902 -75.537453
v -3.206241 -50.913361 -75.246613
v -3.462923 -50.185204 -76.600311
v -3.206241 -50.913361 -75.246613
v -2.791035 -49.642902 -75.537453
v -3.206241 -50.913361 -75.246613
v -2.735507 -50.874336 -74.606911
v -2.130210 -49.735176 -74.731438
v -3.679812 -50.913120 -77.733635
v -3.758609 -51.711922 -76.521225
v -3.462923 -50.185204 -76.600311
v -3.758609 -51.711922 -76.521225
v -3.206241 -50.913361 -75.246613
v -3.462923 -50.185204 -76.600311
v -3.686273 -52.541744 -77.677582
v -3.758609 -51.711922 -76.521225
v -3.679812 -50.913120 -77.733635
v -2.735507 -50.874336 -74.606911
v -3.206241 -50.913361 -75.246613
v -3.208888 -52.339203 -75.191406
v -3.758609 -51.711922 -76.521225
v -3.208888 -52.339203 -75.191406
v -3.206241 -50.913361 -75.246613
v -3.208888 -52.339203 -75.191406
v -2.740920 -52.284092 -74.575684
v -2.735507 -50.874336 -74.606911
v -3.686273 -52.541744 -77.677582
v -3.460228 -53.131748 -76.489647
v -3.758609 -51.711922 -76.521225
v -3.460228 -53.131748 -76.489647
v -3.208888 -52.339203 -75.191406
v -3.758609 -51.711922 -76.521225
v -3.460228 -53.131748 -76.489647
v -3.686273 -52.541744 -77.677582
v -3.064311 -53.842793 -77.670349
v -2.740920 -52.284092 -74.575684
v -3.208888 -52.339203 -75.191406
v -2.789629 -53.595299 -75.397507
v -3.460228 -53.131748 -76.489647
v -2.789629 -53.595299 -75.397507
v -3.208888 -52.339203 -75.191406
v -3.460228 -53.131748 -76.489647
v -3.064311 -53.842793 -77.670349
v -2.538002 -54.445126 -76.435448
v -2.789629 -53.595299 -75.397507
v -3.460228 -53.131748 -76.489647
v -2.538002 -54.445126 -76.435448
v -2.538002 -54.445126 -76.435448
v -3.064311 -53.842793 -77.670349
v -1.959836 -54.874638 -77.570122
v -1.959836 -54.874638 -77.570122
v -1.241386 -55.168728 -76.360130
v -2.538002 -54.445126 -76.435448
v -1.241386 -55.168728 -76.360130
v -1.711905 -54.367775 -75.109161
v -2.538002 -54.445126 -76.435448
v -2.538002 -54.445126 -76.435448
v -1.711905 -54.367775 -75.109161
v -2.789629 -53.595299 -75.397507
v -2.789629 -53.595299 -75.397507
v -2.417839 -53.267990 -74.665291
v -2.740920 -52.284092 -74.575684
v -2.417839 -53.267990 -74.665291
v -2.789629 -53.595299 -75.397507
v -1.711905 -54.367775 -75.109161
v -1.815259 -52.823883 -74.028267
v -2.740920 -52.284092 -74.575684
v -2.417839 -53.267990 -74.665291
v -1.711905 -54.367775 -75.109161
v -1.565468 -53.916916 -74.495987
v -2.417839 -53.267990 -74.665291
v -1.815259 -52.823883 -74.028267
v -2.417839 -53.267990 -74.665291
v -1.565468 -53.916916 -74.495987
vt 0.827637 0.144043
vt 0.831543 0.107910
vt 0.843750 0.154297
vt 0.831543 0.107910
vt 0.827637 0.144043
vt 0.813477 0.118164
vt 0.831543 0.107910
vt 0.813477 0.118164
vt 0.812012 0.076660
vt 0.843750 0.154297
vt 0.828125 0.182617
vt 0.827637 0.144043
vt 0.843750 0.205078
vt 0.828125 0.182617
vt 0.843750 0.154297
vt 0.812500 0.158203
vt 0.813477 0.118164
vt 0.827637 0.144043
vt 0.812500 0.158203
vt 0.827637 0.144043
vt 0.828125 0.182617
vt 0.812012 0.076660
vt 0.813477 0.118164
vt 0.796875 0.099121
vt 0.812012 0.076660
vt 0.796875 0.099121
vt 0.788086 0.061523
vt 0.797852 0.137207
vt 0.813477 0.118164
vt 0.812500 0.158203
vt 0.797852 0.137207
vt 0.796875 0.099121
vt 0.813477 0.118164
vt 0.788086 0.061523
vt 0.796875 0.099121
vt 0.777832 0.088867
vt 0.777832 0.088867
vt 0.761719 0.069336
vt 0.788086 0.061523
vt 0.780762 0.121582
vt 0.796875 0.099121
vt 0.797852 0.137207
vt 0.780762 0.121582
vt 0.777832 0.088867
vt 0.796875 0.099121
vt 0.761719 0.069336
vt 0.777832 0.088867
vt 0.761719 0.107910
vt 0.780762 0.121582
vt 0.761719 0.107910
vt 0.777832 0.088867
vt 0.761719 0.069336
vt 0.761719 0.107910
vt 0.741211 0.097168
vt 0.782227 0.152832
vt 0.780762 0.121582
vt 0.797852 0.137207
vt 0.741211 0.097168
vt 0.761719 0.107910
vt 0.747559 0.133789
vt 0.741211 0.097168
vt 0.747559 0.133789
vt 0.727051 0.138672
vt 0.765625 0.144043
vt 0.761719 0.107910
vt 0.780762 0.121582
vt 0.765625 0.144043
vt 0.747559 0.133789
vt 0.761719 0.107910
vt 0.782227 0.152832
vt 0.765625 0.144043
vt 0.780762 0.121582
vt 0.727051 0.138672
vt 0.747559 0.133789
vt 0.736328 0.165527
vt 0.736328 0.165527
vt 0.722168 0.189453
vt 0.727051 0.138672
vt 0.752930 0.170898
vt 0.747559 0.133789
vt 0.765625 0.144043
vt 0.752930 0.170898
vt 0.736328 0.165527
vt 0.747559 0.133789
vt 0.722168 0.189453
vt 0.736328 0.165527
vt 0.739746 0.203125
vt 0.752930 0.170898
vt 0.739746 0.203125
vt 0.736328 0.165527
vt 0.722168 0.189453
vt 0.739746 0.203125
vt 0.729004 0.238281
vt 0.767578 0.177246
vt 0.752930 0.170898
vt 0.765625 0.144043
vt 0.767578 0.177246
vt 0.765625 0.144043
vt 0.782227 0.152832
vt 0.758301 0.206543
vt 0.739746 0.203125
vt 0.752930 0.170898
vt 0.767578 0.177246
vt 0.758301 0.206543
vt 0.752930 0.170898
vt 0.729004 0.238281
vt 0.739746 0.203125
vt 0.748047 0.237793
vt 0.758301 0.206543
vt 0.748047 0.237793
vt 0.739746 0.203125
vt 0.729004 0.238281
vt 0.748047 0.237793
vt 0.744141 0.278320
vt 0.775879 0.211914
vt 0.758301 0.206543
vt 0.767578 0.177246
vt 0.744141 0.278320
vt 0.748047 0.237793
vt 0.760254 0.268066
vt 0.760254 0.268066
vt 0.767090 0.302734
vt 0.744141 0.278320
vt 0.767578 0.239746
vt 0.748047 0.237793
vt 0.758301 0.206543
vt 0.767578 0.239746
vt 0.760254 0.268066
vt 0.748047 0.237793
vt 0.775879 0.211914
vt 0.767578 0.239746
vt 0.758301 0.206543
vt 0.767090 0.302734
vt 0.760254 0.268066
vt 0.779297 0.272949
vt 0.767578 0.239746
vt 0.779297 0.272949
vt 0.760254 0.268066
vt 0.767090 0.302734
vt 0.779297 0.272949
vt 0.791992 0.305664
vt 0.786133 0.239258
vt 0.779297 0.272949
vt 0.767578 0.239746
vt 0.775879 0.211914
vt 0.786133 0.239258
vt 0.767578 0.239746
vt 0.791992 0.305664
vt 0.779297 0.272949
vt 0.798340 0.269043
vt 0.786133 0.239258
vt 0.798340 0.269043
vt 0.779297 0.272949
vt 0.791992 0.305664
vt 0.798340 0.269043
vt 0.815918 0.288574
vt 0.794434 0.208496
vt 0.786133 0.239258
vt 0.775879 0.211914
vt 0.815918 0.288574
vt 0.798340 0.269043
vt 0.815918 0.255371
vt 0.815918 0.255371
vt 0.834961 0.252441
vt 0.815918 0.288574
vt 0.805176 0.231445
vt 0.798340 0.269043
vt 0.786133 0.239258
vt 0.805176 0.231445
vt 0.815918 0.255371
vt 0.798340 0.269043
vt 0.794434 0.208496
vt 0.805176 0.231445
vt 0.786133 0.239258
vt 0.834961 0.252441
vt 0.815918 0.255371
vt 0.824219 0.220703
vt 0.805176 0.231445
vt 0.824219 0.220703
vt 0.815918 0.255371
vt 0.834961 0.252441
vt 0.824219 0.220703
vt 0.843750 0.205078
vt 0.843750 0.205078
vt 0.824219 0.220703
vt 0.828125 0.182617
vt 0.810547 0.196289
vt 0.824219 0.220703
vt 0.805176 0.231445
vt 0.810547 0.196289
vt 0.828125 0.182617
vt 0.824219 0.220703
vt 0.794434 0.208496
vt 0.810547 0.196289
vt 0.805176 0.231445
vt 0.812500 0.158203
vt 0.828125 0.182617
vt 0.810547 0.196289
vt 0.798340 0.171875
vt 0.812500 0.158203
vt 0.810547 0.196289
vt 0.798340 0.171875
vt 0.810547 0.196289
vt 0.794434 0.208496
vt 0.798340 0.171875
vt 0.797852 0.137207
vt 0.812500 0.158203
vt 0.782227 0.152832
vt 0.797852 0.137207
vt 0.798340 0.171875
vt 0.783203 0.184570
vt 0.798340 0.171875
vt 0.794434 0.208496
vt 0.783203 0.184570
vt 0.782227 0.152832
vt 0.798340 0.171875
vt 0.783203 0.184570
vt 0.794434 0.208496
vt 0.775879 0.211914
vt 0.783203 0.184570
vt 0.767578 0.177246
vt 0.782227 0.152832
vt 0.783203 0.184570
vt 0.775879 0.211914
vt 0.767578 0.177246
vt 0.932129 0.210449
vt 0.937500 0.198730
vt 0.941895 0.199707
vt 0.941895 0.199707
vt 0.935059 0.215332
vt 0.932129 0.210449
vt 0.923340 0.212402
vt 0.932129 0.210449
vt 0.935059 0.215332
vt 0.942383 0.179199
vt 0.941895 0.199707
vt 0.937500 0.198730
vt 0.937500 0.198730
vt 0.938965 0.182617
vt 0.942383 0.179199
vt 0.935059 0.215332
vt 0.924805 0.220215
vt 0.923340 0.212402
vt 0.916504 0.205078
vt 0.923340 0.212402
vt 0.924805 0.220215
vt 0.937500 0.161621
vt 0.942383 0.179199
vt 0.938965 0.182617
vt 0.938965 0.182617
vt 0.935547 0.168457
vt 0.937500 0.161621
vt 0.924805 0.220215
vt 0.914551 0.211914
vt 0.916504 0.205078
vt 0.913086 0.189941
vt 0.916504 0.205078
vt 0.914551 0.211914
vt 0.927246 0.154297
vt 0.937500 0.161621
vt 0.935547 0.168457
vt 0.935547 0.168457
vt 0.928711 0.161133
vt 0.927246 0.154297
vt 0.914551 0.211914
vt 0.909668 0.194336
vt 0.913086 0.189941
vt 0.914551 0.174316
vt 0.913086 0.189941
vt 0.909668 0.194336
vt 0.917969 0.158203
vt 0.927246 0.154297
vt 0.928711 0.161133
vt 0.928711 0.161133
vt 0.919922 0.163574
vt 0.917969 0.158203
vt 0.919922 0.163574
vt 0.914551 0.174316
vt 0.911133 0.173828
vt 0.911133 0.173828
vt 0.917969 0.158203
vt 0.919922 0.163574
vt 0.909668 0.194336
vt 0.911133 0.173828
vt 0.914551 0.174316
vt 0.926758 0.140625
vt 0.927246 0.154297
vt 0.917969 0.158203
vt 0.904297 0.171875
vt 0.911133 0.173828
vt 0.909668 0.194336
vt 0.913086 0.149902
vt 0.917969 0.158203
vt 0.911133 0.173828
vt 0.911133 0.173828
vt 0.904297 0.171875
vt 0.913086 0.149902
vt 0.917969 0.158203
vt 0.913086 0.149902
vt 0.926758 0.140625
vt 0.909668 0.194336
vt 0.904297 0.199707
vt 0.904297 0.171875
vt 0.904297 0.199707
vt 0.909668 0.194336
vt 0.914551 0.211914
vt 0.913086 0.149902
vt 0.904297 0.171875
vt 0.897461 0.160156
vt 0.914551 0.211914
vt 0.911621 0.223633
vt 0.904297 0.199707
vt 0.911621 0.223633
vt 0.914551 0.211914
vt 0.924805 0.220215
vt 0.904297 0.199707
vt 0.895020 0.183105
vt 0.904297 0.171875
vt 0.904297 0.171875
vt 0.895020 0.183105
vt 0.897461 0.160156
vt 0.924805 0.220215
vt 0.925293 0.232910
vt 0.911621 0.223633
vt 0.925293 0.232910
vt 0.924805 0.220215
vt 0.935059 0.215332
vt 0.911621 0.223633
vt 0.902344 0.227539
vt 0.904297 0.199707
vt 0.935059 0.215332
vt 0.939453 0.224609
vt 0.925293 0.232910
vt 0.939453 0.224609
vt 0.935059 0.215332
vt 0.941895 0.199707
vt 0.925293 0.232910
vt 0.914551 0.245117
vt 0.911621 0.223633
vt 0.911621 0.223633
vt 0.914551 0.245117
vt 0.902344 0.227539
vt 0.941895 0.199707
vt 0.947754 0.201660
vt 0.939453 0.224609
vt 0.947754 0.201660
vt 0.941895 0.199707
vt 0.942383 0.179199
vt 0.925293 0.232910
vt 0.939453 0.224609
vt 0.944336 0.234375
vt 0.942383 0.179199
vt 0.947754 0.172363
vt 0.947754 0.201660
vt 0.947754 0.172363
vt 0.942383 0.179199
vt 0.937500 0.161621
vt 0.939453 0.224609
vt 0.947754 0.201660
vt 0.954590 0.210449
vt 0.954590 0.210449
vt 0.944336 0.234375
vt 0.939453 0.224609
vt 0.947754 0.172363
vt 0.957520 0.180664
vt 0.947754 0.201660
vt 0.947754 0.201660
vt 0.957520 0.180664
vt 0.954590 0.210449
vt 0.937500 0.161621
vt 0.939453 0.149414
vt 0.947754 0.172363
vt 0.939453 0.149414
vt 0.937500 0.161621
vt 0.927246 0.154297
vt 0.927246 0.154297
vt 0.926758 0.140625
vt 0.939453 0.149414
vt 0.947754 0.172363
vt 0.951660 0.151367
vt 0.957520 0.180664
vt 0.939453 0.149414
vt 0.951660 0.151367
vt 0.947754 0.172363
vt 0.965332 0.208496
vt 0.954590 0.210449
vt 0.957520 0.180664
vt 0.926758 0.140625
vt 0.933594 0.125488
vt 0.939453 0.149414
vt 0.954590 0.210449
vt 0.965332 0.208496
vt 0.955078 0.234375
vt 0.954590 0.210449
vt 0.955078 0.234375
vt 0.944336 0.234375
vt 0.926758 0.140625
vt 0.917969 0.126953
vt 0.933594 0.125488
vt 0.913086 0.149902
vt 0.917969 0.126953
vt 0.926758 0.140625
vt 0.939453 0.149414
vt 0.933594 0.125488
vt 0.945312 0.131836
vt 0.939453 0.149414
vt 0.945312 0.131836
vt 0.951660 0.151367
vt 0.932129 0.112793
vt 0.933594 0.125488
vt 0.917969 0.126953
vt 0.945312 0.131836
vt 0.933594 0.125488
vt 0.932129 0.112793
vt 0.913086 0.149902
vt 0.906250 0.134277
vt 0.917969 0.126953
vt 0.958008 0.145996
vt 0.951660 0.151367
vt 0.945312 0.131836
vt 0.913086 0.149902
vt 0.902344 0.147949
vt 0.906250 0.134277
vt 0.897461 0.160156
vt 0.902344 0.147949
vt 0.913086 0.149902
vt 0.916504 0.114258
vt 0.917969 0.126953
vt 0.906250 0.134277
vt 0.917969 0.126953
vt 0.916504 0.114258
vt 0.932129 0.112793
vt 0.900391 0.122070
vt 0.906250 0.134277
vt 0.902344 0.147949
vt 0.906250 0.134277
vt 0.900391 0.122070
vt 0.916504 0.114258
vt 0.897461 0.160156
vt 0.892090 0.149902
vt 0.902344 0.147949
vt 0.902344 0.147949
vt 0.892090 0.149902
vt 0.900391 0.122070
vt 0.892090 0.149902
vt 0.897461 0.160156
vt 0.895020 0.183105
vt 0.901367 0.091797
vt 0.916504 0.114258
vt 0.900391 0.122070
vt 0.883789 0.119629
vt 0.900391 0.122070
vt 0.892090 0.149902
vt 0.900391 0.122070
vt 0.883789 0.119629
vt 0.901367 0.091797
vt 0.895020 0.183105
vt 0.888672 0.181152
vt 0.892090 0.149902
vt 0.883789 0.119629
vt 0.881836 0.085449
vt 0.901367 0.091797
vt 0.883789 0.119629
vt 0.865723 0.129883
vt 0.881836 0.085449
vt 0.901367 0.091797
vt 0.881836 0.085449
vt 0.906250 0.060547
vt 0.865723 0.129883
vt 0.883789 0.119629
vt 0.875000 0.158691
vt 0.883789 0.119629
vt 0.892090 0.149902
vt 0.875000 0.158691
vt 0.875000 0.158691
vt 0.892090 0.149902
vt 0.888672 0.181152
vt 0.865723 0.129883
vt 0.875000 0.158691
vt 0.859375 0.184570
vt 0.906250 0.060547
vt 0.923340 0.080566
vt 0.901367 0.091797
vt 0.923340 0.080566
vt 0.916504 0.114258
vt 0.901367 0.091797
vt 0.934082 0.054199
vt 0.923340 0.080566
vt 0.906250 0.060547
vt 0.923340 0.080566
vt 0.932129 0.112793
vt 0.916504 0.114258
vt 0.934082 0.054199
vt 0.944336 0.086914
vt 0.923340 0.080566
vt 0.944336 0.086914
vt 0.932129 0.112793
vt 0.923340 0.080566
vt 0.944336 0.086914
vt 0.934082 0.054199
vt 0.959961 0.071289
vt 0.944336 0.086914
vt 0.948242 0.118164
vt 0.932129 0.112793
vt 0.932129 0.112793
vt 0.948242 0.118164
vt 0.945312 0.131836
vt 0.945312 0.131836
vt 0.948242 0.118164
vt 0.958008 0.145996
vt 0.944336 0.086914
vt 0.959961 0.071289
vt 0.963379 0.111328
vt 0.948242 0.118164
vt 0.944336 0.086914
vt 0.963379 0.111328
vt 0.963379 0.111328
vt 0.958008 0.145996
vt 0.948242 0.118164
vt 0.963379 0.111328
vt 0.959961 0.071289
vt 0.979492 0.109375
vt 0.979492 0.109375
vt 0.975586 0.147949
vt 0.963379 0.111328
vt 0.975586 0.147949
vt 0.958008 0.145996
vt 0.963379 0.111328
vt 0.991211 0.161621
vt 0.975586 0.147949
vt 0.979492 0.109375
vt 0.975586 0.147949
vt 0.963379 0.175293
vt 0.958008 0.145996
vt 0.951660 0.151367
vt 0.958008 0.145996
vt 0.963379 0.175293
vt 0.963379 0.175293
vt 0.957520 0.180664
vt 0.951660 0.151367
vt 0.957520 0.180664
vt 0.963379 0.175293
vt 0.965332 0.208496
vt 0.991211 0.161621
vt 0.979004 0.190918
vt 0.975586 0.147949
vt 0.979004 0.190918
vt 0.963379 0.175293
vt 0.975586 0.147949
vt 0.979004 0.190918
vt 0.965332 0.208496
vt 0.963379 0.175293
vt 0.979004 0.190918
vt 0.991211 0.161621
vt 0.991211 0.215820
vt 0.965332 0.208496
vt 0.979004 0.190918
vt 0.973633 0.234863
vt 0.979004 0.190918
vt 0.991211 0.215820
vt 0.973633 0.234863
vt 0.973633 0.234863
vt 0.955078 0.234375
vt 0.965332 0.208496
vt 0.973633 0.234863
vt 0.991211 0.215820
vt 0.979004 0.265625
vt 0.979004 0.265625
vt 0.959473 0.269043
vt 0.973633 0.234863
vt 0.959473 0.269043
vt 0.955078 0.234375
vt 0.973633 0.234863
vt 0.958008 0.302734
vt 0.959473 0.269043
vt 0.979004 0.265625
vt 0.959473 0.269043
vt 0.942383 0.254883
vt 0.955078 0.234375
vt 0.944336 0.234375
vt 0.955078 0.234375
vt 0.942383 0.254883
vt 0.958008 0.302734
vt 0.940430 0.289551
vt 0.959473 0.269043
vt 0.940430 0.289551
vt 0.942383 0.254883
vt 0.959473 0.269043
vt 0.940430 0.289551
vt 0.958008 0.302734
vt 0.932129 0.319824
vt 0.944336 0.234375
vt 0.942383 0.254883
vt 0.930176 0.248535
vt 0.944336 0.234375
vt 0.930176 0.248535
vt 0.925293 0.232910
vt 0.925293 0.232910
vt 0.930176 0.248535
vt 0.914551 0.245117
vt 0.940430 0.289551
vt 0.927246 0.268066
vt 0.942383 0.254883
vt 0.930176 0.248535
vt 0.942383 0.254883
vt 0.927246 0.268066
vt 0.940430 0.289551
vt 0.932129 0.319824
vt 0.916992 0.291992
vt 0.927246 0.268066
vt 0.940430 0.289551
vt 0.916992 0.291992
vt 0.916992 0.291992
vt 0.932129 0.319824
vt 0.904785 0.311523
vt 0.930176 0.248535
vt 0.927246 0.268066
vt 0.912598 0.255859
vt 0.916992 0.291992
vt 0.912598 0.255859
vt 0.927246 0.268066
vt 0.912598 0.255859
vt 0.914551 0.245117
vt 0.930176 0.248535
vt 0.904785 0.311523
vt 0.897461 0.274902
vt 0.916992 0.291992
vt 0.897461 0.274902
vt 0.912598 0.255859
vt 0.916992 0.291992
vt 0.879883 0.283203
vt 0.897461 0.274902
vt 0.904785 0.311523
vt 0.914551 0.245117
vt 0.912598 0.255859
vt 0.898926 0.238281
vt 0.897461 0.274902
vt 0.898926 0.238281
vt 0.912598 0.255859
vt 0.898926 0.238281
vt 0.902344 0.227539
vt 0.914551 0.245117
vt 0.879883 0.283203
vt 0.881348 0.245117
vt 0.897461 0.274902
vt 0.881348 0.245117
vt 0.898926 0.238281
vt 0.897461 0.274902
vt 0.881348 0.245117
vt 0.879883 0.283203
vt 0.864258 0.239258
vt 0.902344 0.227539
vt 0.898926 0.238281
vt 0.887207 0.214355
vt 0.881348 0.245117
vt 0.887207 0.214355
vt 0.898926 0.238281
vt 0.881348 0.245117
vt 0.864258 0.239258
vt 0.873047 0.202148
vt 0.887207 0.214355
vt 0.881348 0.245117
vt 0.873047 0.202148
vt 0.873047 0.202148
vt 0.864258 0.239258
vt 0.859375 0.184570
vt 0.859375 0.184570
vt 0.875000 0.158691
vt 0.873047 0.202148
vt 0.875000 0.158691
vt 0.888672 0.181152
vt 0.873047 0.202148
vt 0.873047 0.202148
vt 0.888672 0.181152
vt 0.887207 0.214355
vt 0.887207 0.214355
vt 0.895020 0.208496
vt 0.902344 0.227539
vt 0.895020 0.208496
vt 0.887207 0.214355
vt 0.888672 0.181152
vt 0.904297 0.199707
vt 0.902344 0.227539
vt 0.895020 0.208496
vt 0.888672 0.181152
vt 0.895020 0.183105
vt 0.895020 0.208496
vt 0.904297 0.199707
vt 0.895020 0.208496
vt 0.895020 0.183105
f 1/1/1 2/2/2 3/3/3
f 4/4/4 5/5/5 6/6/6
f 7/7/7 8/8/8 9/9/9
f 10/10/10 11/11/11 12/12/12
f 13/13/13 14/14/14 15/15/15
f 16/16/16 17/17/17 18/18/18
f 19/19/19 20/20/20 21/21/21
f 22/22/22 23/23/23 24/24/24
f 25/25/25 26/26/26 27/27/27
f 28/28/28 29/29/29 30/30/30
f 31/31/31 32/32/32 33/33/33
f 34/34/34 35/35/35 36/36/36
f 37/37/37 38/38/38 39/39/39
f 40/40/40 41/41/41 42/42/42
f 43/43/43 44/44/44 45/45/45
f 46/46/46 47/47/47 48/48/48
f 49/49/49 50/50/50 51/51/51
f 52/52/52 53/53/53 54/54/54
f 55/55/55 56/56/56 57/57/57
f 58/58/58 59/59/59 60/60/60
f 61/61/61 62/62/62 63/63/63
f 64/64/64 65/65/65 66/66/66
f 67/67/67 68/68/68 69/69/69
f 70/70/70 71/71/71 72/72/72
f 73/73/73 74/74/74 75/75/75
f 76/76/76 77/77/77 78/78/78
f 79/79/79 80/80/80 81/81/81
f 82/82/82 83/83/83 84/84/84
f 85/85/85 86/86/86 87/87/87
f 88/88/88 89/89/89 90/90/90
f 91/91/91 92/92/92 93/93/93
f 94/94/94 95/95/95 96/96/96
f 97/97/97 98/98/98 99/99/99
f 100/100/100 101/101/101 102/102/102
f 103/103/103 104/104/104 105/105/105
f 106/106/106 107/107/107 108/108/108
f 109/109/109 110/110/110 111/111/111
f 112/112/112 113/113/113 114/114/114
f 115/115/115 116/116/116 117/117/117
f 118/118/118 119/119/119 120/120/120
f 121/121/121 122/122/122 123/123/123
f 124/124/124 125/125/125 126/126/126
f 127/127/127 128/128/128 129/129/129
f 130/130/130 131/131/131 132/132/132
f 133/133/133 134/134/134 135/135/135
f 136/136/136 137/137/137 138/138/138
f 139/139/139 140/140/140 141/141/141
f 142/142/142 143/143/143 144/144/144
f 145/145/145 146/146/146 147/147/147
f 148/148/148 149/149/149 150/150/150
f 151/151/151 152/152/152 153/153/153
f 154/154/154 155/155/155 156/156/156
f 157/157/157 158/158/158 159/159/159
f 160/160/160 161/161/161 162/162/162
f 163/163/163 164/164/164 165/165/165
f 166/166/166 167/167/167 168/168/168
f 169/169/169 170/170/170 171/171/171
f 172/172/172 173/173/173 174/174/174
f 175/175/175 176/176/176 177/177/177
f 178/178/178 179/179/179 180/180/180
f 181/181/181 182/182/182 183/183/183
f 184/184/184 185/185/185 186/186/186
f 187/187/187 188/188/188 189/189/189
f 190/190/190 191/191/191 192/192/192
f 193/193/193 194/194/194 195/195/195
f 196/196/196 197/197/197 198/198/198
f 199/199/199 200/200/200 201/201/201
f 202/202/202 203/203/203 204/204/204
f 205/205/205 206/206/206 207/207/207
f 208/208/208 209/209/209 210/210/210
f 211/211/211 212/212/212 213/213/213
f 214/214/214 215/215/215 216/216/216
f 217/217/217 218/218/218 219/219/219
f 220/220/220 221/221/221 222/222/222
f 223/223/223 224/224/224 225/225/225
f 226/226/226 227/227/227 228/228/228
f 229/229/229 230/230/230 231/231/231
f 232/232/232 233/233/233 234/234/234
f 235/235/235 236/236/236 237/237/237
f 238/238/238 239/239/239 240/240/240
f 241/241/241 242/242/242 243/243/243
f 244/244/244 245/245/245 246/246/246
f 247/247/247 248/248/248 249/249/249
f 250/250/250 251/251/251 252/252/252
f 253/253/253 254/254/254 255/255/255
f 256/256/256 257/257/257 258/258/258
f 259/259/259 260/260/260 261/261/261
f 262/262/262 263/263/263 264/264/264
f 265/265/265 266/266/266 267/267/267
f 268/268/268 269/269/269 270/270/270
f 271/271/271 272/272/272 273/273/273
f 274/274/274 275/275/275 276/276/276
f 277/277/277 278/278/278 279/279/279
f 280/280/280 281/281/281 282/282/282
f 283/283/283 284/284/284 285/285/285
f 286/286/286 287/287/287 288/288/288
f 289/289/289 290/290/290 291/291/291
f 292/292/292 293/293/293 294/294/294
f 295/295/295 296/296/296 297/297/297
f 298/298/298 299/299/299 300/300/300
f 301/301/301 302/302/302 303/303/303
f 304/304/304 305/305/305 306/306/306
f 307/307/307 308/308/308 309/309/309
f 310/310/310 311/311/311 312/312/312
f 313/313/313 314/314/314 315/315/315
f 316/316/316 317/317/317 318/318/318
f 319/319/319 320/320/320 321/321/321
f 322/322/322 323/323/323 324/324/324
f 325/325/325 326/326/326 327/327/327
f 328/328/328 329/329/329 330/330/330
f 331/331/331 332/332/332 333/333/333
f 334/334/334 335/335/335 336/336/336
f 337/337/337 338/338/338 339/339/339
f 340/340/340 341/341/341 342/342/342
f 343/343/343 344/344/344 345/345/345
f 346/346/346 347/347/347 348/348/348
f 349/349/349 350/350/350 351/351/351
f 352/352/352 353/353/353 354/354/354
f 355/355/355 356/356/356 357/357/357
f 358/358/358 359/359/359 360/360/360
f 361/361/361 362/362/362 363/363/363
f 364/364/364 365/365/365 366/366/366
f 367/367/367 368/368/368 369/369/369
f 370/370/370 371/371/371 372/372/372
f 373/373/373 374/374/374 375/375/375
f 376/376/376 377/377/377 378/378/378
f 379/379/379 380/380/380 381/381/381
f 382/382/382 383/383/383 384/384/384
f 385/385/385 386/386/386 387/387/387
f 388/388/388 389/389/389 390/390/390
f 391/391/391 392/392/392 393/393/393
f 394/394/394 395/395/395 396/396/396
f 397/397/397 398/398/398 399/399/399
f 400/400/400 401/401/401 402/402/402
f 403/403/403 404/404/404 405/405/405
f 406/406/406 407/407/407 408/408/408
f 409/409/409 410/410/410 411/411/411
f 412/412/412 413/413/413 414/414/414
f 415/415/415 416/416/416 417/417/417
f 418/418/418 419/419/419 420/420/420
f 421/421/421 422/422/422 423/423/423
f 424/424/424 425/425/425 426/426/426
f 427/427/427 428/428/428 429/429/429
f 430/430/430 431/431/431 432/432/432
f 433/433/433 434/434/434 435/435/435
f 436/436/436 437/437/437 438/438/438
f 439/439/439 440/440/440 441/441/441
f 442/442/442 443/443/443 444/444/444
f 445/445/445 446/446/446 447/447/447
f 448/448/448 449/449/449 450/450/450
f 451/451/451 452/452/452 453/453/453
f 454/454/454 455/455/455 456/456/456
f 457/457/457 458/458/458 459/459/459
f 460/460/460 461/461/461 462/462/462
f 463/463/463 464/464/464 465/465/465
f 466/466/466 467/467/467 468/468/468
f 469/469/469 470/470/470 471/471/471
f 472/472/472 473/473/473 474/474/474
f 475/475/475 476/476/476 477/477/477
f 478/478/478 479/479/479 480/480/480
f 481/481/481 482/482/482 483/483/483
f 484/484/484 485/485/485 486/486/486
f 487/487/487 488/488/488 489/489/489
f 490/490/490 491/491/491 492/492/492
f 493/493/493 494/494/494 495/495/495
f 496/496/496 497/497/497 498/498/498
f 499/499/499 500/500/500 501/501/501
f 502/502/502 503/503/503 504/504/504
f 505/505/505 506/506/506 507/507/507
f 508/508/508 509/509/509 510/510/510
f 511/511/511 512/512/512 513/513/513
f 514/514/514 515/515/515 516/516/516
f 517/517/517 518/518/518 519/519/519
f 520/520/520 521/521/521 522/522/522
f 523/523/523 524/524/524 525/525/525
f 526/526/526 527/527/527 528/528/528
f 529/529/529 530/530/530 531/531/531
f 532/532/532 533/533/533 534/534/534
f 535/535/535 536/536/536 537/537/537
f 538/538/538 539/539/539 540/540/540
f 541/541/541 542/542/542 543/543/543
f 544/544/544 545/545/545 546/546/546
f 547/547/547 548/548/548 549/549/549
f 550/550/550 551/551/551 552/552/552
f 553/553/553 554/554/554 555/555/555
f 556/556/556 557/557/557 558/558/558
f 559/559/559 560/560/560 561/561/561
f 562/562/562 563/563/563 564/564/564
f 565/565/565 566/566/566 567/567/567
f 568/568/568 569/569/569 570/570/570
f 571/571/571 572/572/572 573/573/573
f 574/574/574 575/575/575 576/576/576
f 577/577/577 578/578/578 579/579/579
f 580/580/580 581/581/581 582/582/582
f 583/583/583 584/584/584 585/585/585
f 586/586/586 587/587/587 588/588/588
f 589/589/589 590/590/590 591/591/591
f 592/592/592 593/593/593 594/594/594
f 595/595/595 596/596/596 597/597/597
f 598/598/598 599/599/599 600/600/600
f 601/601/601 602/602/602 603/603/603
f 604/604/604 605/605/605 606/606/606
f 607/607/607 608/608/608 609/609/609
f 610/610/610 611/611/611 612/612/612
f 613/613/613 614/614/614 615/615/615
f 616/616/616 617/617/617 618/618/618
f 619/619/619 620/620/620 621/621/621
f 622/622/622 623/623/623 624/624/624
f 625/625/625 626/626/626 627/627/627
f 628/628/628 629/629/629 630/630/630
f 631/631/631 632/632/632 633/633/633
f 634/634/634 635/635/635 636/636/636
f 637/637/637 638/638/638 639/639/639
f 640/640/640 641/641/641 642/642/642
f 643/643/643 644/644/644 645/645/645
f 646/646/646 647/647/647 648/648/648
f 649/649/649 650/650/650 651/651/651
f 652/652/652 653/653/653 654/654/654
f 655/655/655 656/656/656 657/657/657
f 658/658/658 659/659/659 660/660/660
f 661/661/661 662/662/662 663/663/663
f 664/664/664 665/665/665 666/666/666
f 667/667/667 668/668/668 669/669/669
f 670/670/670 671/671/671 672/672/672
f 673/673/673 674/674/674 675/675/675
f 676/676/676 677/677/677 678/678/678
f 679/679/679 680/680/680 681/681/681
f 682/682/682 683/683/683 684/684/684
f 685/685/685 686/686/686 687/687/687
f 688/688/688 689/689/689 690/690/690
