# OBJ file
v 2.573884 74.271080 -78.033928
v 3.246987 74.800278 -76.900429
v 2.329743 73.413673 -76.987312
v 3.246987 74.800278 -76.900429
v 2.573884 74.271080 -78.033928
v 2.997458 75.531876 -78.277748
v 3.246987 74.800278 -76.900429
v 2.997458 75.531876 -78.277748
v 3.548276 76.217957 -76.955231
v 2.329743 73.413673 -76.987312
v 1.501501 73.522957 -78.267029
v 2.573884 74.271080 -78.033928
v 1.026428 72.816200 -76.984138
v 1.501501 73.522957 -78.267029
v 2.329743 73.413673 -76.987312
v 1.910460 74.737846 -79.126488
v 2.997458 75.531876 -78.277748
v 2.573884 74.271080 -78.033928
v 1.910460 74.737846 -79.126488
v 2.573884 74.271080 -78.033928
v 1.501501 73.522957 -78.267029
v 3.548276 76.217957 -76.955231
v 2.997458 75.531876 -78.277748
v 2.993762 76.932343 -78.238312
v 3.548276 76.217957 -76.955231
v 2.993762 76.932343 -78.238312
v 3.251779 77.794724 -76.821518
v 2.096188 76.387550 -79.277260
v 2.997458 75.531876 -78.277748
v 1.910460 74.737846 -79.126488
v 2.096188 76.387550 -79.277260
v 2.993762 76.932343 -78.238312
v 2.997458 75.531876 -78.277748
v 3.251779 77.794724 -76.821518
v 2.993762 76.932343 -78.238312
v 2.579606 78.261955 -77.913589
v 2.579606 78.261955 -77.913589
v 2.332008 79.006073 -76.828156
v 3.251779 77.794724 -76.821518
v 1.915228 77.732391 -79.047813
v 2.993762 76.932343 -78.238312
v 2.096188 76.387550 -79.277260
v 1.915228 77.732391 -79.047813
v 2.579606 78.261955 -77.913589
v 2.993762 76.932343 -78.238312
v 2.332008 79.006073 -76.828156
v 2.579606 78.261955 -77.913589
v 1.502740 78.936371 -78.201462
v 1.915228 77.732391 -79.047813
v 1.502740 78.936371 -78.201462
v 2.579606 78.261955 -77.913589
v 2.332008 79.006073 -76.828156
v 1.502740 78.936371 -78.201462
v 1.025021 79.809662 -76.832649
v 0.975668 77.104904 -79.755051
v 1.915228 77.732391 -79.047813
v 2.096188 76.387550 -79.277260
v 1.025021 79.809662 -76.832649
v 1.502740 78.936371 -78.201462
v 0.208986 79.527145 -78.157356
v 1.025021 79.809662 -76.832649
v 0.208986 79.527145 -78.157356
v -0.463235 80.001640 -76.786507
v 0.577009 78.387581 -79.240959
v 1.502740 78.936371 -78.201462
v 1.915228 77.732391 -79.047813
v 0.577009 78.387581 -79.240959
v 0.208986 79.527145 -78.157356
v 1.502740 78.936371 -78.201462
v 0.975668 77.104904 -79.755051
v 0.577009 78.387581 -79.240959
v 1.915228 77.732391 -79.047813
v -0.463235 80.001640 -76.786507
v 0.208986 79.527145 -78.157356
v -1.131546 79.404938 -77.873024
v -1.131546 79.404938 -77.873024
v -1.960862 79.343208 -76.830757
v -0.463235 80.001640 -76.786507
v -0.876439 78.729576 -79.006149
v 0.208986 79.527145 -78.157356
v 0.577009 78.387581 -79.240959
v -0.876439 78.729576 -79.006149
v -1.131546 79.404938 -77.873024
v 0.208986 79.527145 -78.157356
v -1.960862 79.343208 -76.830757
v -1.131546 79.404938 -77.873024
v -2.212226 78.666458 -78.153130
v -0.876439 78.729576 -79.006149
v -2.212226 78.666458 -78.153130
v -1.131546 79.404938 -77.873024
v -1.960862 79.343208 -76.830757
v -2.212226 78.666458 -78.153130
v -3.063214 78.352592 -76.872330
v -0.520647 77.507690 -79.757027
v -0.876439 78.729576 -79.006149
v 0.577009 78.387581 -79.240959
v -0.520647 77.507690 -79.757027
v 0.577009 78.387581 -79.240959
v 0.975668 77.104904 -79.755051
v -1.880729 77.532745 -79.284035
v -2.212226 78.666458 -78.153130
v -0.876439 78.729576 -79.006149
v -0.520647 77.507690 -79.757027
v -1.880729 77.532745 -79.284035
v -0.876439 78.729576 -79.006149
v -3.063214 78.352592 -76.872330
v -2.212226 78.666458 -78.153130
v -3.012621 77.468117 -78.193932
v -1.880729 77.532745 -79.284035
v -3.012621 77.468117 -78.193932
v -2.212226 78.666458 -78.153130
v -3.063214 78.352592 -76.872330
v -3.012621 77.468117 -78.193932
v -3.685772 76.946381 -76.864731
v -1.440012 76.251495 -79.798325
v -1.880729 77.532745 -79.284035
v -0.520647 77.507690 -79.757027
v -3.685772 76.946381 -76.864731
v -3.012621 77.468117 -78.193932
v -3.420699 76.201408 -77.950424
v -3.420699 76.201408 -77.950424
v -3.685510 75.351906 -76.903229
v -3.685772 76.946381 -76.864731
v -2.604902 76.274902 -79.040161
v -3.012621 77.468117 -78.193932
v -1.880729 77.532745 -79.284035
v -2.604902 76.274902 -79.040161
v -3.420699 76.201408 -77.950424
v -3.012621 77.468117 -78.193932
v -1.440012 76.251495 -79.798325
v -2.604902 76.274902 -79.040161
v -1.880729 77.532745 -79.284035
v -3.685510 75.351906 -76.903229
v -3.420699 76.201408 -77.950424
v -3.009760 74.879135 -78.274818
v -2.604902 76.274902 -79.040161
v -3.009760 74.879135 -78.274818
v -3.420699 76.201408 -77.950424
v -3.685510 75.351906 -76.903229
v -3.009760 74.879135 -78.274818
v -3.064311 73.957581 -76.990707
v -1.885355 74.931038 -79.316956
v -3.009760 74.879135 -78.274818
v -2.604902 76.274902 -79.040161
v -1.440012 76.251495 -79.798325
v -1.885355 74.931038 -79.316956
v -2.604902 76.274902 -79.040161
v -3.064311 73.957581 -76.990707
v -3.009760 74.879135 -78.274818
v -2.215445 73.872757 -78.269234
v -1.885355 74.931038 -79.316956
v -2.215445 73.872757 -78.269234
v -3.009760 74.879135 -78.274818
v -3.064311 73.957581 -76.990707
v -2.215445 73.872757 -78.269234
v -1.958668 72.953209 -76.985107
v -0.518310 75.101715 -79.791367
v -1.885355 74.931038 -79.316956
v -1.440012 76.251495 -79.798325
v -1.958668 72.953209 -76.985107
v -2.215445 73.872757 -78.269234
v -1.129735 73.006187 -78.027977
v -1.129735 73.006187 -78.027977
v -0.462735 72.597275 -76.935387
v -1.958668 72.953209 -76.985107
v -0.878441 73.866829 -79.074539
v -2.215445 73.872757 -78.269234
v -1.885355 74.931038 -79.316956
v -0.878441 73.866829 -79.074539
v -1.129735 73.006187 -78.027977
v -2.215445 73.872757 -78.269234
v -0.518310 75.101715 -79.791367
v -0.878441 73.866829 -79.074539
v -1.885355 74.931038 -79.316956
v -0.462735 72.597275 -76.935387
v -1.129735 73.006187 -78.027977
v 0.201666 73.119392 -78.264816
v -0.878441 73.866829 -79.074539
v 0.201666 73.119392 -78.264816
v -1.129735 73.006187 -78.027977
v -0.462735 72.597275 -76.935387
v 0.201666 73.119392 -78.264816
v 1.026428 72.816200 -76.984138
v 1.026428 72.816200 -76.984138
v 0.201666 73.119392 -78.264816
v 1.501501 73.522957 -78.267029
v 0.572598 74.192200 -79.360214
v 0.201666 73.119392 -78.264816
v -0.878441 73.866829 -79.074539
v 0.572598 74.192200 -79.360214
v 1.501501 73.522957 -78.267029
v 0.201666 73.119392 -78.264816
v -0.518310 75.101715 -79.791367
v 0.572598 74.192200 -79.360214
v -0.878441 73.866829 -79.074539
v 1.910460 74.737846 -79.126488
v 1.501501 73.522957 -78.267029
v 0.572598 74.192200 -79.360214
v 0.977504 75.506897 -79.793579
v 1.910460 74.737846 -79.126488
v 0.572598 74.192200 -79.360214
v 0.977504 75.506897 -79.793579
v 0.572598 74.192200 -79.360214
v -0.518310 75.101715 -79.791367
v 0.977504 75.506897 -79.793579
v 2.096188 76.387550 -79.277260
v 1.910460 74.737846 -79.126488
v 0.975668 77.104904 -79.755051
v 2.096188 76.387550 -79.277260
v 0.977504 75.506897 -79.793579
v -0.117314 76.365189 -80.035179
v 0.977504 75.506897 -79.793579
v -0.518310 75.101715 -79.791367
v -0.117314 76.365189 -80.035179
v 0.975668 77.104904 -79.755051
v 0.977504 75.506897 -79.793579
v -0.117314 76.365189 -80.035179
v -0.518310 75.101715 -79.791367
v -1.440012 76.251495 -79.798325
v -0.117314 76.365189 -80.035179
v -0.520647 77.507690 -79.757027
v 0.975668 77.104904 -79.755051
v -0.117314 76.365189 -80.035179
v -1.440012 76.251495 -79.798325
v -0.520647 77.507690 -79.757027
v -0.543725 77.468040 -72.414421
v 0.332391 77.469086 -72.414406
v 0.381529 77.555534 -72.794212
v 0.381529 77.555534 -72.794212
v -0.595748 77.560875 -72.794144
v -0.543725 77.468040 -72.414421
v -1.252496 76.870781 -72.458603
v -0.543725 77.468040 -72.414421
v -0.595748 77.560875 -72.794144
v 1.180303 76.962479 -72.838341
v 0.381529 77.555534 -72.794212
v 0.332391 77.469086 -72.414406
v 0.332391 77.469086 -72.414406
v 1.036799 76.876595 -72.458519
v 1.180303 76.962479 -72.838341
v -0.595748 77.560875 -72.794144
v -1.391757 76.967529 -72.838280
v -1.252496 76.870781 -72.458603
v -1.524436 76.069687 -72.454834
v -1.252496 76.870781 -72.458603
v -1.391757 76.967529 -72.838280
v 1.483834 76.165375 -72.833763
v 1.180303 76.962479 -72.838341
v 1.036799 76.876595 -72.458519
v 1.036799 76.876595 -72.458519
v 1.310194 76.070450 -72.454826
v 1.483834 76.165375 -72.833763
v -1.391757 76.967529 -72.838280
v -1.686704 76.160416 -72.833832
v -1.524436 76.069687 -72.454834
v -1.248658 75.277847 -72.497566
v -1.524436 76.069687 -72.454834
v -1.686704 76.160416 -72.833832
v 1.174748 75.159569 -72.828186
v 1.483834 76.165375 -72.833763
v 1.310194 76.070450 -72.454826
v 1.310194 76.070450 -72.454826
v 1.043785 75.276611 -72.497581
v 1.174748 75.159569 -72.828186
v -1.686704 76.160416 -72.833832
v -1.390588 75.159088 -72.828194
v -1.248658 75.277847 -72.497566
v -0.548255 74.674652 -72.494209
v -1.248658 75.277847 -72.497566
v -1.390588 75.159088 -72.828194
v 0.387466 74.565842 -72.872322
v 1.174748 75.159569 -72.828186
v 1.043785 75.276611 -72.497581
v 1.043785 75.276611 -72.497581
v 0.336611 74.675224 -72.494209
v 0.387466 74.565842 -72.872322
v 0.336611 74.675224 -72.494209
v -0.548255 74.674652 -72.494209
v -0.595367 74.564415 -72.872337
v -0.595367 74.564415 -72.872337
v 0.387466 74.565842 -72.872322
v 0.336611 74.675224 -72.494209
v -1.390588 75.159088 -72.828194
v -0.595367 74.564415 -72.872337
v -0.548255 74.674652 -72.494209
v 1.610839 74.924118 -73.300903
v 1.174748 75.159569 -72.828186
v 0.387466 74.565842 -72.872322
v -0.758040 74.061142 -73.296227
v -0.595367 74.564415 -72.872337
v -1.390588 75.159088 -72.828194
v 0.550020 74.118134 -73.296227
v 0.387466 74.565842 -72.872322
v -0.595367 74.564415 -72.872337
v -0.595367 74.564415 -72.872337
v -0.758040 74.061142 -73.296227
v 0.550020 74.118134 -73.296227
v 0.387466 74.565842 -72.872322
v 0.550020 74.118134 -73.296227
v 1.610839 74.924118 -73.300903
v -1.390588 75.159088 -72.828194
v -1.818335 74.867699 -73.300903
v -0.758040 74.061142 -73.296227
v -1.818335 74.867699 -73.300903
v -1.390588 75.159088 -72.828194
v -1.686704 76.160416 -72.833832
v 0.550020 74.118134 -73.296227
v -0.758040 74.061142 -73.296227
v -0.612032 73.384331 -73.813629
v -1.686704 76.160416 -72.833832
v -2.222884 76.063942 -73.259666
v -1.818335 74.867699 -73.300903
v -2.222884 76.063942 -73.259666
v -1.686704 76.160416 -72.833832
v -1.391757 76.967529 -72.838280
v -1.818335 74.867699 -73.300903
v -1.569736 73.787506 -73.815842
v -0.758040 74.061142 -73.296227
v -0.758040 74.061142 -73.296227
v -1.569736 73.787506 -73.815842
v -0.612032 73.384331 -73.813629
v -1.391757 76.967529 -72.838280
v -1.811993 77.273376 -73.266312
v -2.222884 76.063942 -73.259666
v -1.811993 77.273376 -73.266312
v -1.391757 76.967529 -72.838280
v -0.595748 77.560875 -72.794144
v -2.222884 76.063942 -73.259666
v -2.734458 75.385124 -73.777313
v -1.818335 74.867699 -73.300903
v -0.595748 77.560875 -72.794144
v -0.757110 78.063210 -73.223366
v -1.811993 77.273376 -73.266312
v -0.757110 78.063210 -73.223366
v -0.595748 77.560875 -72.794144
v 0.381529 77.555534 -72.794212
v -1.811993 77.273376 -73.266312
v -2.734578 76.787209 -73.737358
v -2.222884 76.063942 -73.259666
v -2.222884 76.063942 -73.259666
v -2.734578 76.787209 -73.737358
v -2.734458 75.385124 -73.777313
v 0.381529 77.555534 -72.794212
v 0.554526 78.121918 -73.223335
v -0.757110 78.063210 -73.223366
v 0.554526 78.121918 -73.223335
v 0.381529 77.555534 -72.794212
v 1.180303 76.962479 -72.838341
v -1.811993 77.273376 -73.266312
v -0.757110 78.063210 -73.223366
v -0.955880 78.840881 -73.700607
v 1.180303 76.962479 -72.838341
v 1.608455 77.330185 -73.266312
v 0.554526 78.121918 -73.223335
v 1.608455 77.330185 -73.266312
v 1.180303 76.962479 -72.838341
v 1.483834 76.165375 -72.833763
v -0.757110 78.063210 -73.223366
v 0.554526 78.121918 -73.223335
v 0.423133 78.866028 -73.795753
v 0.423133 78.866028 -73.795753
v -0.955880 78.840881 -73.700607
v -0.757110 78.063210 -73.223366
v 1.608455 77.330185 -73.266312
v 1.621354 78.248505 -73.745201
v 0.554526 78.121918 -73.223335
v 0.554526 78.121918 -73.223335
v 1.621354 78.248505 -73.745201
v 0.423133 78.866028 -73.795753
v 1.483834 76.165375 -72.833763
v 2.010620 76.119408 -73.259674
v 1.608455 77.330185 -73.266312
v 2.010620 76.119408 -73.259674
v 1.483834 76.165375 -72.833763
v 1.174748 75.159569 -72.828186
v 1.174748 75.159569 -72.828186
v 1.610839 74.924118 -73.300903
v 2.010620 76.119408 -73.259674
v 1.608455 77.330185 -73.266312
v 2.422798 77.245468 -73.739578
v 1.621354 78.248505 -73.745201
v 2.010620 76.119408 -73.259674
v 2.422798 77.245468 -73.739578
v 1.608455 77.330185 -73.266312
v 0.921452 79.264900 -74.603256
v 0.423133 78.866028 -73.795753
v 1.621354 78.248505 -73.745201
v 1.610839 74.924118 -73.300903
v 2.422106 75.240105 -73.776451
v 2.010620 76.119408 -73.259674
v 0.423133 78.866028 -73.795753
v 0.921452 79.264900 -74.603256
v -0.417221 79.396461 -74.319595
v 0.423133 78.866028 -73.795753
v -0.417221 79.396461 -74.319595
v -0.955880 78.840881 -73.700607
v 1.610839 74.924118 -73.300903
v 1.622093 74.050529 -73.816895
v 2.422106 75.240105 -73.776451
v 0.550020 74.118134 -73.296227
v 1.622093 74.050529 -73.816895
v 1.610839 74.924118 -73.300903
v 2.010620 76.119408 -73.259674
v 2.422106 75.240105 -73.776451
v 2.741134 76.272842 -73.876190
v 2.010620 76.119408 -73.259674
v 2.741134 76.272842 -73.876190
v 2.422798 77.245468 -73.739578
v 2.809370 74.992645 -74.390221
v 2.422106 75.240105 -73.776451
v 1.622093 74.050529 -73.816895
v 2.741134 76.272842 -73.876190
v 2.422106 75.240105 -73.776451
v 2.809370 74.992645 -74.390221
v 0.550020 74.118134 -73.296227
v 0.774539 73.478119 -73.955734
v 1.622093 74.050529 -73.816895
v 2.802241 77.409996 -74.403572
v 2.422798 77.245468 -73.739578
v 2.741134 76.272842 -73.876190
v 0.550020 74.118134 -73.296227
v 0.076878 73.439415 -73.813644
v 0.774539 73.478119 -73.955734
v -0.612032 73.384331 -73.813629
v 0.076878 73.439415 -73.813644
v 0.550020 74.118134 -73.296227
v 2.005422 73.792786 -74.431541
v 1.622093 74.050529 -73.816895
v 0.774539 73.478119 -73.955734
v 1.622093 74.050529 -73.816895
v 2.005422 73.792786 -74.431541
v 2.809370 74.992645 -74.390221
v 0.917971 73.059830 -74.711586
v 0.774539 73.478119 -73.955734
v 0.076878 73.439415 -73.813644
v 0.774539 73.478119 -73.955734
v 0.917971 73.059830 -74.711586
v 2.005422 73.792786 -74.431541
v -0.612032 73.384331 -73.813629
v -0.413430 73.002853 -74.474495
v 0.076878 73.439415 -73.813644
v 0.076878 73.439415 -73.813644
v -0.413430 73.002853 -74.474495
v 0.917971 73.059830 -74.711586
v -0.413430 73.002853 -74.474495
v -0.612032 73.384331 -73.813629
v -1.569736 73.787506 -73.815842
v 1.743710 73.120552 -75.801476
v 2.005422 73.792786 -74.431541
v 0.917971 73.059830 -74.711586
v 0.253236 72.520988 -75.798309
v 0.917971 73.059830 -74.711586
v -0.413430 73.002853 -74.474495
v 0.917971 73.059830 -74.711586
v 0.253236 72.520988 -75.798309
v 1.743710 73.120552 -75.801476
v -1.569736 73.787506 -73.815842
v -1.707089 73.345604 -74.476761
v -0.413430 73.002853 -74.474495
v 0.253236 72.520988 -75.798309
v 1.026428 72.816200 -76.984138
v 1.743710 73.120552 -75.801476
v 0.253236 72.520988 -75.798309
v -0.462735 72.597275 -76.935387
v 1.026428 72.816200 -76.984138
v 1.743710 73.120552 -75.801476
v 1.026428 72.816200 -76.984138
v 2.329743 73.413673 -76.987312
v -0.462735 72.597275 -76.935387
v 0.253236 72.520988 -75.798309
v -1.233423 72.653198 -75.752220
v 0.253236 72.520988 -75.798309
v -0.413430 73.002853 -74.474495
v -1.233423 72.653198 -75.752220
v -1.233423 72.653198 -75.752220
v -0.413430 73.002853 -74.474495
v -1.707089 73.345604 -74.476761
v -0.462735 72.597275 -76.935387
v -1.233423 72.653198 -75.752220
v -1.958668 72.953209 -76.985107
v 2.329743 73.413673 -76.987312
v 2.849257 74.103401 -75.711884
v 1.743710 73.120552 -75.801476
v 2.849257 74.103401 -75.711884
v 2.005422 73.792786 -74.431541
v 1.743710 73.120552 -75.801476
v 3.246987 74.800278 -76.900429
v 2.849257 74.103401 -75.711884
v 2.329743 73.413673 -76.987312
v 2.849257 74.103401 -75.711884
v 2.809370 74.992645 -74.390221
v 2.005422 73.792786 -74.431541
v 3.246987 74.800278 -76.900429
v 3.471792 75.509712 -75.720222
v 2.849257 74.103401 -75.711884
v 3.471792 75.509712 -75.720222
v 2.809370 74.992645 -74.390221
v 2.849257 74.103401 -75.711884
v 3.471792 75.509712 -75.720222
v 3.246987 74.800278 -76.900429
v 3.548276 76.217957 -76.955231
v 3.471792 75.509712 -75.720222
v 3.213894 76.257828 -74.633987
v 2.809370 74.992645 -74.390221
v 2.809370 74.992645 -74.390221
v 3.213894 76.257828 -74.633987
v 2.741134 76.272842 -73.876190
v 2.741134 76.272842 -73.876190
v 3.213894 76.257828 -74.633987
v 2.802241 77.409996 -74.403572
v 3.471792 75.509712 -75.720222
v 3.548276 76.217957 -76.955231
v 3.468883 76.928223 -75.727402
v 3.213894 76.257828 -74.633987
v 3.471792 75.509712 -75.720222
v 3.468883 76.928223 -75.727402
v 3.468883 76.928223 -75.727402
v 2.802241 77.409996 -74.403572
v 3.213894 76.257828 -74.633987
v 3.468883 76.928223 -75.727402
v 3.548276 76.217957 -76.955231
v 3.251779 77.794724 -76.821518
v 3.251779 77.794724 -76.821518
v 2.850854 78.315407 -75.640511
v 3.468883 76.928223 -75.727402
v 2.850854 78.315407 -75.640511
v 2.802241 77.409996 -74.403572
v 3.468883 76.928223 -75.727402
v 2.332008 79.006073 -76.828156
v 2.850854 78.315407 -75.640511
v 3.251779 77.794724 -76.821518
v 2.850854 78.315407 -75.640511
v 2.009404 78.604538 -74.362831
v 2.802241 77.409996 -74.403572
v 2.422798 77.245468 -73.739578
v 2.802241 77.409996 -74.403572
v 2.009404 78.604538 -74.362831
v 2.009404 78.604538 -74.362831
v 1.621354 78.248505 -73.745201
v 2.422798 77.245468 -73.739578
v 1.621354 78.248505 -73.745201
v 2.009404 78.604538 -74.362831
v 0.921452 79.264900 -74.603256
v 2.332008 79.006073 -76.828156
v 1.754320 79.328766 -75.693138
v 2.850854 78.315407 -75.640511
v 1.754320 79.328766 -75.693138
v 2.009404 78.604538 -74.362831
v 2.850854 78.315407 -75.640511
v 1.754320 79.328766 -75.693138
v 0.921452 79.264900 -74.603256
v 2.009404 78.604538 -74.362831
v 1.754320 79.328766 -75.693138
v 2.332008 79.006073 -76.828156
v 1.025021 79.809662 -76.832649
v 0.921452 79.264900 -74.603256
v 1.754320 79.328766 -75.693138
v 0.252736 79.925346 -75.648964
v 1.754320 79.328766 -75.693138
v 1.025021 79.809662 -76.832649
v 0.252736 79.925346 -75.648964
v 0.252736 79.925346 -75.648964
v -0.417221 79.396461 -74.319595
v 0.921452 79.264900 -74.603256
v 0.252736 79.925346 -75.648964
v 1.025021 79.809662 -76.832649
v -0.463235 80.001640 -76.786507
v -0.463235 80.001640 -76.786507
v -1.236451 79.650185 -75.600204
v 0.252736 79.925346 -75.648964
v -1.236451 79.650185 -75.600204
v -0.417221 79.396461 -74.319595
v 0.252736 79.925346 -75.648964
v -1.960862 79.343208 -76.830757
v -1.236451 79.650185 -75.600204
v -0.463235 80.001640 -76.786507
v -1.236451 79.650185 -75.600204
v -1.711953 78.934860 -74.317642
v -0.417221 79.396461 -74.319595
v -0.955880 78.840881 -73.700607
v -0.417221 79.396461 -74.319595
v -1.711953 78.934860 -74.317642
v -1.960862 79.343208 -76.830757
v -2.539217 78.870316 -75.691139
v -1.236451 79.650185 -75.600204
v -2.539217 78.870316 -75.691139
v -1.711953 78.934860 -74.317642
v -1.236451 79.650185 -75.600204
v -2.539217 78.870316 -75.691139
v -1.960862 79.343208 -76.830757
v -3.063214 78.352592 -76.872330
v -0.955880 78.840881 -73.700607
v -1.711953 78.934860 -74.317642
v -2.129352 78.002396 -73.791580
v -0.955880 78.840881 -73.700607
v -2.129352 78.002396 -73.791580
v -1.811993 77.273376 -73.266312
v -1.811993 77.273376 -73.266312
v -2.129352 78.002396 -73.791580
v -2.734578 76.787209 -73.737358
v -2.539217 78.870316 -75.691139
v -2.788556 78.014801 -74.644028
v -1.711953 78.934860 -74.317642
v -2.129352 78.002396 -73.791580
v -1.711953 78.934860 -74.317642
v -2.788556 78.014801 -74.644028
v -2.539217 78.870316 -75.691139
v -3.063214 78.352592 -76.872330
v -3.464139 77.662971 -75.684685
v -2.788556 78.014801 -74.644028
v -2.539217 78.870316 -75.691139
v -3.464139 77.662971 -75.684685
v -3.464139 77.662971 -75.684685
v -3.063214 78.352592 -76.872330
v -3.685772 76.946381 -76.864731
v -2.129352 78.002396 -73.791580
v -2.788556 78.014801 -74.644028
v -3.208935 76.746948 -74.400269
v -3.464139 77.662971 -75.684685
v -3.208935 76.746948 -74.400269
v -2.788556 78.014801 -74.644028
v -3.208935 76.746948 -74.400269
v -2.734578 76.787209 -73.737358
v -2.129352 78.002396 -73.791580
v -3.685772 76.946381 -76.864731
v -3.754723 76.250557 -75.676445
v -3.464139 77.662971 -75.684685
v -3.754723 76.250557 -75.676445
v -3.208935 76.746948 -74.400269
v -3.464139 77.662971 -75.684685
v -3.685510 75.351906 -76.903229
v -3.754723 76.250557 -75.676445
v -3.685772 76.946381 -76.864731
v -2.734578 76.787209 -73.737358
v -3.208935 76.746948 -74.400269
v -3.205359 75.538185 -74.393837
v -3.754723 76.250557 -75.676445
v -3.205359 75.538185 -74.393837
v -3.208935 76.746948 -74.400269
v -3.205359 75.538185 -74.393837
v -2.734458 75.385124 -73.777313
v -2.734578 76.787209 -73.737358
v -3.685510 75.351906 -76.903229
v -3.463757 74.666420 -75.762894
v -3.754723 76.250557 -75.676445
v -3.463757 74.666420 -75.762894
v -3.205359 75.538185 -74.393837
v -3.754723 76.250557 -75.676445
v -3.463757 74.666420 -75.762894
v -3.685510 75.351906 -76.903229
v -3.064311 73.957581 -76.990707
v -2.734458 75.385124 -73.777313
v -3.205359 75.538185 -74.393837
v -2.786410 74.197372 -74.670853
v -3.463757 74.666420 -75.762894
v -2.786410 74.197372 -74.670853
v -3.205359 75.538185 -74.393837
v -3.463757 74.666420 -75.762894
v -3.064311 73.957581 -76.990707
v -2.538860 73.453262 -75.756020
v -2.786410 74.197372 -74.670853
v -3.463757 74.666420 -75.762894
v -2.538860 73.453262 -75.756020
v -2.538860 73.453262 -75.756020
v -3.064311 73.957581 -76.990707
v -1.958668 72.953209 -76.985107
v -1.958668 72.953209 -76.985107
v -1.233423 72.653198 -75.752220
v -2.538860 73.453262 -75.756020
v -1.233423 72.653198 -75.752220
v -1.707089 73.345604 -74.476761
v -2.538860 73.453262 -75.756020
v -2.538860 73.453262 -75.756020
v -1.707089 73.345604 -74.476761
v -2.786410 74.197372 -74.670853
v -2.786410 74.197372 -74.670853
v -2.415359 74.430649 -73.961517
v -2.734458 75.385124 -73.777313
v -2.415359 74.430649 -73.961517
v -2.786410 74.197372 -74.670853
v -1.707089 73.345604 -74.476761
v -1.818335 74.867699 -73.300903
v -2.734458 75.385124 -73.777313
v -2.415359 74.430649 -73.961517
v -1.707089 73.345604 -74.476761
v -1.569736 73.787506 -73.815842
v -2.415359 74.430649 -73.961517
v -1.818335 74.867699 -73.300903
v -2.415359 74.430649 -73.961517
v -1.569736 73.787506 -73.815842
vt 0.827637 0.144043
vt 0.831543 0.107910
vt 0.843750 0.154297
vt 0.831543 0.107910
vt 0.827637 0.144043
vt 0.813477 0.118164
vt 0.831543 0.107910
vt 0.813477 0.118164
vt 0.812012 0.076660
vt 0.843750 0.154297
vt 0.828125 0.182617
vt 0.827637 0.144043
vt 0.843750 0.205078
vt 0.828125 0.182617
vt 0.843750 0.154297
vt 0.812500 0.158203
vt 0.813477 0.118164
vt 0.827637 0.144043
vt 0.812500 0.158203
vt 0.827637 0.144043
vt 0.828125 0.182617
vt 0.812012 0.076660
vt 0.813477 0.118164
vt 0.796875 0.099121
vt 0.812012 0.076660
vt 0.796875 0.099121
vt 0.788086 0.061523
vt 0.797852 0.137207
vt 0.813477 0.118164
vt 0.812500 0.158203
vt 0.797852 0.137207
vt 0.796875 0.099121
vt 0.813477 0.118164
vt 0.788086 0.061523
vt 0.796875 0.099121
vt 0.777832 0.088867
vt 0.777832 0.088867
vt 0.761719 0.069336
vt 0.788086 0.061523
vt 0.780762 0.121582
vt 0.796875 0.099121
vt 0.797852 0.137207
vt 0.780762 0.121582
vt 0.777832 0.088867
vt 0.796875 0.099121
vt 0.761719 0.069336
vt 0.777832 0.088867
vt 0.761719 0.107910
vt 0.780762 0.121582
vt 0.761719 0.107910
vt 0.777832 0.088867
vt 0.761719 0.069336
vt 0.761719 0.107910
vt 0.741211 0.097168
vt 0.782227 0.152832
vt 0.780762 0.121582
vt 0.797852 0.137207
vt 0.741211 0.097168
vt 0.761719 0.107910
vt 0.747559 0.133789
vt 0.741211 0.097168
vt 0.747559 0.133789
vt 0.727051 0.138672
vt 0.765625 0.144043
vt 0.761719 0.107910
vt 0.780762 0.121582
vt 0.765625 0.144043
vt 0.747559 0.133789
vt 0.761719 0.107910
vt 0.782227 0.152832
vt 0.765625 0.144043
vt 0.780762 0.121582
vt 0.727051 0.138672
vt 0.747559 0.133789
vt 0.736328 0.165527
vt 0.736328 0.165527
vt 0.722168 0.189453
vt 0.727051 0.138672
vt 0.752930 0.170898
vt 0.747559 0.133789
vt 0.765625 0.144043
vt 0.752930 0.170898
vt 0.736328 0.165527
vt 0.747559 0.133789
vt 0.722168 0.189453
vt 0.736328 0.165527
vt 0.739746 0.203125
vt 0.752930 0.170898
vt 0.739746 0.203125
vt 0.736328 0.165527
vt 0.722168 0.189453
vt 0.739746 0.203125
vt 0.729004 0.238281
vt 0.767578 0.177246
vt 0.752930 0.170898
vt 0.765625 0.144043
vt 0.767578 0.177246
vt 0.765625 0.144043
vt 0.782227 0.152832
vt 0.758301 0.206543
vt 0.739746 0.203125
vt 0.752930 0.170898
vt 0.767578 0.177246
vt 0.758301 0.206543
vt 0.752930 0.170898
vt 0.729004 0.238281
vt 0.739746 0.203125
vt 0.748047 0.237793
vt 0.758301 0.206543
vt 0.748047 0.237793
vt 0.739746 0.203125
vt 0.729004 0.238281
vt 0.748047 0.237793
vt 0.744141 0.278320
vt 0.775879 0.211914
vt 0.758301 0.206543
vt 0.767578 0.177246
vt 0.744141 0.278320
vt 0.748047 0.237793
vt 0.760254 0.268066
vt 0.760254 0.268066
vt 0.767090 0.302734
vt 0.744141 0.278320
vt 0.767578 0.239746
vt 0.748047 0.237793
vt 0.758301 0.206543
vt 0.767578 0.239746
vt 0.760254 0.268066
vt 0.748047 0.237793
vt 0.775879 0.211914
vt 0.767578 0.239746
vt 0.758301 0.206543
vt 0.767090 0.302734
vt 0.760254 0.268066
vt 0.779297 0.272949
vt 0.767578 0.239746
vt 0.779297 0.272949
vt 0.760254 0.268066
vt 0.767090 0.302734
vt 0.779297 0.272949
vt 0.791992 0.305664
vt 0.786133 0.239258
vt 0.779297 0.272949
vt 0.767578 0.239746
vt 0.775879 0.211914
vt 0.786133 0.239258
vt 0.767578 0.239746
vt 0.791992 0.305664
vt 0.779297 0.272949
vt 0.798340 0.269043
vt 0.786133 0.239258
vt 0.798340 0.269043
vt 0.779297 0.272949
vt 0.791992 0.305664
vt 0.798340 0.269043
vt 0.815918 0.288574
vt 0.794434 0.208496
vt 0.786133 0.239258
vt 0.775879 0.211914
vt 0.815918 0.288574
vt 0.798340 0.269043
vt 0.815918 0.255371
vt 0.815918 0.255371
vt 0.834961 0.252441
vt 0.815918 0.288574
vt 0.805176 0.231445
vt 0.798340 0.269043
vt 0.786133 0.239258
vt 0.805176 0.231445
vt 0.815918 0.255371
vt 0.798340 0.269043
vt 0.794434 0.208496
vt 0.805176 0.231445
vt 0.786133 0.239258
vt 0.834961 0.252441
vt 0.815918 0.255371
vt 0.824219 0.220703
vt 0.805176 0.231445
vt 0.824219 0.220703
vt 0.815918 0.255371
vt 0.834961 0.252441
vt 0.824219 0.220703
vt 0.843750 0.205078
vt 0.843750 0.205078
vt 0.824219 0.220703
vt 0.828125 0.182617
vt 0.810547 0.196289
vt 0.824219 0.220703
vt 0.805176 0.231445
vt 0.810547 0.196289
vt 0.828125 0.182617
vt 0.824219 0.220703
vt 0.794434 0.208496
vt 0.810547 0.196289
vt 0.805176 0.231445
vt 0.812500 0.158203
vt 0.828125 0.182617
vt 0.810547 0.196289
vt 0.798340 0.171875
vt 0.812500 0.158203
vt 0.810547 0.196289
vt 0.798340 0.171875
vt 0.810547 0.196289
vt 0.794434 0.208496
vt 0.798340 0.171875
vt 0.797852 0.137207
vt 0.812500 0.158203
vt 0.782227 0.152832
vt 0.797852 0.137207
vt 0.798340 0.171875
vt 0.783203 0.184570
vt 0.798340 0.171875
vt 0.794434 0.208496
vt 0.783203 0.184570
vt 0.782227 0.152832
vt 0.798340 0.171875
vt 0.783203 0.184570
vt 0.794434 0.208496
vt 0.775879 0.211914
vt 0.783203 0.184570
vt 0.767578 0.177246
vt 0.782227 0.152832
vt 0.783203 0.184570
vt 0.775879 0.211914
vt 0.767578 0.177246
vt 0.932129 0.210449
vt 0.937500 0.198730
vt 0.941895 0.199707
vt 0.941895 0.199707
vt 0.935059 0.215332
vt 0.932129 0.210449
vt 0.923340 0.212402
vt 0.932129 0.210449
vt 0.935059 0.215332
vt 0.942383 0.179199
vt 0.941895 0.199707
vt 0.937500 0.198730
vt 0.937500 0.198730
vt 0.938965 0.182617
vt 0.942383 0.179199
vt 0.935059 0.215332
vt 0.924805 0.220215
vt 0.923340 0.212402
vt 0.916504 0.205078
vt 0.923340 0.212402
vt 0.924805 0.220215
vt 0.937500 0.161621
vt 0.942383 0.179199
vt 0.938965 0.182617
vt 0.938965 0.182617
vt 0.935547 0.168457
vt 0.937500 0.161621
vt 0.924805 0.220215
vt 0.914551 0.211914
vt 0.916504 0.205078
vt 0.913086 0.189941
vt 0.916504 0.205078
vt 0.914551 0.211914
vt 0.927246 0.154297
vt 0.937500 0.161621
vt 0.935547 0.168457
vt 0.935547 0.168457
vt 0.928711 0.161133
vt 0.927246 0.154297
vt 0.914551 0.211914
vt 0.909668 0.194336
vt 0.913086 0.189941
vt 0.914551 0.174316
vt 0.913086 0.189941
vt 0.909668 0.194336
vt 0.917969 0.158203
vt 0.927246 0.154297
vt 0.928711 0.161133
vt 0.928711 0.161133
vt 0.919922 0.163574
vt 0.917969 0.158203
vt 0.919922 0.163574
vt 0.914551 0.174316
vt 0.911133 0.173828
vt 0.911133 0.173828
vt 0.917969 0.158203
vt 0.919922 0.163574
vt 0.909668 0.194336
vt 0.911133 0.173828
vt 0.914551 0.174316
vt 0.926758 0.140625
vt 0.927246 0.154297
vt 0.917969 0.158203
vt 0.904297 0.171875
vt 0.911133 0.173828
vt 0.909668 0.194336
vt 0.913086 0.149902
vt 0.917969 0.158203
vt 0.911133 0.173828
vt 0.911133 0.173828
vt 0.904297 0.171875
vt 0.913086 0.149902
vt 0.917969 0.158203
vt 0.913086 0.149902
vt 0.926758 0.140625
vt 0.909668 0.194336
vt 0.904297 0.199707
vt 0.904297 0.171875
vt 0.904297 0.199707
vt 0.909668 0.194336
vt 0.914551 0.211914
vt 0.913086 0.149902
vt 0.904297 0.171875
vt 0.897461 0.160156
vt 0.914551 0.211914
vt 0.911621 0.223633
vt 0.904297 0.199707
vt 0.911621 0.223633
vt 0.914551 0.211914
vt 0.924805 0.220215
vt 0.904297 0.199707
vt 0.895020 0.183105
vt 0.904297 0.171875
vt 0.904297 0.171875
vt 0.895020 0.183105
vt 0.897461 0.160156
vt 0.924805 0.220215
vt 0.925293 0.232910
vt 0.911621 0.223633
vt 0.925293 0.232910
vt 0.924805 0.220215
vt 0.935059 0.215332
vt 0.911621 0.223633
vt 0.902344 0.227539
vt 0.904297 0.199707
vt 0.935059 0.215332
vt 0.939453 0.224609
vt 0.925293 0.232910
vt 0.939453 0.224609
vt 0.935059 0.215332
vt 0.941895 0.199707
vt 0.925293 0.232910
vt 0.914551 0.245117
vt 0.911621 0.223633
vt 0.911621 0.223633
vt 0.914551 0.245117
vt 0.902344 0.227539
vt 0.941895 0.199707
vt 0.947754 0.201660
vt 0.939453 0.224609
vt 0.947754 0.201660
vt 0.941895 0.199707
vt 0.942383 0.179199
vt 0.925293 0.232910
vt 0.939453 0.224609
vt 0.944336 0.234375
vt 0.942383 0.179199
vt 0.947754 0.172363
vt 0.947754 0.201660
vt 0.947754 0.172363
vt 0.942383 0.179199
vt 0.937500 0.161621
vt 0.939453 0.224609
vt 0.947754 0.201660
vt 0.954590 0.210449
vt 0.954590 0.210449
vt 0.944336 0.234375
vt 0.939453 0.224609
vt 0.947754 0.172363
vt 0.957520 0.180664
vt 0.947754 0.201660
vt 0.947754 0.201660
vt 0.957520 0.180664
vt 0.954590 0.210449
vt 0.937500 0.161621
vt 0.939453 0.149414
vt 0.947754 0.172363
vt 0.939453 0.149414
vt 0.937500 0.161621
vt 0.927246 0.154297
vt 0.927246 0.154297
vt 0.926758 0.140625
vt 0.939453 0.149414
vt 0.947754 0.172363
vt 0.951660 0.151367
vt 0.957520 0.180664
vt 0.939453 0.149414
vt 0.951660 0.151367
vt 0.947754 0.172363
vt 0.965332 0.208496
vt 0.954590 0.210449
vt 0.957520 0.180664
vt 0.926758 0.140625
vt 0.933594 0.125488
vt 0.939453 0.149414
vt 0.954590 0.210449
vt 0.965332 0.208496
vt 0.955078 0.234375
vt 0.954590 0.210449
vt 0.955078 0.234375
vt 0.944336 0.234375
vt 0.926758 0.140625
vt 0.917969 0.126953
vt 0.933594 0.125488
vt 0.913086 0.149902
vt 0.917969 0.126953
vt 0.926758 0.140625
vt 0.939453 0.149414
vt 0.933594 0.125488
vt 0.945312 0.131836
vt 0.939453 0.149414
vt 0.945312 0.131836
vt 0.951660 0.151367
vt 0.932129 0.112793
vt 0.933594 0.125488
vt 0.917969 0.126953
vt 0.945312 0.131836
vt 0.933594 0.125488
vt 0.932129 0.112793
vt 0.913086 0.149902
vt 0.906250 0.134277
vt 0.917969 0.126953
vt 0.958008 0.145996
vt 0.951660 0.151367
vt 0.945312 0.131836
vt 0.913086 0.149902
vt 0.902344 0.147949
vt 0.906250 0.134277
vt 0.897461 0.160156
vt 0.902344 0.147949
vt 0.913086 0.149902
vt 0.916504 0.114258
vt 0.917969 0.126953
vt 0.906250 0.134277
vt 0.917969 0.126953
vt 0.916504 0.114258
vt 0.932129 0.112793
vt 0.900391 0.122070
vt 0.906250 0.134277
vt 0.902344 0.147949
vt 0.906250 0.134277
vt 0.900391 0.122070
vt 0.916504 0.114258
vt 0.897461 0.160156
vt 0.892090 0.149902
vt 0.902344 0.147949
vt 0.902344 0.147949
vt 0.892090 0.149902
vt 0.900391 0.122070
vt 0.892090 0.149902
vt 0.897461 0.160156
vt 0.895020 0.183105
vt 0.901367 0.091797
vt 0.916504 0.114258
vt 0.900391 0.122070
vt 0.883789 0.119629
vt 0.900391 0.122070
vt 0.892090 0.149902
vt 0.900391 0.122070
vt 0.883789 0.119629
vt 0.901367 0.091797
vt 0.895020 0.183105
vt 0.888672 0.181152
vt 0.892090 0.149902
vt 0.883789 0.119629
vt 0.881836 0.085449
vt 0.901367 0.091797
vt 0.883789 0.119629
vt 0.865723 0.129883
vt 0.881836 0.085449
vt 0.901367 0.091797
vt 0.881836 0.085449
vt 0.906250 0.060547
vt 0.865723 0.129883
vt 0.883789 0.119629
vt 0.875000 0.158691
vt 0.883789 0.119629
vt 0.892090 0.149902
vt 0.875000 0.158691
vt 0.875000 0.158691
vt 0.892090 0.149902
vt 0.888672 0.181152
vt 0.865723 0.129883
vt 0.875000 0.158691
vt 0.859375 0.184570
vt 0.906250 0.060547
vt 0.923340 0.080566
vt 0.901367 0.091797
vt 0.923340 0.080566
vt 0.916504 0.114258
vt 0.901367 0.091797
vt 0.934082 0.054199
vt 0.923340 0.080566
vt 0.906250 0.060547
vt 0.923340 0.080566
vt 0.932129 0.112793
vt 0.916504 0.114258
vt 0.934082 0.054199
vt 0.944336 0.086914
vt 0.923340 0.080566
vt 0.944336 0.086914
vt 0.932129 0.112793
vt 0.923340 0.080566
vt 0.944336 0.086914
vt 0.934082 0.054199
vt 0.959961 0.071289
vt 0.944336 0.086914
vt 0.948242 0.118164
vt 0.932129 0.112793
vt 0.932129 0.112793
vt 0.948242 0.118164
vt 0.945312 0.131836
vt 0.945312 0.131836
vt 0.948242 0.118164
vt 0.958008 0.145996
vt 0.944336 0.086914
vt 0.959961 0.071289
vt 0.963379 0.111328
vt 0.948242 0.118164
vt 0.944336 0.086914
vt 0.963379 0.111328
vt 0.963379 0.111328
vt 0.958008 0.145996
vt 0.948242 0.118164
vt 0.963379 0.111328
vt 0.959961 0.071289
vt 0.979492 0.109375
vt 0.979492 0.109375
vt 0.975586 0.147949
vt 0.963379 0.111328
vt 0.975586 0.147949
vt 0.958008 0.145996
vt 0.963379 0.111328
vt 0.991211 0.161621
vt 0.975586 0.147949
vt 0.979492 0.109375
vt 0.975586 0.147949
vt 0.963379 0.175293
vt 0.958008 0.145996
vt 0.951660 0.151367
vt 0.958008 0.145996
vt 0.963379 0.175293
vt 0.963379 0.175293
vt 0.957520 0.180664
vt 0.951660 0.151367
vt 0.957520 0.180664
vt 0.963379 0.175293
vt 0.965332 0.208496
vt 0.991211 0.161621
vt 0.979004 0.190918
vt 0.975586 0.147949
vt 0.979004 0.190918
vt 0.963379 0.175293
vt 0.975586 0.147949
vt 0.979004 0.190918
vt 0.965332 0.208496
vt 0.963379 0.175293
vt 0.979004 0.190918
vt 0.991211 0.161621
vt 0.991211 0.215820
vt 0.965332 0.208496
vt 0.979004 0.190918
vt 0.973633 0.234863
vt 0.979004 0.190918
vt 0.991211 0.215820
vt 0.973633 0.234863
vt 0.973633 0.234863
vt 0.955078 0.234375
vt 0.965332 0.208496
vt 0.973633 0.234863
vt 0.991211 0.215820
vt 0.979004 0.265625
vt 0.979004 0.265625
vt 0.959473 0.269043
vt 0.973633 0.234863
vt 0.959473 0.269043
vt 0.955078 0.234375
vt 0.973633 0.234863
vt 0.958008 0.302734
vt 0.959473 0.269043
vt 0.979004 0.265625
vt 0.959473 0.269043
vt 0.942383 0.254883
vt 0.955078 0.234375
vt 0.944336 0.234375
vt 0.955078 0.234375
vt 0.942383 0.254883
vt 0.958008 0.302734
vt 0.940430 0.289551
vt 0.959473 0.269043
vt 0.940430 0.289551
vt 0.942383 0.254883
vt 0.959473 0.269043
vt 0.940430 0.289551
vt 0.958008 0.302734
vt 0.932129 0.319824
vt 0.944336 0.234375
vt 0.942383 0.254883
vt 0.930176 0.248535
vt 0.944336 0.234375
vt 0.930176 0.248535
vt 0.925293 0.232910
vt 0.925293 0.232910
vt 0.930176 0.248535
vt 0.914551 0.245117
vt 0.940430 0.289551
vt 0.927246 0.268066
vt 0.942383 0.254883
vt 0.930176 0.248535
vt 0.942383 0.254883
vt 0.927246 0.268066
vt 0.940430 0.289551
vt 0.932129 0.319824
vt 0.916992 0.291992
vt 0.927246 0.268066
vt 0.940430 0.289551
vt 0.916992 0.291992
vt 0.916992 0.291992
vt 0.932129 0.319824
vt 0.904785 0.311523
vt 0.930176 0.248535
vt 0.927246 0.268066
vt 0.912598 0.255859
vt 0.916992 0.291992
vt 0.912598 0.255859
vt 0.927246 0.268066
vt 0.912598 0.255859
vt 0.914551 0.245117
vt 0.930176 0.248535
vt 0.904785 0.311523
vt 0.897461 0.274902
vt 0.916992 0.291992
vt 0.897461 0.274902
vt 0.912598 0.255859
vt 0.916992 0.291992
vt 0.879883 0.283203
vt 0.897461 0.274902
vt 0.904785 0.311523
vt 0.914551 0.245117
vt 0.912598 0.255859
vt 0.898926 0.238281
vt 0.897461 0.274902
vt 0.898926 0.238281
vt 0.912598 0.255859
vt 0.898926 0.238281
vt 0.902344 0.227539
vt 0.914551 0.245117
vt 0.879883 0.283203
vt 0.881348 0.245117
vt 0.897461 0.274902
vt 0.881348 0.245117
vt 0.898926 0.238281
vt 0.897461 0.274902
vt 0.881348 0.245117
vt 0.879883 0.283203
vt 0.864258 0.239258
vt 0.902344 0.227539
vt 0.898926 0.238281
vt 0.887207 0.214355
vt 0.881348 0.245117
vt 0.887207 0.214355
vt 0.898926 0.238281
vt 0.881348 0.245117
vt 0.864258 0.239258
vt 0.873047 0.202148
vt 0.887207 0.214355
vt 0.881348 0.245117
vt 0.873047 0.202148
vt 0.873047 0.202148
vt 0.864258 0.239258
vt 0.859375 0.184570
vt 0.859375 0.184570
vt 0.875000 0.158691
vt 0.873047 0.202148
vt 0.875000 0.158691
vt 0.888672 0.181152
vt 0.873047 0.202148
vt 0.873047 0.202148
vt 0.888672 0.181152
vt 0.887207 0.214355
vt 0.887207 0.214355
vt 0.895020 0.208496
vt 0.902344 0.227539
vt 0.895020 0.208496
vt 0.887207 0.214355
vt 0.888672 0.181152
vt 0.904297 0.199707
vt 0.902344 0.227539
vt 0.895020 0.208496
vt 0.888672 0.181152
vt 0.895020 0.183105
vt 0.895020 0.208496
vt 0.904297 0.199707
vt 0.895020 0.208496
vt 0.895020 0.183105
f 1/1/1 2/2/2 3/3/3
f 4/4/4 5/5/5 6/6/6
f 7/7/7 8/8/8 9/9/9
f 10/10/10 11/11/11 12/12/12
f 13/13/13 14/14/14 15/15/15
f 16/16/16 17/17/17 18/18/18
f 19/19/19 20/20/20 21/21/21
f 22/22/22 23/23/23 24/24/24
f 25/25/25 26/26/26 27/27/27
f 28/28/28 29/29/29 30/30/30
f 31/31/31 32/32/32 33/33/33
f 34/34/34 35/35/35 36/36/36
f 37/37/37 38/38/38 39/39/39
f 40/40/40 41/41/41 42/42/42
f 43/43/43 44/44/44 45/45/45
f 46/46/46 47/47/47 48/48/48
f 49/49/49 50/50/50 51/51/51
f 52/52/52 53/53/53 54/54/54
f 55/55/55 56/56/56 57/57/57
f 58/58/58 59/59/59 60/60/60
f 61/61/61 62/62/62 63/63/63
f 64/64/64 65/65/65 66/66/66
f 67/67/67 68/68/68 69/69/69
f 70/70/70 71/71/71 72/72/72
f 73/73/73 74/74/74 75/75/75
f 76/76/76 77/77/77 78/78/78
f 79/79/79 80/80/80 81/81/81
f 82/82/82 83/83/83 84/84/84
f 85/85/85 86/86/86 87/87/87
f 88/88/88 89/89/89 90/90/90
f 91/91/91 92/92/92 93/93/93
f 94/94/94 95/95/95 96/96/96
f 97/97/97 98/98/98 99/99/99
f 100/100/100 101/101/101 102/102/102
f 103/103/103 104/104/104 105/105/105
f 106/106/106 107/107/107 108/108/108
f 109/109/109 110/110/110 111/111/111
f 112/112/112 113/113/113 114/114/114
f 115/115/115 116/116/116 117/117/117
f 118/118/118 119/119/119 120/120/120
f 121/121/121 122/122/122 123/123/123
f 124/124/124 125/125/125 126/126/126
f 127/127/127 128/128/128 129/129/129
f 130/130/130 131/131/131 132/132/132
f 133/133/133 134/134/134 135/135/135
f 136/136/136 137/137/137 138/138/138
f 139/139/139 140/140/140 141/141/141
f 142/142/142 143/143/143 144/144/144
f 145/145/145 146/146/146 147/147/147
f 148/148/148 149/149/149 150/150/150
f 151/151/151 152/152/152 153/153/153
f 154/154/154 155/155/155 156/156/156
f 157/157/157 158/158/158 159/159/159
f 160/160/160 161/161/161 162/162/162
f 163/163/163 164/164/164 165/165/165
f 166/166/166 167/167/167 168/168/168
f 169/169/169 170/170/170 171/171/171
f 172/172/172 173/173/173 174/174/174
f 175/175/175 176/176/176 177/177/177
f 178/178/178 179/179/179 180/180/180
f 181/181/181 182/182/182 183/183/183
f 184/184/184 185/185/185 186/186/186
f 187/187/187 188/188/188 189/189/189
f 190/190/190 191/191/191 192/192/192
f 193/193/193 194/194/194 195/195/195
f 196/196/196 197/197/197 198/198/198
f 199/199/199 200/200/200 201/201/201
f 202/202/202 203/203/203 204/204/204
f 205/205/205 206/206/206 207/207/207
f 208/208/208 209/209/209 210/210/210
f 211/211/211 212/212/212 213/213/213
f 214/214/214 215/215/215 216/216/216
f 217/217/217 218/218/218 219/219/219
f 220/220/220 221/221/221 222/222/222
f 223/223/223 224/224/224 225/225/225
f 226/226/226 227/227/227 228/228/228
f 229/229/229 230/230/230 231/231/231
f 232/232/232 233/233/233 234/234/234
f 235/235/235 236/236/236 237/237/237
f 238/238/238 239/239/239 240/240/240
f 241/241/241 242/242/242 243/243/243
f 244/244/244 245/245/245 246/246/246
f 247/247/247 248/248/248 249/249/249
f 250/250/250 251/251/251 252/252/252
f 253/253/253 254/254/254 255/255/255
f 256/256/256 257/257/257 258/258/258
f 259/259/259 260/260/260 261/261/261
f 262/262/262 263/263/263 264/264/264
f 265/265/265 266/266/266 267/267/267
f 268/268/268 269/269/269 270/270/270
f 271/271/271 272/272/272 273/273/273
f 274/274/274 275/275/275 276/276/276
f 277/277/277 278/278/278 279/279/279
f 280/280/280 281/281/281 282/282/282
f 283/283/283 284/284/284 285/285/285
f 286/286/286 287/287/287 288/288/288
f 289/289/289 290/290/290 291/291/291
f 292/292/292 293/293/293 294/294/294
f 295/295/295 296/296/296 297/297/297
f 298/298/298 299/299/299 300/300/300
f 301/301/301 302/302/302 303/303/303
f 304/304/304 305/305/305 306/306/306
f 307/307/307 308/308/308 309/309/309
f 310/310/310 311/311/311 312/312/312
f 313/313/313 314/314/314 315/315/315
f 316/316/316 317/317/317 318/318/318
f 319/319/319 320/320/320 321/321/321
f 322/322/322 323/323/323 324/324/324
f 325/325/325 326/326/326 327/327/327
f 328/328/328 329/329/329 330/330/330
f 331/331/331 332/332/332 333/333/333
f 334/334/334 335/335/335 336/336/336
f 337/337/337 338/338/338 339/339/339
f 340/340/340 341/341/341 342/342/342
f 343/343/343 344/344/344 345/345/345
f 346/346/346 347/347/347 348/348/348
f 349/349/349 350/350/350 351/351/351
f 352/352/352 353/353/353 354/354/354
f 355/355/355 356/356/356 357/357/357
f 358/358/358 359/359/359 360/360/360
f 361/361/361 362/362/362 363/363/363
f 364/364/364 365/365/365 366/366/366
f 367/367/367 368/368/368 369/369/369
f 370/370/370 371/371/371 372/372/372
f 373/373/373 374/374/374 375/375/375
f 376/376/376 377/377/377 378/378/378
f 379/379/379 380/380/380 381/381/381
f 382/382/382 383/383/383 384/384/384
f 385/385/385 386/386/386 387/387/387
f 388/388/388 389/389/389 390/390/390
f 391/391/391 392/392/392 393/393/393
f 394/394/394 395/395/395 396/396/396
f 397/397/397 398/398/398 399/399/399
f 400/400/400 401/401/401 402/402/402
f 403/403/403 404/404/404 405/405/405
f 406/406/406 407/407/407 408/408/408
f 409/409/409 410/410/410 411/411/411
f 412/412/412 413/413/413 414/414/414
f 415/415/415 416/416/416 417/417/417
f 418/418/418 419/419/419 420/420/420
f 421/421/421 422/422/422 423/423/423
f 424/424/424 425/425/425 426/426/426
f 427/427/427 428/428/428 429/429/429
f 430/430/430 431/431/431 432/432/432
f 433/433/433 434/434/434 435/435/435
f 436/436/436 437/437/437 438/438/438
f 439/439/439 440/440/440 441/441/441
f 442/442/442 443/443/443 444/444/444
f 445/445/445 446/446/446 447/447/447
f 448/448/448 449/449/449 450/450/450
f 451/451/451 452/452/452 453/453/453
f 454/454/454 455/455/455 456/456/456
f 457/457/457 458/458/458 459/459/459
f 460/460/460 461/461/461 462/462/462
f 463/463/463 464/464/464 465/465/465
f 466/466/466 467/467/467 468/468/468
f 469/469/469 470/470/470 471/471/471
f 472/472/472 473/473/473 474/474/474
f 475/475/475 476/476/476 477/477/477
f 478/478/478 479/479/479 480/480/480
f 481/481/481 482/482/482 483/483/483
f 484/484/484 485/485/485 486/486/486
f 487/487/487 488/488/488 489/489/489
f 490/490/490 491/491/491 492/492/492
f 493/493/493 494/494/494 495/495/495
f 496/496/496 497/497/497 498/498/498
f 499/499/499 500/500/500 501/501/501
f 502/502/502 503/503/503 504/504/504
f 505/505/505 506/506/506 507/507/507
f 508/508/508 509/509/509 510/510/510
f 511/511/511 512/512/512 513/513/513
f 514/514/514 515/515/515 516/516/516
f 517/517/517 518/518/518 519/519/519
f 520/520/520 521/521/521 522/522/522
f 523/523/523 524/524/524 525/525/525
f 526/526/526 527/527/527 528/528/528
f 529/529/529 530/530/530 531/531/531
f 532/532/532 533/533/533 534/534/534
f 535/535/535 536/536/536 537/537/537
f 538/538/538 539/539/539 540/540/540
f 541/541/541 542/542/542 543/543/543
f 544/544/544 545/545/545 546/546/546
f 547/547/547 548/548/548 549/549/549
f 550/550/550 551/551/551 552/552/552
f 553/553/553 554/554/554 555/555/555
f 556/556/556 557/557/557 558/558/558
f 559/559/559 560/560/560 561/561/561
f 562/562/562 563/563/563 564/564/564
f 565/565/565 566/566/566 567/567/567
f 568/568/568 569/569/569 570/570/570
f 571/571/571 572/572/572 573/573/573
f 574/574/574 575/575/575 576/576/576
f 577/577/577 578/578/578 579/579/579
f 580/580/580 581/581/581 582/582/582
f 583/583/583 584/584/584 585/585/585
f 586/586/586 587/587/587 588/588/588
f 589/589/589 590/590/590 591/591/591
f 592/592/592 593/593/593 594/594/594
f 595/595/595 596/596/596 597/597/597
f 598/598/598 599/599/599 600/600/600
f 601/601/601 602/602/602 603/603/603
f 604/604/604 605/605/605 606/606/606
f 607/607/607 608/608/608 609/609/609
f 610/610/610 611/611/611 612/612/612
f 613/613/613 614/614/614 615/615/615
f 616/616/616 617/617/617 618/618/618
f 619/619/619 620/620/620 621/621/621
f 622/622/622 623/623/623 624/624/624
f 625/625/625 626/626/626 627/627/627
f 628/628/628 629/629/629 630/630/630
f 631/631/631 632/632/632 633/633/633
f 634/634/634 635/635/635 636/636/636
f 637/637/637 638/638/638 639/639/639
f 640/640/640 641/641/641 642/642/642
f 643/643/643 644/644/644 645/645/645
f 646/646/646 647/647/647 648/648/648
f 649/649/649 650/650/650 651/651/651
f 652/652/652 653/653/653 654/654/654
f 655/655/655 656/656/656 657/657/657
f 658/658/658 659/659/659 660/660/660
f 661/661/661 662/662/662 663/663/663
f 664/664/664 665/665/665 666/666/666
f 667/667/667 668/668/668 669/669/669
f 670/670/670 671/671/671 672/672/672
f 673/673/673 674/674/674 675/675/675
f 676/676/676 677/677/677 678/678/678
f 679/679/679 680/680/680 681/681/681
f 682/682/682 683/683/683 684/684/684
f 685/685/685 686/686/686 687/687/687
f 688/688/688 689/689/689 690/690/690
