# OBJ file
v 210.861110 1050.600000 416.686400
v 220.664520 1045.314500 407.340900
v 203.126400 1036.253900 416.686400
v 220.664520 1045.314500 407.340900
v 212.929810 1030.968500 407.340900
v 203.126400 1036.253900 416.686400
vn -0.564091 0.307333 -0.766386
vn -0.564091 0.307333 -0.766386
vn -0.564091 0.307333 -0.766386
vn -0.564091 0.307333 -0.766386
vn -0.564091 0.307333 -0.766386
vn -0.564091 0.307333 -0.766386
vt 0.000000 1.000000
vt 0.000000 0.000000
vt 1.000000 1.000000
vt 0.000000 0.000000
vt 1.000000 0.000000
vt 1.000000 1.000000
f 1/1/1 2/2/2 3/3/3
f 4/4/4 5/5/5 6/6/6
