# OBJ file
v 220.008130 1045.311000 406.921000
v 212.494960 1031.375900 406.920930
v 220.907700 1044.825900 408.138980
v 212.494960 1031.375900 406.920930
v 213.394560 1030.890900 408.138900
v 220.907700 1044.825900 408.138980
v 212.494960 1031.375900 406.920930
v 202.923550 1036.536400 416.045200
v 213.394560 1030.890900 408.138900
v 202.923550 1036.536400 416.045200
v 203.823180 1036.051300 417.263200
v 213.394560 1030.890900 408.138900
v 202.923550 1036.536400 416.045200
v 210.436720 1050.471400 416.045200
v 203.823180 1036.051300 417.263200
v 210.436720 1050.471400 416.045200
v 211.336320 1049.986500 417.263240
v 203.823180 1036.051300 417.263200
v 210.436720 1050.471400 416.045200
v 220.008130 1045.311000 406.921000
v 211.336320 1049.986500 417.263240
v 220.008130 1045.311000 406.921000
v 220.907700 1044.825900 408.138980
v 211.336320 1049.986500 417.263240
v 213.821910 1030.858000 422.579560
v 217.470410 1037.625100 422.579560
v 208.803940 1033.537600 420.906740
v 217.470410 1037.625100 422.579560
v 212.463230 1040.324700 420.906770
v 208.803940 1033.537600 420.906740
v 208.418290 1033.745500 419.935180
v 214.604700 1030.435900 421.833440
v 208.803940 1033.537600 420.906740
v 214.604700 1030.435900 421.833440
v 213.821910 1030.858000 422.579560
v 208.803940 1033.537600 420.906740
v 212.077580 1040.532600 419.935200
v 208.418290 1033.745500 419.935180
v 212.463230 1040.324700 420.906770
v 208.418290 1033.745500 419.935180
v 208.803940 1033.537600 420.906740
v 212.463230 1040.324700 420.906770
v 221.118880 1044.392100 422.579530
v 216.122560 1047.111800 420.906770
v 217.470410 1037.625100 422.579560
v 216.122560 1047.111800 420.906770
v 212.463230 1040.324700 420.906770
v 217.470410 1037.625100 422.579560
v 215.736900 1047.319800 419.935150
v 216.122560 1047.111800 420.906770
v 221.901660 1043.970100 421.833440
v 216.122560 1047.111800 420.906770
v 221.118880 1044.392100 422.579530
v 221.901660 1043.970100 421.833440
v 212.077580 1040.532600 419.935200
v 212.463230 1040.324700 420.906770
v 215.736900 1047.319800 419.935150
v 212.463230 1040.324700 420.906770
v 216.122560 1047.111800 420.906770
v 215.736900 1047.319800 419.935150
v 220.447080 1043.140100 410.784330
v 214.523940 1032.154000 410.784330
v 212.897920 1047.210200 417.980830
v 214.523940 1032.154000 410.784330
v 206.974780 1036.224100 417.980870
v 212.897920 1047.210200 417.980830
v 222.176330 1045.741500 406.786400
v 213.300930 1029.279700 406.786400
v 220.447080 1043.140100 410.784330
v 213.300930 1029.279700 406.786400
v 214.523940 1032.154000 410.784330
v 220.447080 1043.140100 410.784330
v 213.300930 1029.279700 406.786400
v 201.989100 1035.378500 417.569820
v 214.523940 1032.154000 410.784330
v 201.989100 1035.378500 417.569820
v 206.974780 1036.224100 417.980870
v 214.523940 1032.154000 410.784330
v 201.989100 1035.378500 417.569820
v 210.864470 1051.840200 417.569800
v 206.974780 1036.224100 417.980870
v 210.864470 1051.840200 417.569800
v 212.897920 1047.210200 417.980830
v 206.974780 1036.224100 417.980870
v 210.864470 1051.840200 417.569800
v 222.176330 1045.741500 406.786400
v 212.897920 1047.210200 417.980830
v 222.176330 1045.741500 406.786400
v 220.447080 1043.140100 410.784330
v 212.897920 1047.210200 417.980830
v 212.988340 1028.386500 405.366100
v 213.887940 1027.901400 406.584100
v 213.190980 1027.960100 407.122220
v 212.291380 1028.445200 405.904200
v 212.988340 1028.386500 405.366100
v 213.190980 1027.960100 407.122220
v 212.291380 1028.445200 405.904200
v 213.190980 1027.960100 407.122220
v 201.487430 1034.270100 418.279050
v 200.587810 1034.755100 417.061070
v 212.291380 1028.445200 405.904200
v 201.487430 1034.270100 418.279050
v 200.587810 1034.755100 417.061070
v 201.487430 1034.270100 418.279050
v 201.055360 1034.820100 418.817230
v 200.155750 1035.305200 417.599240
v 200.587810 1034.755100 417.061070
v 201.055360 1034.820100 418.817230
v 200.155750 1035.305200 417.599240
v 201.055360 1034.820100 418.817230
v 201.264500 1035.658400 418.996550
v 200.364900 1036.143600 417.778600
v 200.155750 1035.305200 417.599240
v 201.264500 1035.658400 418.996550
v 200.364900 1036.143600 417.778600
v 201.264500 1035.658400 418.996550
v 210.163710 1052.164300 418.996640
v 209.264080 1052.649400 417.778600
v 200.364900 1036.143600 417.778600
v 210.163710 1052.164300 418.996640
v 209.264080 1052.649400 417.778600
v 210.163710 1052.164300 418.996640
v 210.749160 1052.799800 418.817200
v 209.849560 1053.284900 417.599200
v 209.264080 1052.649400 417.778600
v 210.749160 1052.799800 418.817200
v 209.849560 1053.284900 417.599200
v 210.749160 1052.799800 418.817200
v 211.446120 1052.741100 418.279080
v 210.546500 1053.226200 417.061100
v 209.849560 1053.284900 417.599200
v 211.446120 1052.741100 418.279080
v 210.546500 1053.226200 417.061100
v 211.446120 1052.741100 418.279080
v 223.149690 1046.431200 407.122200
v 222.250080 1046.916100 405.904200
v 210.546500 1053.226200 417.061100
v 223.149690 1046.431200 407.122200
v 222.250080 1046.916100 405.904200
v 223.149690 1046.431200 407.122200
v 223.581760 1045.881100 406.584100
v 222.682140 1046.366200 405.366060
v 222.250080 1046.916100 405.904200
v 223.581760 1045.881100 406.584100
v 222.682140 1046.366200 405.366060
v 223.581760 1045.881100 406.584100
v 223.372600 1045.042700 406.404700
v 222.473000 1045.527800 405.186700
v 222.682140 1046.366200 405.366060
v 223.372600 1045.042700 406.404700
v 222.473000 1045.527800 405.186700
v 223.372600 1045.042700 406.404700
v 214.473420 1028.536900 406.404700
v 213.573790 1029.021900 405.186680
v 222.473000 1045.527800 405.186700
v 214.473420 1028.536900 406.404700
v 213.573790 1029.021900 405.186680
v 214.473420 1028.536900 406.404700
v 213.887940 1027.901400 406.584100
v 212.988340 1028.386500 405.366100
v 213.573790 1029.021900 405.186680
v 213.887940 1027.901400 406.584100
v 213.661600 1028.686600 421.833470
v 217.404630 1026.668700 418.265300
v 218.347730 1028.418000 418.265300
v 214.604700 1030.435900 421.833440
v 213.661600 1028.686600 421.833470
v 218.347730 1028.418000 418.265300
v 214.604700 1030.435900 421.833440
v 218.347730 1028.418000 418.265300
v 221.996220 1035.184900 418.265260
v 218.253190 1037.203100 421.833440
v 214.604700 1030.435900 421.833440
v 221.996220 1035.184900 418.265260
v 214.604700 1030.435900 421.833440
v 218.253190 1037.203100 421.833440
v 213.821910 1030.858000 422.579560
v 218.253190 1037.203100 421.833440
v 217.470410 1037.625100 422.579560
v 213.821910 1030.858000 422.579560
v 221.118880 1044.392100 422.579530
v 217.470410 1037.625100 422.579560
v 218.253190 1037.203100 421.833440
v 221.901660 1043.970100 421.833440
v 221.118880 1044.392100 422.579530
v 218.253190 1037.203100 421.833440
v 218.253190 1037.203100 421.833440
v 221.996220 1035.184900 418.265260
v 221.901660 1043.970100 421.833440
v 221.996220 1035.184900 418.265260
v 225.644700 1041.952000 418.265320
v 221.901660 1043.970100 421.833440
v 221.901660 1043.970100 421.833440
v 225.644700 1041.952000 418.265320
v 222.844770 1045.719200 421.833470
v 225.644700 1041.952000 418.265320
v 226.587810 1043.701300 418.265300
v 222.844770 1045.719200 421.833470
v 206.024260 1043.796300 418.074520
v 212.077580 1040.532600 419.935200
v 209.694200 1050.603000 418.074550
v 212.077580 1040.532600 419.935200
v 215.736900 1047.319800 419.935150
v 209.694200 1050.603000 418.074550
v 209.694200 1050.603000 418.074550
v 215.736900 1047.319800 419.935150
v 210.639860 1052.357000 418.074520
v 215.736900 1047.319800 419.935150
v 216.681290 1049.071400 419.935200
v 210.639860 1052.357000 418.074520
v 216.681290 1049.071400 419.935200
v 215.736900 1047.319800 419.935150
v 222.844770 1045.719200 421.833470
v 215.736900 1047.319800 419.935150
v 221.901660 1043.970100 421.833440
v 222.844770 1045.719200 421.833470
v 206.024260 1043.796300 418.074520
v 202.354340 1036.989400 418.074520
v 212.077580 1040.532600 419.935200
v 202.354340 1036.989400 418.074520
v 208.418290 1033.745500 419.935180
v 212.077580 1040.532600 419.935200
v 202.354340 1036.989400 418.074520
v 201.408680 1035.235400 418.074550
v 208.418290 1033.745500 419.935180
v 201.408680 1035.235400 418.074550
v 207.473880 1031.993900 419.935200
v 208.418290 1033.745500 419.935180
v 207.473880 1031.993900 419.935200
v 213.661600 1028.686600 421.833470
v 208.418290 1033.745500 419.935180
v 213.661600 1028.686600 421.833470
v 214.604700 1030.435900 421.833440
v 208.418290 1033.745500 419.935180
v 217.404630 1026.668700 418.265300
v 213.661600 1028.686600 421.833470
v 215.432880 1027.702800 412.347960
v 213.661600 1028.686600 421.833470
v 207.473880 1031.993900 419.935200
v 215.432880 1027.702800 412.347960
v 207.473880 1031.993900 419.935200
v 201.408680 1035.235400 418.074550
v 215.432880 1027.702800 412.347960
v 201.408680 1035.235400 418.074550
v 213.500230 1028.716300 406.547850
v 215.432880 1027.702800 412.347960
v 226.587810 1043.701300 418.265300
v 224.640300 1044.780300 412.348000
v 222.844770 1045.719200 421.833470
v 224.640300 1044.780300 412.348000
v 216.681290 1049.071400 419.935200
v 222.844770 1045.719200 421.833470
v 216.681290 1049.071400 419.935200
v 224.640300 1044.780300 412.348000
v 210.639860 1052.357000 418.074520
v 224.640300 1044.780300 412.348000
v 222.731380 1045.838000 406.547820
v 210.639860 1052.357000 418.074520
v 214.445880 1030.470300 406.547850
v 218.115800 1037.277100 406.547800
v 220.036600 1036.241500 412.348000
v 221.996220 1035.184900 418.265260
v 218.347730 1028.418000 418.265300
v 220.036600 1036.241500 412.348000
v 216.377290 1029.454200 412.348000
v 214.445880 1030.470300 406.547850
v 220.036600 1036.241500 412.348000
v 218.347730 1028.418000 418.265300
v 216.377290 1029.454200 412.348000
v 220.036600 1036.241500 412.348000
v 213.500230 1028.716300 406.547850
v 214.445880 1030.470300 406.547850
v 216.377290 1029.454200 412.348000
v 218.347730 1028.418000 418.265300
v 217.404630 1026.668700 418.265300
v 216.377290 1029.454200 412.348000
v 215.432880 1027.702800 412.347960
v 213.500230 1028.716300 406.547850
v 216.377290 1029.454200 412.348000
v 217.404630 1026.668700 418.265300
v 215.432880 1027.702800 412.347960
v 216.377290 1029.454200 412.348000
v 220.036600 1036.241500 412.348000
v 218.115800 1037.277100 406.547800
v 221.785720 1044.084000 406.547800
v 221.996220 1035.184900 418.265260
v 220.036600 1036.241500 412.348000
v 225.644700 1041.952000 418.265320
v 223.695890 1043.028700 412.347960
v 220.036600 1036.241500 412.348000
v 221.785720 1044.084000 406.547800
v 220.036600 1036.241500 412.348000
v 223.695890 1043.028700 412.347960
v 225.644700 1041.952000 418.265320
v 223.695890 1043.028700 412.347960
v 221.785720 1044.084000 406.547800
v 222.731380 1045.838000 406.547820
v 225.644700 1041.952000 418.265320
v 223.695890 1043.028700 412.347960
v 226.587810 1043.701300 418.265300
v 224.640300 1044.780300 412.348000
v 223.695890 1043.028700 412.347960
v 222.731380 1045.838000 406.547820
v 223.695890 1043.028700 412.347960
v 224.640300 1044.780300 412.348000
v 226.587810 1043.701300 418.265300
v 220.907700 1044.825900 408.138980
v 223.372600 1045.042700 406.404700
v 223.581760 1045.881100 406.584100
v 214.473420 1028.536900 406.404700
v 223.372600 1045.042700 406.404700
v 220.907700 1044.825900 408.138980
v 220.907700 1044.825900 408.138980
v 223.581760 1045.881100 406.584100
v 223.149690 1046.431200 407.122200
v 213.394560 1030.890900 408.138900
v 214.473420 1028.536900 406.404700
v 220.907700 1044.825900 408.138980
v 220.907700 1044.825900 408.138980
v 223.149690 1046.431200 407.122200
v 211.336320 1049.986500 417.263240
v 213.394560 1030.890900 408.138900
v 213.887940 1027.901400 406.584100
v 214.473420 1028.536900 406.404700
v 223.149690 1046.431200 407.122200
v 211.446120 1052.741100 418.279080
v 211.336320 1049.986500 417.263240
v 213.394560 1030.890900 408.138900
v 213.190980 1027.960100 407.122220
v 213.887940 1027.901400 406.584100
v 211.336320 1049.986500 417.263240
v 211.446120 1052.741100 418.279080
v 210.749160 1052.799800 418.817200
v 201.487430 1034.270100 418.279050
v 213.190980 1027.960100 407.122220
v 213.394560 1030.890900 408.138900
v 211.336320 1049.986500 417.263240
v 210.749160 1052.799800 418.817200
v 210.163710 1052.164300 418.996640
v 203.823180 1036.051300 417.263200
v 201.487430 1034.270100 418.279050
v 213.394560 1030.890900 408.138900
v 211.336320 1049.986500 417.263240
v 210.163710 1052.164300 418.996640
v 203.823180 1036.051300 417.263200
v 203.823180 1036.051300 417.263200
v 201.055360 1034.820100 418.817230
v 201.487430 1034.270100 418.279050
v 210.163710 1052.164300 418.996640
v 201.264500 1035.658400 418.996550
v 203.823180 1036.051300 417.263200
v 203.823180 1036.051300 417.263200
v 201.264500 1035.658400 418.996550
v 201.055360 1034.820100 418.817230
v 212.291380 1028.445200 405.904200
v 200.587810 1034.755100 417.061070
v 212.393190 1029.910500 406.412570
v 212.291380 1028.445200 405.904200
v 212.393190 1029.910500 406.412570
v 212.988340 1028.386500 405.366100
v 200.587810 1034.755100 417.061070
v 201.755680 1035.645800 416.553130
v 212.393190 1029.910500 406.412570
v 200.587810 1034.755100 417.061070
v 200.155750 1035.305200 417.599240
v 201.755680 1035.645800 416.553130
v 212.988340 1028.386500 405.366100
v 212.393190 1029.910500 406.412570
v 212.494960 1031.375900 406.920930
v 213.573790 1029.021900 405.186680
v 212.988340 1028.386500 405.366100
v 212.494960 1031.375900 406.920930
v 201.755680 1035.645800 416.553130
v 202.923550 1036.536400 416.045200
v 212.393190 1029.910500 406.412570
v 202.923550 1036.536400 416.045200
v 212.494960 1031.375900 406.920930
v 212.393190 1029.910500 406.412570
v 200.155750 1035.305200 417.599240
v 201.539630 1035.920800 416.822200
v 201.755680 1035.645800 416.553130
v 201.539630 1035.920800 416.822200
v 202.923550 1036.536400 416.045200
v 201.755680 1035.645800 416.553130
v 200.155750 1035.305200 417.599240
v 200.364900 1036.143600 417.778600
v 201.539630 1035.920800 416.822200
v 213.573790 1029.021900 405.186680
v 212.494960 1031.375900 406.920930
v 221.240540 1045.419400 406.053800
v 222.473000 1045.527800 405.186700
v 213.573790 1029.021900 405.186680
v 221.240540 1045.419400 406.053800
v 212.494960 1031.375900 406.920930
v 220.008130 1045.311000 406.921000
v 221.240540 1045.419400 406.053800
v 222.473000 1045.527800 405.186700
v 221.240540 1045.419400 406.053800
v 221.345110 1045.838600 406.143520
v 221.240540 1045.419400 406.053800
v 220.008130 1045.311000 406.921000
v 221.345110 1045.838600 406.143520
v 222.682140 1046.366200 405.366060
v 222.473000 1045.527800 405.186700
v 221.345110 1045.838600 406.143520
v 222.682140 1046.366200 405.366060
v 221.345110 1045.838600 406.143520
v 221.129070 1046.113600 406.412570
v 221.345110 1045.838600 406.143520
v 220.008130 1045.311000 406.921000
v 221.129070 1046.113600 406.412570
v 222.250080 1046.916100 405.904200
v 222.682140 1046.366200 405.366060
v 221.129070 1046.113600 406.412570
v 221.129070 1046.113600 406.412570
v 220.008130 1045.311000 406.921000
v 210.491610 1051.848900 416.553130
v 222.250080 1046.916100 405.904200
v 221.129070 1046.113600 406.412570
v 210.491610 1051.848900 416.553130
v 210.546500 1053.226200 417.061100
v 222.250080 1046.916100 405.904200
v 210.491610 1051.848900 416.553130
v 220.008130 1045.311000 406.921000
v 210.436720 1050.471400 416.045200
v 210.491610 1051.848900 416.553130
v 210.546500 1053.226200 417.061100
v 210.491610 1051.848900 416.553130
v 210.143130 1051.878200 416.822270
v 210.491610 1051.848900 416.553130
v 210.436720 1050.471400 416.045200
v 210.143130 1051.878200 416.822270
v 209.849560 1053.284900 417.599200
v 210.546500 1053.226200 417.061100
v 210.143130 1051.878200 416.822270
v 209.849560 1053.284900 417.599200
v 210.143130 1051.878200 416.822270
v 209.850400 1051.560400 416.911930
v 210.143130 1051.878200 416.822270
v 210.436720 1050.471400 416.045200
v 209.850400 1051.560400 416.911930
v 209.264080 1052.649400 417.778600
v 209.849560 1053.284900 417.599200
v 209.850400 1051.560400 416.911930
v 209.850400 1051.560400 416.911930
v 210.436720 1050.471400 416.045200
v 201.644230 1036.340000 416.911900
v 209.264080 1052.649400 417.778600
v 209.850400 1051.560400 416.911930
v 201.644230 1036.340000 416.911900
v 210.436720 1050.471400 416.045200
v 202.923550 1036.536400 416.045200
v 201.644230 1036.340000 416.911900
v 200.364900 1036.143600 417.778600
v 209.264080 1052.649400 417.778600
v 201.644230 1036.340000 416.911900
v 201.644230 1036.340000 416.911900
v 202.923550 1036.536400 416.045200
v 201.539630 1035.920800 416.822200
v 200.364900 1036.143600 417.778600
v 201.644230 1036.340000 416.911900
v 201.539630 1035.920800 416.822200
vn -0.677796 0.364364 0.638617
vn -0.677796 0.364364 0.638617
vn -0.677796 0.364364 0.638617
vn -0.677796 0.364364 0.638617
vn -0.677796 0.364364 0.638617
vn -0.677796 0.364364 0.638617
vn 0.473629 0.880716 -0.003914
vn 0.473629 0.880716 -0.003914
vn 0.473629 0.880716 -0.003914
vn 0.473629 0.880716 -0.003914
vn 0.473629 0.880716 -0.003914
vn 0.473629 0.880716 -0.003914
vn 0.672026 -0.357628 -0.648446
vn 0.672026 -0.357628 -0.648446
vn 0.672026 -0.357628 -0.648446
vn 0.672026 -0.357628 -0.648446
vn 0.672026 -0.357628 -0.648446
vn 0.672026 -0.357628 -0.648446
vn -0.482970 -0.875628 -0.003927
vn -0.482970 -0.875628 -0.003927
vn -0.482970 -0.875628 -0.003927
vn -0.482970 -0.875628 -0.003927
vn -0.482970 -0.875628 -0.003927
vn -0.482970 -0.875628 -0.003927
vn -0.255939 0.137813 0.956819
vn -0.255939 0.137813 0.956819
vn -0.255939 0.137813 0.956819
vn -0.255939 0.137813 0.956819
vn -0.255939 0.137813 0.956819
vn -0.255939 0.137813 0.956819
vn -0.476914 -0.878941 -0.003941
vn -0.476914 -0.878941 -0.003941
vn -0.476914 -0.878941 -0.003941
vn -0.476914 -0.878941 -0.003941
vn -0.476914 -0.878941 -0.003941
vn -0.476914 -0.878941 -0.003941
vn -0.804355 0.435529 0.404139
vn -0.804355 0.435529 0.404139
vn -0.804355 0.435529 0.404139
vn -0.804355 0.435529 0.404139
vn -0.804355 0.435529 0.404139
vn -0.804355 0.435529 0.404139
vn -0.255939 0.137813 0.956819
vn -0.255939 0.137813 0.956819
vn -0.255939 0.137813 0.956819
vn -0.255939 0.137813 0.956819
vn -0.255939 0.137813 0.956819
vn -0.255939 0.137813 0.956819
vn 0.473629 0.880716 -0.003914
vn 0.473629 0.880716 -0.003914
vn 0.473629 0.880716 -0.003914
vn 0.473629 0.880716 -0.003914
vn 0.473629 0.880716 -0.003914
vn 0.473629 0.880716 -0.003914
vn -0.804355 0.435529 0.404139
vn -0.804355 0.435529 0.404139
vn -0.804355 0.435529 0.404139
vn -0.804355 0.435529 0.404139
vn -0.804355 0.435529 0.404139
vn -0.804355 0.435529 0.404139
vn -0.564091 0.307333 -0.766386
vn -0.564091 0.307333 -0.766386
vn -0.564091 0.307333 -0.766386
vn -0.564091 0.307333 -0.766386
vn -0.564091 0.307333 -0.766386
vn -0.564091 0.307333 -0.766386
vn -0.878297 0.472328 -0.074167
vn -0.878297 0.472328 -0.074167
vn -0.878297 0.472328 -0.074167
vn -0.878297 0.472328 -0.074167
vn -0.878297 0.472328 -0.074167
vn -0.878297 0.472328 -0.074167
vn -0.097186 0.820254 -0.563682
vn -0.097186 0.820254 -0.563682
vn -0.097186 0.820254 -0.563682
vn -0.097186 0.820254 -0.563682
vn -0.097186 0.820254 -0.563682
vn -0.097186 0.820254 -0.563682
vn 0.089749 -0.042923 -0.995039
vn 0.089749 -0.042923 -0.995039
vn 0.089749 -0.042923 -0.995039
vn 0.089749 -0.042923 -0.995039
vn 0.089749 -0.042923 -0.995039
vn 0.089749 -0.042923 -0.995039
vn -0.736961 -0.370430 -0.565393
vn -0.736961 -0.370430 -0.565393
vn -0.736961 -0.370430 -0.565393
vn -0.736961 -0.370430 -0.565393
vn -0.736961 -0.370430 -0.565393
vn -0.736961 -0.370430 -0.565393
vn -0.239981 -0.948121 -0.208508
vn -0.239981 -0.948121 -0.208508
vn -0.365895 -0.924574 -0.106228
vn -0.365895 -0.924574 -0.106228
vn -0.239981 -0.948121 -0.208508
vn -0.365895 -0.924574 -0.106228
vn -0.365895 -0.924574 -0.106228
vn -0.365895 -0.924574 -0.106228
vn -0.579896 -0.808699 0.098622
vn -0.579896 -0.808699 0.098622
vn -0.365895 -0.924574 -0.106228
vn -0.579896 -0.808699 0.098622
vn -0.579896 -0.808699 0.098622
vn -0.579896 -0.808699 0.098622
vn -0.816288 -0.363229 0.449154
vn -0.816288 -0.363229 0.449154
vn -0.579896 -0.808699 0.098622
vn -0.816288 -0.363229 0.449154
vn -0.816288 -0.363229 0.449154
vn -0.816288 -0.363229 0.449154
vn -0.745440 0.222461 0.628355
vn -0.745440 0.222461 0.628355
vn -0.816288 -0.363229 0.449154
vn -0.745440 0.222461 0.628355
vn -0.745440 0.222461 0.628355
vn -0.745440 0.222461 0.628355
vn -0.590624 0.504573 0.629738
vn -0.590624 0.504573 0.629738
vn -0.745440 0.222461 0.628355
vn -0.590624 0.504573 0.629738
vn -0.590624 0.504573 0.629738
vn -0.590624 0.504573 0.629738
vn -0.490551 0.623981 0.608283
vn -0.490551 0.623981 0.608283
vn -0.590624 0.504573 0.629738
vn -0.490551 0.623981 0.608283
vn 0.231184 0.952165 0.199837
vn 0.231184 0.952165 0.199837
vn 0.356726 0.929055 0.098002
vn 0.356726 0.929055 0.098002
vn 0.231184 0.952165 0.199837
vn 0.356726 0.929055 0.098002
vn 0.356726 0.929055 0.098002
vn 0.356726 0.929055 0.098002
vn 0.570482 0.814412 -0.106228
vn 0.570482 0.814412 -0.106228
vn 0.356726 0.929055 0.098002
vn 0.570482 0.814412 -0.106228
vn 0.570482 0.814412 -0.106228
vn 0.570482 0.814412 -0.106228
vn 0.808427 0.371017 -0.456937
vn 0.808427 0.371017 -0.456937
vn 0.570482 0.814412 -0.106228
vn 0.808427 0.371017 -0.456937
vn 0.808427 0.371017 -0.456937
vn 0.808427 0.371017 -0.456937
vn 0.739529 -0.215207 -0.637795
vn 0.739529 -0.215207 -0.637795
vn 0.808427 0.371017 -0.456937
vn 0.739529 -0.215207 -0.637795
vn 0.739529 -0.215207 -0.637795
vn 0.739529 -0.215207 -0.637795
vn 0.584881 -0.498522 -0.639836
vn 0.584881 -0.498522 -0.639836
vn 0.739529 -0.215207 -0.637795
vn 0.584881 -0.498522 -0.639836
vn 0.584881 -0.498522 -0.639836
vn 0.584881 -0.498522 -0.639836
vn 0.484586 -0.618537 -0.618537
vn 0.484586 -0.618537 -0.618537
vn 0.584881 -0.498522 -0.639836
vn 0.484586 -0.618537 -0.618537
vn 0.563486 -0.303415 0.768390
vn 0.563486 -0.303415 0.768390
vn 0.563486 -0.303415 0.768390
vn 0.563486 -0.303415 0.768390
vn 0.563486 -0.303415 0.768390
vn 0.563486 -0.303415 0.768390
vn 0.563486 -0.303415 0.768390
vn 0.563486 -0.303415 0.768390
vn 0.563486 -0.303415 0.768390
vn 0.563486 -0.303415 0.768390
vn 0.563486 -0.303415 0.768390
vn 0.563486 -0.303415 0.768390
vn 0.563486 -0.303415 0.768390
vn 0.563486 -0.303415 0.768390
vn 0.563486 -0.303415 0.768390
vn 0.563486 -0.303415 0.768390
vn 0.563486 -0.303415 0.768390
vn 0.563486 -0.303415 0.768390
vn 0.563486 -0.303415 0.768390
vn 0.563486 -0.303415 0.768390
vn 0.563486 -0.303415 0.768390
vn 0.563486 -0.303415 0.768390
vn 0.563486 -0.303415 0.768390
vn 0.563486 -0.303415 0.768390
vn 0.563486 -0.303415 0.768390
vn 0.563486 -0.303415 0.768390
vn 0.563486 -0.303415 0.768390
vn 0.563486 -0.303415 0.768390
vn 0.563486 -0.303415 0.768390
vn 0.563486 -0.303415 0.768390
vn 0.563486 -0.303415 0.768390
vn 0.563486 -0.303415 0.768390
vn 0.563486 -0.303415 0.768390
vn 0.563486 -0.303415 0.768390
vn 0.563486 -0.303415 0.768390
vn 0.563486 -0.303415 0.768390
vn -0.232141 0.129842 0.963977
vn -0.232141 0.129842 0.963977
vn -0.232141 0.129842 0.963977
vn -0.232141 0.129842 0.963977
vn -0.232141 0.129842 0.963977
vn -0.232141 0.129842 0.963977
vn -0.232141 0.129842 0.963977
vn -0.232141 0.129842 0.963977
vn -0.232141 0.129842 0.963977
vn -0.232141 0.129842 0.963977
vn -0.232141 0.129842 0.963977
vn -0.232141 0.129842 0.963977
vn -0.232141 0.129842 0.963977
vn -0.232141 0.129842 0.963977
vn -0.232141 0.129842 0.963977
vn -0.232141 0.129842 0.963977
vn -0.232141 0.129842 0.963977
vn -0.232141 0.129842 0.963977
vn -0.232141 0.129842 0.963977
vn -0.232141 0.129842 0.963977
vn -0.232141 0.129842 0.963977
vn -0.232141 0.129842 0.963977
vn -0.232141 0.129842 0.963977
vn -0.232141 0.129842 0.963977
vn -0.232141 0.129842 0.963977
vn -0.232141 0.129842 0.963977
vn -0.232141 0.129842 0.963977
vn -0.232141 0.129842 0.963977
vn -0.232141 0.129842 0.963977
vn -0.232141 0.129842 0.963977
vn -0.232141 0.129842 0.963977
vn -0.232141 0.129842 0.963977
vn -0.232141 0.129842 0.963977
vn -0.232141 0.129842 0.963977
vn -0.232141 0.129842 0.963977
vn -0.232141 0.129842 0.963977
vn -0.476914 -0.878941 -0.003941
vn -0.476914 -0.878941 -0.003941
vn -0.476914 -0.878941 -0.003941
vn -0.476914 -0.878941 -0.003941
vn -0.476914 -0.878941 -0.003941
vn -0.476914 -0.878941 -0.003941
vn -0.476914 -0.878941 -0.003941
vn -0.476914 -0.878941 -0.003941
vn -0.476914 -0.878941 -0.003941
vn -0.476914 -0.878941 -0.003941
vn -0.476914 -0.878941 -0.003941
vn -0.476914 -0.878941 -0.003941
vn 0.473629 0.880716 -0.003914
vn 0.473629 0.880716 -0.003914
vn 0.473629 0.880716 -0.003914
vn 0.473629 0.880716 -0.003914
vn 0.473629 0.880716 -0.003914
vn 0.473629 0.880716 -0.003914
vn 0.473629 0.880716 -0.003914
vn 0.473629 0.880716 -0.003914
vn 0.473629 0.880716 -0.003914
vn 0.473629 0.880716 -0.003914
vn 0.473629 0.880716 -0.003914
vn 0.473629 0.880716 -0.003914
vn 0.821467 -0.444142 -0.357672
vn 0.821467 -0.444142 -0.357672
vn 0.821467 -0.444142 -0.357672
vn 0.821467 -0.444142 -0.357672
vn 0.821467 -0.444142 -0.357672
vn 0.821467 -0.444142 -0.357672
vn 0.821467 -0.444142 -0.357672
vn 0.821467 -0.444142 -0.357672
vn 0.821467 -0.444142 -0.357672
vn 0.821467 -0.444142 -0.357672
vn 0.821467 -0.444142 -0.357672
vn 0.821467 -0.444142 -0.357672
vn 0.821467 -0.444142 -0.357672
vn 0.821467 -0.444142 -0.357672
vn 0.821467 -0.444142 -0.357672
vn 0.821467 -0.444142 -0.357672
vn 0.821467 -0.444142 -0.357672
vn 0.821467 -0.444142 -0.357672
vn 0.821467 -0.444142 -0.357672
vn 0.821467 -0.444142 -0.357672
vn 0.821467 -0.444142 -0.357672
vn 0.821467 -0.444142 -0.357672
vn 0.821467 -0.444142 -0.357672
vn 0.821467 -0.444142 -0.357672
vn 0.821467 -0.444142 -0.357672
vn 0.821467 -0.444142 -0.357672
vn 0.821467 -0.444142 -0.357672
vn 0.821467 -0.444142 -0.357672
vn 0.821467 -0.444142 -0.357672
vn 0.821467 -0.444142 -0.357672
vn 0.821467 -0.444142 -0.357672
vn 0.821467 -0.444142 -0.357672
vn 0.821467 -0.444142 -0.357672
vn 0.821467 -0.444142 -0.357672
vn 0.821467 -0.444142 -0.357672
vn 0.821467 -0.444142 -0.357672
vn 0.821467 -0.444142 -0.357672
vn 0.821467 -0.444142 -0.357672
vn 0.821467 -0.444142 -0.357672
vn 0.821467 -0.444142 -0.357672
vn 0.821467 -0.444142 -0.357672
vn 0.821467 -0.444142 -0.357672
vn 0.821467 -0.444142 -0.357672
vn 0.821467 -0.444142 -0.357672
vn 0.821467 -0.444142 -0.357672
vn 0.821467 -0.444142 -0.357672
vn 0.821467 -0.444142 -0.357672
vn 0.821467 -0.444142 -0.357672
vn 0.563486 -0.303415 0.768390
vn 0.563486 -0.303415 0.768390
vn 0.563486 -0.303415 0.768390
vn 0.563486 -0.303415 0.768390
vn 0.563486 -0.303415 0.768390
vn 0.563486 -0.303415 0.768390
vn 0.563486 -0.303415 0.768390
vn 0.563486 -0.303415 0.768390
vn 0.563486 -0.303415 0.768390
vn 0.563486 -0.303415 0.768390
vn 0.563486 -0.303415 0.768390
vn 0.563486 -0.303415 0.768390
vn 0.563486 -0.303415 0.768390
vn 0.563486 -0.303415 0.768390
vn 0.563486 -0.303415 0.768390
vn 0.563486 -0.303415 0.768390
vn 0.563486 -0.303415 0.768390
vn 0.563486 -0.303415 0.768390
vn 0.563486 -0.303415 0.768390
vn 0.563486 -0.303415 0.768390
vn 0.563486 -0.303415 0.768390
vn 0.563486 -0.303415 0.768390
vn 0.563486 -0.303415 0.768390
vn 0.563486 -0.303415 0.768390
vn 0.563486 -0.303415 0.768390
vn 0.563486 -0.303415 0.768390
vn 0.563486 -0.303415 0.768390
vn 0.563486 -0.303415 0.768390
vn 0.563486 -0.303415 0.768390
vn 0.563486 -0.303415 0.768390
vn 0.563486 -0.303415 0.768390
vn 0.563486 -0.303415 0.768390
vn 0.563486 -0.303415 0.768390
vn 0.563486 -0.303415 0.768390
vn 0.563486 -0.303415 0.768390
vn 0.563486 -0.303415 0.768390
vn 0.563486 -0.303415 0.768390
vn 0.563486 -0.303415 0.768390
vn 0.563486 -0.303415 0.768390
vn 0.563486 -0.303415 0.768390
vn 0.563486 -0.303415 0.768390
vn 0.563486 -0.303415 0.768390
vn 0.563486 -0.303415 0.768390
vn 0.563486 -0.303415 0.768390
vn 0.563486 -0.303415 0.768390
vn 0.563486 -0.303415 0.768390
vn 0.563486 -0.303415 0.768390
vn 0.563486 -0.303415 0.768390
vn -0.564091 0.307333 -0.766386
vn -0.564091 0.307333 -0.766386
vn -0.564091 0.307333 -0.766386
vn -0.564091 0.307333 -0.766386
vn -0.564091 0.307333 -0.766386
vn -0.564091 0.307333 -0.766386
vn -0.564091 0.307333 -0.766386
vn -0.564091 0.307333 -0.766386
vn -0.564091 0.307333 -0.766386
vn -0.564091 0.307333 -0.766386
vn -0.564091 0.307333 -0.766386
vn -0.564091 0.307333 -0.766386
vn -0.564091 0.307333 -0.766386
vn -0.564091 0.307333 -0.766386
vn -0.564091 0.307333 -0.766386
vn -0.564091 0.307333 -0.766386
vn -0.564091 0.307333 -0.766386
vn -0.564091 0.307333 -0.766386
vn -0.564091 0.307333 -0.766386
vn -0.564091 0.307333 -0.766386
vn -0.564091 0.307333 -0.766386
vn -0.564091 0.307333 -0.766386
vn -0.564091 0.307333 -0.766386
vn -0.564091 0.307333 -0.766386
vn -0.564091 0.307333 -0.766386
vn -0.564091 0.307333 -0.766386
vn -0.564091 0.307333 -0.766386
vn -0.564091 0.307333 -0.766386
vn -0.564091 0.307333 -0.766386
vn -0.564091 0.307333 -0.766386
vn -0.564091 0.307333 -0.766386
vn -0.564091 0.307333 -0.766386
vn -0.564091 0.307333 -0.766386
vn -0.564091 0.307333 -0.766386
vn -0.564091 0.307333 -0.766386
vn -0.564091 0.307333 -0.766386
vn -0.564091 0.307333 -0.766386
vn -0.564091 0.307333 -0.766386
vn -0.564091 0.307333 -0.766386
vn -0.564091 0.307333 -0.766386
vn -0.564091 0.307333 -0.766386
vn -0.564091 0.307333 -0.766386
vn -0.564091 0.307333 -0.766386
vn -0.564091 0.307333 -0.766386
vn -0.564091 0.307333 -0.766386
vn -0.564091 0.307333 -0.766386
vn -0.564091 0.307333 -0.766386
vn -0.564091 0.307333 -0.766386
vn -0.564091 0.307333 -0.766386
vn -0.564091 0.307333 -0.766386
vn -0.564091 0.307333 -0.766386
vn -0.564091 0.307333 -0.766386
vn -0.564091 0.307333 -0.766386
vn -0.564091 0.307333 -0.766386
vn -0.564091 0.307333 -0.766386
vn -0.564091 0.307333 -0.766386
vn -0.564091 0.307333 -0.766386
vn -0.564091 0.307333 -0.766386
vn -0.564091 0.307333 -0.766386
vn -0.564091 0.307333 -0.766386
vn -0.564091 0.307333 -0.766386
vn -0.564091 0.307333 -0.766386
vn -0.564091 0.307333 -0.766386
vn -0.564091 0.307333 -0.766386
vn -0.564091 0.307333 -0.766386
vn -0.564091 0.307333 -0.766386
vn -0.564091 0.307333 -0.766386
vn -0.564091 0.307333 -0.766386
vn -0.564091 0.307333 -0.766386
vn -0.564091 0.307333 -0.766386
vn -0.564091 0.307333 -0.766386
vn -0.564091 0.307333 -0.766386
vn -0.564091 0.307333 -0.766386
vn -0.564091 0.307333 -0.766386
vn -0.564091 0.307333 -0.766386
vn -0.564091 0.307333 -0.766386
vn -0.564091 0.307333 -0.766386
vn -0.564091 0.307333 -0.766386
vn -0.564091 0.307333 -0.766386
vn -0.564091 0.307333 -0.766386
vn -0.564091 0.307333 -0.766386
vn -0.564091 0.307333 -0.766386
vn -0.564091 0.307333 -0.766386
vn -0.564091 0.307333 -0.766386
vn -0.564091 0.307333 -0.766386
vn -0.564091 0.307333 -0.766386
vn -0.564091 0.307333 -0.766386
vn -0.564091 0.307333 -0.766386
vn -0.564091 0.307333 -0.766386
vn -0.564091 0.307333 -0.766386
vn -0.564091 0.307333 -0.766386
vn -0.564091 0.307333 -0.766386
vn -0.564091 0.307333 -0.766386
vn -0.564091 0.307333 -0.766386
vn -0.564091 0.307333 -0.766386
vn -0.564091 0.307333 -0.766386
vn -0.564091 0.307333 -0.766386
vn -0.564091 0.307333 -0.766386
vn -0.564091 0.307333 -0.766386
vn -0.564091 0.307333 -0.766386
vn -0.564091 0.307333 -0.766386
vn -0.564091 0.307333 -0.766386
vn -0.564091 0.307333 -0.766386
vn -0.564091 0.307333 -0.766386
vn -0.564091 0.307333 -0.766386
vn -0.564091 0.307333 -0.766386
vn -0.564091 0.307333 -0.766386
vn -0.564091 0.307333 -0.766386
vt 0.666016 0.905579
vt 0.982422 0.905579
vt 0.666016 0.937378
vt 0.982422 0.905579
vt 0.982422 0.937378
vt 0.666016 0.937378
vt 0.621094 0.562988
vt 0.621094 0.846924
vt 0.589355 0.562988
vt 0.621094 0.846924
vt 0.589355 0.846924
vt 0.589355 0.562988
vt 0.987793 0.985191
vt 0.671387 0.985191
vt 0.987793 0.953400
vt 0.671387 0.985191
vt 0.671387 0.953400
vt 0.987793 0.953400
vt 0.924316 0.406738
vt 0.924316 0.123047
vt 0.956055 0.406738
vt 0.924316 0.123047
vt 0.956055 0.123047
vt 0.956055 0.406738
vt 0.836914 0.436035
vt 0.990723 0.436035
vt 0.836914 0.554199
vt 0.990723 0.436035
vt 0.990723 0.554199
vt 0.836914 0.554199
vt 0.079041 0.406738
vt 0.224243 0.406738
vt 0.092773 0.424805
vt 0.224243 0.406738
vt 0.211182 0.424805
vt 0.092773 0.424805
vt 0.080078 0.370117
vt 0.233765 0.370117
vt 0.080078 0.391602
vt 0.233765 0.370117
vt 0.233765 0.391602
vt 0.080078 0.391602
vt 0.836914 0.436035
vt 0.836914 0.554199
vt 0.990723 0.436035
vt 0.836914 0.554199
vt 0.990723 0.554199
vt 0.990723 0.436035
vt 0.079041 0.406738
vt 0.092773 0.424805
vt 0.224243 0.406738
vt 0.092773 0.424805
vt 0.211182 0.424805
vt 0.224243 0.406738
vt 0.080078 0.370117
vt 0.080078 0.391602
vt 0.233765 0.370117
vt 0.080078 0.391602
vt 0.233765 0.391602
vt 0.233765 0.370117
vt 0.737793 0.576416
vt 0.987305 0.576416
vt 0.737793 0.800171
vt 0.987305 0.576416
vt 0.987305 0.800171
vt 0.737793 0.800171
vt 0.016449 0.510986
vt 0.390137 0.510986
vt 0.078613 0.591064
vt 0.390137 0.510986
vt 0.328125 0.591064
vt 0.078613 0.591064
vt 0.013008 0.631836
vt 0.348389 0.631836
vt 0.068787 0.716553
vt 0.348389 0.631836
vt 0.292480 0.716553
vt 0.068787 0.716553
vt 0.811035 0.171387
vt 0.437256 0.171387
vt 0.749023 0.091309
vt 0.437256 0.171387
vt 0.499268 0.091309
vt 0.749023 0.091309
vt 0.336670 0.861939
vt 0.671875 0.861939
vt 0.392334 0.946625
vt 0.671875 0.861939
vt 0.616211 0.946625
vt 0.392334 0.946625
vt 0.809082 0.050293
vt 0.809082 0.082031
vt 0.791504 0.082031
vt 0.791504 0.050293
vt 0.809082 0.050293
vt 0.791504 0.082031
vt 0.791504 0.050293
vt 0.791504 0.082031
vt 0.444580 0.082031
vt 0.444580 0.050293
vt 0.791504 0.050293
vt 0.444580 0.082031
vt 0.444580 0.050293
vt 0.444580 0.082031
vt 0.427002 0.082031
vt 0.427002 0.050293
vt 0.444580 0.050293
vt 0.427002 0.082031
vt 0.427002 0.050293
vt 0.427002 0.082031
vt 0.409424 0.082031
vt 0.409424 0.050293
vt 0.427002 0.050293
vt 0.409424 0.082031
vt 0.409424 0.050293
vt 0.409424 0.082031
vt 0.034393 0.082031
vt 0.034393 0.050293
vt 0.409424 0.050293
vt 0.034393 0.082031
vt 0.034393 0.050293
vt 0.034393 0.082031
vt 0.016754 0.082031
vt 0.016754 0.050293
vt 0.034393 0.050293
vt 0.016754 0.082031
vt 0.809082 0.007324
vt 0.809082 0.039062
vt 0.791504 0.039062
vt 0.791504 0.007324
vt 0.809082 0.007324
vt 0.791504 0.039062
vt 0.791504 0.007324
vt 0.791504 0.039062
vt 0.444580 0.039062
vt 0.444580 0.007324
vt 0.791504 0.007324
vt 0.444580 0.039062
vt 0.444580 0.007324
vt 0.444580 0.039062
vt 0.427002 0.039062
vt 0.427002 0.007324
vt 0.444580 0.007324
vt 0.427002 0.039062
vt 0.427002 0.007324
vt 0.427002 0.039062
vt 0.409424 0.039062
vt 0.409424 0.007324
vt 0.427002 0.007324
vt 0.409424 0.039062
vt 0.409424 0.007324
vt 0.409424 0.039062
vt 0.034393 0.039062
vt 0.034393 0.007324
vt 0.409424 0.007324
vt 0.034393 0.039062
vt 0.034393 0.007324
vt 0.034393 0.039062
vt 0.016754 0.039062
vt 0.016754 0.007324
vt 0.034393 0.007324
vt 0.016754 0.039062
vt 0.503418 0.354492
vt 0.503418 0.243164
vt 0.543457 0.243164
vt 0.543457 0.354492
vt 0.503418 0.354492
vt 0.543457 0.243164
vt 0.543457 0.354492
vt 0.543457 0.243164
vt 0.665039 0.243164
vt 0.665039 0.354492
vt 0.543457 0.354492
vt 0.665039 0.243164
vt 0.543457 0.354492
vt 0.665039 0.354492
vt 0.543457 0.377441
vt 0.665039 0.354492
vt 0.665039 0.377441
vt 0.543457 0.377441
vt 0.543457 0.377441
vt 0.665039 0.377441
vt 0.665039 0.354492
vt 0.543457 0.354492
vt 0.543457 0.377441
vt 0.665039 0.354492
vt 0.665039 0.354492
vt 0.665039 0.243164
vt 0.543457 0.354492
vt 0.665039 0.243164
vt 0.543457 0.243164
vt 0.543457 0.354492
vt 0.543457 0.354492
vt 0.543457 0.243164
vt 0.503418 0.354492
vt 0.543457 0.243164
vt 0.503418 0.243164
vt 0.503418 0.354492
vt 0.075195 0.336426
vt 0.217651 0.336426
vt 0.075012 0.206543
vt 0.217651 0.336426
vt 0.217529 0.206543
vt 0.075012 0.206543
vt 0.075012 0.206543
vt 0.217529 0.206543
vt 0.074890 0.166992
vt 0.217529 0.206543
vt 0.217407 0.166992
vt 0.074890 0.166992
vt 0.217407 0.166992
vt 0.217529 0.206543
vt 0.362549 0.166992
vt 0.217529 0.206543
vt 0.362793 0.206543
vt 0.362549 0.166992
vt 0.075195 0.336426
vt 0.075012 0.206543
vt 0.217651 0.336426
vt 0.075012 0.206543
vt 0.217529 0.206543
vt 0.217651 0.336426
vt 0.075012 0.206543
vt 0.074890 0.166992
vt 0.217529 0.206543
vt 0.074890 0.166992
vt 0.217407 0.166992
vt 0.217529 0.206543
vt 0.217407 0.166992
vt 0.362549 0.166992
vt 0.217529 0.206543
vt 0.362549 0.166992
vt 0.362793 0.206543
vt 0.217529 0.206543
vt 0.103027 0.732666
vt 0.213989 0.732666
vt 0.061066 0.851929
vt 0.213989 0.732666
vt 0.297119 0.851929
vt 0.061066 0.851929
vt 0.297119 0.851929
vt 0.378418 0.968811
vt 0.061066 0.851929
vt 0.378418 0.968811
vt 0.019943 0.968811
vt 0.061066 0.851929
vt 0.103027 0.732666
vt 0.061066 0.851929
vt 0.213989 0.732666
vt 0.061066 0.851929
vt 0.297119 0.851929
vt 0.213989 0.732666
vt 0.297119 0.851929
vt 0.061066 0.851929
vt 0.378418 0.968811
vt 0.061066 0.851929
vt 0.019943 0.968811
vt 0.378418 0.968811
vt 0.412109 0.564697
vt 0.565918 0.564697
vt 0.565918 0.688721
vt 0.565918 0.815064
vt 0.412109 0.815064
vt 0.565918 0.688721
vt 0.412109 0.688721
vt 0.412109 0.564697
vt 0.565918 0.688721
vt 0.412109 0.815064
vt 0.412109 0.688721
vt 0.565918 0.688721
vt 0.372314 0.564697
vt 0.412109 0.564697
vt 0.412109 0.688721
vt 0.412109 0.815064
vt 0.372314 0.815064
vt 0.412109 0.688721
vt 0.372314 0.688721
vt 0.372314 0.564697
vt 0.412109 0.688721
vt 0.372314 0.815064
vt 0.372314 0.688721
vt 0.412109 0.688721
vt 0.565918 0.688721
vt 0.565918 0.564697
vt 0.412109 0.564697
vt 0.565918 0.815064
vt 0.565918 0.688721
vt 0.412109 0.815064
vt 0.412109 0.688721
vt 0.565918 0.688721
vt 0.412109 0.564697
vt 0.565918 0.688721
vt 0.412109 0.688721
vt 0.412109 0.815064
vt 0.412109 0.688721
vt 0.412109 0.564697
vt 0.372314 0.564697
vt 0.412109 0.815064
vt 0.412109 0.688721
vt 0.372314 0.815064
vt 0.372314 0.688721
vt 0.412109 0.688721
vt 0.372314 0.564697
vt 0.412109 0.688721
vt 0.372314 0.688721
vt 0.372314 0.815064
vt 0.747070 0.229492
vt 0.769531 0.185059
vt 0.783203 0.189941
vt 0.462646 0.185059
vt 0.769531 0.185059
vt 0.747070 0.229492
vt 0.747070 0.229492
vt 0.783203 0.189941
vt 0.787598 0.203613
vt 0.488281 0.229492
vt 0.462646 0.185059
vt 0.747070 0.229492
vt 0.747070 0.229492
vt 0.787598 0.203613
vt 0.747070 0.461426
vt 0.488281 0.229492
vt 0.448975 0.189941
vt 0.462646 0.185059
vt 0.787598 0.203613
vt 0.787598 0.487305
vt 0.747070 0.461426
vt 0.488281 0.229492
vt 0.444336 0.203613
vt 0.448975 0.189941
vt 0.747070 0.461426
vt 0.787598 0.487305
vt 0.783203 0.501221
vt 0.444336 0.487305
vt 0.444336 0.203613
vt 0.488281 0.229492
vt 0.747070 0.461426
vt 0.783203 0.501221
vt 0.769531 0.505615
vt 0.488281 0.461426
vt 0.444336 0.487305
vt 0.488281 0.229492
vt 0.747070 0.461426
vt 0.769531 0.505615
vt 0.488281 0.461426
vt 0.488281 0.461426
vt 0.448975 0.501221
vt 0.444336 0.487305
vt 0.769531 0.505615
vt 0.462646 0.505615
vt 0.488281 0.461426
vt 0.488281 0.461426
vt 0.462646 0.505615
vt 0.448975 0.501221
vt 0.428711 0.121094
vt 0.428711 0.468262
vt 0.402100 0.136719
vt 0.428711 0.121094
vt 0.402100 0.136719
vt 0.423096 0.104004
vt 0.428711 0.468262
vt 0.402100 0.452148
vt 0.402100 0.136719
vt 0.428711 0.468262
vt 0.423096 0.484863
vt 0.402100 0.452148
vt 0.423096 0.104004
vt 0.402100 0.136719
vt 0.375244 0.152344
vt 0.406494 0.098633
vt 0.423096 0.104004
vt 0.375244 0.152344
vt 0.402100 0.452148
vt 0.375244 0.436523
vt 0.402100 0.136719
vt 0.375244 0.436523
vt 0.375244 0.152344
vt 0.402100 0.136719
vt 0.423096 0.484863
vt 0.399170 0.460449
vt 0.402100 0.452148
vt 0.399170 0.460449
vt 0.375244 0.436523
vt 0.402100 0.452148
vt 0.423096 0.484863
vt 0.406494 0.490234
vt 0.399170 0.460449
vt 0.406494 0.098633
vt 0.375244 0.152344
vt 0.045135 0.125488
vt 0.031555 0.098633
vt 0.406494 0.098633
vt 0.045135 0.125488
vt 0.375244 0.152344
vt 0.058746 0.152344
vt 0.045135 0.125488
vt 0.031555 0.098633
vt 0.045135 0.125488
vt 0.036774 0.128418
vt 0.045135 0.125488
vt 0.058746 0.152344
vt 0.036774 0.128418
vt 0.014816 0.104004
vt 0.031555 0.098633
vt 0.036774 0.128418
vt 0.014816 0.104004
vt 0.036774 0.128418
vt 0.033966 0.136719
vt 0.036774 0.128418
vt 0.058746 0.152344
vt 0.033966 0.136719
vt 0.009216 0.121094
vt 0.014816 0.104004
vt 0.033966 0.136719
vt 0.033966 0.136719
vt 0.058746 0.152344
vt 0.033966 0.452148
vt 0.009216 0.121094
vt 0.033966 0.136719
vt 0.033966 0.452148
vt 0.009216 0.468262
vt 0.009216 0.121094
vt 0.033966 0.452148
vt 0.058746 0.152344
vt 0.058746 0.436523
vt 0.033966 0.452148
vt 0.009216 0.468262
vt 0.033966 0.452148
vt 0.036774 0.460449
vt 0.033966 0.452148
vt 0.058746 0.436523
vt 0.036774 0.460449
vt 0.014816 0.484863
vt 0.009216 0.468262
vt 0.036774 0.460449
vt 0.014816 0.484863
vt 0.036774 0.460449
vt 0.045135 0.463379
vt 0.036774 0.460449
vt 0.058746 0.436523
vt 0.045135 0.463379
vt 0.031555 0.490234
vt 0.014816 0.484863
vt 0.045135 0.463379
vt 0.045135 0.463379
vt 0.058746 0.436523
vt 0.390869 0.463379
vt 0.031555 0.490234
vt 0.045135 0.463379
vt 0.390869 0.463379
vt 0.058746 0.436523
vt 0.375244 0.436523
vt 0.390869 0.463379
vt 0.406494 0.490234
vt 0.031555 0.490234
vt 0.390869 0.463379
vt 0.390869 0.463379
vt 0.375244 0.436523
vt 0.399170 0.460449
vt 0.406494 0.490234
vt 0.390869 0.463379
vt 0.399170 0.460449
f 1/1/1 2/2/2 3/3/3
f 4/4/4 5/5/5 6/6/6
f 7/7/7 8/8/8 9/9/9
f 10/10/10 11/11/11 12/12/12
f 13/13/13 14/14/14 15/15/15
f 16/16/16 17/17/17 18/18/18
f 19/19/19 20/20/20 21/21/21
f 22/22/22 23/23/23 24/24/24
f 25/25/25 26/26/26 27/27/27
f 28/28/28 29/29/29 30/30/30
f 31/31/31 32/32/32 33/33/33
f 34/34/34 35/35/35 36/36/36
f 37/37/37 38/38/38 39/39/39
f 40/40/40 41/41/41 42/42/42
f 43/43/43 44/44/44 45/45/45
f 46/46/46 47/47/47 48/48/48
f 49/49/49 50/50/50 51/51/51
f 52/52/52 53/53/53 54/54/54
f 55/55/55 56/56/56 57/57/57
f 58/58/58 59/59/59 60/60/60
f 61/61/61 62/62/62 63/63/63
f 64/64/64 65/65/65 66/66/66
f 67/67/67 68/68/68 69/69/69
f 70/70/70 71/71/71 72/72/72
f 73/73/73 74/74/74 75/75/75
f 76/76/76 77/77/77 78/78/78
f 79/79/79 80/80/80 81/81/81
f 82/82/82 83/83/83 84/84/84
f 85/85/85 86/86/86 87/87/87
f 88/88/88 89/89/89 90/90/90
f 91/91/91 92/92/92 93/93/93
f 94/94/94 95/95/95 96/96/96
f 97/97/97 98/98/98 99/99/99
f 100/100/100 101/101/101 102/102/102
f 103/103/103 104/104/104 105/105/105
f 106/106/106 107/107/107 108/108/108
f 109/109/109 110/110/110 111/111/111
f 112/112/112 113/113/113 114/114/114
f 115/115/115 116/116/116 117/117/117
f 118/118/118 119/119/119 120/120/120
f 121/121/121 122/122/122 123/123/123
f 124/124/124 125/125/125 126/126/126
f 127/127/127 128/128/128 129/129/129
f 130/130/130 131/131/131 132/132/132
f 133/133/133 134/134/134 135/135/135
f 136/136/136 137/137/137 138/138/138
f 139/139/139 140/140/140 141/141/141
f 142/142/142 143/143/143 144/144/144
f 145/145/145 146/146/146 147/147/147
f 148/148/148 149/149/149 150/150/150
f 151/151/151 152/152/152 153/153/153
f 154/154/154 155/155/155 156/156/156
f 157/157/157 158/158/158 159/159/159
f 160/160/160 161/161/161 162/162/162
f 163/163/163 164/164/164 165/165/165
f 166/166/166 167/167/167 168/168/168
f 169/169/169 170/170/170 171/171/171
f 172/172/172 173/173/173 174/174/174
f 175/175/175 176/176/176 177/177/177
f 178/178/178 179/179/179 180/180/180
f 181/181/181 182/182/182 183/183/183
f 184/184/184 185/185/185 186/186/186
f 187/187/187 188/188/188 189/189/189
f 190/190/190 191/191/191 192/192/192
f 193/193/193 194/194/194 195/195/195
f 196/196/196 197/197/197 198/198/198
f 199/199/199 200/200/200 201/201/201
f 202/202/202 203/203/203 204/204/204
f 205/205/205 206/206/206 207/207/207
f 208/208/208 209/209/209 210/210/210
f 211/211/211 212/212/212 213/213/213
f 214/214/214 215/215/215 216/216/216
f 217/217/217 218/218/218 219/219/219
f 220/220/220 221/221/221 222/222/222
f 223/223/223 224/224/224 225/225/225
f 226/226/226 227/227/227 228/228/228
f 229/229/229 230/230/230 231/231/231
f 232/232/232 233/233/233 234/234/234
f 235/235/235 236/236/236 237/237/237
f 238/238/238 239/239/239 240/240/240
f 241/241/241 242/242/242 243/243/243
f 244/244/244 245/245/245 246/246/246
f 247/247/247 248/248/248 249/249/249
f 250/250/250 251/251/251 252/252/252
f 253/253/253 254/254/254 255/255/255
f 256/256/256 257/257/257 258/258/258
f 259/259/259 260/260/260 261/261/261
f 262/262/262 263/263/263 264/264/264
f 265/265/265 266/266/266 267/267/267
f 268/268/268 269/269/269 270/270/270
f 271/271/271 272/272/272 273/273/273
f 274/274/274 275/275/275 276/276/276
f 277/277/277 278/278/278 279/279/279
f 280/280/280 281/281/281 282/282/282
f 283/283/283 284/284/284 285/285/285
f 286/286/286 287/287/287 288/288/288
f 289/289/289 290/290/290 291/291/291
f 292/292/292 293/293/293 294/294/294
f 295/295/295 296/296/296 297/297/297
f 298/298/298 299/299/299 300/300/300
f 301/301/301 302/302/302 303/303/303
f 304/304/304 305/305/305 306/306/306
f 307/307/307 308/308/308 309/309/309
f 310/310/310 311/311/311 312/312/312
f 313/313/313 314/314/314 315/315/315
f 316/316/316 317/317/317 318/318/318
f 319/319/319 320/320/320 321/321/321
f 322/322/322 323/323/323 324/324/324
f 325/325/325 326/326/326 327/327/327
f 328/328/328 329/329/329 330/330/330
f 331/331/331 332/332/332 333/333/333
f 334/334/334 335/335/335 336/336/336
f 337/337/337 338/338/338 339/339/339
f 340/340/340 341/341/341 342/342/342
f 343/343/343 344/344/344 345/345/345
f 346/346/346 347/347/347 348/348/348
f 349/349/349 350/350/350 351/351/351
f 352/352/352 353/353/353 354/354/354
f 355/355/355 356/356/356 357/357/357
f 358/358/358 359/359/359 360/360/360
f 361/361/361 362/362/362 363/363/363
f 364/364/364 365/365/365 366/366/366
f 367/367/367 368/368/368 369/369/369
f 370/370/370 371/371/371 372/372/372
f 373/373/373 374/374/374 375/375/375
f 376/376/376 377/377/377 378/378/378
f 379/379/379 380/380/380 381/381/381
f 382/382/382 383/383/383 384/384/384
f 385/385/385 386/386/386 387/387/387
f 388/388/388 389/389/389 390/390/390
f 391/391/391 392/392/392 393/393/393
f 394/394/394 395/395/395 396/396/396
f 397/397/397 398/398/398 399/399/399
f 400/400/400 401/401/401 402/402/402
f 403/403/403 404/404/404 405/405/405
f 406/406/406 407/407/407 408/408/408
f 409/409/409 410/410/410 411/411/411
f 412/412/412 413/413/413 414/414/414
f 415/415/415 416/416/416 417/417/417
f 418/418/418 419/419/419 420/420/420
f 421/421/421 422/422/422 423/423/423
f 424/424/424 425/425/425 426/426/426
f 427/427/427 428/428/428 429/429/429
f 430/430/430 431/431/431 432/432/432
f 433/433/433 434/434/434 435/435/435
f 436/436/436 437/437/437 438/438/438
f 439/439/439 440/440/440 441/441/441
f 442/442/442 443/443/443 444/444/444
f 445/445/445 446/446/446 447/447/447
f 448/448/448 449/449/449 450/450/450
f 451/451/451 452/452/452 453/453/453
f 454/454/454 455/455/455 456/456/456
f 457/457/457 458/458/458 459/459/459
f 460/460/460 461/461/461 462/462/462
