# OBJ file
v 993.565200 2096.686300 341.634280
v 984.686300 2083.014400 341.634280
v 972.483150 2090.936300 341.634280
v 972.483150 2090.936300 341.634280
v 981.365970 2104.608200 341.634280
v 993.565200 2096.686300 341.634280
vn -0.003921 0.003921 -0.999985
vn -0.003921 0.003921 -0.999985
vn -0.003921 0.003921 -0.999985
vn -0.003921 0.003921 -0.999985
vn -0.003921 0.003921 -0.999985
vn -0.003921 0.003921 -0.999985
vt 0.000000 0.000000
vt 1.000000 0.000000
vt 1.000000 1.000000
vt 1.000000 1.000000
vt 0.000000 1.000000
vt 0.000000 0.000000
f 1/1/1 2/2/2 3/3/3
f 4/4/4 5/5/5 6/6/6
