# OBJ file
v -571.022949 972.348633 112.856644
v -571.022156 972.348145 22.465557
v -571.463135 971.399902 22.465555
v -571.463135 971.399902 22.465555
v -571.464050 971.400208 112.856667
v -571.022949 972.348633 112.856644
v -571.464050 971.400208 112.856667
v -571.463135 971.399902 22.465555
v -571.555481 970.359131 22.465555
v -571.555481 970.359131 22.465555
v -571.556458 970.359131 112.856621
v -571.464050 971.400208 112.856667
v -571.556458 970.359131 112.856621
v -571.555481 970.359131 22.465555
v -571.463135 969.318359 22.465555
v -571.463135 969.318359 22.465555
v -571.464050 969.318115 112.856667
v -571.556458 970.359131 112.856621
v -571.464050 969.318115 112.856667
v -571.463135 969.318359 22.465555
v -571.022156 968.370117 22.465555
v -571.022156 968.370117 22.465555
v -571.022949 968.369751 112.856644
v -571.464050 969.318115 112.856667
v -571.022949 968.369751 112.856644
v -571.022156 968.370117 22.465555
v -570.421326 967.515259 22.465555
v -570.421326 967.515259 22.465555
v -570.421997 967.514648 112.856697
v -571.022949 968.369751 112.856644
v -570.421997 967.514648 112.856697
v -570.421326 967.515259 22.465555
v -569.566467 966.914429 22.465555
v -569.566467 966.914429 22.465555
v -569.566956 966.913696 112.856644
v -570.421997 967.514648 112.856697
v -569.566956 966.913696 112.856644
v -569.566467 966.914429 22.465555
v -568.618225 966.473450 22.465555
v -568.618225 966.473450 22.465555
v -568.618469 966.472595 112.856667
v -569.566956 966.913696 112.856644
v -568.618469 966.472595 112.856667
v -568.618225 966.473450 22.465555
v -567.577515 966.382141 22.465555
v -567.577515 966.382141 22.465555
v -567.577515 966.381226 112.856644
v -568.618469 966.472595 112.856667
v -567.577515 966.381226 112.856644
v -567.577515 966.382141 22.465555
v -566.536682 966.473450 22.465555
v -566.536682 966.473450 22.465555
v -566.536438 966.472595 112.856667
v -567.577515 966.381226 112.856644
v -566.536438 966.472595 112.856667
v -566.536682 966.473450 22.465555
v -565.588501 966.914429 22.465555
v -565.588501 966.914429 22.465555
v -565.588013 966.913696 112.856644
v -566.536438 966.472595 112.856667
v -565.588013 966.913696 112.856644
v -565.588501 966.914429 22.465555
v -564.733643 967.515259 22.465555
v -564.733643 967.515259 22.465555
v -564.732971 967.514648 112.856682
v -565.588013 966.913696 112.856644
v -564.732971 967.514648 112.856682
v -564.733643 967.515259 22.465555
v -564.132812 968.370117 22.465555
v -564.132812 968.370117 22.465555
v -564.132019 968.369751 112.856644
v -564.732971 967.514648 112.856682
v -564.132019 968.369751 112.856644
v -564.132812 968.370117 22.465555
v -563.692871 969.318298 22.465555
v -563.692871 969.318298 22.465555
v -563.691956 969.318115 112.856682
v -564.132019 968.369751 112.856644
v -563.691956 969.318115 112.856682
v -563.692871 969.318298 22.465555
v -563.600525 970.359131 22.465555
v -563.600525 970.359131 22.465555
v -563.599609 970.359131 112.856644
v -563.691956 969.318115 112.856682
v -563.599609 970.359131 112.856644
v -563.600525 970.359131 22.465555
v -563.692871 971.399963 22.465555
v -563.692871 971.399963 22.465555
v -563.691956 971.400208 112.856682
v -563.599609 970.359131 112.856644
v -563.691956 971.400208 112.856682
v -563.692871 971.399963 22.465555
v -564.132812 972.348145 22.465557
v -564.132812 972.348145 22.465557
v -564.132019 972.348633 112.856644
v -563.691956 971.400208 112.856682
v -564.132019 972.348633 112.856644
v -564.132812 972.348145 22.465557
v -564.733643 973.203003 22.465555
v -564.733643 973.203003 22.465555
v -564.732971 973.203674 112.856682
v -564.132019 972.348633 112.856644
v -564.732971 973.203674 112.856682
v -564.733643 973.203003 22.465555
v -565.588501 973.803833 22.465555
v -565.588501 973.803833 22.465555
v -565.588013 973.804688 112.856644
v -564.732971 973.203674 112.856682
v -565.588013 973.804688 112.856644
v -565.588501 973.803833 22.465555
v -566.536682 974.244812 22.465555
v -566.536682 974.244812 22.465555
v -566.536438 974.245728 112.856667
v -565.588013 973.804688 112.856644
v -566.536438 974.245728 112.856667
v -566.536682 974.244812 22.465555
v -567.577515 974.336121 22.465555
v -567.577515 974.336121 22.465555
v -567.577515 974.337097 112.856644
v -566.536438 974.245728 112.856667
v -567.577515 974.337097 112.856644
v -567.577515 974.336121 22.465555
v -568.618225 974.244812 22.465555
v -568.618225 974.244812 22.465555
v -568.618469 974.245728 112.856667
v -567.577515 974.337097 112.856644
v -568.618469 974.245728 112.856667
v -568.618225 974.244812 22.465555
v -569.566467 973.803833 22.465555
v -569.566467 973.803833 22.465555
v -569.566956 973.804688 112.856644
v -568.618469 974.245728 112.856667
v -569.566956 973.804688 112.856644
v -569.566467 973.803833 22.465555
v -570.421326 973.203003 22.465555
v -570.421326 973.203003 22.465555
v -570.421997 973.203674 112.856697
v -569.566956 973.804688 112.856644
v -570.421997 973.203674 112.856697
v -570.421326 973.203003 22.465555
v -571.022156 972.348145 22.465557
v -571.022156 972.348145 22.465557
v -571.022949 972.348633 112.856644
v -570.421997 973.203674 112.856697
v -569.730408 971.602173 114.408997
v -569.111389 971.893066 114.019272
v -569.435364 971.431274 114.020363
v -569.730408 971.602173 114.408997
v -568.820557 972.512085 114.408997
v -569.111389 971.893066 114.019272
v -568.820557 972.512085 114.408997
v -568.650635 972.217041 114.020370
v -569.111389 971.893066 114.019272
v -568.820557 972.512085 114.408997
v -569.730408 971.602173 114.408997
v -570.627075 972.119995 115.203583
v -568.820557 972.512085 114.408997
v -568.139343 972.454895 114.019279
v -568.650635 972.217041 114.020370
v -570.627075 972.119995 115.203583
v -569.338318 973.408752 115.203583
v -568.820557 972.512085 114.408997
v -569.338318 973.408752 115.203583
v -570.627075 972.119995 115.203583
v -571.312439 972.515503 116.234467
v -568.820557 972.512085 114.408997
v -567.577515 972.845215 114.408997
v -568.139343 972.454895 114.019279
v -567.577515 972.845215 114.408997
v -568.820557 972.512085 114.408997
v -569.338318 973.408752 115.203583
v -567.577515 972.845215 114.408997
v -567.577515 972.504395 114.020378
v -568.139343 972.454895 114.019279
v -567.577515 972.845215 114.408997
v -567.015686 972.454895 114.019279
v -567.577515 972.504395 114.020378
v -571.312439 972.515503 116.234467
v -569.733765 974.094116 116.234467
v -569.338318 973.408752 115.203583
v -569.733765 974.094116 116.234467
v -571.312439 972.515503 116.234467
v -571.743713 972.764526 117.435707
v -569.338318 973.408752 115.203583
v -567.577515 973.880859 115.203583
v -567.577515 972.845215 114.408997
v -567.577515 973.880859 115.203583
v -569.338318 973.408752 115.203583
v -569.733765 974.094116 116.234467
v -567.577515 972.845215 114.408997
v -566.334473 972.512085 114.408997
v -567.015686 972.454895 114.019279
v -566.334473 972.512085 114.408997
v -567.577515 972.845215 114.408997
v -567.577515 973.880859 115.203583
v -566.334473 972.512085 114.408997
v -566.505371 972.217041 114.020363
v -567.015686 972.454895 114.019279
v -566.334473 972.512085 114.408997
v -566.043579 971.893066 114.019279
v -566.505371 972.217041 114.020363
v -571.743713 972.764526 117.435707
v -569.982849 974.525391 117.435707
v -569.733765 974.094116 116.234467
v -569.982849 974.525391 117.435707
v -571.743713 972.764526 117.435707
v -571.890198 972.849121 118.724648
v -566.334473 972.512085 114.408997
v -565.424561 971.602173 114.408997
v -566.043579 971.893066 114.019279
v -565.424561 971.602173 114.408997
v -565.719666 971.431274 114.020363
v -566.043579 971.893066 114.019279
v -565.424561 971.602173 114.408997
v -565.482727 970.921021 114.019272
v -565.719666 971.431274 114.020363
v -571.890198 972.849121 118.724648
v -570.067505 974.671814 118.724648
v -569.982849 974.525391 117.435707
v -570.067505 974.671814 118.724648
v -571.890198 972.849121 118.724648
v -571.743713 972.764526 120.014572
v -567.577515 974.671753 116.234467
v -569.733765 974.094116 116.234467
v -569.982849 974.525391 117.435707
v -569.733765 974.094116 116.234467
v -567.577515 974.671753 116.234467
v -567.577515 973.880859 115.203583
v -567.577515 975.169800 117.435707
v -569.982849 974.525391 117.435707
v -570.067505 974.671814 118.724648
v -569.982849 974.525391 117.435707
v -567.577515 975.169800 117.435707
v -567.577515 974.671753 116.234467
v -567.577515 973.880859 115.203583
v -565.816711 973.408752 115.203583
v -566.334473 972.512085 114.408997
v -565.816711 973.408752 115.203583
v -567.577515 973.880859 115.203583
v -567.577515 974.671753 116.234467
v -565.424561 971.602173 114.408997
v -566.334473 972.512085 114.408997
v -565.816711 973.408752 115.203583
v -567.577515 974.671753 116.234467
v -565.421204 974.094116 116.234467
v -565.816711 973.408752 115.203583
v -565.421204 974.094116 116.234467
v -567.577515 974.671753 116.234467
v -567.577515 975.169800 117.435707
v -565.816711 973.408752 115.203583
v -564.527954 972.119995 115.203583
v -565.424561 971.602173 114.408997
v -564.527954 972.119995 115.203583
v -565.816711 973.408752 115.203583
v -565.421204 974.094116 116.234467
v -565.424561 971.602173 114.408997
v -565.091431 970.359131 114.408997
v -565.482727 970.921021 114.019272
v -565.091431 970.359131 114.408997
v -565.424561 971.602173 114.408997
v -564.527954 972.119995 115.203583
v -565.091431 970.359131 114.408997
v -565.432312 970.359131 114.020378
v -565.482727 970.921021 114.019272
v -565.091431 970.359131 114.408997
v -565.482727 969.797363 114.019272
v -565.432312 970.359131 114.020378
v -565.424561 969.116089 114.408997
v -565.719666 969.287048 114.020363
v -565.482727 969.797363 114.019272
v -565.091431 970.359131 114.408997
v -565.424561 969.116089 114.408997
v -565.482727 969.797363 114.019272
v -565.424561 969.116089 114.408997
v -565.091431 970.359131 114.408997
v -564.056824 970.359131 115.203583
v -564.527954 972.119995 115.203583
v -564.056824 970.359131 115.203583
v -565.091431 970.359131 114.408997
v -564.056824 970.359131 115.203583
v -564.527954 968.598328 115.203583
v -565.424561 969.116089 114.408997
v -564.056824 970.359131 115.203583
v -564.527954 972.119995 115.203583
v -563.842590 972.515503 116.234467
v -565.421204 974.094116 116.234467
v -563.842590 972.515503 116.234467
v -564.527954 972.119995 115.203583
v -564.527954 968.598328 115.203583
v -564.056824 970.359131 115.203583
v -563.264893 970.359131 116.234467
v -563.842590 972.515503 116.234467
v -563.264893 970.359131 116.234467
v -564.056824 970.359131 115.203583
v -563.264893 970.359131 116.234467
v -563.842590 968.202881 116.234467
v -564.527954 968.598328 115.203583
v -563.842590 972.515503 116.234467
v -565.421204 974.094116 116.234467
v -565.172180 974.525391 117.435707
v -567.577515 975.169800 117.435707
v -565.172180 974.525391 117.435707
v -565.421204 974.094116 116.234467
v -563.264893 970.359131 116.234467
v -563.842590 972.515503 116.234467
v -563.412231 972.764526 117.435707
v -565.172180 974.525391 117.435707
v -563.412231 972.764526 117.435707
v -563.842590 972.515503 116.234467
v -563.842590 968.202881 116.234467
v -563.264893 970.359131 116.234467
v -562.766846 970.359131 117.435707
v -563.412231 972.764526 117.435707
v -562.766846 970.359131 117.435707
v -563.264893 970.359131 116.234467
v -562.766846 970.359131 117.435707
v -563.412231 967.953857 117.435707
v -563.842590 968.202881 116.234467
v -565.172180 974.525391 117.435707
v -567.577515 975.169800 117.435707
v -567.577515 975.339172 118.724648
v -570.067505 974.671814 118.724648
v -567.577515 975.339172 118.724648
v -567.577515 975.169800 117.435707
v -563.412231 967.953857 117.435707
v -562.766846 970.359131 117.435707
v -562.597534 970.359131 118.724648
v -562.597534 970.359131 118.724648
v -563.264832 967.869141 118.724648
v -563.412231 967.953857 117.435707
v -562.766846 970.359131 117.435707
v -563.412231 972.764526 117.435707
v -563.264832 972.849121 118.724648
v -563.264832 972.849121 118.724648
v -562.597534 970.359131 118.724648
v -562.766846 970.359131 117.435707
v -563.412231 972.764526 117.435707
v -565.172180 974.525391 117.435707
v -565.087524 974.671814 118.724648
v -565.087524 974.671814 118.724648
v -563.264832 972.849121 118.724648
v -563.412231 972.764526 117.435707
v -567.577515 975.339172 118.724648
v -565.087524 974.671814 118.724648
v -565.172180 974.525391 117.435707
v -563.264832 967.869141 118.724648
v -562.597534 970.359131 118.724648
v -562.766846 970.359131 120.014572
v -562.766846 970.359131 120.014572
v -563.412231 967.953857 120.014572
v -563.264832 967.869141 118.724648
v -562.597534 970.359131 118.724648
v -563.264832 972.849121 118.724648
v -563.412231 972.764526 120.014572
v -563.412231 972.764526 120.014572
v -562.766846 970.359131 120.014572
v -562.597534 970.359131 118.724648
v -563.264832 972.849121 118.724648
v -565.087524 974.671814 118.724648
v -565.172180 974.525391 120.014572
v -565.172180 974.525391 120.014572
v -563.412231 972.764526 120.014572
v -563.264832 972.849121 118.724648
v -563.412231 967.953857 120.014572
v -562.766846 970.359131 120.014572
v -563.264893 970.359131 121.214821
v -563.264893 970.359131 121.214821
v -563.842590 968.202881 121.214844
v -563.412231 967.953857 120.014572
v -562.766846 970.359131 120.014572
v -563.412231 972.764526 120.014572
v -563.842590 972.515503 121.214844
v -563.842590 972.515503 121.214844
v -563.264893 970.359131 121.214821
v -562.766846 970.359131 120.014572
v -563.842590 968.202881 121.214844
v -563.264893 970.359131 121.214821
v -564.056824 970.359131 122.246712
v -564.056824 970.359131 122.246712
v -564.527954 968.598328 122.246712
v -563.842590 968.202881 121.214844
v -563.264893 970.359131 121.214821
v -563.842590 972.515503 121.214844
v -564.527954 972.119995 122.246712
v -564.527954 972.119995 122.246712
v -564.056824 970.359131 122.246712
v -563.264893 970.359131 121.214821
v -565.421204 974.094116 121.214828
v -563.842590 972.515503 121.214844
v -563.412231 972.764526 120.014572
v -563.412231 972.764526 120.014572
v -565.172180 974.525391 120.014572
v -565.421204 974.094116 121.214828
v -565.816711 973.408752 122.246712
v -564.527954 972.119995 122.246712
v -563.842590 972.515503 121.214844
v -563.842590 972.515503 121.214844
v -565.421204 974.094116 121.214828
v -565.816711 973.408752 122.246712
v -564.527954 968.598328 122.246712
v -564.056824 970.359131 122.246712
v -565.087830 970.359131 123.038513
v -565.087830 970.359131 123.038513
v -565.421387 969.114319 123.038513
v -564.527954 968.598328 122.246712
v -564.056824 970.359131 122.246712
v -564.527954 972.119995 122.246712
v -565.421387 971.604004 123.038513
v -565.421387 971.604004 123.038513
v -565.087830 970.359131 123.038513
v -564.056824 970.359131 122.246712
v -565.421387 969.114319 123.038513
v -565.087830 970.359131 123.038513
v -566.289062 970.359131 123.535454
v -566.289062 970.359131 123.535454
v -566.461304 969.714966 123.535454
v -565.421387 969.114319 123.038513
v -565.087830 970.359131 123.038513
v -565.421387 971.604004 123.038513
v -566.461304 971.003418 123.535454
v -566.461304 971.003418 123.535454
v -566.289062 970.359131 123.535454
v -565.087830 970.359131 123.038513
v -567.577515 970.359131 123.704651
v -566.461304 969.714966 123.535454
v -566.289062 970.359131 123.535454
v -567.577515 970.359131 123.704651
v -566.289062 970.359131 123.535454
v -566.461304 971.003418 123.535454
v -566.933289 971.475342 123.535454
v -566.461304 971.003418 123.535454
v -565.421387 971.604004 123.038513
v -567.577515 970.359131 123.704651
v -566.461304 971.003418 123.535454
v -566.933289 971.475342 123.535454
v -566.332703 972.515259 123.038513
v -565.421387 971.604004 123.038513
v -564.527954 972.119995 122.246712
v -565.421387 971.604004 123.038513
v -566.332703 972.515259 123.038513
v -566.933289 971.475342 123.535454
v -564.527954 972.119995 122.246712
v -565.816711 973.408752 122.246712
v -566.332703 972.515259 123.038513
v -567.577515 971.647583 123.535454
v -566.933289 971.475342 123.535454
v -566.332703 972.515259 123.038513
v -567.577515 970.359131 123.704651
v -566.933289 971.475342 123.535454
v -567.577515 971.647583 123.535454
v -567.577515 972.848877 123.038513
v -566.332703 972.515259 123.038513
v -565.816711 973.408752 122.246712
v -566.332703 972.515259 123.038513
v -567.577515 972.848877 123.038513
v -567.577515 971.647583 123.535454
v -565.816711 973.408752 122.246712
v -567.577515 973.880859 122.246712
v -567.577515 972.848877 123.038513
v -567.577515 973.880859 122.246712
v -565.816711 973.408752 122.246712
v -565.421204 974.094116 121.214828
v -568.221680 971.475342 123.535454
v -567.577515 971.647583 123.535454
v -567.577515 972.848877 123.038513
v -567.577515 970.359131 123.704651
v -567.577515 971.647583 123.535454
v -568.221680 971.475342 123.535454
v -568.822327 972.515259 123.038513
v -567.577515 972.848877 123.038513
v -567.577515 973.880859 122.246712
v -567.577515 972.848877 123.038513
v -568.822327 972.515259 123.038513
v -568.221680 971.475342 123.535454
v -565.421204 974.094116 121.214828
v -567.577515 974.671753 121.214828
v -567.577515 973.880859 122.246712
v -567.577515 974.671753 121.214828
v -565.421204 974.094116 121.214828
v -565.172180 974.525391 120.014572
v -567.577515 973.880859 122.246712
v -569.338318 973.408752 122.246712
v -568.822327 972.515259 123.038513
v -569.338318 973.408752 122.246712
v -567.577515 973.880859 122.246712
v -567.577515 974.671753 121.214828
v -568.693665 971.003418 123.535454
v -568.221680 971.475342 123.535454
v -568.822327 972.515259 123.038513
v -567.577515 970.359131 123.704651
v -568.221680 971.475342 123.535454
v -568.693665 971.003418 123.535454
v -569.733582 971.604004 123.038513
v -568.822327 972.515259 123.038513
v -569.338318 973.408752 122.246712
v -568.822327 972.515259 123.038513
v -569.733582 971.604004 123.038513
v -568.693665 971.003418 123.535454
v -567.577515 974.671753 121.214828
v -569.733765 974.094116 121.214828
v -569.338318 973.408752 122.246712
v -568.865967 970.359131 123.535454
v -568.693665 971.003418 123.535454
v -569.733582 971.604004 123.038513
v -567.577515 970.359131 123.704651
v -568.693665 971.003418 123.535454
v -568.865967 970.359131 123.535454
v -569.338318 973.408752 122.246712
v -570.627075 972.119995 122.246712
v -569.733582 971.604004 123.038513
v -570.627075 972.119995 122.246712
v -569.338318 973.408752 122.246712
v -569.733765 974.094116 121.214828
v -569.733582 971.604004 123.038513
v -570.067200 970.359131 123.038513
v -568.865967 970.359131 123.535454
v -570.067200 970.359131 123.038513
v -569.733582 971.604004 123.038513
v -570.627075 972.119995 122.246712
v -568.693665 969.714966 123.535454
v -568.865967 970.359131 123.535454
v -570.067200 970.359131 123.038513
v -567.577515 970.359131 123.704651
v -568.865967 970.359131 123.535454
v -568.693665 969.714966 123.535454
v -570.627075 972.119995 122.246712
v -571.099182 970.359131 122.246712
v -570.067200 970.359131 123.038513
v -570.067200 970.359131 123.038513
v -569.733582 969.114319 123.038513
v -568.693665 969.714966 123.535454
v -569.733582 969.114319 123.038513
v -570.067200 970.359131 123.038513
v -571.099182 970.359131 122.246712
v -567.577515 970.359131 123.704651
v -568.693665 969.714966 123.535454
v -568.221680 969.242981 123.535454
v -568.221680 969.242981 123.535454
v -568.693665 969.714966 123.535454
v -569.733582 969.114319 123.038513
v -571.099182 970.359131 122.246712
v -570.627075 972.119995 122.246712
v -571.312439 972.515503 121.214828
v -569.733765 974.094116 121.214828
v -571.312439 972.515503 121.214828
v -570.627075 972.119995 122.246712
v -571.099182 970.359131 122.246712
v -570.627075 968.598328 122.246712
v -569.733582 969.114319 123.038513
v -569.733582 969.114319 123.038513
v -568.822327 968.203125 123.038513
v -568.221680 969.242981 123.535454
v -568.822327 968.203125 123.038513
v -569.733582 969.114319 123.038513
v -570.627075 968.598328 122.246712
v -567.577515 970.359131 123.704651
v -568.221680 969.242981 123.535454
v -567.577515 969.070740 123.535454
v -567.577515 969.070740 123.535454
v -568.221680 969.242981 123.535454
v -568.822327 968.203125 123.038513
v -567.577515 970.359131 123.704651
v -567.577515 969.070740 123.535454
v -566.933289 969.242981 123.535454
v -567.577515 970.359131 123.704651
v -566.933289 969.242981 123.535454
v -566.461304 969.714966 123.535454
v -568.822327 968.203125 123.038513
v -567.577515 967.869507 123.038513
v -567.577515 969.070740 123.535454
v -566.933289 969.242981 123.535454
v -567.577515 969.070740 123.535454
v -567.577515 967.869507 123.038513
v -566.461304 969.714966 123.535454
v -566.933289 969.242981 123.535454
v -566.332703 968.203125 123.038513
v -567.577515 967.869507 123.038513
v -566.332703 968.203125 123.038513
v -566.933289 969.242981 123.535454
v -566.332703 968.203125 123.038513
v -565.421387 969.114319 123.038513
v -566.461304 969.714966 123.535454
v -567.577515 967.869507 123.038513
v -568.822327 968.203125 123.038513
v -569.338318 967.309570 122.246712
v -570.627075 968.598328 122.246712
v -569.338318 967.309570 122.246712
v -568.822327 968.203125 123.038513
v -566.332703 968.203125 123.038513
v -567.577515 967.869507 123.038513
v -567.577515 966.837524 122.246712
v -569.338318 967.309570 122.246712
v -567.577515 966.837524 122.246712
v -567.577515 967.869507 123.038513
v -565.421387 969.114319 123.038513
v -566.332703 968.203125 123.038513
v -565.816711 967.309570 122.246712
v -567.577515 966.837524 122.246712
v -565.816711 967.309570 122.246712
v -566.332703 968.203125 123.038513
v -565.816711 967.309570 122.246712
v -564.527954 968.598328 122.246712
v -565.421387 969.114319 123.038513
v -567.577515 966.837524 122.246712
v -569.338318 967.309570 122.246712
v -569.733765 966.624268 121.214828
v -564.527954 968.598328 122.246712
v -565.816711 967.309570 122.246712
v -565.421204 966.624268 121.214828
v -565.421204 966.624268 121.214828
v -563.842590 968.202881 121.214844
v -564.527954 968.598328 122.246712
v -565.816711 967.309570 122.246712
v -567.577515 966.837524 122.246712
v -567.577515 966.046631 121.214828
v -567.577515 966.046631 121.214828
v -565.421204 966.624268 121.214828
v -565.816711 967.309570 122.246712
v -569.733765 966.624268 121.214828
v -567.577515 966.046631 121.214828
v -567.577515 966.837524 122.246712
v -563.842590 968.202881 121.214844
v -565.421204 966.624268 121.214828
v -565.172180 966.192871 120.014572
v -565.172180 966.192871 120.014572
v -563.412231 967.953857 120.014572
v -563.842590 968.202881 121.214844
v -565.421204 966.624268 121.214828
v -567.577515 966.046631 121.214828
v -567.577515 965.548523 120.014572
v -567.577515 965.548523 120.014572
v -565.172180 966.192871 120.014572
v -565.421204 966.624268 121.214828
v -563.412231 967.953857 120.014572
v -565.172180 966.192871 120.014572
v -565.087524 966.046509 118.724648
v -565.087524 966.046509 118.724648
v -563.264832 967.869141 118.724648
v -563.412231 967.953857 120.014572
v -565.172180 966.192871 120.014572
v -567.577515 965.548523 120.014572
v -567.577515 965.379150 118.724648
v -567.577515 965.379150 118.724648
v -565.087524 966.046509 118.724648
v -565.172180 966.192871 120.014572
v -569.982849 966.192871 120.014572
v -567.577515 965.548523 120.014572
v -567.577515 966.046631 121.214828
v -567.577515 966.046631 121.214828
v -569.733765 966.624268 121.214828
v -569.982849 966.192871 120.014572
v -570.067505 966.046509 118.724648
v -567.577515 965.379150 118.724648
v -567.577515 965.548523 120.014572
v -567.577515 965.548523 120.014572
v -569.982849 966.192871 120.014572
v -570.067505 966.046509 118.724648
v -563.264832 967.869141 118.724648
v -565.087524 966.046509 118.724648
v -565.172180 966.192871 117.435707
v -565.172180 966.192871 117.435707
v -563.412231 967.953857 117.435707
v -563.264832 967.869141 118.724648
v -565.087524 966.046509 118.724648
v -567.577515 965.379150 118.724648
v -567.577515 965.548523 117.435707
v -567.577515 965.548523 117.435707
v -565.172180 966.192871 117.435707
v -565.087524 966.046509 118.724648
v -563.412231 967.953857 117.435707
v -565.172180 966.192871 117.435707
v -565.421204 966.624268 116.234467
v -565.421204 966.624268 116.234467
v -563.842590 968.202881 116.234467
v -563.412231 967.953857 117.435707
v -565.172180 966.192871 117.435707
v -567.577515 965.548523 117.435707
v -567.577515 966.046631 116.234467
v -567.577515 966.046631 116.234467
v -565.421204 966.624268 116.234467
v -565.172180 966.192871 117.435707
v -569.982849 966.192871 117.435707
v -567.577515 965.548523 117.435707
v -567.577515 965.379150 118.724648
v -567.577515 965.379150 118.724648
v -570.067505 966.046509 118.724648
v -569.982849 966.192871 117.435707
v -569.733765 966.624268 116.234467
v -567.577515 966.046631 116.234467
v -567.577515 965.548523 117.435707
v -567.577515 965.548523 117.435707
v -569.982849 966.192871 117.435707
v -569.733765 966.624268 116.234467
v -563.842590 968.202881 116.234467
v -565.421204 966.624268 116.234467
v -565.816711 967.309570 115.203583
v -565.816711 967.309570 115.203583
v -564.527954 968.598328 115.203583
v -563.842590 968.202881 116.234467
v -565.421204 966.624268 116.234467
v -567.577515 966.046631 116.234467
v -567.577515 966.837524 115.203583
v -567.577515 966.837524 115.203583
v -565.816711 967.309570 115.203583
v -565.421204 966.624268 116.234467
v -564.527954 968.598328 115.203583
v -565.816711 967.309570 115.203583
v -566.334473 968.206177 114.408997
v -566.334473 968.206177 114.408997
v -565.424561 969.116089 114.408997
v -564.527954 968.598328 115.203583
v -565.424561 969.116089 114.408997
v -566.043579 968.825256 114.019279
v -565.719666 969.287048 114.020363
v -565.424561 969.116089 114.408997
v -566.334473 968.206177 114.408997
v -566.043579 968.825256 114.019279
v -566.334473 968.206177 114.408997
v -566.505371 968.501282 114.020363
v -566.043579 968.825256 114.019279
v -566.334473 968.206177 114.408997
v -567.015686 968.263428 114.019279
v -566.505371 968.501282 114.020363
v -567.577515 967.873047 114.408997
v -566.334473 968.206177 114.408997
v -565.816711 967.309570 115.203583
v -566.334473 968.206177 114.408997
v -567.577515 967.873047 114.408997
v -567.015686 968.263428 114.019279
v -565.816711 967.309570 115.203583
v -567.577515 966.837524 115.203583
v -567.577515 967.873047 114.408997
v -567.577515 967.873047 114.408997
v -567.577515 968.213989 114.020378
v -567.015686 968.263428 114.019279
v -567.577515 967.873047 114.408997
v -568.139343 968.263428 114.019279
v -567.577515 968.213989 114.020378
v -567.577515 967.873047 114.408997
v -568.820557 968.206177 114.408997
v -568.139343 968.263428 114.019279
v -568.820557 968.206177 114.408997
v -567.577515 967.873047 114.408997
v -567.577515 966.837524 115.203583
v -568.820557 968.206177 114.408997
v -568.650635 968.501282 114.020370
v -568.139343 968.263428 114.019279
v -568.820557 968.206177 114.408997
v -569.111389 968.825256 114.019272
v -568.650635 968.501282 114.020370
v -567.577515 966.837524 115.203583
v -569.338318 967.309570 115.203583
v -568.820557 968.206177 114.408997
v -569.338318 967.309570 115.203583
v -567.577515 966.837524 115.203583
v -567.577515 966.046631 116.234467
v -567.577515 966.046631 116.234467
v -569.733765 966.624268 116.234467
v -569.338318 967.309570 115.203583
v -568.820557 968.206177 114.408997
v -569.730408 969.116089 114.408997
v -569.111389 968.825256 114.019272
v -569.730408 969.116089 114.408997
v -568.820557 968.206177 114.408997
v -569.338318 967.309570 115.203583
v -569.730408 969.116089 114.408997
v -569.435364 969.287109 114.020363
v -569.111389 968.825256 114.019272
v -569.730408 969.116089 114.408997
v -569.673279 969.797363 114.019287
v -569.435364 969.287109 114.020363
v -570.627075 968.598328 115.203583
v -569.338318 967.309570 115.203583
v -569.733765 966.624268 116.234467
v -569.338318 967.309570 115.203583
v -570.627075 968.598328 115.203583
v -569.730408 969.116089 114.408997
v -569.730408 969.116089 114.408997
v -570.063599 970.359131 114.408997
v -569.673279 969.797363 114.019287
v -570.063599 970.359131 114.408997
v -569.730408 969.116089 114.408997
v -570.627075 968.598328 115.203583
v -570.063599 970.359131 114.408997
v -569.722656 970.359131 114.020378
v -569.673279 969.797363 114.019287
v -570.063599 970.359131 114.408997
v -569.673279 970.921021 114.019287
v -569.722656 970.359131 114.020378
v -569.730408 971.602173 114.408997
v -569.435364 971.431274 114.020363
v -569.673279 970.921021 114.019287
v -570.063599 970.359131 114.408997
v -569.730408 971.602173 114.408997
v -569.673279 970.921021 114.019287
v -569.730408 971.602173 114.408997
v -570.063599 970.359131 114.408997
v -571.099182 970.359131 115.203583
v -570.627075 968.598328 115.203583
v -571.099182 970.359131 115.203583
v -570.063599 970.359131 114.408997
v -571.099182 970.359131 115.203583
v -570.627075 972.119995 115.203583
v -569.730408 971.602173 114.408997
v -569.733765 966.624268 116.234467
v -571.312439 968.202881 116.234467
v -570.627075 968.598328 115.203583
v -571.099182 970.359131 115.203583
v -570.627075 968.598328 115.203583
v -571.312439 968.202881 116.234467
v -571.312439 968.202881 116.234467
v -569.733765 966.624268 116.234467
v -569.982849 966.192871 117.435707
v -570.627075 972.119995 115.203583
v -571.099182 970.359131 115.203583
v -571.890137 970.359131 116.234467
v -571.312439 968.202881 116.234467
v -571.890137 970.359131 116.234467
v -571.099182 970.359131 115.203583
v -571.890137 970.359131 116.234467
v -571.312439 972.515503 116.234467
v -570.627075 972.119995 115.203583
v -569.982849 966.192871 117.435707
v -571.743713 967.953857 117.435707
v -571.312439 968.202881 116.234467
v -571.890137 970.359131 116.234467
v -571.312439 968.202881 116.234467
v -571.743713 967.953857 117.435707
v -571.743713 967.953857 117.435707
v -569.982849 966.192871 117.435707
v -570.067505 966.046509 118.724648
v -571.312439 972.515503 116.234467
v -571.890137 970.359131 116.234467
v -572.388184 970.359131 117.435707
v -571.743713 967.953857 117.435707
v -572.388184 970.359131 117.435707
v -571.890137 970.359131 116.234467
v -572.388184 970.359131 117.435707
v -571.743713 972.764526 117.435707
v -571.312439 972.515503 116.234467
v -570.067505 966.046509 118.724648
v -571.890198 967.869141 118.724648
v -571.743713 967.953857 117.435707
v -572.388184 970.359131 117.435707
v -571.743713 967.953857 117.435707
v -571.890198 967.869141 118.724648
v -571.890198 967.869141 118.724648
v -570.067505 966.046509 118.724648
v -569.982849 966.192871 120.014572
v -571.743713 972.764526 117.435707
v -572.388184 970.359131 117.435707
v -572.557495 970.359131 118.724648
v -571.890198 967.869141 118.724648
v -572.557495 970.359131 118.724648
v -572.388184 970.359131 117.435707
v -572.557495 970.359131 118.724648
v -571.890198 972.849121 118.724648
v -571.743713 972.764526 117.435707
v -569.982849 966.192871 120.014572
v -571.743713 967.953857 120.014572
v -571.890198 967.869141 118.724648
v -572.557495 970.359131 118.724648
v -571.890198 967.869141 118.724648
v -571.743713 967.953857 120.014572
v -571.743713 967.953857 120.014572
v -569.982849 966.192871 120.014572
v -569.733765 966.624268 121.214828
v -571.890198 972.849121 118.724648
v -572.557495 970.359131 118.724648
v -572.388184 970.359131 120.014572
v -571.743713 967.953857 120.014572
v -572.388184 970.359131 120.014572
v -572.557495 970.359131 118.724648
v -572.388184 970.359131 120.014572
v -571.743713 972.764526 120.014572
v -571.890198 972.849121 118.724648
v -569.733765 966.624268 121.214828
v -571.312439 968.202881 121.214828
v -571.743713 967.953857 120.014572
v -572.388184 970.359131 120.014572
v -571.743713 967.953857 120.014572
v -571.312439 968.202881 121.214828
v -571.312439 968.202881 121.214828
v -569.733765 966.624268 121.214828
v -569.338318 967.309570 122.246712
v -569.338318 967.309570 122.246712
v -570.627075 968.598328 122.246712
v -571.312439 968.202881 121.214828
v -571.312439 968.202881 121.214828
v -571.890137 970.359131 121.214828
v -572.388184 970.359131 120.014572
v -571.890137 970.359131 121.214828
v -571.312439 968.202881 121.214828
v -570.627075 968.598328 122.246712
v -571.743713 972.764526 120.014572
v -572.388184 970.359131 120.014572
v -571.890137 970.359131 121.214828
v -570.627075 968.598328 122.246712
v -571.099182 970.359131 122.246712
v -571.890137 970.359131 121.214828
v -571.312439 972.515503 121.214828
v -571.890137 970.359131 121.214828
v -571.099182 970.359131 122.246712
v -571.890137 970.359131 121.214828
v -571.312439 972.515503 121.214828
v -571.743713 972.764526 120.014572
v -569.982849 974.525391 120.014572
v -571.743713 972.764526 120.014572
v -571.312439 972.515503 121.214828
v -571.743713 972.764526 120.014572
v -569.982849 974.525391 120.014572
v -570.067505 974.671814 118.724648
v -571.312439 972.515503 121.214828
v -569.733765 974.094116 121.214828
v -569.982849 974.525391 120.014572
v -567.577515 975.339172 118.724648
v -570.067505 974.671814 118.724648
v -569.982849 974.525391 120.014572
v -567.577515 975.169800 120.014572
v -569.982849 974.525391 120.014572
v -569.733765 974.094116 121.214828
v -569.982849 974.525391 120.014572
v -567.577515 975.169800 120.014572
v -567.577515 975.339172 118.724648
v -569.733765 974.094116 121.214828
v -567.577515 974.671753 121.214828
v -567.577515 975.169800 120.014572
v -565.087524 974.671814 118.724648
v -567.577515 975.339172 118.724648
v -567.577515 975.169800 120.014572
v -565.172180 974.525391 120.014572
v -567.577515 975.169800 120.014572
v -567.577515 974.671753 121.214828
v -567.577515 975.169800 120.014572
v -565.172180 974.525391 120.014572
v -565.087524 974.671814 118.724648
v -567.577515 974.337097 112.856644
v -568.618469 974.245728 112.856667
v -568.566345 974.048340 113.137848
v -568.566345 974.048340 113.137848
v -568.618469 974.245728 112.856667
v -569.566956 973.804688 112.856644
v -568.566345 974.048340 113.137848
v -567.577515 974.135986 113.137756
v -567.577515 974.337097 112.856644
v -569.566956 973.804688 112.856644
v -569.466431 973.630615 113.137756
v -568.566345 974.048340 113.137848
v -567.577515 974.337097 112.856644
v -567.577515 974.135986 113.137756
v -566.588684 974.048340 113.137848
v -566.588684 974.048340 113.137848
v -566.536438 974.245728 112.856667
v -567.577515 974.337097 112.856644
v -565.588013 973.804688 112.856644
v -566.536438 974.245728 112.856667
v -566.588684 974.048340 113.137848
v -567.577515 974.135986 113.137756
v -568.566345 974.048340 113.137848
v -568.190186 972.645996 113.624107
v -568.190186 972.645996 113.624107
v -568.566345 974.048340 113.137848
v -569.466431 973.630615 113.137756
v -566.964722 972.645996 113.624107
v -566.588684 974.048340 113.137848
v -567.577515 974.135986 113.137756
v -566.588684 974.048340 113.137848
v -565.688538 973.630676 113.137756
v -565.588013 973.804688 112.856644
v -565.688538 973.630676 113.137756
v -566.588684 974.048340 113.137848
v -566.964722 972.645996 113.624107
v -568.190186 972.645996 113.624107
v -567.577515 972.699219 113.624390
v -567.577515 974.135986 113.137756
v -567.577515 974.135986 113.137756
v -567.577515 972.699219 113.624390
v -566.964722 972.645996 113.624107
v -565.588013 973.804688 112.856644
v -565.688538 973.630676 113.137756
v -564.877197 973.060486 113.137863
v -564.877197 973.060486 113.137863
v -564.732971 973.203674 112.856682
v -565.588013 973.804688 112.856644
v -564.132019 972.348633 112.856644
v -564.732971 973.203674 112.856682
v -564.877197 973.060486 113.137863
v -566.964722 972.645996 113.624107
v -566.406982 972.385986 113.624367
v -565.688538 973.630676 113.137756
v -565.903442 972.033325 113.624107
v -564.877197 973.060486 113.137863
v -565.688538 973.630676 113.137756
v -565.688538 973.630676 113.137756
v -566.406982 972.385986 113.624367
v -565.903442 972.033325 113.624107
v -564.877197 973.060486 113.137863
v -564.306030 972.248047 113.137756
v -564.132019 972.348633 112.856644
v -564.306030 972.248047 113.137756
v -564.877197 973.060486 113.137863
v -565.903442 972.033325 113.624107
v -566.406982 972.385986 113.624367
v -566.964722 972.645996 113.624107
v -567.015686 972.454895 114.019279
v -567.015686 972.454895 114.019279
v -566.964722 972.645996 113.624107
v -567.577515 972.699219 113.624390
v -567.015686 972.454895 114.019279
v -566.505371 972.217041 114.020363
v -566.406982 972.385986 113.624367
v -567.577515 972.699219 113.624390
v -567.577515 972.504395 114.020378
v -567.015686 972.454895 114.019279
v -566.406982 972.385986 113.624367
v -566.505371 972.217041 114.020363
v -566.043579 971.893066 114.019279
v -566.043579 971.893066 114.019279
v -565.903442 972.033325 113.624107
v -566.406982 972.385986 113.624367
v -568.139343 972.454895 114.019279
v -567.577515 972.504395 114.020378
v -567.577515 972.699219 113.624390
v -567.577515 972.699219 113.624390
v -568.190186 972.645996 113.624107
v -568.139343 972.454895 114.019279
v -565.550659 971.529724 113.624367
v -565.903442 972.033325 113.624107
v -566.043579 971.893066 114.019279
v -565.903442 972.033325 113.624107
v -565.550659 971.529724 113.624367
v -564.306030 972.248047 113.137756
v -566.043579 971.893066 114.019279
v -565.719666 971.431274 114.020363
v -565.550659 971.529724 113.624367
v -565.550659 971.529724 113.624367
v -565.719666 971.431274 114.020363
v -565.482727 970.921021 114.019272
v -568.139343 972.454895 114.019279
v -568.190186 972.645996 113.624107
v -568.748047 972.385986 113.624382
v -568.748047 972.385986 113.624382
v -568.650635 972.217041 114.020370
v -568.139343 972.454895 114.019279
v -569.466431 973.630615 113.137756
v -568.748047 972.385986 113.624382
v -568.190186 972.645996 113.624107
v -569.111389 971.893066 114.019272
v -568.650635 972.217041 114.020370
v -568.748047 972.385986 113.624382
v -569.251587 972.033325 113.624107
v -568.748047 972.385986 113.624382
v -569.466431 973.630615 113.137756
v -568.748047 972.385986 113.624382
v -569.251587 972.033325 113.624107
v -569.111389 971.893066 114.019272
v -569.466431 973.630615 113.137756
v -570.278809 973.060425 113.137878
v -569.251587 972.033325 113.624107
v -570.278809 973.060425 113.137878
v -569.466431 973.630615 113.137756
v -569.566956 973.804688 112.856644
v -569.566956 973.804688 112.856644
v -570.421997 973.203674 112.856697
v -570.278809 973.060425 113.137878
v -570.278809 973.060425 113.137878
v -570.421997 973.203674 112.856697
v -571.022949 972.348633 112.856644
v -569.111389 971.893066 114.019272
v -569.251587 972.033325 113.624107
v -569.604309 971.529724 113.624367
v -569.604309 971.529724 113.624367
v -569.435364 971.431274 114.020363
v -569.111389 971.893066 114.019272
v -569.251587 972.033325 113.624107
v -570.278809 973.060425 113.137878
v -570.848999 972.248047 113.137756
v -570.848999 972.248047 113.137756
v -569.604309 971.529724 113.624367
v -569.251587 972.033325 113.624107
v -571.022949 972.348633 112.856644
v -570.848999 972.248047 113.137756
v -570.278809 973.060425 113.137878
v -569.673279 970.921021 114.019287
v -569.435364 971.431274 114.020363
v -569.604309 971.529724 113.624367
v -571.266663 971.348022 113.137848
v -570.848999 972.248047 113.137756
v -571.022949 972.348633 112.856644
v -571.022949 972.348633 112.856644
v -571.464050 971.400208 112.856667
v -571.266663 971.348022 113.137848
v -571.266663 971.348022 113.137848
v -571.464050 971.400208 112.856667
v -571.556458 970.359131 112.856621
v -569.864380 970.971924 113.624107
v -569.604309 971.529724 113.624367
v -570.848999 972.248047 113.137756
v -570.848999 972.248047 113.137756
v -571.266663 971.348022 113.137848
v -569.864380 970.971924 113.624107
v -569.604309 971.529724 113.624367
v -569.864380 970.971924 113.624107
v -569.673279 970.921021 114.019287
v -571.556458 970.359131 112.856621
v -571.354370 970.359131 113.137741
v -571.266663 971.348022 113.137848
v -569.864380 970.971924 113.624107
v -571.266663 971.348022 113.137848
v -571.354370 970.359131 113.137741
v -569.673279 970.921021 114.019287
v -569.864380 970.971924 113.624107
v -569.917603 970.359131 113.624390
v -571.354370 970.359131 113.137741
v -569.917603 970.359131 113.624390
v -569.864380 970.971924 113.624107
v -569.917603 970.359131 113.624390
v -569.722656 970.359131 114.020378
v -569.673279 970.921021 114.019287
v -569.673279 969.797363 114.019287
v -569.722656 970.359131 114.020378
v -569.917603 970.359131 113.624390
v -571.266663 969.370300 113.137848
v -571.354370 970.359131 113.137741
v -571.556458 970.359131 112.856621
v -571.556458 970.359131 112.856621
v -571.464050 969.318115 112.856667
v -571.266663 969.370300 113.137848
v -571.266663 969.370300 113.137848
v -571.464050 969.318115 112.856667
v -571.022949 968.369751 112.856644
v -569.864380 969.746460 113.624107
v -569.917603 970.359131 113.624390
v -571.354370 970.359131 113.137741
v -571.354370 970.359131 113.137741
v -571.266663 969.370300 113.137848
v -569.864380 969.746460 113.624107
v -569.917603 970.359131 113.624390
v -569.864380 969.746460 113.624107
v -569.673279 969.797363 114.019287
v -571.022949 968.369751 112.856644
v -570.848999 968.470215 113.137756
v -571.266663 969.370300 113.137848
v -569.864380 969.746460 113.624107
v -571.266663 969.370300 113.137848
v -570.848999 968.470215 113.137756
v -569.673279 969.797363 114.019287
v -569.864380 969.746460 113.624107
v -569.604309 969.188599 113.624367
v -570.848999 968.470215 113.137756
v -569.604309 969.188599 113.624367
v -569.864380 969.746460 113.624107
v -569.604309 969.188599 113.624367
v -569.435364 969.287109 114.020363
v -569.673279 969.797363 114.019287
v -569.111389 968.825256 114.019272
v -569.435364 969.287109 114.020363
v -569.604309 969.188599 113.624367
v -570.278809 967.657837 113.137878
v -570.848999 968.470215 113.137756
v -571.022949 968.369751 112.856644
v -571.022949 968.369751 112.856644
v -570.421997 967.514648 112.856697
v -570.278809 967.657837 113.137878
v -570.278809 967.657837 113.137878
v -570.421997 967.514648 112.856697
v -569.566956 966.913696 112.856644
v -569.251587 968.685059 113.624107
v -569.604309 969.188599 113.624367
v -570.848999 968.470215 113.137756
v -570.848999 968.470215 113.137756
v -570.278809 967.657837 113.137878
v -569.251587 968.685059 113.624107
v -569.604309 969.188599 113.624367
v -569.251587 968.685059 113.624107
v -569.111389 968.825256 114.019272
v -569.566956 966.913696 112.856644
v -569.466431 967.087646 113.137756
v -570.278809 967.657837 113.137878
v -569.251587 968.685059 113.624107
v -570.278809 967.657837 113.137878
v -569.466431 967.087646 113.137756
v -569.111389 968.825256 114.019272
v -569.251587 968.685059 113.624107
v -568.748047 968.332397 113.624382
v -569.466431 967.087646 113.137756
v -568.748047 968.332397 113.624382
v -569.251587 968.685059 113.624107
v -568.748047 968.332397 113.624382
v -568.650635 968.501282 114.020370
v -569.111389 968.825256 114.019272
v -568.139343 968.263428 114.019279
v -568.650635 968.501282 114.020370
v -568.748047 968.332397 113.624382
v -568.566345 966.670044 113.137848
v -569.466431 967.087646 113.137756
v -569.566956 966.913696 112.856644
v -569.566956 966.913696 112.856644
v -568.618469 966.472595 112.856667
v -568.566345 966.670044 113.137848
v -568.566345 966.670044 113.137848
v -568.618469 966.472595 112.856667
v -567.577515 966.381226 112.856644
v -568.190186 968.072266 113.624107
v -568.748047 968.332397 113.624382
v -569.466431 967.087646 113.137756
v -569.466431 967.087646 113.137756
v -568.566345 966.670044 113.137848
v -568.190186 968.072266 113.624107
v -568.748047 968.332397 113.624382
v -568.190186 968.072266 113.624107
v -568.139343 968.263428 114.019279
v -567.577515 966.381226 112.856644
v -567.577515 966.582336 113.137756
v -568.566345 966.670044 113.137848
v -568.190186 968.072266 113.624107
v -568.566345 966.670044 113.137848
v -567.577515 966.582336 113.137756
v -568.139343 968.263428 114.019279
v -568.190186 968.072266 113.624107
v -567.577515 968.019043 113.624390
v -567.577515 966.582336 113.137756
v -567.577515 968.019043 113.624390
v -568.190186 968.072266 113.624107
v -567.577515 968.019043 113.624390
v -567.577515 968.213989 114.020378
v -568.139343 968.263428 114.019279
v -567.015686 968.263428 114.019279
v -567.577515 968.213989 114.020378
v -567.577515 968.019043 113.624390
v -566.588684 966.670044 113.137848
v -567.577515 966.582336 113.137756
v -567.577515 966.381226 112.856644
v -567.577515 966.381226 112.856644
v -566.536438 966.472595 112.856667
v -566.588684 966.670044 113.137848
v -566.588684 966.670044 113.137848
v -566.536438 966.472595 112.856667
v -565.588013 966.913696 112.856644
v -566.964722 968.072266 113.624107
v -567.577515 968.019043 113.624390
v -567.577515 966.582336 113.137756
v -567.577515 966.582336 113.137756
v -566.588684 966.670044 113.137848
v -566.964722 968.072266 113.624107
v -567.577515 968.019043 113.624390
v -566.964722 968.072266 113.624107
v -567.015686 968.263428 114.019279
v -565.588013 966.913696 112.856644
v -565.688538 967.087646 113.137756
v -566.588684 966.670044 113.137848
v -566.964722 968.072266 113.624107
v -566.588684 966.670044 113.137848
v -565.688538 967.087646 113.137756
v -567.015686 968.263428 114.019279
v -566.964722 968.072266 113.624107
v -566.406982 968.332397 113.624367
v -565.688538 967.087646 113.137756
v -566.406982 968.332397 113.624367
v -566.964722 968.072266 113.624107
v -566.406982 968.332397 113.624367
v -566.505371 968.501282 114.020363
v -567.015686 968.263428 114.019279
v -566.043579 968.825256 114.019279
v -566.505371 968.501282 114.020363
v -566.406982 968.332397 113.624367
v -564.877197 967.657837 113.137863
v -565.688538 967.087646 113.137756
v -565.588013 966.913696 112.856644
v -565.588013 966.913696 112.856644
v -564.732971 967.514648 112.856682
v -564.877197 967.657837 113.137863
v -564.877197 967.657837 113.137863
v -564.732971 967.514648 112.856682
v -564.132019 968.369751 112.856644
v -565.903442 968.685059 113.624107
v -566.406982 968.332397 113.624367
v -565.688538 967.087646 113.137756
v -565.688538 967.087646 113.137756
v -564.877197 967.657837 113.137863
v -565.903442 968.685059 113.624107
v -566.406982 968.332397 113.624367
v -565.903442 968.685059 113.624107
v -566.043579 968.825256 114.019279
v -564.132019 968.369751 112.856644
v -564.306030 968.470215 113.137756
v -564.877197 967.657837 113.137863
v -565.903442 968.685059 113.624107
v -564.877197 967.657837 113.137863
v -564.306030 968.470215 113.137756
v -566.043579 968.825256 114.019279
v -565.903442 968.685059 113.624107
v -565.550659 969.188599 113.624367
v -564.306030 968.470215 113.137756
v -565.550659 969.188599 113.624367
v -565.903442 968.685059 113.624107
v -565.550659 969.188599 113.624367
v -565.719666 969.287048 114.020363
v -566.043579 968.825256 114.019279
v -565.482727 969.797363 114.019272
v -565.719666 969.287048 114.020363
v -565.550659 969.188599 113.624367
v -563.888367 969.370300 113.137863
v -564.306030 968.470215 113.137756
v -564.132019 968.369751 112.856644
v -564.132019 968.369751 112.856644
v -563.691956 969.318115 112.856682
v -563.888367 969.370300 113.137863
v -563.888367 969.370300 113.137863
v -563.691956 969.318115 112.856682
v -563.599609 970.359131 112.856644
v -565.290649 969.746399 113.624107
v -565.550659 969.188599 113.624367
v -564.306030 968.470215 113.137756
v -564.306030 968.470215 113.137756
v -563.888367 969.370300 113.137863
v -565.290649 969.746399 113.624107
v -565.550659 969.188599 113.624367
v -565.290649 969.746399 113.624107
v -565.482727 969.797363 114.019272
v -563.599609 970.359131 112.856644
v -563.800659 970.359131 113.137756
v -563.888367 969.370300 113.137863
v -565.290649 969.746399 113.624107
v -563.888367 969.370300 113.137863
v -563.800659 970.359131 113.137756
v -565.482727 969.797363 114.019272
v -565.290649 969.746399 113.624107
v -565.237366 970.359131 113.624390
v -563.800659 970.359131 113.137756
v -565.237366 970.359131 113.624390
v -565.290649 969.746399 113.624107
v -565.237366 970.359131 113.624390
v -565.432312 970.359131 114.020378
v -565.482727 969.797363 114.019272
v -565.482727 970.921021 114.019272
v -565.432312 970.359131 114.020378
v -565.237366 970.359131 113.624390
v -565.237366 970.359131 113.624390
v -565.290649 970.971924 113.624107
v -565.482727 970.921021 114.019272
v -565.290649 970.971924 113.624107
v -565.237366 970.359131 113.624390
v -563.800659 970.359131 113.137756
v -565.482727 970.921021 114.019272
v -565.290649 970.971924 113.624107
v -565.550659 971.529724 113.624367
v -564.306030 972.248047 113.137756
v -565.550659 971.529724 113.624367
v -565.290649 970.971924 113.624107
v -563.800659 970.359131 113.137756
v -563.888367 971.348022 113.137863
v -565.290649 970.971924 113.624107
v -565.290649 970.971924 113.624107
v -563.888367 971.348022 113.137863
v -564.306030 972.248047 113.137756
v -563.888367 971.348022 113.137863
v -563.800659 970.359131 113.137756
v -563.599609 970.359131 112.856644
v -564.132019 972.348633 112.856644
v -564.306030 972.248047 113.137756
v -563.888367 971.348022 113.137863
v -563.599609 970.359131 112.856644
v -563.691956 971.400208 112.856682
v -563.888367 971.348022 113.137863
v -563.888367 971.348022 113.137863
v -563.691956 971.400208 112.856682
v -564.132019 972.348633 112.856644
vt 0.916504 0.529297
vt 0.012863 0.529297
vt 0.012856 0.508301
vt 0.012856 0.508301
vt 0.916504 0.508057
vt 0.916504 0.529297
vt 0.916504 0.508057
vt 0.012856 0.508301
vt 0.012840 0.487305
vt 0.012840 0.487305
vt 0.916504 0.487305
vt 0.916504 0.508057
vt 0.916504 0.487305
vt 0.012840 0.487305
vt 0.012817 0.466309
vt 0.012817 0.466309
vt 0.916504 0.466309
vt 0.916504 0.487305
vt 0.916504 0.466309
vt 0.012817 0.466309
vt 0.012787 0.445801
vt 0.012787 0.445801
vt 0.916504 0.445312
vt 0.916504 0.466309
vt 0.916504 0.445312
vt 0.012787 0.445801
vt 0.012741 0.424805
vt 0.012741 0.424805
vt 0.916504 0.423828
vt 0.916504 0.445312
vt 0.916504 0.423828
vt 0.012741 0.424805
vt 0.012695 0.403809
vt 0.012695 0.403809
vt 0.916504 0.402832
vt 0.916504 0.423828
vt 0.916504 0.402832
vt 0.012695 0.403809
vt 0.012642 0.382812
vt 0.012642 0.382812
vt 0.916504 0.381836
vt 0.916504 0.402832
vt 0.916504 0.381836
vt 0.012642 0.382812
vt 0.012581 0.361328
vt 0.012581 0.361328
vt 0.916504 0.360840
vt 0.916504 0.381836
vt 0.916504 0.360840
vt 0.012581 0.361328
vt 0.012520 0.340332
vt 0.012520 0.340332
vt 0.916016 0.339844
vt 0.916504 0.360840
vt 0.916016 0.339844
vt 0.012520 0.340332
vt 0.012451 0.319336
vt 0.012451 0.319336
vt 0.916016 0.319336
vt 0.916016 0.339844
vt 0.916016 0.319336
vt 0.012451 0.319336
vt 0.012383 0.298340
vt 0.012383 0.298340
vt 0.916016 0.298340
vt 0.916016 0.319336
vt 0.916016 0.298340
vt 0.012383 0.298340
vt 0.012321 0.277344
vt 0.012321 0.277344
vt 0.916016 0.277344
vt 0.916016 0.298340
vt 0.916016 0.277344
vt 0.012321 0.277344
vt 0.012253 0.256348
vt 0.012253 0.256348
vt 0.916016 0.256348
vt 0.916016 0.277344
vt 0.916016 0.256348
vt 0.012253 0.256348
vt 0.012184 0.235352
vt 0.012184 0.235352
vt 0.916016 0.235352
vt 0.916016 0.256348
vt 0.916016 0.235352
vt 0.012184 0.235352
vt 0.012123 0.214355
vt 0.012123 0.214355
vt 0.916016 0.214355
vt 0.916016 0.235352
vt 0.916016 0.214355
vt 0.012123 0.214355
vt 0.012062 0.193359
vt 0.012062 0.193359
vt 0.915527 0.193359
vt 0.916016 0.214355
vt 0.915527 0.193359
vt 0.012062 0.193359
vt 0.012009 0.172363
vt 0.012009 0.172363
vt 0.915527 0.172363
vt 0.915527 0.193359
vt 0.915527 0.172363
vt 0.012009 0.172363
vt 0.011955 0.151367
vt 0.011955 0.151367
vt 0.915527 0.151367
vt 0.915527 0.172363
vt 0.915527 0.151367
vt 0.011955 0.151367
vt 0.011909 0.130371
vt 0.011909 0.130371
vt 0.915527 0.130371
vt 0.915527 0.151367
vt 0.915527 0.130371
vt 0.011909 0.130371
vt 0.011871 0.109375
vt 0.011871 0.109375
vt 0.915527 0.109375
vt 0.915527 0.130371
vt 0.915527 0.109375
vt 0.011871 0.109375
vt 0.011841 0.088379
vt 0.011841 0.088379
vt 0.915527 0.088379
vt 0.915527 0.109375
vt 0.915527 0.088379
vt 0.011841 0.088379
vt 0.011818 0.067383
vt 0.011818 0.067383
vt 0.915527 0.067383
vt 0.915527 0.088379
vt 0.915527 0.067383
vt 0.011818 0.067383
vt 0.011803 0.046387
vt 0.011803 0.046387
vt 0.915527 0.046387
vt 0.915527 0.067383
vt 0.915527 0.046387
vt 0.011803 0.046387
vt 0.011795 0.025391
vt 0.011795 0.025391
vt 0.915527 0.025391
vt 0.915527 0.046387
vt 0.562500 0.572510
vt 0.557617 0.585449
vt 0.557129 0.573730
vt 0.562500 0.572510
vt 0.561523 0.599609
vt 0.557617 0.585449
vt 0.561523 0.599609
vt 0.556152 0.597656
vt 0.557617 0.585449
vt 0.561523 0.599609
vt 0.562500 0.572510
vt 0.577148 0.564697
vt 0.561523 0.599609
vt 0.554199 0.610352
vt 0.556152 0.597656
vt 0.577148 0.564697
vt 0.575195 0.601318
vt 0.561523 0.599609
vt 0.575195 0.601318
vt 0.577148 0.564697
vt 0.594238 0.561768
vt 0.561523 0.599609
vt 0.555176 0.627441
vt 0.554199 0.610352
vt 0.555176 0.627441
vt 0.561523 0.599609
vt 0.575195 0.601318
vt 0.555176 0.627441
vt 0.550781 0.623291
vt 0.554199 0.610352
vt 0.555176 0.627441
vt 0.547363 0.637207
vt 0.550781 0.623291
vt 0.594238 0.561768
vt 0.589355 0.604736
vt 0.575195 0.601318
vt 0.589355 0.604736
vt 0.594238 0.561768
vt 0.613281 0.567871
vt 0.575195 0.601318
vt 0.567871 0.635742
vt 0.555176 0.627441
vt 0.567871 0.635742
vt 0.575195 0.601318
vt 0.589355 0.604736
vt 0.555176 0.627441
vt 0.547363 0.655273
vt 0.547363 0.637207
vt 0.547363 0.655273
vt 0.555176 0.627441
vt 0.567871 0.635742
vt 0.547363 0.655273
vt 0.542969 0.650146
vt 0.547363 0.637207
vt 0.547363 0.655273
vt 0.539062 0.663818
vt 0.542969 0.650146
vt 0.613281 0.567871
vt 0.603027 0.612305
vt 0.589355 0.604736
vt 0.603027 0.612305
vt 0.613281 0.567871
vt 0.631836 0.585938
vt 0.547363 0.655273
vt 0.538574 0.682373
vt 0.539062 0.663818
vt 0.538574 0.682373
vt 0.534668 0.676025
vt 0.539062 0.663818
vt 0.538574 0.682373
vt 0.530273 0.687988
vt 0.534668 0.676025
vt 0.631836 0.585938
vt 0.615234 0.624512
vt 0.603027 0.612305
vt 0.615234 0.624512
vt 0.631836 0.585938
vt 0.649414 0.615479
vt 0.579590 0.643555
vt 0.589355 0.604736
vt 0.603027 0.612305
vt 0.589355 0.604736
vt 0.579590 0.643555
vt 0.567871 0.635742
vt 0.589844 0.652588
vt 0.603027 0.612305
vt 0.615234 0.624512
vt 0.603027 0.612305
vt 0.589844 0.652588
vt 0.579590 0.643555
vt 0.567871 0.635742
vt 0.558105 0.668701
vt 0.547363 0.655273
vt 0.558105 0.668701
vt 0.567871 0.635742
vt 0.579590 0.643555
vt 0.538574 0.682373
vt 0.547363 0.655273
vt 0.558105 0.668701
vt 0.579590 0.643555
vt 0.567871 0.680908
vt 0.558105 0.668701
vt 0.567871 0.680908
vt 0.579590 0.643555
vt 0.589844 0.652588
vt 0.558105 0.668701
vt 0.547852 0.700684
vt 0.538574 0.682373
vt 0.547852 0.700684
vt 0.558105 0.668701
vt 0.567871 0.680908
vt 0.538574 0.682373
vt 0.528809 0.705566
vt 0.530273 0.687988
vt 0.528809 0.705566
vt 0.538574 0.682373
vt 0.547852 0.700684
vt 0.528809 0.705566
vt 0.525391 0.697266
vt 0.530273 0.687988
vt 0.528809 0.705566
vt 0.520508 0.704834
vt 0.525391 0.697266
vt 0.517090 0.719482
vt 0.515137 0.709717
vt 0.520508 0.704834
vt 0.528809 0.705566
vt 0.517090 0.719482
vt 0.520508 0.704834
vt 0.517090 0.719482
vt 0.528809 0.705566
vt 0.535645 0.729492
vt 0.547852 0.700684
vt 0.535645 0.729492
vt 0.528809 0.705566
vt 0.535645 0.729492
vt 0.520020 0.748779
vt 0.517090 0.719482
vt 0.535645 0.729492
vt 0.547852 0.700684
vt 0.556641 0.718262
vt 0.567871 0.680908
vt 0.556641 0.718262
vt 0.547852 0.700684
vt 0.520020 0.748779
vt 0.535645 0.729492
vt 0.543457 0.752930
vt 0.556641 0.718262
vt 0.543457 0.752930
vt 0.535645 0.729492
vt 0.543457 0.752930
vt 0.526367 0.780518
vt 0.520020 0.748779
vt 0.556641 0.718262
vt 0.567871 0.680908
vt 0.577148 0.692627
vt 0.589844 0.652588
vt 0.577148 0.692627
vt 0.567871 0.680908
vt 0.543457 0.752930
vt 0.556641 0.718262
vt 0.565430 0.733398
vt 0.577148 0.692627
vt 0.565430 0.733398
vt 0.556641 0.718262
vt 0.526367 0.780518
vt 0.543457 0.752930
vt 0.553223 0.773682
vt 0.565430 0.733398
vt 0.553223 0.773682
vt 0.543457 0.752930
vt 0.553223 0.773682
vt 0.537109 0.810669
vt 0.526367 0.780518
vt 0.577148 0.692627
vt 0.589844 0.652588
vt 0.599121 0.663086
vt 0.615234 0.624512
vt 0.599121 0.663086
vt 0.589844 0.652588
vt 0.537109 0.810669
vt 0.553223 0.773682
vt 0.564453 0.790039
vt 0.564453 0.790039
vt 0.552734 0.834473
vt 0.537109 0.810669
vt 0.553223 0.773682
vt 0.565430 0.733398
vt 0.574707 0.746338
vt 0.574707 0.746338
vt 0.564453 0.790039
vt 0.553223 0.773682
vt 0.565430 0.733398
vt 0.577148 0.692627
vt 0.585938 0.703613
vt 0.585938 0.703613
vt 0.574707 0.746338
vt 0.565430 0.733398
vt 0.599121 0.663086
vt 0.585938 0.703613
vt 0.577148 0.692627
vt 0.552734 0.834473
vt 0.564453 0.790039
vt 0.577148 0.801025
vt 0.577148 0.801025
vt 0.571289 0.848145
vt 0.552734 0.834473
vt 0.564453 0.790039
vt 0.574707 0.746338
vt 0.584961 0.756836
vt 0.584961 0.756836
vt 0.577148 0.801025
vt 0.564453 0.790039
vt 0.574707 0.746338
vt 0.585938 0.703613
vt 0.594727 0.714844
vt 0.594727 0.714844
vt 0.584961 0.756836
vt 0.574707 0.746338
vt 0.571289 0.848145
vt 0.577148 0.801025
vt 0.591309 0.806274
vt 0.591309 0.806274
vt 0.590820 0.849731
vt 0.571289 0.848145
vt 0.577148 0.801025
vt 0.584961 0.756836
vt 0.595703 0.764893
vt 0.595703 0.764893
vt 0.591309 0.806274
vt 0.577148 0.801025
vt 0.590820 0.849731
vt 0.591309 0.806274
vt 0.605957 0.805542
vt 0.605957 0.805542
vt 0.609863 0.840332
vt 0.590820 0.849731
vt 0.591309 0.806274
vt 0.595703 0.764893
vt 0.607422 0.770630
vt 0.607422 0.770630
vt 0.605957 0.805542
vt 0.591309 0.806274
vt 0.603516 0.726318
vt 0.595703 0.764893
vt 0.584961 0.756836
vt 0.584961 0.756836
vt 0.594727 0.714844
vt 0.603516 0.726318
vt 0.612793 0.738037
vt 0.607422 0.770630
vt 0.595703 0.764893
vt 0.595703 0.764893
vt 0.603516 0.726318
vt 0.612793 0.738037
vt 0.609863 0.840332
vt 0.605957 0.805542
vt 0.620605 0.799072
vt 0.620605 0.799072
vt 0.625977 0.822144
vt 0.609863 0.840332
vt 0.605957 0.805542
vt 0.607422 0.770630
vt 0.620117 0.773926
vt 0.620117 0.773926
vt 0.620605 0.799072
vt 0.605957 0.805542
vt 0.625977 0.822144
vt 0.620605 0.799072
vt 0.634766 0.787598
vt 0.634766 0.787598
vt 0.638672 0.798584
vt 0.625977 0.822144
vt 0.620605 0.799072
vt 0.620117 0.773926
vt 0.634277 0.774170
vt 0.634277 0.774170
vt 0.634766 0.787598
vt 0.620605 0.799072
vt 0.648926 0.770142
vt 0.638672 0.798584
vt 0.634766 0.787598
vt 0.648926 0.770142
vt 0.634766 0.787598
vt 0.634277 0.774170
vt 0.635742 0.760742
vt 0.634277 0.774170
vt 0.620117 0.773926
vt 0.648926 0.770142
vt 0.634277 0.774170
vt 0.635742 0.760742
vt 0.623535 0.749756
vt 0.620117 0.773926
vt 0.607422 0.770630
vt 0.620117 0.773926
vt 0.623535 0.749756
vt 0.635742 0.760742
vt 0.607422 0.770630
vt 0.612793 0.738037
vt 0.623535 0.749756
vt 0.639160 0.749268
vt 0.635742 0.760742
vt 0.623535 0.749756
vt 0.648926 0.770142
vt 0.635742 0.760742
vt 0.639160 0.749268
vt 0.630371 0.729004
vt 0.623535 0.749756
vt 0.612793 0.738037
vt 0.623535 0.749756
vt 0.630371 0.729004
vt 0.639160 0.749268
vt 0.612793 0.738037
vt 0.622070 0.709229
vt 0.630371 0.729004
vt 0.622070 0.709229
vt 0.612793 0.738037
vt 0.603516 0.726318
vt 0.643555 0.741943
vt 0.639160 0.749268
vt 0.630371 0.729004
vt 0.648926 0.770142
vt 0.639160 0.749268
vt 0.643555 0.741943
vt 0.639160 0.714844
vt 0.630371 0.729004
vt 0.622070 0.709229
vt 0.630371 0.729004
vt 0.639160 0.714844
vt 0.643555 0.741943
vt 0.603516 0.726318
vt 0.614746 0.691406
vt 0.622070 0.709229
vt 0.614746 0.691406
vt 0.603516 0.726318
vt 0.594727 0.714844
vt 0.622070 0.709229
vt 0.634766 0.688232
vt 0.639160 0.714844
vt 0.634766 0.688232
vt 0.622070 0.709229
vt 0.614746 0.691406
vt 0.648926 0.739502
vt 0.643555 0.741943
vt 0.639160 0.714844
vt 0.648926 0.770142
vt 0.643555 0.741943
vt 0.648926 0.739502
vt 0.648926 0.709961
vt 0.639160 0.714844
vt 0.634766 0.688232
vt 0.639160 0.714844
vt 0.648926 0.709961
vt 0.648926 0.739502
vt 0.614746 0.691406
vt 0.630371 0.663086
vt 0.634766 0.688232
vt 0.654297 0.741943
vt 0.648926 0.739502
vt 0.648926 0.709961
vt 0.648926 0.770142
vt 0.648926 0.739502
vt 0.654297 0.741943
vt 0.634766 0.688232
vt 0.648926 0.679932
vt 0.648926 0.709961
vt 0.648926 0.679932
vt 0.634766 0.688232
vt 0.630371 0.663086
vt 0.648926 0.709961
vt 0.659180 0.715088
vt 0.654297 0.741943
vt 0.659180 0.715088
vt 0.648926 0.709961
vt 0.648926 0.679932
vt 0.659180 0.749512
vt 0.654297 0.741943
vt 0.659180 0.715088
vt 0.648926 0.770142
vt 0.654297 0.741943
vt 0.659180 0.749512
vt 0.648926 0.679932
vt 0.663574 0.688477
vt 0.659180 0.715088
vt 0.659180 0.715088
vt 0.667969 0.729248
vt 0.659180 0.749512
vt 0.667969 0.729248
vt 0.659180 0.715088
vt 0.663574 0.688477
vt 0.648926 0.770142
vt 0.659180 0.749512
vt 0.662598 0.760986
vt 0.662598 0.760986
vt 0.659180 0.749512
vt 0.667969 0.729248
vt 0.663574 0.688477
vt 0.648926 0.679932
vt 0.649414 0.649170
vt 0.630371 0.663086
vt 0.649414 0.649170
vt 0.648926 0.679932
vt 0.663574 0.688477
vt 0.675781 0.709717
vt 0.667969 0.729248
vt 0.667969 0.729248
vt 0.674316 0.750000
vt 0.662598 0.760986
vt 0.674316 0.750000
vt 0.667969 0.729248
vt 0.675781 0.709717
vt 0.648926 0.770142
vt 0.662598 0.760986
vt 0.663574 0.774414
vt 0.663574 0.774414
vt 0.662598 0.760986
vt 0.674316 0.750000
vt 0.648926 0.770142
vt 0.663574 0.774414
vt 0.663086 0.787842
vt 0.648926 0.770142
vt 0.663086 0.787842
vt 0.659180 0.798706
vt 0.674316 0.750000
vt 0.677734 0.774292
vt 0.663574 0.774414
vt 0.663086 0.787842
vt 0.663574 0.774414
vt 0.677734 0.774292
vt 0.659180 0.798706
vt 0.663086 0.787842
vt 0.677246 0.799561
vt 0.677734 0.774292
vt 0.677246 0.799561
vt 0.663086 0.787842
vt 0.677246 0.799561
vt 0.671875 0.822510
vt 0.659180 0.798706
vt 0.677734 0.774292
vt 0.674316 0.750000
vt 0.685059 0.738525
vt 0.675781 0.709717
vt 0.685059 0.738525
vt 0.674316 0.750000
vt 0.677246 0.799561
vt 0.677734 0.774292
vt 0.690430 0.771362
vt 0.685059 0.738525
vt 0.690430 0.771362
vt 0.677734 0.774292
vt 0.671875 0.822510
vt 0.677246 0.799561
vt 0.691895 0.806152
vt 0.690430 0.771362
vt 0.691895 0.806152
vt 0.677246 0.799561
vt 0.691895 0.806152
vt 0.687988 0.840942
vt 0.671875 0.822510
vt 0.690430 0.771362
vt 0.685059 0.738525
vt 0.694824 0.727051
vt 0.687988 0.840942
vt 0.691895 0.806152
vt 0.706543 0.807129
vt 0.706543 0.807129
vt 0.706543 0.850708
vt 0.687988 0.840942
vt 0.691895 0.806152
vt 0.690430 0.771362
vt 0.702148 0.765747
vt 0.702148 0.765747
vt 0.706543 0.807129
vt 0.691895 0.806152
vt 0.694824 0.727051
vt 0.702148 0.765747
vt 0.690430 0.771362
vt 0.706543 0.850708
vt 0.706543 0.807129
vt 0.720703 0.802246
vt 0.720703 0.802246
vt 0.726074 0.849365
vt 0.706543 0.850708
vt 0.706543 0.807129
vt 0.702148 0.765747
vt 0.713379 0.757812
vt 0.713379 0.757812
vt 0.720703 0.802246
vt 0.706543 0.807129
vt 0.726074 0.849365
vt 0.720703 0.802246
vt 0.733398 0.791382
vt 0.733398 0.791382
vt 0.745117 0.836060
vt 0.726074 0.849365
vt 0.720703 0.802246
vt 0.713379 0.757812
vt 0.723145 0.747559
vt 0.723145 0.747559
vt 0.733398 0.791382
vt 0.720703 0.802246
vt 0.703613 0.715576
vt 0.713379 0.757812
vt 0.702148 0.765747
vt 0.702148 0.765747
vt 0.694824 0.727051
vt 0.703613 0.715576
vt 0.712402 0.704590
vt 0.723145 0.747559
vt 0.713379 0.757812
vt 0.713379 0.757812
vt 0.703613 0.715576
vt 0.712402 0.704590
vt 0.745117 0.836060
vt 0.733398 0.791382
vt 0.744629 0.775146
vt 0.744629 0.775146
vt 0.760742 0.812500
vt 0.745117 0.836060
vt 0.733398 0.791382
vt 0.723145 0.747559
vt 0.732422 0.734863
vt 0.732422 0.734863
vt 0.744629 0.775146
vt 0.733398 0.791382
vt 0.760742 0.812500
vt 0.744629 0.775146
vt 0.754395 0.754639
vt 0.754395 0.754639
vt 0.771484 0.782471
vt 0.760742 0.812500
vt 0.744629 0.775146
vt 0.732422 0.734863
vt 0.741699 0.719727
vt 0.741699 0.719727
vt 0.754395 0.754639
vt 0.744629 0.775146
vt 0.721191 0.693604
vt 0.732422 0.734863
vt 0.723145 0.747559
vt 0.723145 0.747559
vt 0.712402 0.704590
vt 0.721191 0.693604
vt 0.730469 0.682373
vt 0.741699 0.719727
vt 0.732422 0.734863
vt 0.732422 0.734863
vt 0.721191 0.693604
vt 0.730469 0.682373
vt 0.771484 0.782471
vt 0.754395 0.754639
vt 0.762207 0.731445
vt 0.762207 0.731445
vt 0.777832 0.750732
vt 0.771484 0.782471
vt 0.754395 0.754639
vt 0.741699 0.719727
vt 0.750488 0.702393
vt 0.750488 0.702393
vt 0.762207 0.731445
vt 0.754395 0.754639
vt 0.777832 0.750732
vt 0.762207 0.731445
vt 0.769531 0.707275
vt 0.769531 0.707275
vt 0.781250 0.721680
vt 0.777832 0.750732
vt 0.781250 0.721680
vt 0.777832 0.706787
vt 0.782715 0.711914
vt 0.781250 0.721680
vt 0.769531 0.707275
vt 0.777832 0.706787
vt 0.769531 0.707275
vt 0.772949 0.699219
vt 0.777832 0.706787
vt 0.769531 0.707275
vt 0.768066 0.689697
vt 0.772949 0.699219
vt 0.759766 0.684082
vt 0.769531 0.707275
vt 0.762207 0.731445
vt 0.769531 0.707275
vt 0.759766 0.684082
vt 0.768066 0.689697
vt 0.762207 0.731445
vt 0.750488 0.702393
vt 0.759766 0.684082
vt 0.759766 0.684082
vt 0.763672 0.677734
vt 0.768066 0.689697
vt 0.759766 0.684082
vt 0.759277 0.665527
vt 0.763672 0.677734
vt 0.759766 0.684082
vt 0.750977 0.656982
vt 0.759277 0.665527
vt 0.750977 0.656982
vt 0.759766 0.684082
vt 0.750488 0.702393
vt 0.750977 0.656982
vt 0.755371 0.651855
vt 0.759277 0.665527
vt 0.750977 0.656982
vt 0.750977 0.638672
vt 0.755371 0.651855
vt 0.750488 0.702393
vt 0.740234 0.670166
vt 0.750977 0.656982
vt 0.740234 0.670166
vt 0.750488 0.702393
vt 0.741699 0.719727
vt 0.741699 0.719727
vt 0.730469 0.682373
vt 0.740234 0.670166
vt 0.750977 0.656982
vt 0.743164 0.628906
vt 0.750977 0.638672
vt 0.743164 0.628906
vt 0.750977 0.656982
vt 0.740234 0.670166
vt 0.743164 0.628906
vt 0.748047 0.624756
vt 0.750977 0.638672
vt 0.743164 0.628906
vt 0.744141 0.612061
vt 0.748047 0.624756
vt 0.730957 0.636963
vt 0.740234 0.670166
vt 0.730469 0.682373
vt 0.740234 0.670166
vt 0.730957 0.636963
vt 0.743164 0.628906
vt 0.743164 0.628906
vt 0.737305 0.600830
vt 0.744141 0.612061
vt 0.737305 0.600830
vt 0.743164 0.628906
vt 0.730957 0.636963
vt 0.737305 0.600830
vt 0.742188 0.599121
vt 0.744141 0.612061
vt 0.737305 0.600830
vt 0.741211 0.586914
vt 0.742188 0.599121
vt 0.736328 0.573730
vt 0.741211 0.575195
vt 0.741211 0.586914
vt 0.737305 0.600830
vt 0.736328 0.573730
vt 0.741211 0.586914
vt 0.736328 0.573730
vt 0.737305 0.600830
vt 0.723145 0.602295
vt 0.730957 0.636963
vt 0.723145 0.602295
vt 0.737305 0.600830
vt 0.723145 0.602295
vt 0.721680 0.565918
vt 0.736328 0.573730
vt 0.730469 0.682373
vt 0.719238 0.644775
vt 0.730957 0.636963
vt 0.723145 0.602295
vt 0.730957 0.636963
vt 0.719238 0.644775
vt 0.719238 0.644775
vt 0.730469 0.682373
vt 0.721191 0.693604
vt 0.721680 0.565918
vt 0.723145 0.602295
vt 0.708984 0.605713
vt 0.719238 0.644775
vt 0.708984 0.605713
vt 0.723145 0.602295
vt 0.708984 0.605713
vt 0.704590 0.562500
vt 0.721680 0.565918
vt 0.721191 0.693604
vt 0.708496 0.653564
vt 0.719238 0.644775
vt 0.708984 0.605713
vt 0.719238 0.644775
vt 0.708496 0.653564
vt 0.708496 0.653564
vt 0.721191 0.693604
vt 0.712402 0.704590
vt 0.704590 0.562500
vt 0.708984 0.605713
vt 0.695312 0.613037
vt 0.708496 0.653564
vt 0.695312 0.613037
vt 0.708984 0.605713
vt 0.695312 0.613037
vt 0.685547 0.568359
vt 0.704590 0.562500
vt 0.712402 0.704590
vt 0.699219 0.663818
vt 0.708496 0.653564
vt 0.695312 0.613037
vt 0.708496 0.653564
vt 0.699219 0.663818
vt 0.699219 0.663818
vt 0.712402 0.704590
vt 0.703613 0.715576
vt 0.685547 0.568359
vt 0.695312 0.613037
vt 0.683105 0.625000
vt 0.699219 0.663818
vt 0.683105 0.625000
vt 0.695312 0.613037
vt 0.683105 0.625000
vt 0.666504 0.586182
vt 0.685547 0.568359
vt 0.703613 0.715576
vt 0.690918 0.676514
vt 0.699219 0.663818
vt 0.683105 0.625000
vt 0.699219 0.663818
vt 0.690918 0.676514
vt 0.690918 0.676514
vt 0.703613 0.715576
vt 0.694824 0.727051
vt 0.666504 0.586182
vt 0.683105 0.625000
vt 0.673828 0.641602
vt 0.690918 0.676514
vt 0.673828 0.641602
vt 0.683105 0.625000
vt 0.673828 0.641602
vt 0.649414 0.615479
vt 0.666504 0.586182
vt 0.694824 0.727051
vt 0.683594 0.691895
vt 0.690918 0.676514
vt 0.673828 0.641602
vt 0.690918 0.676514
vt 0.683594 0.691895
vt 0.683594 0.691895
vt 0.694824 0.727051
vt 0.685059 0.738525
vt 0.685059 0.738525
vt 0.675781 0.709717
vt 0.683594 0.691895
vt 0.683594 0.691895
vt 0.667969 0.663330
vt 0.673828 0.641602
vt 0.667969 0.663330
vt 0.683594 0.691895
vt 0.675781 0.709717
vt 0.649414 0.615479
vt 0.673828 0.641602
vt 0.667969 0.663330
vt 0.675781 0.709717
vt 0.663574 0.688477
vt 0.667969 0.663330
vt 0.649414 0.649170
vt 0.667969 0.663330
vt 0.663574 0.688477
vt 0.667969 0.663330
vt 0.649414 0.649170
vt 0.649414 0.615479
vt 0.624512 0.641113
vt 0.649414 0.615479
vt 0.649414 0.649170
vt 0.649414 0.615479
vt 0.624512 0.641113
vt 0.615234 0.624512
vt 0.649414 0.649170
vt 0.630371 0.663086
vt 0.624512 0.641113
vt 0.599121 0.663086
vt 0.615234 0.624512
vt 0.624512 0.641113
vt 0.607422 0.675781
vt 0.624512 0.641113
vt 0.630371 0.663086
vt 0.624512 0.641113
vt 0.607422 0.675781
vt 0.599121 0.663086
vt 0.630371 0.663086
vt 0.614746 0.691406
vt 0.607422 0.675781
vt 0.585938 0.703613
vt 0.599121 0.663086
vt 0.607422 0.675781
vt 0.594727 0.714844
vt 0.607422 0.675781
vt 0.614746 0.691406
vt 0.607422 0.675781
vt 0.594727 0.714844
vt 0.585938 0.703613
vt 0.837891 0.681885
vt 0.829102 0.696289
vt 0.827637 0.690430
vt 0.827637 0.690430
vt 0.829102 0.696289
vt 0.818848 0.704834
vt 0.827637 0.690430
vt 0.834961 0.677002
vt 0.837891 0.681885
vt 0.818848 0.704834
vt 0.817871 0.697998
vt 0.827637 0.690430
vt 0.837891 0.681885
vt 0.834961 0.677002
vt 0.841309 0.661133
vt 0.841309 0.661133
vt 0.844238 0.664551
vt 0.837891 0.681885
vt 0.848145 0.643555
vt 0.844238 0.664551
vt 0.841309 0.661133
vt 0.834961 0.677002
vt 0.827637 0.690430
vt 0.819336 0.664307
vt 0.819336 0.664307
vt 0.827637 0.690430
vt 0.817871 0.697998
vt 0.828125 0.646484
vt 0.841309 0.661133
vt 0.834961 0.677002
vt 0.841309 0.661133
vt 0.844727 0.641846
vt 0.848145 0.643555
vt 0.844727 0.641846
vt 0.841309 0.661133
vt 0.828125 0.646484
vt 0.819336 0.664307
vt 0.824219 0.656250
vt 0.834961 0.677002
vt 0.834961 0.677002
vt 0.824219 0.656250
vt 0.828125 0.646484
vt 0.848145 0.643555
vt 0.844727 0.641846
vt 0.846191 0.621826
vt 0.846191 0.621826
vt 0.849609 0.621582
vt 0.848145 0.643555
vt 0.847656 0.599854
vt 0.849609 0.621582
vt 0.846191 0.621826
vt 0.828125 0.646484
vt 0.830078 0.634766
vt 0.844727 0.641846
vt 0.830566 0.622559
vt 0.846191 0.621826
vt 0.844727 0.641846
vt 0.844727 0.641846
vt 0.830078 0.634766
vt 0.830566 0.622559
vt 0.846191 0.621826
vt 0.844238 0.601807
vt 0.847656 0.599854
vt 0.844238 0.601807
vt 0.846191 0.621826
vt 0.830566 0.622559
vt 0.830078 0.634766
vt 0.828125 0.646484
vt 0.824219 0.642578
vt 0.824219 0.642578
vt 0.828125 0.646484
vt 0.824219 0.656250
vt 0.824219 0.642578
vt 0.825684 0.632812
vt 0.830078 0.634766
vt 0.824219 0.656250
vt 0.821289 0.650391
vt 0.824219 0.642578
vt 0.830078 0.634766
vt 0.825684 0.632812
vt 0.826660 0.622803
vt 0.826660 0.622803
vt 0.830566 0.622559
vt 0.830078 0.634766
vt 0.817383 0.657227
vt 0.821289 0.650391
vt 0.824219 0.656250
vt 0.824219 0.656250
vt 0.819336 0.664307
vt 0.817383 0.657227
vt 0.829590 0.610352
vt 0.830566 0.622559
vt 0.826660 0.622803
vt 0.830566 0.622559
vt 0.829590 0.610352
vt 0.844238 0.601807
vt 0.826660 0.622803
vt 0.825684 0.612793
vt 0.829590 0.610352
vt 0.829590 0.610352
vt 0.825684 0.612793
vt 0.823730 0.603516
vt 0.817383 0.657227
vt 0.819336 0.664307
vt 0.813965 0.668945
vt 0.813965 0.668945
vt 0.812500 0.660889
vt 0.817383 0.657227
vt 0.817871 0.697998
vt 0.813965 0.668945
vt 0.819336 0.664307
vt 0.807617 0.662842
vt 0.812500 0.660889
vt 0.813965 0.668945
vt 0.807617 0.671387
vt 0.813965 0.668945
vt 0.817871 0.697998
vt 0.813965 0.668945
vt 0.807617 0.671387
vt 0.807617 0.662842
vt 0.817871 0.697998
vt 0.808105 0.701904
vt 0.807617 0.671387
vt 0.808105 0.701904
vt 0.817871 0.697998
vt 0.818848 0.704834
vt 0.818848 0.704834
vt 0.808105 0.708984
vt 0.808105 0.701904
vt 0.808105 0.701904
vt 0.808105 0.708984
vt 0.797363 0.706055
vt 0.807617 0.662842
vt 0.807617 0.671387
vt 0.801758 0.669678
vt 0.801758 0.669678
vt 0.802734 0.661621
vt 0.807617 0.662842
vt 0.807617 0.671387
vt 0.808105 0.701904
vt 0.797852 0.698975
vt 0.797852 0.698975
vt 0.801758 0.669678
vt 0.807617 0.671387
vt 0.797363 0.706055
vt 0.797852 0.698975
vt 0.808105 0.701904
vt 0.797852 0.658203
vt 0.802734 0.661621
vt 0.801758 0.669678
vt 0.788574 0.692383
vt 0.797852 0.698975
vt 0.797363 0.706055
vt 0.797363 0.706055
vt 0.786621 0.698730
vt 0.788574 0.692383
vt 0.788574 0.692383
vt 0.786621 0.698730
vt 0.777832 0.685059
vt 0.795898 0.665527
vt 0.801758 0.669678
vt 0.797852 0.698975
vt 0.797852 0.698975
vt 0.788574 0.692383
vt 0.795898 0.665527
vt 0.801758 0.669678
vt 0.795898 0.665527
vt 0.797852 0.658203
vt 0.777832 0.685059
vt 0.780273 0.679932
vt 0.788574 0.692383
vt 0.795898 0.665527
vt 0.788574 0.692383
vt 0.780273 0.679932
vt 0.797852 0.658203
vt 0.795898 0.665527
vt 0.791016 0.657959
vt 0.780273 0.679932
vt 0.791016 0.657959
vt 0.795898 0.665527
vt 0.791016 0.657959
vt 0.793945 0.651855
vt 0.797852 0.658203
vt 0.790527 0.644287
vt 0.793945 0.651855
vt 0.791016 0.657959
vt 0.773926 0.664551
vt 0.780273 0.679932
vt 0.777832 0.685059
vt 0.777832 0.685059
vt 0.770996 0.668213
vt 0.773926 0.664551
vt 0.773926 0.664551
vt 0.770996 0.668213
vt 0.766602 0.647705
vt 0.786621 0.648682
vt 0.791016 0.657959
vt 0.780273 0.679932
vt 0.780273 0.679932
vt 0.773926 0.664551
vt 0.786621 0.648682
vt 0.791016 0.657959
vt 0.786621 0.648682
vt 0.790527 0.644287
vt 0.766602 0.647705
vt 0.770020 0.645752
vt 0.773926 0.664551
vt 0.786621 0.648682
vt 0.773926 0.664551
vt 0.770020 0.645752
vt 0.790527 0.644287
vt 0.786621 0.648682
vt 0.784668 0.637207
vt 0.770020 0.645752
vt 0.784668 0.637207
vt 0.786621 0.648682
vt 0.784668 0.637207
vt 0.788574 0.634766
vt 0.790527 0.644287
vt 0.787598 0.624756
vt 0.788574 0.634766
vt 0.784668 0.637207
vt 0.768066 0.625977
vt 0.770020 0.645752
vt 0.766602 0.647705
vt 0.766602 0.647705
vt 0.764648 0.625977
vt 0.768066 0.625977
vt 0.768066 0.625977
vt 0.764648 0.625977
vt 0.766113 0.604004
vt 0.783203 0.625000
vt 0.784668 0.637207
vt 0.770020 0.645752
vt 0.770020 0.645752
vt 0.768066 0.625977
vt 0.783203 0.625000
vt 0.784668 0.637207
vt 0.783203 0.625000
vt 0.787598 0.624756
vt 0.766113 0.604004
vt 0.769531 0.605713
vt 0.768066 0.625977
vt 0.783203 0.625000
vt 0.768066 0.625977
vt 0.769531 0.605713
vt 0.787598 0.624756
vt 0.783203 0.625000
vt 0.784180 0.612793
vt 0.769531 0.605713
vt 0.784180 0.612793
vt 0.783203 0.625000
vt 0.784180 0.612793
vt 0.788086 0.614746
vt 0.787598 0.624756
vt 0.790039 0.605225
vt 0.788086 0.614746
vt 0.784180 0.612793
vt 0.772949 0.586670
vt 0.769531 0.605713
vt 0.766113 0.604004
vt 0.766113 0.604004
vt 0.769531 0.583252
vt 0.772949 0.586670
vt 0.772949 0.586670
vt 0.769531 0.583252
vt 0.776367 0.565674
vt 0.786133 0.601074
vt 0.784180 0.612793
vt 0.769531 0.605713
vt 0.769531 0.605713
vt 0.772949 0.586670
vt 0.786133 0.601074
vt 0.784180 0.612793
vt 0.786133 0.601074
vt 0.790039 0.605225
vt 0.776367 0.565674
vt 0.778809 0.570557
vt 0.772949 0.586670
vt 0.786133 0.601074
vt 0.772949 0.586670
vt 0.778809 0.570557
vt 0.790039 0.605225
vt 0.786133 0.601074
vt 0.790039 0.591309
vt 0.778809 0.570557
vt 0.790039 0.591309
vt 0.786133 0.601074
vt 0.790039 0.591309
vt 0.792969 0.597168
vt 0.790039 0.605225
vt 0.796875 0.590576
vt 0.792969 0.597168
vt 0.790039 0.591309
vt 0.786621 0.557373
vt 0.778809 0.570557
vt 0.776367 0.565674
vt 0.776367 0.565674
vt 0.784668 0.551270
vt 0.786621 0.557373
vt 0.786621 0.557373
vt 0.784668 0.551270
vt 0.794922 0.542725
vt 0.794434 0.583252
vt 0.790039 0.591309
vt 0.778809 0.570557
vt 0.778809 0.570557
vt 0.786621 0.557373
vt 0.794434 0.583252
vt 0.790039 0.591309
vt 0.794434 0.583252
vt 0.796875 0.590576
vt 0.794922 0.542725
vt 0.795898 0.549561
vt 0.786621 0.557373
vt 0.794434 0.583252
vt 0.786621 0.557373
vt 0.795898 0.549561
vt 0.796875 0.590576
vt 0.794434 0.583252
vt 0.800293 0.578613
vt 0.795898 0.549561
vt 0.800293 0.578613
vt 0.794434 0.583252
vt 0.800293 0.578613
vt 0.801758 0.586670
vt 0.796875 0.590576
vt 0.806641 0.584717
vt 0.801758 0.586670
vt 0.800293 0.578613
vt 0.806152 0.545898
vt 0.795898 0.549561
vt 0.794922 0.542725
vt 0.794922 0.542725
vt 0.806152 0.538818
vt 0.806152 0.545898
vt 0.806152 0.545898
vt 0.806152 0.538818
vt 0.816895 0.541748
vt 0.806641 0.576416
vt 0.800293 0.578613
vt 0.795898 0.549561
vt 0.795898 0.549561
vt 0.806152 0.545898
vt 0.806641 0.576416
vt 0.800293 0.578613
vt 0.806641 0.576416
vt 0.806641 0.584717
vt 0.816895 0.541748
vt 0.815918 0.548584
vt 0.806152 0.545898
vt 0.806641 0.576416
vt 0.806152 0.545898
vt 0.815918 0.548584
vt 0.806641 0.584717
vt 0.806641 0.576416
vt 0.812500 0.578125
vt 0.815918 0.548584
vt 0.812500 0.578125
vt 0.806641 0.576416
vt 0.812500 0.578125
vt 0.811523 0.586182
vt 0.806641 0.584717
vt 0.816406 0.589355
vt 0.811523 0.586182
vt 0.812500 0.578125
vt 0.825684 0.555176
vt 0.815918 0.548584
vt 0.816895 0.541748
vt 0.816895 0.541748
vt 0.827148 0.549072
vt 0.825684 0.555176
vt 0.825684 0.555176
vt 0.827148 0.549072
vt 0.835938 0.562500
vt 0.818359 0.582031
vt 0.812500 0.578125
vt 0.815918 0.548584
vt 0.815918 0.548584
vt 0.825684 0.555176
vt 0.818359 0.582031
vt 0.812500 0.578125
vt 0.818359 0.582031
vt 0.816406 0.589355
vt 0.835938 0.562500
vt 0.833496 0.567627
vt 0.825684 0.555176
vt 0.818359 0.582031
vt 0.825684 0.555176
vt 0.833496 0.567627
vt 0.816406 0.589355
vt 0.818359 0.582031
vt 0.823242 0.589600
vt 0.833496 0.567627
vt 0.823242 0.589600
vt 0.818359 0.582031
vt 0.823242 0.589600
vt 0.820312 0.595703
vt 0.816406 0.589355
vt 0.823730 0.603516
vt 0.820312 0.595703
vt 0.823242 0.589600
vt 0.823242 0.589600
vt 0.827148 0.598877
vt 0.823730 0.603516
vt 0.827148 0.598877
vt 0.823242 0.589600
vt 0.833496 0.567627
vt 0.823730 0.603516
vt 0.827148 0.598877
vt 0.829590 0.610352
vt 0.844238 0.601807
vt 0.829590 0.610352
vt 0.827148 0.598877
vt 0.833496 0.567627
vt 0.840332 0.583008
vt 0.827148 0.598877
vt 0.827148 0.598877
vt 0.840332 0.583008
vt 0.844238 0.601807
vt 0.840332 0.583008
vt 0.833496 0.567627
vt 0.835938 0.562500
vt 0.847656 0.599854
vt 0.844238 0.601807
vt 0.840332 0.583008
vt 0.835938 0.562500
vt 0.843262 0.579346
vt 0.840332 0.583008
vt 0.840332 0.583008
vt 0.843262 0.579346
vt 0.847656 0.599854
f 1/1/1 2/2/2 3/3/3
f 4/4/4 5/5/5 6/6/6
f 7/7/7 8/8/8 9/9/9
f 10/10/10 11/11/11 12/12/12
f 13/13/13 14/14/14 15/15/15
f 16/16/16 17/17/17 18/18/18
f 19/19/19 20/20/20 21/21/21
f 22/22/22 23/23/23 24/24/24
f 25/25/25 26/26/26 27/27/27
f 28/28/28 29/29/29 30/30/30
f 31/31/31 32/32/32 33/33/33
f 34/34/34 35/35/35 36/36/36
f 37/37/37 38/38/38 39/39/39
f 40/40/40 41/41/41 42/42/42
f 43/43/43 44/44/44 45/45/45
f 46/46/46 47/47/47 48/48/48
f 49/49/49 50/50/50 51/51/51
f 52/52/52 53/53/53 54/54/54
f 55/55/55 56/56/56 57/57/57
f 58/58/58 59/59/59 60/60/60
f 61/61/61 62/62/62 63/63/63
f 64/64/64 65/65/65 66/66/66
f 67/67/67 68/68/68 69/69/69
f 70/70/70 71/71/71 72/72/72
f 73/73/73 74/74/74 75/75/75
f 76/76/76 77/77/77 78/78/78
f 79/79/79 80/80/80 81/81/81
f 82/82/82 83/83/83 84/84/84
f 85/85/85 86/86/86 87/87/87
f 88/88/88 89/89/89 90/90/90
f 91/91/91 92/92/92 93/93/93
f 94/94/94 95/95/95 96/96/96
f 97/97/97 98/98/98 99/99/99
f 100/100/100 101/101/101 102/102/102
f 103/103/103 104/104/104 105/105/105
f 106/106/106 107/107/107 108/108/108
f 109/109/109 110/110/110 111/111/111
f 112/112/112 113/113/113 114/114/114
f 115/115/115 116/116/116 117/117/117
f 118/118/118 119/119/119 120/120/120
f 121/121/121 122/122/122 123/123/123
f 124/124/124 125/125/125 126/126/126
f 127/127/127 128/128/128 129/129/129
f 130/130/130 131/131/131 132/132/132
f 133/133/133 134/134/134 135/135/135
f 136/136/136 137/137/137 138/138/138
f 139/139/139 140/140/140 141/141/141
f 142/142/142 143/143/143 144/144/144
f 145/145/145 146/146/146 147/147/147
f 148/148/148 149/149/149 150/150/150
f 151/151/151 152/152/152 153/153/153
f 154/154/154 155/155/155 156/156/156
f 157/157/157 158/158/158 159/159/159
f 160/160/160 161/161/161 162/162/162
f 163/163/163 164/164/164 165/165/165
f 166/166/166 167/167/167 168/168/168
f 169/169/169 170/170/170 171/171/171
f 172/172/172 173/173/173 174/174/174
f 175/175/175 176/176/176 177/177/177
f 178/178/178 179/179/179 180/180/180
f 181/181/181 182/182/182 183/183/183
f 184/184/184 185/185/185 186/186/186
f 187/187/187 188/188/188 189/189/189
f 190/190/190 191/191/191 192/192/192
f 193/193/193 194/194/194 195/195/195
f 196/196/196 197/197/197 198/198/198
f 199/199/199 200/200/200 201/201/201
f 202/202/202 203/203/203 204/204/204
f 205/205/205 206/206/206 207/207/207
f 208/208/208 209/209/209 210/210/210
f 211/211/211 212/212/212 213/213/213
f 214/214/214 215/215/215 216/216/216
f 217/217/217 218/218/218 219/219/219
f 220/220/220 221/221/221 222/222/222
f 223/223/223 224/224/224 225/225/225
f 226/226/226 227/227/227 228/228/228
f 229/229/229 230/230/230 231/231/231
f 232/232/232 233/233/233 234/234/234
f 235/235/235 236/236/236 237/237/237
f 238/238/238 239/239/239 240/240/240
f 241/241/241 242/242/242 243/243/243
f 244/244/244 245/245/245 246/246/246
f 247/247/247 248/248/248 249/249/249
f 250/250/250 251/251/251 252/252/252
f 253/253/253 254/254/254 255/255/255
f 256/256/256 257/257/257 258/258/258
f 259/259/259 260/260/260 261/261/261
f 262/262/262 263/263/263 264/264/264
f 265/265/265 266/266/266 267/267/267
f 268/268/268 269/269/269 270/270/270
f 271/271/271 272/272/272 273/273/273
f 274/274/274 275/275/275 276/276/276
f 277/277/277 278/278/278 279/279/279
f 280/280/280 281/281/281 282/282/282
f 283/283/283 284/284/284 285/285/285
f 286/286/286 287/287/287 288/288/288
f 289/289/289 290/290/290 291/291/291
f 292/292/292 293/293/293 294/294/294
f 295/295/295 296/296/296 297/297/297
f 298/298/298 299/299/299 300/300/300
f 301/301/301 302/302/302 303/303/303
f 304/304/304 305/305/305 306/306/306
f 307/307/307 308/308/308 309/309/309
f 310/310/310 311/311/311 312/312/312
f 313/313/313 314/314/314 315/315/315
f 316/316/316 317/317/317 318/318/318
f 319/319/319 320/320/320 321/321/321
f 322/322/322 323/323/323 324/324/324
f 325/325/325 326/326/326 327/327/327
f 328/328/328 329/329/329 330/330/330
f 331/331/331 332/332/332 333/333/333
f 334/334/334 335/335/335 336/336/336
f 337/337/337 338/338/338 339/339/339
f 340/340/340 341/341/341 342/342/342
f 343/343/343 344/344/344 345/345/345
f 346/346/346 347/347/347 348/348/348
f 349/349/349 350/350/350 351/351/351
f 352/352/352 353/353/353 354/354/354
f 355/355/355 356/356/356 357/357/357
f 358/358/358 359/359/359 360/360/360
f 361/361/361 362/362/362 363/363/363
f 364/364/364 365/365/365 366/366/366
f 367/367/367 368/368/368 369/369/369
f 370/370/370 371/371/371 372/372/372
f 373/373/373 374/374/374 375/375/375
f 376/376/376 377/377/377 378/378/378
f 379/379/379 380/380/380 381/381/381
f 382/382/382 383/383/383 384/384/384
f 385/385/385 386/386/386 387/387/387
f 388/388/388 389/389/389 390/390/390
f 391/391/391 392/392/392 393/393/393
f 394/394/394 395/395/395 396/396/396
f 397/397/397 398/398/398 399/399/399
f 400/400/400 401/401/401 402/402/402
f 403/403/403 404/404/404 405/405/405
f 406/406/406 407/407/407 408/408/408
f 409/409/409 410/410/410 411/411/411
f 412/412/412 413/413/413 414/414/414
f 415/415/415 416/416/416 417/417/417
f 418/418/418 419/419/419 420/420/420
f 421/421/421 422/422/422 423/423/423
f 424/424/424 425/425/425 426/426/426
f 427/427/427 428/428/428 429/429/429
f 430/430/430 431/431/431 432/432/432
f 433/433/433 434/434/434 435/435/435
f 436/436/436 437/437/437 438/438/438
f 439/439/439 440/440/440 441/441/441
f 442/442/442 443/443/443 444/444/444
f 445/445/445 446/446/446 447/447/447
f 448/448/448 449/449/449 450/450/450
f 451/451/451 452/452/452 453/453/453
f 454/454/454 455/455/455 456/456/456
f 457/457/457 458/458/458 459/459/459
f 460/460/460 461/461/461 462/462/462
f 463/463/463 464/464/464 465/465/465
f 466/466/466 467/467/467 468/468/468
f 469/469/469 470/470/470 471/471/471
f 472/472/472 473/473/473 474/474/474
f 475/475/475 476/476/476 477/477/477
f 478/478/478 479/479/479 480/480/480
f 481/481/481 482/482/482 483/483/483
f 484/484/484 485/485/485 486/486/486
f 487/487/487 488/488/488 489/489/489
f 490/490/490 491/491/491 492/492/492
f 493/493/493 494/494/494 495/495/495
f 496/496/496 497/497/497 498/498/498
f 499/499/499 500/500/500 501/501/501
f 502/502/502 503/503/503 504/504/504
f 505/505/505 506/506/506 507/507/507
f 508/508/508 509/509/509 510/510/510
f 511/511/511 512/512/512 513/513/513
f 514/514/514 515/515/515 516/516/516
f 517/517/517 518/518/518 519/519/519
f 520/520/520 521/521/521 522/522/522
f 523/523/523 524/524/524 525/525/525
f 526/526/526 527/527/527 528/528/528
f 529/529/529 530/530/530 531/531/531
f 532/532/532 533/533/533 534/534/534
f 535/535/535 536/536/536 537/537/537
f 538/538/538 539/539/539 540/540/540
f 541/541/541 542/542/542 543/543/543
f 544/544/544 545/545/545 546/546/546
f 547/547/547 548/548/548 549/549/549
f 550/550/550 551/551/551 552/552/552
f 553/553/553 554/554/554 555/555/555
f 556/556/556 557/557/557 558/558/558
f 559/559/559 560/560/560 561/561/561
f 562/562/562 563/563/563 564/564/564
f 565/565/565 566/566/566 567/567/567
f 568/568/568 569/569/569 570/570/570
f 571/571/571 572/572/572 573/573/573
f 574/574/574 575/575/575 576/576/576
f 577/577/577 578/578/578 579/579/579
f 580/580/580 581/581/581 582/582/582
f 583/583/583 584/584/584 585/585/585
f 586/586/586 587/587/587 588/588/588
f 589/589/589 590/590/590 591/591/591
f 592/592/592 593/593/593 594/594/594
f 595/595/595 596/596/596 597/597/597
f 598/598/598 599/599/599 600/600/600
f 601/601/601 602/602/602 603/603/603
f 604/604/604 605/605/605 606/606/606
f 607/607/607 608/608/608 609/609/609
f 610/610/610 611/611/611 612/612/612
f 613/613/613 614/614/614 615/615/615
f 616/616/616 617/617/617 618/618/618
f 619/619/619 620/620/620 621/621/621
f 622/622/622 623/623/623 624/624/624
f 625/625/625 626/626/626 627/627/627
f 628/628/628 629/629/629 630/630/630
f 631/631/631 632/632/632 633/633/633
f 634/634/634 635/635/635 636/636/636
f 637/637/637 638/638/638 639/639/639
f 640/640/640 641/641/641 642/642/642
f 643/643/643 644/644/644 645/645/645
f 646/646/646 647/647/647 648/648/648
f 649/649/649 650/650/650 651/651/651
f 652/652/652 653/653/653 654/654/654
f 655/655/655 656/656/656 657/657/657
f 658/658/658 659/659/659 660/660/660
f 661/661/661 662/662/662 663/663/663
f 664/664/664 665/665/665 666/666/666
f 667/667/667 668/668/668 669/669/669
f 670/670/670 671/671/671 672/672/672
f 673/673/673 674/674/674 675/675/675
f 676/676/676 677/677/677 678/678/678
f 679/679/679 680/680/680 681/681/681
f 682/682/682 683/683/683 684/684/684
f 685/685/685 686/686/686 687/687/687
f 688/688/688 689/689/689 690/690/690
f 691/691/691 692/692/692 693/693/693
f 694/694/694 695/695/695 696/696/696
f 697/697/697 698/698/698 699/699/699
f 700/700/700 701/701/701 702/702/702
f 703/703/703 704/704/704 705/705/705
f 706/706/706 707/707/707 708/708/708
f 709/709/709 710/710/710 711/711/711
f 712/712/712 713/713/713 714/714/714
f 715/715/715 716/716/716 717/717/717
f 718/718/718 719/719/719 720/720/720
f 721/721/721 722/722/722 723/723/723
f 724/724/724 725/725/725 726/726/726
f 727/727/727 728/728/728 729/729/729
f 730/730/730 731/731/731 732/732/732
f 733/733/733 734/734/734 735/735/735
f 736/736/736 737/737/737 738/738/738
f 739/739/739 740/740/740 741/741/741
f 742/742/742 743/743/743 744/744/744
f 745/745/745 746/746/746 747/747/747
f 748/748/748 749/749/749 750/750/750
f 751/751/751 752/752/752 753/753/753
f 754/754/754 755/755/755 756/756/756
f 757/757/757 758/758/758 759/759/759
f 760/760/760 761/761/761 762/762/762
f 763/763/763 764/764/764 765/765/765
f 766/766/766 767/767/767 768/768/768
f 769/769/769 770/770/770 771/771/771
f 772/772/772 773/773/773 774/774/774
f 775/775/775 776/776/776 777/777/777
f 778/778/778 779/779/779 780/780/780
f 781/781/781 782/782/782 783/783/783
f 784/784/784 785/785/785 786/786/786
f 787/787/787 788/788/788 789/789/789
f 790/790/790 791/791/791 792/792/792
f 793/793/793 794/794/794 795/795/795
f 796/796/796 797/797/797 798/798/798
f 799/799/799 800/800/800 801/801/801
f 802/802/802 803/803/803 804/804/804
f 805/805/805 806/806/806 807/807/807
f 808/808/808 809/809/809 810/810/810
f 811/811/811 812/812/812 813/813/813
f 814/814/814 815/815/815 816/816/816
f 817/817/817 818/818/818 819/819/819
f 820/820/820 821/821/821 822/822/822
f 823/823/823 824/824/824 825/825/825
f 826/826/826 827/827/827 828/828/828
f 829/829/829 830/830/830 831/831/831
f 832/832/832 833/833/833 834/834/834
f 835/835/835 836/836/836 837/837/837
f 838/838/838 839/839/839 840/840/840
f 841/841/841 842/842/842 843/843/843
f 844/844/844 845/845/845 846/846/846
f 847/847/847 848/848/848 849/849/849
f 850/850/850 851/851/851 852/852/852
f 853/853/853 854/854/854 855/855/855
f 856/856/856 857/857/857 858/858/858
f 859/859/859 860/860/860 861/861/861
f 862/862/862 863/863/863 864/864/864
f 865/865/865 866/866/866 867/867/867
f 868/868/868 869/869/869 870/870/870
f 871/871/871 872/872/872 873/873/873
f 874/874/874 875/875/875 876/876/876
f 877/877/877 878/878/878 879/879/879
f 880/880/880 881/881/881 882/882/882
f 883/883/883 884/884/884 885/885/885
f 886/886/886 887/887/887 888/888/888
f 889/889/889 890/890/890 891/891/891
f 892/892/892 893/893/893 894/894/894
f 895/895/895 896/896/896 897/897/897
f 898/898/898 899/899/899 900/900/900
f 901/901/901 902/902/902 903/903/903
f 904/904/904 905/905/905 906/906/906
f 907/907/907 908/908/908 909/909/909
f 910/910/910 911/911/911 912/912/912
f 913/913/913 914/914/914 915/915/915
f 916/916/916 917/917/917 918/918/918
f 919/919/919 920/920/920 921/921/921
f 922/922/922 923/923/923 924/924/924
f 925/925/925 926/926/926 927/927/927
f 928/928/928 929/929/929 930/930/930
f 931/931/931 932/932/932 933/933/933
f 934/934/934 935/935/935 936/936/936
f 937/937/937 938/938/938 939/939/939
f 940/940/940 941/941/941 942/942/942
f 943/943/943 944/944/944 945/945/945
f 946/946/946 947/947/947 948/948/948
f 949/949/949 950/950/950 951/951/951
f 952/952/952 953/953/953 954/954/954
f 955/955/955 956/956/956 957/957/957
f 958/958/958 959/959/959 960/960/960
f 961/961/961 962/962/962 963/963/963
f 964/964/964 965/965/965 966/966/966
f 967/967/967 968/968/968 969/969/969
f 970/970/970 971/971/971 972/972/972
f 973/973/973 974/974/974 975/975/975
f 976/976/976 977/977/977 978/978/978
f 979/979/979 980/980/980 981/981/981
f 982/982/982 983/983/983 984/984/984
f 985/985/985 986/986/986 987/987/987
f 988/988/988 989/989/989 990/990/990
f 991/991/991 992/992/992 993/993/993
f 994/994/994 995/995/995 996/996/996
f 997/997/997 998/998/998 999/999/999
f 1000/1000/1000 1001/1001/1001 1002/1002/1002
f 1003/1003/1003 1004/1004/1004 1005/1005/1005
f 1006/1006/1006 1007/1007/1007 1008/1008/1008
f 1009/1009/1009 1010/1010/1010 1011/1011/1011
f 1012/1012/1012 1013/1013/1013 1014/1014/1014
f 1015/1015/1015 1016/1016/1016 1017/1017/1017
f 1018/1018/1018 1019/1019/1019 1020/1020/1020
f 1021/1021/1021 1022/1022/1022 1023/1023/1023
f 1024/1024/1024 1025/1025/1025 1026/1026/1026
f 1027/1027/1027 1028/1028/1028 1029/1029/1029
f 1030/1030/1030 1031/1031/1031 1032/1032/1032
f 1033/1033/1033 1034/1034/1034 1035/1035/1035
f 1036/1036/1036 1037/1037/1037 1038/1038/1038
f 1039/1039/1039 1040/1040/1040 1041/1041/1041
f 1042/1042/1042 1043/1043/1043 1044/1044/1044
f 1045/1045/1045 1046/1046/1046 1047/1047/1047
f 1048/1048/1048 1049/1049/1049 1050/1050/1050
f 1051/1051/1051 1052/1052/1052 1053/1053/1053
f 1054/1054/1054 1055/1055/1055 1056/1056/1056
f 1057/1057/1057 1058/1058/1058 1059/1059/1059
f 1060/1060/1060 1061/1061/1061 1062/1062/1062
f 1063/1063/1063 1064/1064/1064 1065/1065/1065
f 1066/1066/1066 1067/1067/1067 1068/1068/1068
f 1069/1069/1069 1070/1070/1070 1071/1071/1071
f 1072/1072/1072 1073/1073/1073 1074/1074/1074
f 1075/1075/1075 1076/1076/1076 1077/1077/1077
f 1078/1078/1078 1079/1079/1079 1080/1080/1080
f 1081/1081/1081 1082/1082/1082 1083/1083/1083
f 1084/1084/1084 1085/1085/1085 1086/1086/1086
f 1087/1087/1087 1088/1088/1088 1089/1089/1089
f 1090/1090/1090 1091/1091/1091 1092/1092/1092
f 1093/1093/1093 1094/1094/1094 1095/1095/1095
f 1096/1096/1096 1097/1097/1097 1098/1098/1098
f 1099/1099/1099 1100/1100/1100 1101/1101/1101
f 1102/1102/1102 1103/1103/1103 1104/1104/1104
f 1105/1105/1105 1106/1106/1106 1107/1107/1107
f 1108/1108/1108 1109/1109/1109 1110/1110/1110
f 1111/1111/1111 1112/1112/1112 1113/1113/1113
f 1114/1114/1114 1115/1115/1115 1116/1116/1116
f 1117/1117/1117 1118/1118/1118 1119/1119/1119
f 1120/1120/1120 1121/1121/1121 1122/1122/1122
f 1123/1123/1123 1124/1124/1124 1125/1125/1125
f 1126/1126/1126 1127/1127/1127 1128/1128/1128
f 1129/1129/1129 1130/1130/1130 1131/1131/1131
f 1132/1132/1132 1133/1133/1133 1134/1134/1134
f 1135/1135/1135 1136/1136/1136 1137/1137/1137
f 1138/1138/1138 1139/1139/1139 1140/1140/1140
f 1141/1141/1141 1142/1142/1142 1143/1143/1143
f 1144/1144/1144 1145/1145/1145 1146/1146/1146
f 1147/1147/1147 1148/1148/1148 1149/1149/1149
f 1150/1150/1150 1151/1151/1151 1152/1152/1152
f 1153/1153/1153 1154/1154/1154 1155/1155/1155
f 1156/1156/1156 1157/1157/1157 1158/1158/1158
f 1159/1159/1159 1160/1160/1160 1161/1161/1161
f 1162/1162/1162 1163/1163/1163 1164/1164/1164
f 1165/1165/1165 1166/1166/1166 1167/1167/1167
f 1168/1168/1168 1169/1169/1169 1170/1170/1170
f 1171/1171/1171 1172/1172/1172 1173/1173/1173
f 1174/1174/1174 1175/1175/1175 1176/1176/1176
f 1177/1177/1177 1178/1178/1178 1179/1179/1179
f 1180/1180/1180 1181/1181/1181 1182/1182/1182
f 1183/1183/1183 1184/1184/1184 1185/1185/1185
f 1186/1186/1186 1187/1187/1187 1188/1188/1188
f 1189/1189/1189 1190/1190/1190 1191/1191/1191
f 1192/1192/1192 1193/1193/1193 1194/1194/1194
f 1195/1195/1195 1196/1196/1196 1197/1197/1197
f 1198/1198/1198 1199/1199/1199 1200/1200/1200
f 1201/1201/1201 1202/1202/1202 1203/1203/1203
f 1204/1204/1204 1205/1205/1205 1206/1206/1206
f 1207/1207/1207 1208/1208/1208 1209/1209/1209
f 1210/1210/1210 1211/1211/1211 1212/1212/1212
f 1213/1213/1213 1214/1214/1214 1215/1215/1215
f 1216/1216/1216 1217/1217/1217 1218/1218/1218
f 1219/1219/1219 1220/1220/1220 1221/1221/1221
f 1222/1222/1222 1223/1223/1223 1224/1224/1224
f 1225/1225/1225 1226/1226/1226 1227/1227/1227
f 1228/1228/1228 1229/1229/1229 1230/1230/1230
f 1231/1231/1231 1232/1232/1232 1233/1233/1233
f 1234/1234/1234 1235/1235/1235 1236/1236/1236
f 1237/1237/1237 1238/1238/1238 1239/1239/1239
f 1240/1240/1240 1241/1241/1241 1242/1242/1242
f 1243/1243/1243 1244/1244/1244 1245/1245/1245
f 1246/1246/1246 1247/1247/1247 1248/1248/1248
f 1249/1249/1249 1250/1250/1250 1251/1251/1251
f 1252/1252/1252 1253/1253/1253 1254/1254/1254
f 1255/1255/1255 1256/1256/1256 1257/1257/1257
f 1258/1258/1258 1259/1259/1259 1260/1260/1260
f 1261/1261/1261 1262/1262/1262 1263/1263/1263
f 1264/1264/1264 1265/1265/1265 1266/1266/1266
f 1267/1267/1267 1268/1268/1268 1269/1269/1269
f 1270/1270/1270 1271/1271/1271 1272/1272/1272
f 1273/1273/1273 1274/1274/1274 1275/1275/1275
f 1276/1276/1276 1277/1277/1277 1278/1278/1278
f 1279/1279/1279 1280/1280/1280 1281/1281/1281
f 1282/1282/1282 1283/1283/1283 1284/1284/1284
f 1285/1285/1285 1286/1286/1286 1287/1287/1287
f 1288/1288/1288 1289/1289/1289 1290/1290/1290
f 1291/1291/1291 1292/1292/1292 1293/1293/1293
f 1294/1294/1294 1295/1295/1295 1296/1296/1296
f 1297/1297/1297 1298/1298/1298 1299/1299/1299
f 1300/1300/1300 1301/1301/1301 1302/1302/1302
f 1303/1303/1303 1304/1304/1304 1305/1305/1305
f 1306/1306/1306 1307/1307/1307 1308/1308/1308
f 1309/1309/1309 1310/1310/1310 1311/1311/1311
f 1312/1312/1312 1313/1313/1313 1314/1314/1314
f 1315/1315/1315 1316/1316/1316 1317/1317/1317
f 1318/1318/1318 1319/1319/1319 1320/1320/1320
f 1321/1321/1321 1322/1322/1322 1323/1323/1323
f 1324/1324/1324 1325/1325/1325 1326/1326/1326
f 1327/1327/1327 1328/1328/1328 1329/1329/1329
f 1330/1330/1330 1331/1331/1331 1332/1332/1332
f 1333/1333/1333 1334/1334/1334 1335/1335/1335
f 1336/1336/1336 1337/1337/1337 1338/1338/1338
f 1339/1339/1339 1340/1340/1340 1341/1341/1341
f 1342/1342/1342 1343/1343/1343 1344/1344/1344
f 1345/1345/1345 1346/1346/1346 1347/1347/1347
f 1348/1348/1348 1349/1349/1349 1350/1350/1350
f 1351/1351/1351 1352/1352/1352 1353/1353/1353
f 1354/1354/1354 1355/1355/1355 1356/1356/1356
f 1357/1357/1357 1358/1358/1358 1359/1359/1359
f 1360/1360/1360 1361/1361/1361 1362/1362/1362
f 1363/1363/1363 1364/1364/1364 1365/1365/1365
f 1366/1366/1366 1367/1367/1367 1368/1368/1368
