# OBJ file
v -856.770570 1136.878200 416.419700
v -852.759000 1130.689700 416.419700
v -850.535400 1133.155200 379.954500
v -850.535400 1133.155200 379.954500
v -853.612100 1137.901600 379.954500
v -856.770570 1136.878200 416.419700
v -857.150500 1144.243400 416.419700
v -856.770570 1136.878200 416.419700
v -853.612100 1137.901600 379.954500
v -853.612100 1137.901600 379.954500
v -853.903440 1143.550400 379.954500
v -857.150500 1144.243400 416.419700
v -853.796800 1150.811900 416.419700
v -857.150500 1144.243400 416.419700
v -853.903440 1143.550400 379.954500
v -853.903440 1143.550400 379.954500
v -851.331300 1148.588300 379.954500
v -853.796800 1150.811900 416.419700
v -847.608200 1154.823400 416.419700
v -853.796800 1150.811900 416.419700
v -851.331300 1148.588300 379.954500
v -851.331300 1148.588300 379.954500
v -846.584840 1151.665200 379.954500
v -847.608200 1154.823400 416.419700
v -840.243000 1155.203400 416.419700
v -847.608200 1154.823400 416.419700
v -846.584840 1151.665200 379.954500
v -846.584840 1151.665200 379.954500
v -840.936000 1151.956400 379.954500
v -840.243000 1155.203400 416.419700
v -833.674600 1151.849600 416.419700
v -840.243000 1155.203400 416.419700
v -840.936000 1151.956400 379.954500
v -840.936000 1151.956400 379.954500
v -835.898200 1149.384300 379.954500
v -833.674600 1151.849600 416.419700
v -829.662960 1145.661300 416.419700
v -833.674600 1151.849600 416.419700
v -835.898200 1149.384300 379.954500
v -835.898200 1149.384300 379.954500
v -832.821500 1144.637800 379.954500
v -829.662960 1145.661300 416.419700
v -829.283100 1138.295900 416.419700
v -829.662960 1145.661300 416.419700
v -832.821500 1144.637800 379.954500
v -832.821500 1144.637800 379.954500
v -832.530150 1138.988900 379.954500
v -829.283100 1138.295900 416.419700
v -832.636700 1131.727400 416.419700
v -829.283100 1138.295900 416.419700
v -832.530150 1138.988900 379.954500
v -832.530150 1138.988900 379.954500
v -835.102230 1133.951000 379.954500
v -832.636700 1131.727400 416.419700
v -838.825400 1127.715800 416.419700
v -832.636700 1131.727400 416.419700
v -835.102230 1133.951000 379.954500
v -835.102230 1133.951000 379.954500
v -839.848630 1130.874300 379.954500
v -838.825400 1127.715800 416.419700
v -846.190500 1127.335900 416.419700
v -838.825400 1127.715800 416.419700
v -839.848630 1130.874300 379.954500
v -839.848630 1130.874300 379.954500
v -845.497600 1130.583000 379.954500
v -846.190500 1127.335900 416.419700
v -852.759000 1130.689700 416.419700
v -846.190500 1127.335900 416.419700
v -845.497600 1130.583000 379.954500
v -845.497600 1130.583000 379.954500
v -850.535400 1133.155200 379.954500
v -852.759000 1130.689700 416.419700
v -853.569500 1134.558600 379.954500
v -851.388240 1132.209500 379.954500
v -853.871000 1129.456700 416.419700
v -853.871000 1129.456700 416.419700
v -856.715200 1132.519700 416.419700
v -853.569500 1134.558600 379.954500
v -853.569500 1134.558600 379.954500
v -856.715200 1132.519700 416.419700
v -858.350040 1136.366500 416.419700
v -858.350040 1136.366500 416.419700
v -854.823500 1137.509000 379.954500
v -853.569500 1134.558600 379.954500
v -855.538100 1140.634200 379.954500
v -854.823500 1137.509000 379.954500
v -858.350040 1136.366500 416.419700
v -858.350040 1136.366500 416.419700
v -859.281740 1140.441200 416.419700
v -855.538100 1140.634200 379.954500
v -855.538100 1140.634200 379.954500
v -859.281740 1140.441200 416.419700
v -858.774200 1144.590000 416.419700
v -858.774200 1144.590000 416.419700
v -855.148860 1143.816300 379.954500
v -855.538100 1140.634200 379.954500
v -854.205100 1146.880000 379.954500
v -855.148860 1143.816300 379.954500
v -858.774200 1144.590000 416.419700
v -858.774200 1144.590000 416.419700
v -857.543640 1148.584600 416.419700
v -854.205100 1146.880000 379.954500
v -854.205100 1146.880000 379.954500
v -857.543640 1148.584600 416.419700
v -855.029700 1151.924000 416.419700
v -855.029700 1151.924000 416.419700
v -852.277000 1149.441200 379.954500
v -854.205100 1146.880000 379.954500
v -849.927800 1151.622600 379.954500
v -852.277000 1149.441200 379.954500
v -855.029700 1151.924000 416.419700
v -855.029700 1151.924000 416.419700
v -851.966860 1154.768100 416.419700
v -849.927800 1151.622600 379.954500
v -849.927800 1151.622600 379.954500
v -851.966860 1154.768100 416.419700
v -848.120000 1156.403100 416.419700
v -848.120000 1156.403100 416.419700
v -846.977400 1152.876600 379.954500
v -849.927800 1151.622600 379.954500
v -843.852230 1153.591100 379.954500
v -846.977400 1152.876600 379.954500
v -848.120000 1156.403100 416.419700
v -848.120000 1156.403100 416.419700
v -844.045350 1157.334700 416.419700
v -843.852230 1153.591100 379.954500
v -843.852230 1153.591100 379.954500
v -844.045350 1157.334700 416.419700
v -839.896500 1156.827100 416.419700
v -839.896500 1156.827100 416.419700
v -840.670100 1153.201800 379.954500
v -843.852230 1153.591100 379.954500
v -837.606450 1152.258000 379.954500
v -840.670100 1153.201800 379.954500
v -839.896500 1156.827100 416.419700
v -839.896500 1156.827100 416.419700
v -835.901800 1155.596700 416.419700
v -837.606450 1152.258000 379.954500
v -837.606450 1152.258000 379.954500
v -835.901800 1155.596700 416.419700
v -832.562500 1153.082600 416.419700
v -832.562500 1153.082600 416.419700
v -835.045300 1150.329800 379.954500
v -837.606450 1152.258000 379.954500
v -832.863950 1147.980700 379.954500
v -835.045300 1150.329800 379.954500
v -832.562500 1153.082600 416.419700
v -832.562500 1153.082600 416.419700
v -829.718400 1150.019800 416.419700
v -832.863950 1147.980700 379.954500
v -832.863950 1147.980700 379.954500
v -829.718400 1150.019800 416.419700
v -828.083440 1146.173000 416.419700
v -828.083440 1146.173000 416.419700
v -831.610000 1145.030400 379.954500
v -832.863950 1147.980700 379.954500
v -830.895450 1141.905300 379.954500
v -831.610000 1145.030400 379.954500
v -828.083440 1146.173000 416.419700
v -828.083440 1146.173000 416.419700
v -827.151730 1142.098300 416.419700
v -830.895450 1141.905300 379.954500
v -830.895450 1141.905300 379.954500
v -827.151730 1142.098300 416.419700
v -827.659300 1137.949300 416.419700
v -827.659300 1137.949300 416.419700
v -831.284700 1138.723100 379.954500
v -830.895450 1141.905300 379.954500
v -832.228450 1135.659400 379.954500
v -831.284700 1138.723100 379.954500
v -827.659300 1137.949300 416.419700
v -827.659300 1137.949300 416.419700
v -828.889800 1133.954700 416.419700
v -832.228450 1135.659400 379.954500
v -832.228450 1135.659400 379.954500
v -828.889800 1133.954700 416.419700
v -831.403750 1130.615500 416.419700
v -831.403750 1130.615500 416.419700
v -834.156430 1133.098300 379.954500
v -832.228450 1135.659400 379.954500
v -836.505800 1130.916900 379.954500
v -834.156430 1133.098300 379.954500
v -831.403750 1130.615500 416.419700
v -831.403750 1130.615500 416.419700
v -834.466740 1127.771100 416.419700
v -836.505800 1130.916900 379.954500
v -836.505800 1130.916900 379.954500
v -834.466740 1127.771100 416.419700
v -838.313540 1126.136400 416.419700
v -838.313540 1126.136400 416.419700
v -839.456050 1129.662800 379.954500
v -836.505800 1130.916900 379.954500
v -842.581300 1128.948400 379.954500
v -839.456050 1129.662800 379.954500
v -838.313540 1126.136400 416.419700
v -838.313540 1126.136400 416.419700
v -842.388100 1125.204700 416.419700
v -842.581300 1128.948400 379.954500
v -842.581300 1128.948400 379.954500
v -842.388100 1125.204700 416.419700
v -846.537100 1125.712200 416.419700
v -846.537100 1125.712200 416.419700
v -845.763370 1129.337500 379.954500
v -842.581300 1128.948400 379.954500
v -848.827100 1130.281400 379.954500
v -845.763370 1129.337500 379.954500
v -846.537100 1125.712200 416.419700
v -846.537100 1125.712200 416.419700
v -850.531700 1126.942700 416.419700
v -848.827100 1130.281400 379.954500
v -848.827100 1130.281400 379.954500
v -850.531700 1126.942700 416.419700
v -853.871000 1129.456700 416.419700
v -853.871000 1129.456700 416.419700
v -851.388240 1132.209500 379.954500
v -848.827100 1130.281400 379.954500
vn 0.946365 0.310219 0.090317
vn 0.663838 0.742399 0.090345
vn 0.663838 0.742399 0.090345
vn 0.663838 0.742399 0.090345
vn 0.946365 0.310219 0.090317
vn 0.946365 0.310219 0.090317
vn 0.973717 -0.208935 0.090670
vn 0.946365 0.310219 0.090317
vn 0.946365 0.310219 0.090317
vn 0.946365 0.310219 0.090317
vn 0.973717 -0.208935 0.090670
vn 0.973717 -0.208935 0.090670
vn 0.738842 -0.667724 0.090874
vn 0.973717 -0.208935 0.090670
vn 0.973717 -0.208935 0.090670
vn 0.973717 -0.208935 0.090670
vn 0.738842 -0.667724 0.090874
vn 0.738842 -0.667724 0.090874
vn 0.303096 -0.948650 0.090535
vn 0.738842 -0.667724 0.090874
vn 0.738842 -0.667724 0.090874
vn 0.738842 -0.667724 0.090874
vn 0.303096 -0.948650 0.090535
vn 0.303096 -0.948650 0.090535
vn -0.216456 -0.972087 0.090518
vn 0.303096 -0.948650 0.090535
vn 0.303096 -0.948650 0.090535
vn 0.303096 -0.948650 0.090535
vn -0.216456 -0.972087 0.090518
vn -0.216456 -0.972087 0.090518
vn -0.672068 -0.734951 0.090395
vn -0.216456 -0.972087 0.090518
vn -0.216456 -0.972087 0.090518
vn -0.216456 -0.972087 0.090518
vn -0.672068 -0.734951 0.090395
vn -0.672068 -0.734951 0.090395
vn -0.949429 -0.300848 0.089864
vn -0.672068 -0.734951 0.090395
vn -0.672068 -0.734951 0.090395
vn -0.672068 -0.734951 0.090395
vn -0.949429 -0.300848 0.089864
vn -0.949429 -0.300848 0.089864
vn -0.972515 0.214813 0.089831
vn -0.949429 -0.300848 0.089864
vn -0.949429 -0.300848 0.089864
vn -0.949429 -0.300848 0.089864
vn -0.972515 0.214813 0.089831
vn -0.972515 0.214813 0.089831
vn -0.738535 0.668198 0.089875
vn -0.972515 0.214813 0.089831
vn -0.972515 0.214813 0.089831
vn -0.972515 0.214813 0.089831
vn -0.738535 0.668198 0.089875
vn -0.738535 0.668198 0.089875
vn -0.307930 0.947176 0.089650
vn -0.738535 0.668198 0.089875
vn -0.738535 0.668198 0.089875
vn -0.738535 0.668198 0.089875
vn -0.307930 0.947176 0.089650
vn -0.307930 0.947176 0.089650
vn 0.207343 0.974121 0.089979
vn -0.307930 0.947176 0.089650
vn -0.307930 0.947176 0.089650
vn -0.307930 0.947176 0.089650
vn 0.207343 0.974121 0.089979
vn 0.207343 0.974121 0.089979
vn 0.663838 0.742399 0.090345
vn 0.207343 0.974121 0.089979
vn 0.207343 0.974121 0.089979
vn 0.207343 0.974121 0.089979
vn 0.663838 0.742399 0.090345
vn 0.663838 0.742399 0.090345
vn -0.836311 -0.537909 -0.106011
vn -0.671032 -0.733819 -0.105952
vn -0.671032 -0.733819 -0.105952
vn -0.671032 -0.733819 -0.105952
vn -0.836311 -0.537909 -0.106011
vn -0.836311 -0.537909 -0.106011
vn -0.836311 -0.537909 -0.106011
vn -0.836311 -0.537909 -0.106011
vn -0.947983 -0.300390 -0.105331
vn -0.947983 -0.300390 -0.105331
vn -0.947983 -0.300390 -0.105331
vn -0.836311 -0.537909 -0.106011
vn -0.993166 -0.050632 -0.105159
vn -0.947983 -0.300390 -0.105331
vn -0.947983 -0.300390 -0.105331
vn -0.947983 -0.300390 -0.105331
vn -0.993166 -0.050632 -0.105159
vn -0.993166 -0.050632 -0.105159
vn -0.993166 -0.050632 -0.105159
vn -0.993166 -0.050632 -0.105159
vn -0.972634 0.207026 -0.105466
vn -0.972634 0.207026 -0.105466
vn -0.972634 0.207026 -0.105466
vn -0.993166 -0.050632 -0.105159
vn -0.883951 0.455605 -0.105140
vn -0.972634 0.207026 -0.105466
vn -0.972634 0.207026 -0.105466
vn -0.972634 0.207026 -0.105466
vn -0.883951 0.455605 -0.105140
vn -0.883951 0.455605 -0.105140
vn -0.883951 0.455605 -0.105140
vn -0.883951 0.455605 -0.105140
vn -0.737410 0.667180 -0.105344
vn -0.737410 0.667180 -0.105344
vn -0.737410 0.667180 -0.105344
vn -0.883951 0.455605 -0.105140
vn -0.543454 0.832775 -0.105563
vn -0.737410 0.667180 -0.105344
vn -0.737410 0.667180 -0.105344
vn -0.737410 0.667180 -0.105344
vn -0.543454 0.832775 -0.105563
vn -0.543454 0.832775 -0.105563
vn -0.543454 0.832775 -0.105563
vn -0.543454 0.832775 -0.105563
vn -0.307463 0.945740 -0.105082
vn -0.307463 0.945740 -0.105082
vn -0.307463 0.945740 -0.105082
vn -0.543454 0.832775 -0.105563
vn -0.058397 0.992744 -0.105114
vn -0.307463 0.945740 -0.105082
vn -0.307463 0.945740 -0.105082
vn -0.307463 0.945740 -0.105082
vn -0.058397 0.992744 -0.105114
vn -0.058397 0.992744 -0.105114
vn -0.058397 0.992744 -0.105114
vn -0.058397 0.992744 -0.105114
vn 0.199531 0.974181 -0.105634
vn 0.199531 0.974181 -0.105634
vn 0.199531 0.974181 -0.105634
vn -0.058397 0.992744 -0.105114
vn 0.449401 0.887077 -0.105511
vn 0.199531 0.974181 -0.105634
vn 0.199531 0.974181 -0.105634
vn 0.199531 0.974181 -0.105634
vn 0.449401 0.887077 -0.105511
vn 0.449401 0.887077 -0.105511
vn 0.449401 0.887077 -0.105511
vn 0.449401 0.887077 -0.105511
vn 0.662817 0.741256 -0.105894
vn 0.662817 0.741256 -0.105894
vn 0.662817 0.741256 -0.105894
vn 0.449401 0.887077 -0.105511
vn 0.830355 0.547011 -0.106254
vn 0.662817 0.741256 -0.105894
vn 0.662817 0.741256 -0.105894
vn 0.662817 0.741256 -0.105894
vn 0.830355 0.547011 -0.106254
vn 0.830355 0.547011 -0.106254
vn 0.830355 0.547011 -0.106254
vn 0.830355 0.547011 -0.106254
vn 0.944909 0.309742 -0.105861
vn 0.944909 0.309742 -0.105861
vn 0.944909 0.309742 -0.105861
vn 0.830355 0.547011 -0.106254
vn 0.992630 0.058852 -0.105933
vn 0.944909 0.309742 -0.105861
vn 0.944909 0.309742 -0.105861
vn 0.944909 0.309742 -0.105861
vn 0.992630 0.058852 -0.105933
vn 0.992630 0.058852 -0.105933
vn 0.992630 0.058852 -0.105933
vn 0.992630 0.058852 -0.105933
vn 0.973778 -0.201063 -0.106445
vn 0.973778 -0.201063 -0.106445
vn 0.973778 -0.201063 -0.106445
vn 0.992630 0.058852 -0.105933
vn 0.885395 -0.452535 -0.106247
vn 0.973778 -0.201063 -0.106445
vn 0.973778 -0.201063 -0.106445
vn 0.973778 -0.201063 -0.106445
vn 0.885395 -0.452535 -0.106247
vn 0.885395 -0.452535 -0.106247
vn 0.885395 -0.452535 -0.106247
vn 0.885395 -0.452535 -0.106247
vn 0.737691 -0.666684 -0.106511
vn 0.737691 -0.666684 -0.106511
vn 0.737691 -0.666684 -0.106511
vn 0.885395 -0.452535 -0.106247
vn 0.541460 -0.833927 -0.106711
vn 0.737691 -0.666684 -0.106511
vn 0.737691 -0.666684 -0.106511
vn 0.737691 -0.666684 -0.106511
vn 0.541460 -0.833927 -0.106711
vn 0.541460 -0.833927 -0.106711
vn 0.541460 -0.833927 -0.106711
vn 0.541460 -0.833927 -0.106711
vn 0.302627 -0.947183 -0.106116
vn 0.302627 -0.947183 -0.106116
vn 0.302627 -0.947183 -0.106116
vn 0.541460 -0.833927 -0.106711
vn 0.051027 -0.993058 -0.105978
vn 0.302627 -0.947183 -0.106116
vn 0.302627 -0.947183 -0.106116
vn 0.302627 -0.947183 -0.106116
vn 0.051027 -0.993058 -0.105978
vn 0.051027 -0.993058 -0.105978
vn 0.051027 -0.993058 -0.105978
vn 0.051027 -0.993058 -0.105978
vn -0.208611 -0.972207 -0.106274
vn -0.208611 -0.972207 -0.106274
vn -0.208611 -0.972207 -0.106274
vn 0.051027 -0.993058 -0.105978
vn -0.458760 -0.882231 -0.105868
vn -0.208611 -0.972207 -0.106274
vn -0.208611 -0.972207 -0.106274
vn -0.208611 -0.972207 -0.106274
vn -0.458760 -0.882231 -0.105868
vn -0.458760 -0.882231 -0.105868
vn -0.458760 -0.882231 -0.105868
vn -0.458760 -0.882231 -0.105868
vn -0.671032 -0.733819 -0.105952
vn -0.671032 -0.733819 -0.105952
vn -0.671032 -0.733819 -0.105952
vn -0.458760 -0.882231 -0.105868
vt 0.092773 0.097168
vt 0.016220 0.097168
vt 0.016220 0.904419
vt 0.016220 0.904419
vt 0.092773 0.904419
vt 0.092773 0.097168
vt 0.172852 0.097168
vt 0.092773 0.097168
vt 0.092773 0.904419
vt 0.092773 0.904419
vt 0.172852 0.904419
vt 0.172852 0.097168
vt 0.252930 0.097168
vt 0.172852 0.097168
vt 0.172852 0.904419
vt 0.172852 0.904419
vt 0.252930 0.904419
vt 0.252930 0.097168
vt 0.333008 0.097168
vt 0.252930 0.097168
vt 0.252930 0.904419
vt 0.252930 0.904419
vt 0.333008 0.904419
vt 0.333008 0.097168
vt 0.413086 0.097168
vt 0.333008 0.097168
vt 0.333008 0.904419
vt 0.333008 0.904419
vt 0.413086 0.904419
vt 0.413086 0.097168
vt 0.493164 0.097168
vt 0.413086 0.097168
vt 0.413086 0.904419
vt 0.413086 0.904419
vt 0.493164 0.904419
vt 0.493164 0.097168
vt 0.573242 0.097168
vt 0.493164 0.097168
vt 0.493164 0.904419
vt 0.493164 0.904419
vt 0.573242 0.904419
vt 0.573242 0.097168
vt 0.653320 0.097168
vt 0.573242 0.097168
vt 0.573242 0.904419
vt 0.573242 0.904419
vt 0.653320 0.904419
vt 0.653320 0.097168
vt 0.733398 0.097168
vt 0.653320 0.097168
vt 0.653320 0.904419
vt 0.653320 0.904419
vt 0.733398 0.904419
vt 0.733398 0.097168
vt 0.813477 0.097168
vt 0.733398 0.097168
vt 0.733398 0.904419
vt 0.733398 0.904419
vt 0.813477 0.904419
vt 0.813477 0.097168
vt 0.893555 0.097168
vt 0.813477 0.097168
vt 0.813477 0.904419
vt 0.813477 0.904419
vt 0.893555 0.904419
vt 0.893555 0.097168
vt 0.984375 0.097168
vt 0.893555 0.097168
vt 0.893555 0.904419
vt 0.893555 0.904419
vt 0.984375 0.904419
vt 0.984375 0.097168
vt 0.054504 0.904419
vt 0.016220 0.904419
vt 0.016220 0.097168
vt 0.016220 0.097168
vt 0.054504 0.097168
vt 0.054504 0.904419
vt 0.054504 0.904419
vt 0.054504 0.097168
vt 0.092773 0.097168
vt 0.092773 0.097168
vt 0.092773 0.904419
vt 0.054504 0.904419
vt 0.132812 0.904419
vt 0.092773 0.904419
vt 0.092773 0.097168
vt 0.092773 0.097168
vt 0.132812 0.097168
vt 0.132812 0.904419
vt 0.132812 0.904419
vt 0.132812 0.097168
vt 0.172852 0.097168
vt 0.172852 0.097168
vt 0.172852 0.904419
vt 0.132812 0.904419
vt 0.212891 0.904419
vt 0.172852 0.904419
vt 0.172852 0.097168
vt 0.172852 0.097168
vt 0.212891 0.097168
vt 0.212891 0.904419
vt 0.212891 0.904419
vt 0.212891 0.097168
vt 0.252930 0.097168
vt 0.252930 0.097168
vt 0.252930 0.904419
vt 0.212891 0.904419
vt 0.292969 0.904419
vt 0.252930 0.904419
vt 0.252930 0.097168
vt 0.252930 0.097168
vt 0.292969 0.097168
vt 0.292969 0.904419
vt 0.292969 0.904419
vt 0.292969 0.097168
vt 0.333008 0.097168
vt 0.333008 0.097168
vt 0.333008 0.904419
vt 0.292969 0.904419
vt 0.373047 0.904419
vt 0.333008 0.904419
vt 0.333008 0.097168
vt 0.333008 0.097168
vt 0.373047 0.097168
vt 0.373047 0.904419
vt 0.373047 0.904419
vt 0.373047 0.097168
vt 0.413086 0.097168
vt 0.413086 0.097168
vt 0.413086 0.904419
vt 0.373047 0.904419
vt 0.453125 0.904419
vt 0.413086 0.904419
vt 0.413086 0.097168
vt 0.413086 0.097168
vt 0.453125 0.097168
vt 0.453125 0.904419
vt 0.453125 0.904419
vt 0.453125 0.097168
vt 0.493164 0.097168
vt 0.493164 0.097168
vt 0.493164 0.904419
vt 0.453125 0.904419
vt 0.533203 0.904419
vt 0.493164 0.904419
vt 0.493164 0.097168
vt 0.493164 0.097168
vt 0.533203 0.097168
vt 0.533203 0.904419
vt 0.533203 0.904419
vt 0.533203 0.097168
vt 0.573242 0.097168
vt 0.573242 0.097168
vt 0.573242 0.904419
vt 0.533203 0.904419
vt 0.613281 0.904419
vt 0.573242 0.904419
vt 0.573242 0.097168
vt 0.573242 0.097168
vt 0.613281 0.097168
vt 0.613281 0.904419
vt 0.613281 0.904419
vt 0.613281 0.097168
vt 0.653320 0.097168
vt 0.653320 0.097168
vt 0.653320 0.904419
vt 0.613281 0.904419
vt 0.693359 0.904419
vt 0.653320 0.904419
vt 0.653320 0.097168
vt 0.653320 0.097168
vt 0.693359 0.097168
vt 0.693359 0.904419
vt 0.693359 0.904419
vt 0.693359 0.097168
vt 0.733398 0.097168
vt 0.733398 0.097168
vt 0.733398 0.904419
vt 0.693359 0.904419
vt 0.773438 0.904419
vt 0.733398 0.904419
vt 0.733398 0.097168
vt 0.733398 0.097168
vt 0.773438 0.097168
vt 0.773438 0.904419
vt 0.773438 0.904419
vt 0.773438 0.097168
vt 0.813477 0.097168
vt 0.813477 0.097168
vt 0.813477 0.904419
vt 0.773438 0.904419
vt 0.853516 0.904419
vt 0.813477 0.904419
vt 0.813477 0.097168
vt 0.813477 0.097168
vt 0.853516 0.097168
vt 0.853516 0.904419
vt 0.853516 0.904419
vt 0.853516 0.097168
vt 0.893555 0.097168
vt 0.893555 0.097168
vt 0.893555 0.904419
vt 0.853516 0.904419
vt 0.938965 0.904419
vt 0.893555 0.904419
vt 0.893555 0.097168
vt 0.893555 0.097168
vt 0.938965 0.097168
vt 0.938965 0.904419
vt 0.938965 0.904419
vt 0.938965 0.097168
vt 0.984375 0.097168
vt 0.984375 0.097168
vt 0.984375 0.904419
vt 0.938965 0.904419
f 1/1/1 2/2/2 3/3/3
f 4/4/4 5/5/5 6/6/6
f 7/7/7 8/8/8 9/9/9
f 10/10/10 11/11/11 12/12/12
f 13/13/13 14/14/14 15/15/15
f 16/16/16 17/17/17 18/18/18
f 19/19/19 20/20/20 21/21/21
f 22/22/22 23/23/23 24/24/24
f 25/25/25 26/26/26 27/27/27
f 28/28/28 29/29/29 30/30/30
f 31/31/31 32/32/32 33/33/33
f 34/34/34 35/35/35 36/36/36
f 37/37/37 38/38/38 39/39/39
f 40/40/40 41/41/41 42/42/42
f 43/43/43 44/44/44 45/45/45
f 46/46/46 47/47/47 48/48/48
f 49/49/49 50/50/50 51/51/51
f 52/52/52 53/53/53 54/54/54
f 55/55/55 56/56/56 57/57/57
f 58/58/58 59/59/59 60/60/60
f 61/61/61 62/62/62 63/63/63
f 64/64/64 65/65/65 66/66/66
f 67/67/67 68/68/68 69/69/69
f 70/70/70 71/71/71 72/72/72
f 73/73/73 74/74/74 75/75/75
f 76/76/76 77/77/77 78/78/78
f 79/79/79 80/80/80 81/81/81
f 82/82/82 83/83/83 84/84/84
f 85/85/85 86/86/86 87/87/87
f 88/88/88 89/89/89 90/90/90
f 91/91/91 92/92/92 93/93/93
f 94/94/94 95/95/95 96/96/96
f 97/97/97 98/98/98 99/99/99
f 100/100/100 101/101/101 102/102/102
f 103/103/103 104/104/104 105/105/105
f 106/106/106 107/107/107 108/108/108
f 109/109/109 110/110/110 111/111/111
f 112/112/112 113/113/113 114/114/114
f 115/115/115 116/116/116 117/117/117
f 118/118/118 119/119/119 120/120/120
f 121/121/121 122/122/122 123/123/123
f 124/124/124 125/125/125 126/126/126
f 127/127/127 128/128/128 129/129/129
f 130/130/130 131/131/131 132/132/132
f 133/133/133 134/134/134 135/135/135
f 136/136/136 137/137/137 138/138/138
f 139/139/139 140/140/140 141/141/141
f 142/142/142 143/143/143 144/144/144
f 145/145/145 146/146/146 147/147/147
f 148/148/148 149/149/149 150/150/150
f 151/151/151 152/152/152 153/153/153
f 154/154/154 155/155/155 156/156/156
f 157/157/157 158/158/158 159/159/159
f 160/160/160 161/161/161 162/162/162
f 163/163/163 164/164/164 165/165/165
f 166/166/166 167/167/167 168/168/168
f 169/169/169 170/170/170 171/171/171
f 172/172/172 173/173/173 174/174/174
f 175/175/175 176/176/176 177/177/177
f 178/178/178 179/179/179 180/180/180
f 181/181/181 182/182/182 183/183/183
f 184/184/184 185/185/185 186/186/186
f 187/187/187 188/188/188 189/189/189
f 190/190/190 191/191/191 192/192/192
f 193/193/193 194/194/194 195/195/195
f 196/196/196 197/197/197 198/198/198
f 199/199/199 200/200/200 201/201/201
f 202/202/202 203/203/203 204/204/204
f 205/205/205 206/206/206 207/207/207
f 208/208/208 209/209/209 210/210/210
f 211/211/211 212/212/212 213/213/213
f 214/214/214 215/215/215 216/216/216
