# OBJ file
v 911.375300 2013.715200 465.192930
v 906.909800 2019.584600 465.192930
v 904.877800 2016.958900 428.727720
v 904.877800 2016.958900 428.727720
v 908.302730 2012.457300 428.727720
v 911.375300 2013.715200 465.192930
v 912.307740 2006.399200 465.192930
v 911.375300 2013.715200 465.192930
v 908.302730 2012.457300 428.727720
v 908.302730 2012.457300 428.727720
v 909.017940 2006.846200 428.727720
v 912.307740 2006.399200 465.192930
v 909.457400 1999.597200 465.192930
v 912.307740 2006.399200 465.192930
v 909.017940 2006.846200 428.727720
v 909.017940 2006.846200 428.727720
v 906.831850 2001.629300 428.727720
v 909.457400 1999.597200 465.192930
v 903.587900 1995.131700 465.192930
v 909.457400 1999.597200 465.192930
v 906.831850 2001.629300 428.727720
v 906.831850 2001.629300 428.727720
v 902.330100 1998.204500 428.727720
v 903.587900 1995.131700 465.192930
v 896.272100 1994.199300 465.192930
v 903.587900 1995.131700 465.192930
v 902.330100 1998.204500 428.727720
v 902.330100 1998.204500 428.727720
v 896.718930 1997.489300 428.727720
v 896.272100 1994.199300 465.192930
v 889.470030 1997.049700 465.192930
v 896.272100 1994.199300 465.192930
v 896.718930 1997.489300 428.727720
v 896.718930 1997.489300 428.727720
v 891.502140 1999.675200 428.727720
v 889.470030 1997.049700 465.192930
v 885.004600 2002.919200 465.192930
v 889.470030 1997.049700 465.192930
v 891.502140 1999.675200 428.727720
v 891.502140 1999.675200 428.727720
v 888.077200 2004.177000 428.727720
v 885.004600 2002.919200 465.192930
v 884.072140 2010.235100 465.192930
v 885.004600 2002.919200 465.192930
v 888.077200 2004.177000 428.727720
v 888.077200 2004.177000 428.727720
v 887.362000 2009.788200 428.727720
v 884.072140 2010.235100 465.192930
v 886.922500 2017.037100 465.192930
v 884.072140 2010.235100 465.192930
v 887.362000 2009.788200 428.727720
v 887.362000 2009.788200 428.727720
v 889.548200 2015.005000 428.727720
v 886.922500 2017.037100 465.192930
v 892.792050 2021.502600 465.192930
v 886.922500 2017.037100 465.192930
v 889.548200 2015.005000 428.727720
v 889.548200 2015.005000 428.727720
v 894.049870 2018.429800 428.727720
v 892.792050 2021.502600 465.192930
v 900.107850 2022.434900 465.192930
v 892.792050 2021.502600 465.192930
v 894.049870 2018.429800 428.727720
v 894.049870 2018.429800 428.727720
v 899.660900 2019.145000 428.727720
v 900.107850 2022.434900 465.192930
v 906.909800 2019.584600 465.192930
v 900.107850 2022.434900 465.192930
v 899.660900 2019.145000 428.727720
v 899.660900 2019.145000 428.727720
v 904.877800 2016.958900 428.727720
v 906.909800 2019.584600 465.192930
v 908.009030 2015.787400 428.727720
v 905.657200 2017.966100 428.727720
v 907.925960 2020.897700 465.192930
v 907.925960 2020.897700 465.192930
v 910.992400 2018.057100 465.192930
v 908.009030 2015.787400 428.727720
v 908.009030 2015.787400 428.727720
v 910.992400 2018.057100 465.192930
v 912.911870 2014.344100 465.192930
v 912.911870 2014.344100 465.192930
v 909.481140 2012.939600 428.727720
v 908.009030 2015.787400 428.727720
v 910.428700 2009.877200 428.727720
v 909.481140 2012.939600 428.727720
v 912.911870 2014.344100 465.192930
v 912.911870 2014.344100 465.192930
v 914.147160 2010.351200 465.192930
v 910.428700 2009.877200 428.727720
v 910.428700 2009.877200 428.727720
v 914.147160 2010.351200 465.192930
v 913.953060 2006.175700 465.192930
v 913.953060 2006.175700 465.192930
v 910.279800 2006.674700 428.727720
v 910.428700 2009.877200 428.727720
v 909.569000 2003.548700 428.727720
v 910.279800 2006.674700 428.727720
v 913.953060 2006.175700 465.192930
v 913.953060 2006.175700 465.192930
v 913.026250 2002.100000 465.192930
v 909.569000 2003.548700 428.727720
v 909.569000 2003.548700 428.727720
v 913.026250 2002.100000 465.192930
v 910.770500 1998.581000 465.192930
v 910.770500 1998.581000 465.192930
v 907.838900 2000.849700 428.727720
v 909.569000 2003.548700 428.727720
v 905.660300 1998.497900 428.727720
v 907.838900 2000.849700 428.727720
v 910.770500 1998.581000 465.192930
v 910.770500 1998.581000 465.192930
v 907.929930 1995.514800 465.192930
v 905.660300 1998.497900 428.727720
v 905.660300 1998.497900 428.727720
v 907.929930 1995.514800 465.192930
v 904.217000 1993.595300 465.192930
v 904.217000 1993.595300 465.192930
v 902.812560 1997.025900 428.727720
v 905.660300 1998.497900 428.727720
v 899.749940 1996.078500 428.727720
v 902.812560 1997.025900 428.727720
v 904.217000 1993.595300 465.192930
v 904.217000 1993.595300 465.192930
v 900.223900 1992.360100 465.192930
v 899.749940 1996.078500 428.727720
v 899.749940 1996.078500 428.727720
v 900.223900 1992.360100 465.192930
v 896.048600 1992.554000 465.192930
v 896.048600 1992.554000 465.192930
v 896.547600 1996.227300 428.727720
v 899.749940 1996.078500 428.727720
v 893.421600 1996.938200 428.727720
v 896.547600 1996.227300 428.727720
v 896.048600 1992.554000 465.192930
v 896.048600 1992.554000 465.192930
v 891.972800 1993.481000 465.192930
v 893.421600 1996.938200 428.727720
v 893.421600 1996.938200 428.727720
v 891.972800 1993.481000 465.192930
v 888.453900 1995.736600 465.192930
v 888.453900 1995.736600 465.192930
v 890.722700 1998.668200 428.727720
v 893.421600 1996.938200 428.727720
v 888.370900 2000.846900 428.727720
v 890.722700 1998.668200 428.727720
v 888.453900 1995.736600 465.192930
v 888.453900 1995.736600 465.192930
v 885.387600 1998.577100 465.192930
v 888.370900 2000.846900 428.727720
v 888.370900 2000.846900 428.727720
v 885.387600 1998.577100 465.192930
v 883.468000 2002.290300 465.192930
v 883.468000 2002.290300 465.192930
v 886.898700 2003.694600 428.727720
v 888.370900 2000.846900 428.727720
v 885.951230 2006.757100 428.727720
v 886.898700 2003.694600 428.727720
v 883.468000 2002.290300 465.192930
v 883.468000 2002.290300 465.192930
v 882.232700 2006.283200 465.192930
v 885.951230 2006.757100 428.727720
v 885.951230 2006.757100 428.727720
v 882.232700 2006.283200 465.192930
v 882.426940 2010.458600 465.192930
v 882.426940 2010.458600 465.192930
v 886.100200 2009.959700 428.727720
v 885.951230 2006.757100 428.727720
v 886.811040 2013.085600 428.727720
v 886.100200 2009.959700 428.727720
v 882.426940 2010.458600 465.192930
v 882.426940 2010.458600 465.192930
v 883.353640 2014.534300 465.192930
v 886.811040 2013.085600 428.727720
v 886.811040 2013.085600 428.727720
v 883.353640 2014.534300 465.192930
v 885.609500 2018.053300 465.192930
v 885.609500 2018.053300 465.192930
v 888.541140 2015.784300 428.727720
v 886.811040 2013.085600 428.727720
v 890.719670 2018.136400 428.727720
v 888.541140 2015.784300 428.727720
v 885.609500 2018.053300 465.192930
v 885.609500 2018.053300 465.192930
v 888.449900 2021.119500 465.192930
v 890.719670 2018.136400 428.727720
v 890.719670 2018.136400 428.727720
v 888.449900 2021.119500 465.192930
v 892.162960 2023.039000 465.192930
v 892.162960 2023.039000 465.192930
v 893.567400 2019.608400 428.727720
v 890.719670 2018.136400 428.727720
v 896.630000 2020.555800 428.727720
v 893.567400 2019.608400 428.727720
v 892.162960 2023.039000 465.192930
v 892.162960 2023.039000 465.192930
v 896.156070 2024.274200 465.192930
v 896.630000 2020.555800 428.727720
v 896.630000 2020.555800 428.727720
v 896.156070 2024.274200 465.192930
v 900.331360 2024.080100 465.192930
v 900.331360 2024.080100 465.192930
v 899.832340 2020.406900 428.727720
v 896.630000 2020.555800 428.727720
v 902.958400 2019.696000 428.727720
v 899.832340 2020.406900 428.727720
v 900.331360 2024.080100 465.192930
v 900.331360 2024.080100 465.192930
v 904.407170 2023.153300 465.192930
v 902.958400 2019.696000 428.727720
v 902.958400 2019.696000 428.727720
v 904.407170 2023.153300 465.192930
v 907.925960 2020.897700 465.192930
v 907.925960 2020.897700 465.192930
v 905.657200 2017.966100 428.727720
v 902.958400 2019.696000 428.727720
vn -0.924463 -0.370565 0.089716
vn -0.616854 -0.781873 0.090367
vn -0.616854 -0.781873 0.090367
vn -0.616854 -0.781873 0.090367
vn -0.924463 -0.370565 0.089716
vn -0.924463 -0.370565 0.089716
vn -0.986574 0.136483 0.089689
vn -0.924463 -0.370565 0.089716
vn -0.924463 -0.370565 0.089716
vn -0.924463 -0.370565 0.089716
vn -0.986574 0.136483 0.089689
vn -0.986574 0.136483 0.089689
vn -0.784899 0.613080 0.089814
vn -0.986574 0.136483 0.089689
vn -0.986574 0.136483 0.089689
vn -0.986574 0.136483 0.089689
vn -0.784899 0.613080 0.089814
vn -0.784899 0.613080 0.089814
vn -0.377266 0.921774 0.089455
vn -0.784899 0.613080 0.089814
vn -0.784899 0.613080 0.089814
vn -0.784899 0.613080 0.089814
vn -0.377266 0.921774 0.089455
vn -0.377266 0.921774 0.089455
vn 0.128817 0.987596 0.089782
vn -0.377266 0.921774 0.089455
vn -0.377266 0.921774 0.089455
vn -0.377266 0.921774 0.089455
vn 0.128817 0.987596 0.089782
vn 0.128817 0.987596 0.089782
vn 0.608171 0.788660 0.090245
vn 0.128817 0.987596 0.089782
vn 0.128817 0.987596 0.089782
vn 0.128817 0.987596 0.089782
vn 0.608171 0.788660 0.090245
vn 0.608171 0.788660 0.090245
vn 0.920592 0.379989 0.090101
vn 0.608171 0.788660 0.090245
vn 0.608171 0.788660 0.090245
vn 0.608171 0.788660 0.090245
vn 0.920592 0.379989 0.090101
vn 0.920592 0.379989 0.090101
vn 0.987401 -0.129818 0.090479
vn 0.920592 0.379989 0.090101
vn 0.920592 0.379989 0.090101
vn 0.920592 0.379989 0.090101
vn 0.987401 -0.129818 0.090479
vn 0.987401 -0.129818 0.090479
vn 0.785666 -0.611951 0.090806
vn 0.987401 -0.129818 0.090479
vn 0.987401 -0.129818 0.090479
vn 0.987401 -0.129818 0.090479
vn 0.785666 -0.611951 0.090806
vn 0.785666 -0.611951 0.090806
vn 0.373256 -0.923317 0.090367
vn 0.785666 -0.611951 0.090806
vn 0.785666 -0.611951 0.090806
vn 0.785666 -0.611951 0.090806
vn 0.373256 -0.923317 0.090367
vn 0.373256 -0.923317 0.090367
vn -0.137541 -0.986364 0.090384
vn 0.373256 -0.923317 0.090367
vn 0.373256 -0.923317 0.090367
vn 0.373256 -0.923317 0.090367
vn -0.137541 -0.986364 0.090384
vn -0.137541 -0.986364 0.090384
vn -0.616854 -0.781873 0.090367
vn -0.137541 -0.986364 0.090384
vn -0.137541 -0.986364 0.090384
vn -0.137541 -0.986364 0.090384
vn -0.616854 -0.781873 0.090367
vn -0.616854 -0.781873 0.090367
vn 0.787449 0.607236 -0.105777
vn 0.607237 0.787449 -0.105777
vn 0.607237 0.787449 -0.105777
vn 0.607237 0.787449 -0.105777
vn 0.787449 0.607236 -0.105777
vn 0.787449 0.607236 -0.105777
vn 0.787449 0.607236 -0.105777
vn 0.787449 0.607236 -0.105777
vn 0.917956 0.382153 -0.106373
vn 0.917956 0.382153 -0.106373
vn 0.917956 0.382153 -0.106373
vn 0.787449 0.607236 -0.105777
vn 0.985877 0.129617 -0.106050
vn 0.917956 0.382153 -0.106373
vn 0.917956 0.382153 -0.106373
vn 0.917956 0.382153 -0.106373
vn 0.985877 0.129617 -0.106050
vn 0.985877 0.129617 -0.106050
vn 0.985877 0.129617 -0.106050
vn 0.985877 0.129617 -0.106050
vn 0.985877 -0.129617 -0.106050
vn 0.985877 -0.129617 -0.106050
vn 0.985877 -0.129617 -0.106050
vn 0.985877 0.129617 -0.106050
vn 0.917956 -0.382153 -0.106373
vn 0.985877 -0.129617 -0.106050
vn 0.985877 -0.129617 -0.106050
vn 0.985877 -0.129617 -0.106050
vn 0.917956 -0.382153 -0.106373
vn 0.917956 -0.382153 -0.106373
vn 0.917956 -0.382153 -0.106373
vn 0.917956 -0.382153 -0.106373
vn 0.784444 -0.610999 -0.106432
vn 0.784444 -0.610999 -0.106432
vn 0.784444 -0.610999 -0.106432
vn 0.917956 -0.382153 -0.106373
vn 0.602255 -0.791198 -0.106280
vn 0.784444 -0.610999 -0.106432
vn 0.784444 -0.610999 -0.106432
vn 0.784444 -0.610999 -0.106432
vn 0.602255 -0.791198 -0.106280
vn 0.602255 -0.791198 -0.106280
vn 0.602255 -0.791198 -0.106280
vn 0.602255 -0.791198 -0.106280
vn 0.375394 -0.920704 -0.106691
vn 0.375394 -0.920704 -0.106691
vn 0.375394 -0.920704 -0.106691
vn 0.602255 -0.791198 -0.106280
vn 0.121882 -0.986851 -0.106155
vn 0.375394 -0.920704 -0.106691
vn 0.375394 -0.920704 -0.106691
vn 0.375394 -0.920704 -0.106691
vn 0.121882 -0.986851 -0.106155
vn 0.121882 -0.986851 -0.106155
vn 0.121882 -0.986851 -0.106155
vn 0.121882 -0.986851 -0.106155
vn -0.137329 -0.984844 -0.105939
vn -0.137329 -0.984844 -0.105939
vn -0.137329 -0.984844 -0.105939
vn 0.121882 -0.986851 -0.106155
vn -0.388852 -0.915176 -0.106050
vn -0.137329 -0.984844 -0.105939
vn -0.137329 -0.984844 -0.105939
vn -0.137329 -0.984844 -0.105939
vn -0.388852 -0.915176 -0.106050
vn -0.388852 -0.915176 -0.106050
vn -0.388852 -0.915176 -0.106050
vn -0.388852 -0.915176 -0.106050
vn -0.615904 -0.780668 -0.105920
vn -0.615904 -0.780668 -0.105920
vn -0.615904 -0.780668 -0.105920
vn -0.388852 -0.915176 -0.106050
vn -0.794115 -0.598520 -0.105621
vn -0.615904 -0.780668 -0.105920
vn -0.615904 -0.780668 -0.105920
vn -0.615904 -0.780668 -0.105920
vn -0.794115 -0.598520 -0.105621
vn -0.794115 -0.598520 -0.105621
vn -0.794115 -0.598520 -0.105621
vn -0.794115 -0.598520 -0.105621
vn -0.921895 -0.372681 -0.105920
vn -0.921895 -0.372681 -0.105920
vn -0.921895 -0.372681 -0.105920
vn -0.794115 -0.598520 -0.105621
vn -0.987054 -0.120943 -0.105338
vn -0.921895 -0.372681 -0.105920
vn -0.921895 -0.372681 -0.105920
vn -0.921895 -0.372681 -0.105920
vn -0.987054 -0.120943 -0.105338
vn -0.987054 -0.120943 -0.105338
vn -0.987054 -0.120943 -0.105338
vn -0.987054 -0.120943 -0.105338
vn -0.985077 0.136275 -0.105127
vn -0.985077 0.136275 -0.105127
vn -0.985077 0.136275 -0.105127
vn -0.987054 -0.120943 -0.105338
vn -0.916439 0.386074 -0.105293
vn -0.985077 0.136275 -0.105127
vn -0.985077 0.136275 -0.105127
vn -0.985077 0.136275 -0.105127
vn -0.916439 0.386074 -0.105293
vn -0.916439 0.386074 -0.105293
vn -0.916439 0.386074 -0.105293
vn -0.916439 0.386074 -0.105293
vn -0.783705 0.612147 -0.105274
vn -0.783705 0.612147 -0.105274
vn -0.783705 0.612147 -0.105274
vn -0.916439 0.386074 -0.105293
vn -0.603506 0.790398 -0.105127
vn -0.783705 0.612147 -0.105274
vn -0.783705 0.612147 -0.105274
vn -0.783705 0.612147 -0.105274
vn -0.603506 0.790398 -0.105127
vn -0.603506 0.790398 -0.105127
vn -0.603506 0.790398 -0.105127
vn -0.603506 0.790398 -0.105127
vn -0.379407 0.919183 -0.105608
vn -0.379407 0.919183 -0.105608
vn -0.379407 0.919183 -0.105608
vn -0.603506 0.790398 -0.105127
vn -0.128621 0.986094 -0.105235
vn -0.379407 0.919183 -0.105608
vn -0.379407 0.919183 -0.105608
vn -0.379407 0.919183 -0.105608
vn -0.128621 0.986094 -0.105235
vn -0.128621 0.986094 -0.105235
vn -0.128621 0.986094 -0.105235
vn -0.128621 0.986094 -0.105235
vn 0.128621 0.986094 -0.105235
vn 0.128621 0.986094 -0.105235
vn 0.128621 0.986094 -0.105235
vn -0.128621 0.986094 -0.105235
vn 0.379407 0.919183 -0.105608
vn 0.128621 0.986094 -0.105235
vn 0.128621 0.986094 -0.105235
vn 0.128621 0.986094 -0.105235
vn 0.379407 0.919183 -0.105608
vn 0.379407 0.919183 -0.105608
vn 0.379407 0.919183 -0.105608
vn 0.379407 0.919183 -0.105608
vn 0.607237 0.787449 -0.105777
vn 0.607237 0.787449 -0.105777
vn 0.607237 0.787449 -0.105777
vn 0.379407 0.919183 -0.105608
vt 0.092773 0.097168
vt 0.016220 0.097168
vt 0.016220 0.904419
vt 0.016220 0.904419
vt 0.092773 0.904419
vt 0.092773 0.097168
vt 0.172852 0.097168
vt 0.092773 0.097168
vt 0.092773 0.904419
vt 0.092773 0.904419
vt 0.172852 0.904419
vt 0.172852 0.097168
vt 0.252930 0.097168
vt 0.172852 0.097168
vt 0.172852 0.904419
vt 0.172852 0.904419
vt 0.252930 0.904419
vt 0.252930 0.097168
vt 0.333008 0.097168
vt 0.252930 0.097168
vt 0.252930 0.904419
vt 0.252930 0.904419
vt 0.333008 0.904419
vt 0.333008 0.097168
vt 0.413086 0.097168
vt 0.333008 0.097168
vt 0.333008 0.904419
vt 0.333008 0.904419
vt 0.413086 0.904419
vt 0.413086 0.097168
vt 0.493164 0.097168
vt 0.413086 0.097168
vt 0.413086 0.904419
vt 0.413086 0.904419
vt 0.493164 0.904419
vt 0.493164 0.097168
vt 0.573242 0.097168
vt 0.493164 0.097168
vt 0.493164 0.904419
vt 0.493164 0.904419
vt 0.573242 0.904419
vt 0.573242 0.097168
vt 0.653320 0.097168
vt 0.573242 0.097168
vt 0.573242 0.904419
vt 0.573242 0.904419
vt 0.653320 0.904419
vt 0.653320 0.097168
vt 0.733398 0.097168
vt 0.653320 0.097168
vt 0.653320 0.904419
vt 0.653320 0.904419
vt 0.733398 0.904419
vt 0.733398 0.097168
vt 0.813477 0.097168
vt 0.733398 0.097168
vt 0.733398 0.904419
vt 0.733398 0.904419
vt 0.813477 0.904419
vt 0.813477 0.097168
vt 0.893555 0.097168
vt 0.813477 0.097168
vt 0.813477 0.904419
vt 0.813477 0.904419
vt 0.893555 0.904419
vt 0.893555 0.097168
vt 0.984375 0.097168
vt 0.893555 0.097168
vt 0.893555 0.904419
vt 0.893555 0.904419
vt 0.984375 0.904419
vt 0.984375 0.097168
vt 0.054504 0.904419
vt 0.016220 0.904419
vt 0.016220 0.097168
vt 0.016220 0.097168
vt 0.054504 0.097168
vt 0.054504 0.904419
vt 0.054504 0.904419
vt 0.054504 0.097168
vt 0.092773 0.097168
vt 0.092773 0.097168
vt 0.092773 0.904419
vt 0.054504 0.904419
vt 0.132812 0.904419
vt 0.092773 0.904419
vt 0.092773 0.097168
vt 0.092773 0.097168
vt 0.132812 0.097168
vt 0.132812 0.904419
vt 0.132812 0.904419
vt 0.132812 0.097168
vt 0.172852 0.097168
vt 0.172852 0.097168
vt 0.172852 0.904419
vt 0.132812 0.904419
vt 0.212891 0.904419
vt 0.172852 0.904419
vt 0.172852 0.097168
vt 0.172852 0.097168
vt 0.212891 0.097168
vt 0.212891 0.904419
vt 0.212891 0.904419
vt 0.212891 0.097168
vt 0.252930 0.097168
vt 0.252930 0.097168
vt 0.252930 0.904419
vt 0.212891 0.904419
vt 0.292969 0.904419
vt 0.252930 0.904419
vt 0.252930 0.097168
vt 0.252930 0.097168
vt 0.292969 0.097168
vt 0.292969 0.904419
vt 0.292969 0.904419
vt 0.292969 0.097168
vt 0.333008 0.097168
vt 0.333008 0.097168
vt 0.333008 0.904419
vt 0.292969 0.904419
vt 0.373047 0.904419
vt 0.333008 0.904419
vt 0.333008 0.097168
vt 0.333008 0.097168
vt 0.373047 0.097168
vt 0.373047 0.904419
vt 0.373047 0.904419
vt 0.373047 0.097168
vt 0.413086 0.097168
vt 0.413086 0.097168
vt 0.413086 0.904419
vt 0.373047 0.904419
vt 0.453125 0.904419
vt 0.413086 0.904419
vt 0.413086 0.097168
vt 0.413086 0.097168
vt 0.453125 0.097168
vt 0.453125 0.904419
vt 0.453125 0.904419
vt 0.453125 0.097168
vt 0.493164 0.097168
vt 0.493164 0.097168
vt 0.493164 0.904419
vt 0.453125 0.904419
vt 0.533203 0.904419
vt 0.493164 0.904419
vt 0.493164 0.097168
vt 0.493164 0.097168
vt 0.533203 0.097168
vt 0.533203 0.904419
vt 0.533203 0.904419
vt 0.533203 0.097168
vt 0.573242 0.097168
vt 0.573242 0.097168
vt 0.573242 0.904419
vt 0.533203 0.904419
vt 0.613281 0.904419
vt 0.573242 0.904419
vt 0.573242 0.097168
vt 0.573242 0.097168
vt 0.613281 0.097168
vt 0.613281 0.904419
vt 0.613281 0.904419
vt 0.613281 0.097168
vt 0.653320 0.097168
vt 0.653320 0.097168
vt 0.653320 0.904419
vt 0.613281 0.904419
vt 0.693359 0.904419
vt 0.653320 0.904419
vt 0.653320 0.097168
vt 0.653320 0.097168
vt 0.693359 0.097168
vt 0.693359 0.904419
vt 0.693359 0.904419
vt 0.693359 0.097168
vt 0.733398 0.097168
vt 0.733398 0.097168
vt 0.733398 0.904419
vt 0.693359 0.904419
vt 0.773438 0.904419
vt 0.733398 0.904419
vt 0.733398 0.097168
vt 0.733398 0.097168
vt 0.773438 0.097168
vt 0.773438 0.904419
vt 0.773438 0.904419
vt 0.773438 0.097168
vt 0.813477 0.097168
vt 0.813477 0.097168
vt 0.813477 0.904419
vt 0.773438 0.904419
vt 0.853516 0.904419
vt 0.813477 0.904419
vt 0.813477 0.097168
vt 0.813477 0.097168
vt 0.853516 0.097168
vt 0.853516 0.904419
vt 0.853516 0.904419
vt 0.853516 0.097168
vt 0.893555 0.097168
vt 0.893555 0.097168
vt 0.893555 0.904419
vt 0.853516 0.904419
vt 0.938965 0.904419
vt 0.893555 0.904419
vt 0.893555 0.097168
vt 0.893555 0.097168
vt 0.938965 0.097168
vt 0.938965 0.904419
vt 0.938965 0.904419
vt 0.938965 0.097168
vt 0.984375 0.097168
vt 0.984375 0.097168
vt 0.984375 0.904419
vt 0.938965 0.904419
f 1/1/1 2/2/2 3/3/3
f 4/4/4 5/5/5 6/6/6
f 7/7/7 8/8/8 9/9/9
f 10/10/10 11/11/11 12/12/12
f 13/13/13 14/14/14 15/15/15
f 16/16/16 17/17/17 18/18/18
f 19/19/19 20/20/20 21/21/21
f 22/22/22 23/23/23 24/24/24
f 25/25/25 26/26/26 27/27/27
f 28/28/28 29/29/29 30/30/30
f 31/31/31 32/32/32 33/33/33
f 34/34/34 35/35/35 36/36/36
f 37/37/37 38/38/38 39/39/39
f 40/40/40 41/41/41 42/42/42
f 43/43/43 44/44/44 45/45/45
f 46/46/46 47/47/47 48/48/48
f 49/49/49 50/50/50 51/51/51
f 52/52/52 53/53/53 54/54/54
f 55/55/55 56/56/56 57/57/57
f 58/58/58 59/59/59 60/60/60
f 61/61/61 62/62/62 63/63/63
f 64/64/64 65/65/65 66/66/66
f 67/67/67 68/68/68 69/69/69
f 70/70/70 71/71/71 72/72/72
f 73/73/73 74/74/74 75/75/75
f 76/76/76 77/77/77 78/78/78
f 79/79/79 80/80/80 81/81/81
f 82/82/82 83/83/83 84/84/84
f 85/85/85 86/86/86 87/87/87
f 88/88/88 89/89/89 90/90/90
f 91/91/91 92/92/92 93/93/93
f 94/94/94 95/95/95 96/96/96
f 97/97/97 98/98/98 99/99/99
f 100/100/100 101/101/101 102/102/102
f 103/103/103 104/104/104 105/105/105
f 106/106/106 107/107/107 108/108/108
f 109/109/109 110/110/110 111/111/111
f 112/112/112 113/113/113 114/114/114
f 115/115/115 116/116/116 117/117/117
f 118/118/118 119/119/119 120/120/120
f 121/121/121 122/122/122 123/123/123
f 124/124/124 125/125/125 126/126/126
f 127/127/127 128/128/128 129/129/129
f 130/130/130 131/131/131 132/132/132
f 133/133/133 134/134/134 135/135/135
f 136/136/136 137/137/137 138/138/138
f 139/139/139 140/140/140 141/141/141
f 142/142/142 143/143/143 144/144/144
f 145/145/145 146/146/146 147/147/147
f 148/148/148 149/149/149 150/150/150
f 151/151/151 152/152/152 153/153/153
f 154/154/154 155/155/155 156/156/156
f 157/157/157 158/158/158 159/159/159
f 160/160/160 161/161/161 162/162/162
f 163/163/163 164/164/164 165/165/165
f 166/166/166 167/167/167 168/168/168
f 169/169/169 170/170/170 171/171/171
f 172/172/172 173/173/173 174/174/174
f 175/175/175 176/176/176 177/177/177
f 178/178/178 179/179/179 180/180/180
f 181/181/181 182/182/182 183/183/183
f 184/184/184 185/185/185 186/186/186
f 187/187/187 188/188/188 189/189/189
f 190/190/190 191/191/191 192/192/192
f 193/193/193 194/194/194 195/195/195
f 196/196/196 197/197/197 198/198/198
f 199/199/199 200/200/200 201/201/201
f 202/202/202 203/203/203 204/204/204
f 205/205/205 206/206/206 207/207/207
f 208/208/208 209/209/209 210/210/210
f 211/211/211 212/212/212 213/213/213
f 214/214/214 215/215/215 216/216/216
