# OBJ file
v -1773.003800 1492.178300 405.474060
v -1773.029200 1493.100800 406.041560
v -1773.807100 1493.398400 406.041560
v -1773.807100 1493.398400 406.041560
v -1774.441700 1492.728400 405.474060
v -1773.003800 1492.178300 405.474060
v -1774.441700 1492.728400 405.474060
v -1773.807100 1493.398400 406.041560
v -1774.146900 1494.159200 406.041560
v -1772.986900 1491.561900 404.624730
v -1773.003800 1492.178300 405.474060
v -1774.441700 1492.728400 405.474060
v -1774.441700 1492.728400 405.474060
v -1774.865500 1492.280600 404.624730
v -1772.986900 1491.561900 404.624730
v -1774.146900 1494.159200 406.041560
v -1775.069200 1494.133900 405.474060
v -1774.441700 1492.728400 405.474060
v -1774.865500 1492.280600 404.624730
v -1774.441700 1492.728400 405.474060
v -1775.069200 1494.133900 405.474060
v -1775.069200 1494.133900 405.474060
v -1774.146900 1494.159200 406.041560
v -1773.849100 1494.937300 406.041600
v -1772.981200 1491.345600 403.622860
v -1772.986900 1491.561900 404.624730
v -1774.865500 1492.280600 404.624730
v -1774.865500 1492.280600 404.624730
v -1775.014400 1492.123400 403.622860
v -1772.981200 1491.345600 403.622860
v -1773.849100 1494.937300 406.041600
v -1774.519400 1495.571700 405.474100
v -1775.069200 1494.133900 405.474060
v -1774.519400 1495.571700 405.474100
v -1773.849100 1494.937300 406.041600
v -1773.088400 1495.277100 406.041600
v -1775.069200 1494.133900 405.474060
v -1775.685700 1494.117200 404.624730
v -1774.865500 1492.280600 404.624730
v -1775.685700 1494.117200 404.624730
v -1775.069200 1494.133900 405.474060
v -1774.519400 1495.571700 405.474100
v -1775.014400 1492.123400 403.622860
v -1774.865500 1492.280600 404.624730
v -1775.685700 1494.117200 404.624730
v -1773.088400 1495.277100 406.041600
v -1773.113800 1496.199500 405.474100
v -1774.519400 1495.571700 405.474100
v -1773.113800 1496.199500 405.474100
v -1773.088400 1495.277100 406.041600
v -1772.310400 1494.979200 406.041600
v -1772.981200 1491.345600 394.029140
v -1772.981200 1491.345600 403.622860
v -1775.014400 1492.123400 403.622860
v -1775.014400 1492.123400 403.622860
v -1775.014400 1492.123400 394.029140
v -1772.981200 1491.345600 394.029140
v -1775.014400 1492.123400 394.029140
v -1775.014400 1492.123400 403.622860
v -1775.902100 1494.111100 403.622900
v -1775.685700 1494.117200 404.624730
v -1775.902100 1494.111100 403.622900
v -1775.014400 1492.123400 403.622860
v -1775.902100 1494.111100 403.622900
v -1775.902100 1494.111100 394.029140
v -1775.014400 1492.123400 394.029140
v -1774.519400 1495.571700 405.474100
v -1774.967000 1495.995600 404.624760
v -1775.685700 1494.117200 404.624730
v -1775.902100 1494.111100 403.622900
v -1775.685700 1494.117200 404.624730
v -1774.967000 1495.995600 404.624760
v -1774.967000 1495.995600 404.624760
v -1774.519400 1495.571700 405.474100
v -1773.113800 1496.199500 405.474100
v -1775.902100 1494.111100 394.029140
v -1775.902100 1494.111100 403.622900
v -1775.124100 1496.144400 403.622900
v -1774.967000 1495.995600 404.624760
v -1775.124100 1496.144400 403.622900
v -1775.902100 1494.111100 403.622900
v -1775.124100 1496.144400 403.622900
v -1775.124100 1496.144400 394.029140
v -1775.902100 1494.111100 394.029140
v -1773.113800 1496.199500 405.474100
v -1773.130600 1496.815900 404.624760
v -1774.967000 1495.995600 404.624760
v -1775.124100 1496.144400 403.622900
v -1774.967000 1495.995600 404.624760
v -1773.130600 1496.815900 404.624760
v -1775.124100 1496.144400 394.029140
v -1775.124100 1496.144400 403.622900
v -1773.136400 1497.032200 403.622900
v -1773.130600 1496.815900 404.624760
v -1773.136400 1497.032200 403.622900
v -1775.124100 1496.144400 403.622900
v -1773.136400 1497.032200 403.622900
v -1773.136400 1497.032200 394.029140
v -1775.124100 1496.144400 394.029140
v -1773.130600 1496.815900 404.624760
v -1773.113800 1496.199500 405.474100
v -1771.675900 1495.649500 405.474100
v -1772.310400 1494.979200 406.041600
v -1771.675900 1495.649500 405.474100
v -1773.113800 1496.199500 405.474100
v -1771.675900 1495.649500 405.474100
v -1772.310400 1494.979200 406.041600
v -1771.970700 1494.218600 406.041560
v -1773.136400 1497.032200 403.622900
v -1773.130600 1496.815900 404.624760
v -1771.251800 1496.097300 404.624760
v -1771.675900 1495.649500 405.474100
v -1771.251800 1496.097300 404.624760
v -1773.130600 1496.815900 404.624760
v -1773.136400 1497.032200 394.029140
v -1773.136400 1497.032200 403.622900
v -1771.103100 1496.254500 403.622900
v -1771.251800 1496.097300 404.624760
v -1771.103100 1496.254500 403.622900
v -1773.136400 1497.032200 403.622900
v -1771.103100 1496.254500 403.622900
v -1771.103100 1496.254500 394.029140
v -1773.136400 1497.032200 394.029140
v -1771.970700 1494.218600 406.041560
v -1771.048300 1494.243900 405.474060
v -1771.675900 1495.649500 405.474100
v -1771.251800 1496.097300 404.624760
v -1771.675900 1495.649500 405.474100
v -1771.048300 1494.243900 405.474060
v -1771.048300 1494.243900 405.474060
v -1771.970700 1494.218600 406.041560
v -1772.268300 1493.440600 406.041560
v -1771.103100 1496.254500 403.622900
v -1771.251800 1496.097300 404.624760
v -1770.431900 1494.260700 404.624760
v -1771.048300 1494.243900 405.474060
v -1770.431900 1494.260700 404.624760
v -1771.251800 1496.097300 404.624760
v -1771.103100 1496.254500 394.029140
v -1771.103100 1496.254500 403.622900
v -1770.215300 1494.266700 403.622900
v -1770.431900 1494.260700 404.624760
v -1770.215300 1494.266700 403.622900
v -1771.103100 1496.254500 403.622900
v -1770.215300 1494.266700 403.622900
v -1770.215300 1494.266700 394.029140
v -1771.103100 1496.254500 394.029140
v -1772.268300 1493.440600 406.041560
v -1771.598000 1492.806200 405.474060
v -1771.048300 1494.243900 405.474060
v -1770.431900 1494.260700 404.624760
v -1771.048300 1494.243900 405.474060
v -1771.598000 1492.806200 405.474060
v -1771.598000 1492.806200 405.474060
v -1772.268300 1493.440600 406.041560
v -1773.029200 1493.100800 406.041560
v -1773.029200 1493.100800 406.041560
v -1773.003800 1492.178300 405.474060
v -1771.598000 1492.806200 405.474060
v -1771.598000 1492.806200 405.474060
v -1771.150400 1492.382200 404.624730
v -1770.431900 1494.260700 404.624760
v -1771.150400 1492.382200 404.624730
v -1771.598000 1492.806200 405.474060
v -1773.003800 1492.178300 405.474060
v -1770.215300 1494.266700 403.622900
v -1770.431900 1494.260700 404.624760
v -1771.150400 1492.382200 404.624730
v -1773.003800 1492.178300 405.474060
v -1772.986900 1491.561900 404.624730
v -1771.150400 1492.382200 404.624730
v -1771.150400 1492.382200 404.624730
v -1770.993300 1492.233400 403.622860
v -1770.215300 1494.266700 403.622900
v -1770.993300 1492.233400 403.622860
v -1771.150400 1492.382200 404.624730
v -1772.986900 1491.561900 404.624730
v -1770.215300 1494.266700 394.029140
v -1770.215300 1494.266700 403.622900
v -1770.993300 1492.233400 403.622860
v -1772.986900 1491.561900 404.624730
v -1772.981200 1491.345600 403.622860
v -1770.993300 1492.233400 403.622860
v -1770.993300 1492.233400 403.622860
v -1770.993300 1492.233400 394.029140
v -1770.215300 1494.266700 394.029140
v -1770.993300 1492.233400 394.029140
v -1770.993300 1492.233400 403.622860
v -1772.981200 1491.345600 403.622860
v -1772.981200 1491.345600 403.622860
v -1772.981200 1491.345600 394.029140
v -1770.993300 1492.233400 394.029140
vn 0.011784 -0.703119 0.710975
vn 0.003938 -0.397715 0.917501
vn -0.279218 -0.287084 0.916308
vn -0.279218 -0.287084 0.916308
vn -0.490188 -0.505875 0.709793
vn 0.011784 -0.703119 0.710975
vn -0.490188 -0.505875 0.709793
vn -0.279218 -0.287084 0.916308
vn -0.404313 -0.003925 0.914612
vn 0.019747 -0.920187 0.390981
vn 0.011784 -0.703119 0.710975
vn -0.490188 -0.505875 0.709793
vn -0.490188 -0.505875 0.709793
vn -0.639678 -0.663225 0.388516
vn 0.019747 -0.920187 0.390981
vn -0.404313 -0.003925 0.914612
vn -0.707058 -0.011719 0.707058
vn -0.490188 -0.505875 0.709793
vn -0.639678 -0.663225 0.388516
vn -0.490188 -0.505875 0.709793
vn -0.707058 -0.011719 0.707058
vn -0.707058 -0.011719 0.707058
vn -0.404313 -0.003925 0.914612
vn -0.294276 0.278581 0.914218
vn 0.019663 -0.994961 0.098316
vn 0.019747 -0.920187 0.390981
vn -0.639678 -0.663225 0.388516
vn -0.639678 -0.663225 0.388516
vn -0.687789 -0.719231 0.098256
vn 0.019663 -0.994961 0.098316
vn -0.294276 0.278581 0.914218
vn -0.511676 0.488240 0.706972
vn -0.707058 -0.011719 0.707058
vn -0.511676 0.488240 0.706972
vn -0.294276 0.278581 0.914218
vn -0.011775 0.404288 0.914556
vn -0.707058 -0.011719 0.707058
vn -0.921384 -0.019604 0.388158
vn -0.639678 -0.663225 0.388516
vn -0.921384 -0.019604 0.388158
vn -0.707058 -0.011719 0.707058
vn -0.511676 0.488240 0.706972
vn -0.687789 -0.719231 0.098256
vn -0.639678 -0.663225 0.388516
vn -0.921384 -0.019604 0.388158
vn -0.011775 0.404288 0.914556
vn -0.019530 0.706972 0.706972
vn -0.511676 0.488240 0.706972
vn -0.019530 0.706972 0.706972
vn -0.011775 0.404288 0.914556
vn 0.271319 0.294912 0.916195
vn 0.019759 -0.999797 -0.003952
vn 0.019663 -0.994961 0.098316
vn -0.687789 -0.719231 0.098256
vn -0.687789 -0.719231 0.098256
vn -0.691306 -0.722552 -0.003906
vn 0.019759 -0.999797 -0.003952
vn -0.691306 -0.722552 -0.003906
vn -0.687789 -0.719231 0.098256
vn -0.995039 -0.019511 0.097553
vn -0.921384 -0.019604 0.388158
vn -0.995039 -0.019511 0.097553
vn -0.687789 -0.719231 0.098256
vn -0.995039 -0.019511 0.097553
vn -0.999800 -0.019604 -0.003921
vn -0.691306 -0.722552 -0.003906
vn -0.511676 0.488240 0.706972
vn -0.667587 0.636355 0.386498
vn -0.921384 -0.019604 0.388158
vn -0.995039 -0.019511 0.097553
vn -0.921384 -0.019604 0.388158
vn -0.667587 0.636355 0.386498
vn -0.667587 0.636355 0.386498
vn -0.511676 0.488240 0.706972
vn -0.019530 0.706972 0.706972
vn -0.999800 -0.019604 -0.003921
vn -0.995039 -0.019511 0.097553
vn -0.722993 0.683912 0.097702
vn -0.667587 0.636355 0.386498
vn -0.722993 0.683912 0.097702
vn -0.995039 -0.019511 0.097553
vn -0.722993 0.683912 0.097702
vn -0.726253 0.687416 -0.003884
vn -0.999800 -0.019604 -0.003921
vn -0.019530 0.706972 0.706972
vn -0.027440 0.921215 0.388086
vn -0.667587 0.636355 0.386498
vn -0.722993 0.683912 0.097702
vn -0.667587 0.636355 0.386498
vn -0.027440 0.921215 0.388086
vn -0.726253 0.687416 -0.003884
vn -0.722993 0.683912 0.097702
vn -0.027310 0.994857 0.097535
vn -0.027440 0.921215 0.388086
vn -0.027310 0.994857 0.097535
vn -0.722993 0.683912 0.097702
vn -0.027310 0.994857 0.097535
vn -0.027440 0.999616 -0.003920
vn -0.726253 0.687416 -0.003884
vn -0.027440 0.921215 0.388086
vn -0.019530 0.706972 0.706972
vn 0.482257 0.513623 0.709662
vn 0.271319 0.294912 0.916195
vn 0.482257 0.513623 0.709662
vn -0.019530 0.706972 0.706972
vn 0.482257 0.513623 0.709662
vn 0.271319 0.294912 0.916195
vn 0.397690 0.011813 0.917444
vn -0.027310 0.994857 0.097535
vn -0.027440 0.921215 0.388086
vn 0.631674 0.670908 0.388421
vn 0.482257 0.513623 0.709662
vn 0.631674 0.670908 0.388421
vn -0.027440 0.921215 0.388086
vn -0.027440 0.999616 -0.003920
vn -0.027310 0.994857 0.097535
vn 0.679718 0.726866 0.098225
vn 0.631674 0.670908 0.388421
vn 0.679718 0.726866 0.098225
vn -0.027310 0.994857 0.097535
vn 0.679718 0.726866 0.098225
vn 0.683286 0.730140 -0.003904
vn -0.027440 0.999616 -0.003920
vn 0.397690 0.011813 0.917444
vn 0.703032 0.019638 0.710887
vn 0.482257 0.513623 0.709662
vn 0.631674 0.670908 0.388421
vn 0.482257 0.513623 0.709662
vn 0.703032 0.019638 0.710887
vn 0.703032 0.019638 0.710887
vn 0.397690 0.011813 0.917444
vn 0.287707 -0.271942 0.918298
vn 0.679718 0.726866 0.098225
vn 0.631674 0.670908 0.388421
vn 0.920015 0.027640 0.390908
vn 0.703032 0.019638 0.710887
vn 0.920015 0.027640 0.390908
vn 0.631674 0.670908 0.388421
vn 0.683286 0.730140 -0.003904
vn 0.679718 0.726866 0.098225
vn 0.994776 0.027523 0.098298
vn 0.920015 0.027640 0.390908
vn 0.994776 0.027523 0.098298
vn 0.679718 0.726866 0.098225
vn 0.994776 0.027523 0.098298
vn 0.999610 0.027657 -0.003951
vn 0.683286 0.730140 -0.003904
vn 0.287707 -0.271942 0.918298
vn 0.507815 -0.484196 0.712516
vn 0.703032 0.019638 0.710887
vn 0.920015 0.027640 0.390908
vn 0.703032 0.019638 0.710887
vn 0.507815 -0.484196 0.712516
vn 0.507815 -0.484196 0.712516
vn 0.287707 -0.271942 0.918298
vn 0.003938 -0.397715 0.917501
vn 0.003938 -0.397715 0.917501
vn 0.011784 -0.703119 0.710975
vn 0.507815 -0.484196 0.712516
vn 0.507815 -0.484196 0.712516
vn 0.666559 -0.635006 0.390469
vn 0.920015 0.027640 0.390908
vn 0.666559 -0.635006 0.390469
vn 0.507815 -0.484196 0.712516
vn 0.011784 -0.703119 0.710975
vn 0.994776 0.027523 0.098298
vn 0.920015 0.027640 0.390908
vn 0.666559 -0.635006 0.390469
vn 0.011784 -0.703119 0.710975
vn 0.019747 -0.920187 0.390981
vn 0.666559 -0.635006 0.390469
vn 0.666559 -0.635006 0.390469
vn 0.723128 -0.683613 0.098788
vn 0.994776 0.027523 0.098298
vn 0.723128 -0.683613 0.098788
vn 0.666559 -0.635006 0.390469
vn 0.019747 -0.920187 0.390981
vn 0.999610 0.027657 -0.003951
vn 0.994776 0.027523 0.098298
vn 0.723128 -0.683613 0.098788
vn 0.019747 -0.920187 0.390981
vn 0.019663 -0.994961 0.098316
vn 0.723128 -0.683613 0.098788
vn 0.723128 -0.683613 0.098788
vn 0.726463 -0.687195 -0.003927
vn 0.999610 0.027657 -0.003951
vn 0.726463 -0.687195 -0.003927
vn 0.723128 -0.683613 0.098788
vn 0.019663 -0.994961 0.098316
vn 0.019663 -0.994961 0.098316
vn 0.019759 -0.999797 -0.003952
vn 0.726463 -0.687195 -0.003927
vt 0.659668 0.980499
vt 0.574219 0.945129
vt 0.569824 0.883301
vt 0.569824 0.883301
vt 0.678711 0.869385
vt 0.659668 0.980499
vt 0.678711 0.869385
vt 0.569824 0.883301
vt 0.549316 0.832397
vt 0.824219 0.947052
vt 0.731934 0.968857
vt 0.678711 0.869385
vt 0.678711 0.869385
vt 0.769531 0.811035
vt 0.824219 0.947052
vt 0.549316 0.832397
vt 0.626465 0.792847
vt 0.678711 0.869385
vt 0.769531 0.811035
vt 0.678711 0.869385
vt 0.626465 0.792847
vt 0.626465 0.792847
vt 0.549316 0.832397
vt 0.509277 0.799072
vt 0.946289 0.821167
vt 0.890137 0.891663
vt 0.769531 0.811035
vt 0.769531 0.811035
vt 0.818848 0.630371
vt 0.946289 0.821167
vt 0.509277 0.799072
vt 0.557617 0.739746
vt 0.626465 0.792847
vt 0.557617 0.739746
vt 0.509277 0.799072
vt 0.459473 0.791870
vt 0.626465 0.792847
vt 0.680664 0.731689
vt 0.769531 0.811035
vt 0.680664 0.731689
vt 0.626465 0.792847
vt 0.557617 0.739746
vt 0.818848 0.630371
vt 0.769531 0.811035
vt 0.680664 0.731689
vt 0.459473 0.791870
vt 0.476074 0.720459
vt 0.557617 0.739746
vt 0.476074 0.720459
vt 0.459473 0.791870
vt 0.413086 0.810791
vt 0.952148 0.034180
vt 0.958496 0.630371
vt 0.818848 0.630371
vt 0.818848 0.630371
vt 0.859863 0.034180
vt 0.952148 0.034180
vt 0.859863 0.034180
vt 0.818848 0.630371
vt 0.703613 0.630371
vt 0.680664 0.731689
vt 0.703613 0.630371
vt 0.818848 0.630371
vt 0.703613 0.630371
vt 0.753418 0.034180
vt 0.859863 0.034180
vt 0.557617 0.739746
vt 0.587891 0.676514
vt 0.680664 0.731689
vt 0.703613 0.630371
vt 0.680664 0.731689
vt 0.587891 0.676514
vt 0.587891 0.676514
vt 0.557617 0.739746
vt 0.476074 0.720459
vt 0.753418 0.034180
vt 0.703613 0.630371
vt 0.598633 0.630371
vt 0.587891 0.676514
vt 0.598633 0.630371
vt 0.703613 0.630371
vt 0.598633 0.630371
vt 0.624023 0.034180
vt 0.753418 0.034180
vt 0.476074 0.720459
vt 0.488525 0.654785
vt 0.587891 0.676514
vt 0.598633 0.630371
vt 0.587891 0.676514
vt 0.488525 0.654785
vt 0.624023 0.034180
vt 0.598633 0.630371
vt 0.491455 0.630371
vt 0.488525 0.654785
vt 0.491455 0.630371
vt 0.598633 0.630371
vt 0.491455 0.630371
vt 0.484375 0.034180
vt 0.624023 0.034180
vt 0.488525 0.654785
vt 0.476074 0.720459
vt 0.393555 0.736328
vt 0.413086 0.810791
vt 0.393555 0.736328
vt 0.476074 0.720459
vt 0.393555 0.736328
vt 0.413086 0.810791
vt 0.378906 0.847778
vt 0.491455 0.630371
vt 0.488525 0.654785
vt 0.387451 0.667236
vt 0.393555 0.736328
vt 0.387451 0.667236
vt 0.488525 0.654785
vt 0.484375 0.034180
vt 0.491455 0.630371
vt 0.382568 0.630371
vt 0.387451 0.667236
vt 0.382568 0.630371
vt 0.491455 0.630371
vt 0.382568 0.630371
vt 0.347412 0.034180
vt 0.484375 0.034180
vt 0.378906 0.847778
vt 0.321045 0.783203
vt 0.393555 0.736328
vt 0.387451 0.667236
vt 0.393555 0.736328
vt 0.321045 0.783203
vt 0.321045 0.783203
vt 0.378906 0.847778
vt 0.363037 0.897278
vt 0.382568 0.630371
vt 0.387451 0.667236
vt 0.290039 0.711670
vt 0.321045 0.783203
vt 0.290039 0.711670
vt 0.387451 0.667236
vt 0.347412 0.034180
vt 0.382568 0.630371
vt 0.274902 0.630371
vt 0.290039 0.711670
vt 0.274902 0.630371
vt 0.382568 0.630371
vt 0.274902 0.630371
vt 0.223633 0.034180
vt 0.347412 0.034180
vt 0.363037 0.897278
vt 0.262695 0.854004
vt 0.321045 0.783203
vt 0.290039 0.711670
vt 0.321045 0.783203
vt 0.262695 0.854004
vt 0.262695 0.854004
vt 0.363037 0.897278
vt 0.331787 0.948975
vt 0.331787 0.948975
vt 0.221680 0.935547
vt 0.262695 0.854004
vt 0.262695 0.854004
vt 0.198853 0.784790
vt 0.290039 0.711670
vt 0.198853 0.784790
vt 0.262695 0.854004
vt 0.221680 0.935547
vt 0.274902 0.630371
vt 0.290039 0.711670
vt 0.198853 0.784790
vt 0.221680 0.935547
vt 0.120850 0.889404
vt 0.198853 0.784790
vt 0.198853 0.784790
vt 0.166992 0.630371
vt 0.274902 0.630371
vt 0.166992 0.630371
vt 0.198853 0.784790
vt 0.120850 0.889404
vt 0.223633 0.034180
vt 0.274902 0.630371
vt 0.166992 0.630371
vt 0.120850 0.889404
vt 0.050354 0.840698
vt 0.166992 0.630371
vt 0.166992 0.630371
vt 0.119873 0.034180
vt 0.223633 0.034180
vt 0.119873 0.034180
vt 0.166992 0.630371
vt 0.054779 0.630371
vt 0.054779 0.630371
vt 0.035187 0.034180
vt 0.119873 0.034180
f 1/1/1 2/2/2 3/3/3
f 4/4/4 5/5/5 6/6/6
f 7/7/7 8/8/8 9/9/9
f 10/10/10 11/11/11 12/12/12
f 13/13/13 14/14/14 15/15/15
f 16/16/16 17/17/17 18/18/18
f 19/19/19 20/20/20 21/21/21
f 22/22/22 23/23/23 24/24/24
f 25/25/25 26/26/26 27/27/27
f 28/28/28 29/29/29 30/30/30
f 31/31/31 32/32/32 33/33/33
f 34/34/34 35/35/35 36/36/36
f 37/37/37 38/38/38 39/39/39
f 40/40/40 41/41/41 42/42/42
f 43/43/43 44/44/44 45/45/45
f 46/46/46 47/47/47 48/48/48
f 49/49/49 50/50/50 51/51/51
f 52/52/52 53/53/53 54/54/54
f 55/55/55 56/56/56 57/57/57
f 58/58/58 59/59/59 60/60/60
f 61/61/61 62/62/62 63/63/63
f 64/64/64 65/65/65 66/66/66
f 67/67/67 68/68/68 69/69/69
f 70/70/70 71/71/71 72/72/72
f 73/73/73 74/74/74 75/75/75
f 76/76/76 77/77/77 78/78/78
f 79/79/79 80/80/80 81/81/81
f 82/82/82 83/83/83 84/84/84
f 85/85/85 86/86/86 87/87/87
f 88/88/88 89/89/89 90/90/90
f 91/91/91 92/92/92 93/93/93
f 94/94/94 95/95/95 96/96/96
f 97/97/97 98/98/98 99/99/99
f 100/100/100 101/101/101 102/102/102
f 103/103/103 104/104/104 105/105/105
f 106/106/106 107/107/107 108/108/108
f 109/109/109 110/110/110 111/111/111
f 112/112/112 113/113/113 114/114/114
f 115/115/115 116/116/116 117/117/117
f 118/118/118 119/119/119 120/120/120
f 121/121/121 122/122/122 123/123/123
f 124/124/124 125/125/125 126/126/126
f 127/127/127 128/128/128 129/129/129
f 130/130/130 131/131/131 132/132/132
f 133/133/133 134/134/134 135/135/135
f 136/136/136 137/137/137 138/138/138
f 139/139/139 140/140/140 141/141/141
f 142/142/142 143/143/143 144/144/144
f 145/145/145 146/146/146 147/147/147
f 148/148/148 149/149/149 150/150/150
f 151/151/151 152/152/152 153/153/153
f 154/154/154 155/155/155 156/156/156
f 157/157/157 158/158/158 159/159/159
f 160/160/160 161/161/161 162/162/162
f 163/163/163 164/164/164 165/165/165
f 166/166/166 167/167/167 168/168/168
f 169/169/169 170/170/170 171/171/171
f 172/172/172 173/173/173 174/174/174
f 175/175/175 176/176/176 177/177/177
f 178/178/178 179/179/179 180/180/180
f 181/181/181 182/182/182 183/183/183
f 184/184/184 185/185/185 186/186/186
f 187/187/187 188/188/188 189/189/189
f 190/190/190 191/191/191 192/192/192
