# OBJ file
v -2849.598900 1720.170700 330.842500
v -2850.455600 1719.827000 331.410000
v -2850.464800 1718.994100 331.410000
v -2850.464800 1718.994100 331.410000
v -2849.616500 1718.631300 330.842500
v -2849.598900 1720.170700 330.842500
v -2849.616500 1718.631300 330.842500
v -2850.464800 1718.994100 331.410000
v -2851.060800 1718.412000 331.410000
v -2849.026600 1720.400000 329.993160
v -2849.598900 1720.170700 330.842500
v -2849.616500 1718.631300 330.842500
v -2849.616500 1718.631300 330.842500
v -2849.049300 1718.388900 329.993160
v -2849.026600 1720.400000 329.993160
v -2851.060800 1718.412000 331.410000
v -2850.717300 1717.555300 330.842500
v -2849.616500 1718.631300 330.842500
v -2849.049300 1718.388900 329.993160
v -2849.616500 1718.631300 330.842500
v -2850.717300 1717.555300 330.842500
v -2850.717300 1717.555300 330.842500
v -2851.060800 1718.412000 331.410000
v -2851.893600 1718.421400 331.410000
v -2848.825700 1720.480700 328.991300
v -2849.026600 1720.400000 329.993160
v -2849.049300 1718.388900 329.993160
v -2849.049300 1718.388900 329.993160
v -2848.850300 1718.303600 328.991300
v -2848.825700 1720.480700 328.991300
v -2851.893600 1718.421400 331.410000
v -2852.256300 1717.572600 330.842500
v -2850.717300 1717.555300 330.842500
v -2852.256300 1717.572600 330.842500
v -2851.893600 1718.421400 331.410000
v -2852.476000 1719.017100 331.410000
v -2850.717300 1717.555300 330.842500
v -2850.487800 1716.983000 329.993160
v -2849.049300 1718.388900 329.993160
v -2850.487800 1716.983000 329.993160
v -2850.717300 1717.555300 330.842500
v -2852.256300 1717.572600 330.842500
v -2848.850300 1718.303600 328.991300
v -2849.049300 1718.388900 329.993160
v -2850.487800 1716.983000 329.993160
v -2852.476000 1719.017100 331.410000
v -2853.332800 1718.673600 330.842500
v -2852.256300 1717.572600 330.842500
v -2853.332800 1718.673600 330.842500
v -2852.476000 1719.017100 331.410000
v -2852.466600 1719.850100 331.410000
v -2848.825700 1720.480700 319.397550
v -2848.825700 1720.480700 328.991300
v -2848.850300 1718.303600 328.991300
v -2848.850300 1718.303600 328.991300
v -2848.850300 1718.303600 319.397550
v -2848.825700 1720.480700 319.397550
v -2848.850300 1718.303600 319.397550
v -2848.850300 1718.303600 328.991300
v -2850.407200 1716.781900 328.991300
v -2850.487800 1716.983000 329.993160
v -2850.407200 1716.781900 328.991300
v -2848.850300 1718.303600 328.991300
v -2850.407200 1716.781900 328.991300
v -2850.407200 1716.781900 319.397550
v -2848.850300 1718.303600 319.397550
v -2852.256300 1717.572600 330.842500
v -2852.498800 1717.005900 329.993160
v -2850.487800 1716.983000 329.993160
v -2850.407200 1716.781900 328.991300
v -2850.487800 1716.983000 329.993160
v -2852.498800 1717.005900 329.993160
v -2852.498800 1717.005900 329.993160
v -2852.256300 1717.572600 330.842500
v -2853.332800 1718.673600 330.842500
v -2850.407200 1716.781900 319.397550
v -2850.407200 1716.781900 328.991300
v -2852.584000 1716.806600 328.991300
v -2852.498800 1717.005900 329.993160
v -2852.584000 1716.806600 328.991300
v -2850.407200 1716.781900 328.991300
v -2852.584000 1716.806600 328.991300
v -2852.584000 1716.806600 319.397550
v -2850.407200 1716.781900 319.397550
v -2853.332800 1718.673600 330.842500
v -2853.904800 1718.444200 329.993160
v -2852.498800 1717.005900 329.993160
v -2852.584000 1716.806600 328.991300
v -2852.498800 1717.005900 329.993160
v -2853.904800 1718.444200 329.993160
v -2852.584000 1716.806600 319.397550
v -2852.584000 1716.806600 328.991300
v -2854.106000 1718.363500 328.991300
v -2853.904800 1718.444200 329.993160
v -2854.106000 1718.363500 328.991300
v -2852.584000 1716.806600 328.991300
v -2854.106000 1718.363500 328.991300
v -2854.106000 1718.363500 319.397550
v -2852.584000 1716.806600 319.397550
v -2853.904800 1718.444200 329.993160
v -2853.332800 1718.673600 330.842500
v -2853.315200 1720.212900 330.842500
v -2852.466600 1719.850100 331.410000
v -2853.315200 1720.212900 330.842500
v -2853.332800 1718.673600 330.842500
v -2853.315200 1720.212900 330.842500
v -2852.466600 1719.850100 331.410000
v -2851.870800 1720.432300 331.410000
v -2854.106000 1718.363500 328.991300
v -2853.904800 1718.444200 329.993160
v -2853.881800 1720.455300 329.993160
v -2853.315200 1720.212900 330.842500
v -2853.881800 1720.455300 329.993160
v -2853.904800 1718.444200 329.993160
v -2854.106000 1718.363500 319.397550
v -2854.106000 1718.363500 328.991300
v -2854.081000 1720.540400 328.991300
v -2853.881800 1720.455300 329.993160
v -2854.081000 1720.540400 328.991300
v -2854.106000 1718.363500 328.991300
v -2854.081000 1720.540400 328.991300
v -2854.081000 1720.540400 319.397550
v -2854.106000 1718.363500 319.397550
v -2851.870800 1720.432300 331.410000
v -2852.214400 1721.289000 330.842500
v -2853.315200 1720.212900 330.842500
v -2853.881800 1720.455300 329.993160
v -2853.315200 1720.212900 330.842500
v -2852.214400 1721.289000 330.842500
v -2852.214400 1721.289000 330.842500
v -2851.870800 1720.432300 331.410000
v -2851.037600 1720.423100 331.410000
v -2854.081000 1720.540400 328.991300
v -2853.881800 1720.455300 329.993160
v -2852.443600 1721.861200 329.993160
v -2852.214400 1721.289000 330.842500
v -2852.443600 1721.861200 329.993160
v -2853.881800 1720.455300 329.993160
v -2854.081000 1720.540400 319.397550
v -2854.081000 1720.540400 328.991300
v -2852.524400 1722.062400 328.991300
v -2852.443600 1721.861200 329.993160
v -2852.524400 1722.062400 328.991300
v -2854.081000 1720.540400 328.991300
v -2852.524400 1722.062400 328.991300
v -2852.524400 1722.062400 319.397550
v -2854.081000 1720.540400 319.397550
v -2851.037600 1720.423100 331.410000
v -2850.674800 1721.271500 330.842500
v -2852.214400 1721.289000 330.842500
v -2852.443600 1721.861200 329.993160
v -2852.214400 1721.289000 330.842500
v -2850.674800 1721.271500 330.842500
v -2850.674800 1721.271500 330.842500
v -2851.037600 1720.423100 331.410000
v -2850.455600 1719.827000 331.410000
v -2850.455600 1719.827000 331.410000
v -2849.598900 1720.170700 330.842500
v -2850.674800 1721.271500 330.842500
v -2850.674800 1721.271500 330.842500
v -2850.432400 1721.838400 329.993160
v -2852.443600 1721.861200 329.993160
v -2850.432400 1721.838400 329.993160
v -2850.674800 1721.271500 330.842500
v -2849.598900 1720.170700 330.842500
v -2852.524400 1722.062400 328.991300
v -2852.443600 1721.861200 329.993160
v -2850.432400 1721.838400 329.993160
v -2849.598900 1720.170700 330.842500
v -2849.026600 1720.400000 329.993160
v -2850.432400 1721.838400 329.993160
v -2850.432400 1721.838400 329.993160
v -2850.347400 1722.037500 328.991300
v -2852.524400 1722.062400 328.991300
v -2850.347400 1722.037500 328.991300
v -2850.432400 1721.838400 329.993160
v -2849.026600 1720.400000 329.993160
v -2852.524400 1722.062400 319.397550
v -2852.524400 1722.062400 328.991300
v -2850.347400 1722.037500 328.991300
v -2849.026600 1720.400000 329.993160
v -2848.825700 1720.480700 328.991300
v -2850.347400 1722.037500 328.991300
v -2850.347400 1722.037500 328.991300
v -2850.347400 1722.037500 319.397550
v -2852.524400 1722.062400 319.397550
v -2850.347400 1722.037500 319.397550
v -2850.347400 1722.037500 328.991300
v -2848.825700 1720.480700 328.991300
v -2848.825700 1720.480700 328.991300
v -2848.825700 1720.480700 319.397550
v -2850.347400 1722.037500 319.397550
vn 0.649813 0.263863 0.712825
vn 0.366304 0.153611 0.917728
vn 0.366304 -0.153611 0.917728
vn 0.366304 -0.153611 0.917728
vn 0.648446 -0.271168 0.711326
vn 0.649813 0.263863 0.712825
vn 0.648446 -0.271168 0.711326
vn 0.366304 -0.153611 0.917728
vn 0.145906 -0.366736 0.918812
vn 0.852384 0.349595 0.388876
vn 0.649813 0.263863 0.712825
vn 0.648446 -0.271168 0.711326
vn 0.648446 -0.271168 0.711326
vn 0.847831 -0.358849 0.390397
vn 0.852384 0.349595 0.388876
vn 0.145906 -0.366736 0.918812
vn 0.256513 -0.651147 0.714289
vn 0.648446 -0.271168 0.711326
vn 0.847831 -0.358849 0.390397
vn 0.648446 -0.271168 0.711326
vn 0.256513 -0.651147 0.714289
vn 0.256513 -0.651147 0.714289
vn 0.145906 -0.366736 0.918812
vn -0.161289 -0.365850 0.916591
vn 0.922633 0.372979 0.098153
vn 0.852384 0.349595 0.388876
vn 0.847831 -0.358849 0.390397
vn 0.847831 -0.358849 0.390397
vn 0.915911 -0.389164 0.098274
vn 0.922633 0.372979 0.098153
vn -0.161289 -0.365850 0.916591
vn -0.278427 -0.647049 0.709793
vn 0.256513 -0.651147 0.714289
vn -0.278427 -0.647049 0.709793
vn -0.161289 -0.365850 0.916591
vn -0.373533 -0.145481 0.916138
vn 0.256513 -0.651147 0.714289
vn 0.342671 -0.854708 0.389936
vn 0.847831 -0.358849 0.390397
vn 0.342671 -0.854708 0.389936
vn 0.256513 -0.651147 0.714289
vn -0.278427 -0.647049 0.709793
vn 0.915911 -0.389164 0.098274
vn 0.847831 -0.358849 0.390397
vn 0.342671 -0.854708 0.389936
vn -0.373533 -0.145481 0.916138
vn -0.655659 -0.255196 0.710624
vn -0.278427 -0.647049 0.709793
vn -0.655659 -0.255196 0.710624
vn -0.373533 -0.145481 0.916138
vn -0.372635 0.160821 0.913936
vn 0.927103 0.374786 -0.003945
vn 0.922633 0.372979 0.098153
vn 0.915911 -0.389164 0.098274
vn 0.915911 -0.389164 0.098274
vn 0.920359 -0.391054 -0.003950
vn 0.927103 0.374786 -0.003945
vn 0.920359 -0.391054 -0.003950
vn 0.915911 -0.389164 0.098274
vn 0.366190 -0.925319 0.098438
vn 0.342671 -0.854708 0.389936
vn 0.366190 -0.925319 0.098438
vn 0.915911 -0.389164 0.098274
vn 0.366190 -0.925319 0.098438
vn 0.367974 -0.929828 -0.003957
vn 0.920359 -0.391054 -0.003950
vn -0.278427 -0.647049 0.709793
vn -0.365691 -0.845416 0.389284
vn 0.342671 -0.854708 0.389936
vn 0.366190 -0.925319 0.098438
vn 0.342671 -0.854708 0.389936
vn -0.365691 -0.845416 0.389284
vn -0.365691 -0.845416 0.389284
vn -0.278427 -0.647049 0.709793
vn -0.655659 -0.255196 0.710624
vn 0.367974 -0.929828 -0.003957
vn 0.366190 -0.925319 0.098438
vn -0.395805 -0.913094 0.097972
vn -0.365691 -0.845416 0.389284
vn -0.395805 -0.913094 0.097972
vn 0.366190 -0.925319 0.098438
vn -0.395805 -0.913094 0.097972
vn -0.397715 -0.917501 -0.003938
vn 0.367974 -0.929828 -0.003957
vn -0.655659 -0.255196 0.710624
vn -0.856810 -0.340377 0.387325
vn -0.365691 -0.845416 0.389284
vn -0.395805 -0.913094 0.097972
vn -0.365691 -0.845416 0.389284
vn -0.856810 -0.340377 0.387325
vn -0.397715 -0.917501 -0.003938
vn -0.395805 -0.913094 0.097972
vn -0.926439 -0.363539 0.097726
vn -0.856810 -0.340377 0.387325
vn -0.926439 -0.363539 0.097726
vn -0.395805 -0.913094 0.097972
vn -0.926439 -0.363539 0.097726
vn -0.930887 -0.365285 -0.003928
vn -0.397715 -0.917501 -0.003938
vn -0.856810 -0.340377 0.387325
vn -0.655659 -0.255196 0.710624
vn -0.651574 0.277016 0.706197
vn -0.372635 0.160821 0.913936
vn -0.651574 0.277016 0.706197
vn -0.655659 -0.255196 0.710624
vn -0.651574 0.277016 0.706197
vn -0.372635 0.160821 0.913936
vn -0.153165 0.373094 0.915063
vn -0.926439 -0.363539 0.097726
vn -0.856810 -0.340377 0.387325
vn -0.847637 0.363273 0.386710
vn -0.651574 0.277016 0.706197
vn -0.847637 0.363273 0.386710
vn -0.856810 -0.340377 0.387325
vn -0.930887 -0.365285 -0.003928
vn -0.926439 -0.363539 0.097726
vn -0.914383 0.392990 0.097275
vn -0.847637 0.363273 0.386710
vn -0.914383 0.392990 0.097275
vn -0.926439 -0.363539 0.097726
vn -0.914383 0.392990 0.097275
vn -0.918733 0.394860 -0.003909
vn -0.930887 -0.365285 -0.003928
vn -0.153165 0.373094 0.915063
vn -0.262515 0.654329 0.709183
vn -0.651574 0.277016 0.706197
vn -0.847637 0.363273 0.386710
vn -0.651574 0.277016 0.706197
vn -0.262515 0.654329 0.709183
vn -0.262515 0.654329 0.709183
vn -0.153165 0.373094 0.915063
vn 0.153165 0.373094 0.915063
vn -0.914383 0.392990 0.097275
vn -0.847637 0.363273 0.386710
vn -0.347267 0.854511 0.386286
vn -0.262515 0.654329 0.709183
vn -0.347267 0.854511 0.386286
vn -0.847637 0.363273 0.386710
vn -0.918733 0.394860 -0.003909
vn -0.914383 0.392990 0.097275
vn -0.370295 0.923789 0.097446
vn -0.347267 0.854511 0.386286
vn -0.370295 0.923789 0.097446
vn -0.914383 0.392990 0.097275
vn -0.370295 0.923789 0.097446
vn -0.372063 0.928199 -0.003916
vn -0.918733 0.394860 -0.003909
vn 0.153165 0.373094 0.915063
vn 0.269789 0.652967 0.707707
vn -0.262515 0.654329 0.709183
vn -0.347267 0.854511 0.386286
vn -0.262515 0.654329 0.709183
vn 0.269789 0.652967 0.707707
vn 0.269789 0.652967 0.707707
vn 0.153165 0.373094 0.915063
vn 0.366304 0.153611 0.917728
vn 0.366304 0.153611 0.917728
vn 0.649813 0.263863 0.712825
vn 0.269789 0.652967 0.707707
vn 0.269789 0.652967 0.707707
vn 0.356463 0.850027 0.387800
vn -0.347267 0.854511 0.386286
vn 0.356463 0.850027 0.387800
vn 0.269789 0.652967 0.707707
vn 0.649813 0.263863 0.712825
vn -0.370295 0.923789 0.097446
vn -0.347267 0.854511 0.386286
vn 0.356463 0.850027 0.387800
vn 0.649813 0.263863 0.712825
vn 0.852384 0.349595 0.388876
vn 0.356463 0.850027 0.387800
vn 0.356463 0.850027 0.387800
vn 0.386380 0.917164 0.097571
vn -0.370295 0.923789 0.097446
vn 0.386380 0.917164 0.097571
vn 0.356463 0.850027 0.387800
vn 0.852384 0.349595 0.388876
vn -0.372063 0.928199 -0.003916
vn -0.370295 0.923789 0.097446
vn 0.386380 0.917164 0.097571
vn 0.852384 0.349595 0.388876
vn 0.922633 0.372979 0.098153
vn 0.386380 0.917164 0.097571
vn 0.386380 0.917164 0.097571
vn 0.388229 0.921554 -0.003921
vn -0.372063 0.928199 -0.003916
vn 0.388229 0.921554 -0.003921
vn 0.386380 0.917164 0.097571
vn 0.922633 0.372979 0.098153
vn 0.922633 0.372979 0.098153
vn 0.927103 0.374786 -0.003945
vn 0.388229 0.921554 -0.003921
vt 0.659668 0.980499
vt 0.574219 0.945129
vt 0.569824 0.883301
vt 0.569824 0.883301
vt 0.678711 0.869385
vt 0.659668 0.980499
vt 0.678711 0.869385
vt 0.569824 0.883301
vt 0.549316 0.832397
vt 0.824219 0.947052
vt 0.731934 0.968857
vt 0.678711 0.869385
vt 0.678711 0.869385
vt 0.769531 0.811035
vt 0.824219 0.947052
vt 0.549316 0.832397
vt 0.626465 0.792847
vt 0.678711 0.869385
vt 0.769531 0.811035
vt 0.678711 0.869385
vt 0.626465 0.792847
vt 0.626465 0.792847
vt 0.549316 0.832397
vt 0.509277 0.799072
vt 0.946289 0.821167
vt 0.890137 0.891663
vt 0.769531 0.811035
vt 0.769531 0.811035
vt 0.818848 0.630371
vt 0.946289 0.821167
vt 0.509277 0.799072
vt 0.557617 0.739746
vt 0.626465 0.792847
vt 0.557617 0.739746
vt 0.509277 0.799072
vt 0.459473 0.791870
vt 0.626465 0.792847
vt 0.680664 0.731689
vt 0.769531 0.811035
vt 0.680664 0.731689
vt 0.626465 0.792847
vt 0.557617 0.739746
vt 0.818848 0.630371
vt 0.769531 0.811035
vt 0.680664 0.731689
vt 0.459473 0.791870
vt 0.476074 0.720459
vt 0.557617 0.739746
vt 0.476074 0.720459
vt 0.459473 0.791870
vt 0.413086 0.810791
vt 0.952148 0.034180
vt 0.958496 0.630371
vt 0.818848 0.630371
vt 0.818848 0.630371
vt 0.859863 0.034180
vt 0.952148 0.034180
vt 0.859863 0.034180
vt 0.818848 0.630371
vt 0.703613 0.630371
vt 0.680664 0.731689
vt 0.703613 0.630371
vt 0.818848 0.630371
vt 0.703613 0.630371
vt 0.753418 0.034180
vt 0.859863 0.034180
vt 0.557617 0.739746
vt 0.587891 0.676514
vt 0.680664 0.731689
vt 0.703613 0.630371
vt 0.680664 0.731689
vt 0.587891 0.676514
vt 0.587891 0.676514
vt 0.557617 0.739746
vt 0.476074 0.720459
vt 0.753418 0.034180
vt 0.703613 0.630371
vt 0.598633 0.630371
vt 0.587891 0.676514
vt 0.598633 0.630371
vt 0.703613 0.630371
vt 0.598633 0.630371
vt 0.624023 0.034180
vt 0.753418 0.034180
vt 0.476074 0.720459
vt 0.488525 0.654785
vt 0.587891 0.676514
vt 0.598633 0.630371
vt 0.587891 0.676514
vt 0.488525 0.654785
vt 0.624023 0.034180
vt 0.598633 0.630371
vt 0.491455 0.630371
vt 0.488525 0.654785
vt 0.491455 0.630371
vt 0.598633 0.630371
vt 0.491455 0.630371
vt 0.484375 0.034180
vt 0.624023 0.034180
vt 0.488525 0.654785
vt 0.476074 0.720459
vt 0.393555 0.736328
vt 0.413086 0.810791
vt 0.393555 0.736328
vt 0.476074 0.720459
vt 0.393555 0.736328
vt 0.413086 0.810791
vt 0.378906 0.847778
vt 0.491455 0.630371
vt 0.488525 0.654785
vt 0.387451 0.667236
vt 0.393555 0.736328
vt 0.387451 0.667236
vt 0.488525 0.654785
vt 0.484375 0.034180
vt 0.491455 0.630371
vt 0.382568 0.630371
vt 0.387451 0.667236
vt 0.382568 0.630371
vt 0.491455 0.630371
vt 0.382568 0.630371
vt 0.347412 0.034180
vt 0.484375 0.034180
vt 0.378906 0.847778
vt 0.321045 0.783203
vt 0.393555 0.736328
vt 0.387451 0.667236
vt 0.393555 0.736328
vt 0.321045 0.783203
vt 0.321045 0.783203
vt 0.378906 0.847778
vt 0.363037 0.897278
vt 0.382568 0.630371
vt 0.387451 0.667236
vt 0.290039 0.711670
vt 0.321045 0.783203
vt 0.290039 0.711670
vt 0.387451 0.667236
vt 0.347412 0.034180
vt 0.382568 0.630371
vt 0.274902 0.630371
vt 0.290039 0.711670
vt 0.274902 0.630371
vt 0.382568 0.630371
vt 0.274902 0.630371
vt 0.223633 0.034180
vt 0.347412 0.034180
vt 0.363037 0.897278
vt 0.262695 0.854004
vt 0.321045 0.783203
vt 0.290039 0.711670
vt 0.321045 0.783203
vt 0.262695 0.854004
vt 0.262695 0.854004
vt 0.363037 0.897278
vt 0.331787 0.948975
vt 0.331787 0.948975
vt 0.221680 0.935547
vt 0.262695 0.854004
vt 0.262695 0.854004
vt 0.198853 0.784790
vt 0.290039 0.711670
vt 0.198853 0.784790
vt 0.262695 0.854004
vt 0.221680 0.935547
vt 0.274902 0.630371
vt 0.290039 0.711670
vt 0.198853 0.784790
vt 0.221680 0.935547
vt 0.120850 0.889404
vt 0.198853 0.784790
vt 0.198853 0.784790
vt 0.166992 0.630371
vt 0.274902 0.630371
vt 0.166992 0.630371
vt 0.198853 0.784790
vt 0.120850 0.889404
vt 0.223633 0.034180
vt 0.274902 0.630371
vt 0.166992 0.630371
vt 0.120850 0.889404
vt 0.050354 0.840698
vt 0.166992 0.630371
vt 0.166992 0.630371
vt 0.119873 0.034180
vt 0.223633 0.034180
vt 0.119873 0.034180
vt 0.166992 0.630371
vt 0.054779 0.630371
vt 0.054779 0.630371
vt 0.035187 0.034180
vt 0.119873 0.034180
f 1/1/1 2/2/2 3/3/3
f 4/4/4 5/5/5 6/6/6
f 7/7/7 8/8/8 9/9/9
f 10/10/10 11/11/11 12/12/12
f 13/13/13 14/14/14 15/15/15
f 16/16/16 17/17/17 18/18/18
f 19/19/19 20/20/20 21/21/21
f 22/22/22 23/23/23 24/24/24
f 25/25/25 26/26/26 27/27/27
f 28/28/28 29/29/29 30/30/30
f 31/31/31 32/32/32 33/33/33
f 34/34/34 35/35/35 36/36/36
f 37/37/37 38/38/38 39/39/39
f 40/40/40 41/41/41 42/42/42
f 43/43/43 44/44/44 45/45/45
f 46/46/46 47/47/47 48/48/48
f 49/49/49 50/50/50 51/51/51
f 52/52/52 53/53/53 54/54/54
f 55/55/55 56/56/56 57/57/57
f 58/58/58 59/59/59 60/60/60
f 61/61/61 62/62/62 63/63/63
f 64/64/64 65/65/65 66/66/66
f 67/67/67 68/68/68 69/69/69
f 70/70/70 71/71/71 72/72/72
f 73/73/73 74/74/74 75/75/75
f 76/76/76 77/77/77 78/78/78
f 79/79/79 80/80/80 81/81/81
f 82/82/82 83/83/83 84/84/84
f 85/85/85 86/86/86 87/87/87
f 88/88/88 89/89/89 90/90/90
f 91/91/91 92/92/92 93/93/93
f 94/94/94 95/95/95 96/96/96
f 97/97/97 98/98/98 99/99/99
f 100/100/100 101/101/101 102/102/102
f 103/103/103 104/104/104 105/105/105
f 106/106/106 107/107/107 108/108/108
f 109/109/109 110/110/110 111/111/111
f 112/112/112 113/113/113 114/114/114
f 115/115/115 116/116/116 117/117/117
f 118/118/118 119/119/119 120/120/120
f 121/121/121 122/122/122 123/123/123
f 124/124/124 125/125/125 126/126/126
f 127/127/127 128/128/128 129/129/129
f 130/130/130 131/131/131 132/132/132
f 133/133/133 134/134/134 135/135/135
f 136/136/136 137/137/137 138/138/138
f 139/139/139 140/140/140 141/141/141
f 142/142/142 143/143/143 144/144/144
f 145/145/145 146/146/146 147/147/147
f 148/148/148 149/149/149 150/150/150
f 151/151/151 152/152/152 153/153/153
f 154/154/154 155/155/155 156/156/156
f 157/157/157 158/158/158 159/159/159
f 160/160/160 161/161/161 162/162/162
f 163/163/163 164/164/164 165/165/165
f 166/166/166 167/167/167 168/168/168
f 169/169/169 170/170/170 171/171/171
f 172/172/172 173/173/173 174/174/174
f 175/175/175 176/176/176 177/177/177
f 178/178/178 179/179/179 180/180/180
f 181/181/181 182/182/182 183/183/183
f 184/184/184 185/185/185 186/186/186
f 187/187/187 188/188/188 189/189/189
f 190/190/190 191/191/191 192/192/192
