# OBJ file
v 2078.130000 -1274.804600 406.755220
v 2077.285600 -1275.177600 407.322720
v 2077.305400 -1276.010400 407.322720
v 2077.305400 -1276.010400 407.322720
v 2078.165800 -1276.343600 406.755220
v 2078.130000 -1274.804600 406.755220
v 2078.165800 -1276.343600 406.755220
v 2077.305400 -1276.010400 407.322720
v 2076.730200 -1276.613000 407.322720
v 2078.693600 -1274.555400 405.905880
v 2078.130000 -1274.804600 406.755220
v 2078.165800 -1276.343600 406.755220
v 2078.165800 -1276.343600 406.755220
v 2078.740700 -1276.566200 405.905880
v 2078.693600 -1274.555400 405.905880
v 2076.730200 -1276.613000 407.322720
v 2077.102800 -1277.457200 406.755220
v 2078.165800 -1276.343600 406.755220
v 2078.740700 -1276.566200 405.905880
v 2078.165800 -1276.343600 406.755220
v 2077.102800 -1277.457200 406.755220
v 2077.102800 -1277.457200 406.755220
v 2076.730200 -1276.613000 407.322720
v 2075.897200 -1276.632600 407.322720
v 2078.892000 -1274.467900 404.904020
v 2078.693600 -1274.555400 405.905880
v 2078.740700 -1276.566200 405.905880
v 2078.740700 -1276.566200 405.905880
v 2078.942900 -1276.644300 404.904020
v 2078.892000 -1274.467900 404.904020
v 2075.897200 -1276.632600 407.322720
v 2075.564200 -1277.493200 406.755220
v 2077.102800 -1277.457200 406.755220
v 2075.564200 -1277.493200 406.755220
v 2075.897200 -1276.632600 407.322720
v 2075.294700 -1276.057300 407.322720
v 2077.102800 -1277.457200 406.755220
v 2077.352300 -1278.021100 405.905880
v 2078.740700 -1276.566200 405.905880
v 2077.352300 -1278.021100 405.905880
v 2077.102800 -1277.457200 406.755220
v 2075.564200 -1277.493200 406.755220
v 2078.942900 -1276.644300 404.904020
v 2078.740700 -1276.566200 405.905880
v 2077.352300 -1278.021100 405.905880
v 2075.294700 -1276.057300 407.322720
v 2074.450200 -1276.430300 406.755220
v 2075.564200 -1277.493200 406.755220
v 2074.450200 -1276.430300 406.755220
v 2075.294700 -1276.057300 407.322720
v 2075.275100 -1275.224500 407.322720
v 2078.892000 -1274.467900 395.310270
v 2078.892000 -1274.467900 404.904020
v 2078.942900 -1276.644300 404.904020
v 2078.942900 -1276.644300 404.904020
v 2078.942900 -1276.644300 395.310270
v 2078.892000 -1274.467900 395.310270
v 2078.942900 -1276.644300 395.310270
v 2078.942900 -1276.644300 404.904020
v 2077.439700 -1278.219200 404.904020
v 2077.352300 -1278.021100 405.905880
v 2077.439700 -1278.219200 404.904020
v 2078.942900 -1276.644300 404.904020
v 2077.439700 -1278.219200 404.904020
v 2077.439700 -1278.219200 395.310270
v 2078.942900 -1276.644300 395.310270
v 2075.564200 -1277.493200 406.755220
v 2075.341300 -1278.068100 405.905880
v 2077.352300 -1278.021100 405.905880
v 2077.439700 -1278.219200 404.904020
v 2077.352300 -1278.021100 405.905880
v 2075.341300 -1278.068100 405.905880
v 2075.341300 -1278.068100 405.905880
v 2075.564200 -1277.493200 406.755220
v 2074.450200 -1276.430300 406.755220
v 2077.439700 -1278.219200 395.310270
v 2077.439700 -1278.219200 404.904020
v 2075.263400 -1278.270000 404.904020
v 2075.341300 -1278.068100 405.905880
v 2075.263400 -1278.270000 404.904020
v 2077.439700 -1278.219200 404.904020
v 2075.263400 -1278.270000 404.904020
v 2075.263400 -1278.270000 395.310270
v 2077.439700 -1278.219200 395.310270
v 2074.450200 -1276.430300 406.755220
v 2073.886500 -1276.679400 405.905880
v 2075.341300 -1278.068100 405.905880
v 2075.263400 -1278.270000 404.904020
v 2075.341300 -1278.068100 405.905880
v 2073.886500 -1276.679400 405.905880
v 2075.263400 -1278.270000 395.310270
v 2075.263400 -1278.270000 404.904020
v 2073.688500 -1276.767000 404.904020
v 2073.886500 -1276.679400 405.905880
v 2073.688500 -1276.767000 404.904020
v 2075.263400 -1278.270000 404.904020
v 2073.688500 -1276.767000 404.904020
v 2073.688500 -1276.767000 395.310270
v 2075.263400 -1278.270000 395.310270
v 2073.886500 -1276.679400 405.905880
v 2074.450200 -1276.430300 406.755220
v 2074.414600 -1274.891200 406.755220
v 2075.275100 -1275.224500 407.322720
v 2074.414600 -1274.891200 406.755220
v 2074.450200 -1276.430300 406.755220
v 2074.414600 -1274.891200 406.755220
v 2075.275100 -1275.224500 407.322720
v 2075.850300 -1274.621800 407.322720
v 2073.688500 -1276.767000 404.904020
v 2073.886500 -1276.679400 405.905880
v 2073.839600 -1274.668700 405.905880
v 2074.414600 -1274.891200 406.755220
v 2073.839600 -1274.668700 405.905880
v 2073.886500 -1276.679400 405.905880
v 2073.688500 -1276.767000 395.310270
v 2073.688500 -1276.767000 404.904020
v 2073.637500 -1274.590500 404.904020
v 2073.839600 -1274.668700 405.905880
v 2073.637500 -1274.590500 404.904020
v 2073.688500 -1276.767000 404.904020
v 2073.637500 -1274.590500 404.904020
v 2073.637500 -1274.590500 395.310270
v 2073.688500 -1276.767000 395.310270
v 2075.850300 -1274.621800 407.322720
v 2075.477300 -1273.777700 406.755220
v 2074.414600 -1274.891200 406.755220
v 2073.839600 -1274.668700 405.905880
v 2074.414600 -1274.891200 406.755220
v 2075.477300 -1273.777700 406.755220
v 2075.477300 -1273.777700 406.755220
v 2075.850300 -1274.621800 407.322720
v 2076.683000 -1274.602300 407.322720
v 2073.637500 -1274.590500 404.904020
v 2073.839600 -1274.668700 405.905880
v 2075.228300 -1273.213700 405.905880
v 2075.477300 -1273.777700 406.755220
v 2075.228300 -1273.213700 405.905880
v 2073.839600 -1274.668700 405.905880
v 2073.637500 -1274.590500 395.310270
v 2073.637500 -1274.590500 404.904020
v 2075.140600 -1273.015600 404.904020
v 2075.228300 -1273.213700 405.905880
v 2075.140600 -1273.015600 404.904020
v 2073.637500 -1274.590500 404.904020
v 2075.140600 -1273.015600 404.904020
v 2075.140600 -1273.015600 395.310270
v 2073.637500 -1274.590500 395.310270
v 2076.683000 -1274.602300 407.322720
v 2077.016400 -1273.741700 406.755220
v 2075.477300 -1273.777700 406.755220
v 2075.228300 -1273.213700 405.905880
v 2075.477300 -1273.777700 406.755220
v 2077.016400 -1273.741700 406.755220
v 2077.016400 -1273.741700 406.755220
v 2076.683000 -1274.602300 407.322720
v 2077.285600 -1275.177600 407.322720
v 2077.285600 -1275.177600 407.322720
v 2078.130000 -1274.804600 406.755220
v 2077.016400 -1273.741700 406.755220
v 2077.016400 -1273.741700 406.755220
v 2077.238800 -1273.166700 405.905880
v 2075.228300 -1273.213700 405.905880
v 2077.238800 -1273.166700 405.905880
v 2077.016400 -1273.741700 406.755220
v 2078.130000 -1274.804600 406.755220
v 2075.140600 -1273.015600 404.904020
v 2075.228300 -1273.213700 405.905880
v 2077.238800 -1273.166700 405.905880
v 2078.130000 -1274.804600 406.755220
v 2078.693600 -1274.555400 405.905880
v 2077.238800 -1273.166700 405.905880
v 2077.238800 -1273.166700 405.905880
v 2077.317100 -1272.964800 404.904020
v 2075.140600 -1273.015600 404.904020
v 2077.317100 -1272.964800 404.904020
v 2077.238800 -1273.166700 405.905880
v 2078.693600 -1274.555400 405.905880
v 2075.140600 -1273.015600 395.310270
v 2075.140600 -1273.015600 404.904020
v 2077.317100 -1272.964800 404.904020
v 2078.693600 -1274.555400 405.905880
v 2078.892000 -1274.467900 404.904020
v 2077.317100 -1272.964800 404.904020
v 2077.317100 -1272.964800 404.904020
v 2077.317100 -1272.964800 395.310270
v 2075.140600 -1273.015600 395.310270
v 2077.317100 -1272.964800 395.310270
v 2077.317100 -1272.964800 404.904020
v 2078.892000 -1274.467900 404.904020
v 2078.892000 -1274.467900 404.904020
v 2078.892000 -1274.467900 395.310270
v 2077.317100 -1272.964800 395.310270
vn 0.641022 0.287084 0.711810
vn 0.359006 0.161750 0.919213
vn 0.367148 -0.138174 0.919843
vn 0.367148 -0.138174 0.919843
vn 0.656956 -0.247834 0.712030
vn 0.641022 0.287084 0.711810
vn 0.656956 -0.247834 0.712030
vn 0.367148 -0.138174 0.919843
vn 0.154052 -0.359454 0.920359
vn 0.840677 0.374950 0.390737
vn 0.641022 0.287084 0.711810
vn 0.656956 -0.247834 0.712030
vn 0.656956 -0.247834 0.712030
vn 0.859253 -0.328654 0.392009
vn 0.840677 0.374950 0.390737
vn 0.154052 -0.359454 0.920359
vn 0.279842 -0.642455 0.713401
vn 0.656956 -0.247834 0.712030
vn 0.859253 -0.328654 0.392009
vn 0.656956 -0.247834 0.712030
vn 0.279842 -0.642455 0.713401
vn 0.279842 -0.642455 0.713401
vn 0.154052 -0.359454 0.920359
vn -0.145906 -0.366736 0.918812
vn 0.908893 0.405264 0.098365
vn 0.840677 0.374950 0.390737
vn 0.859253 -0.328654 0.392009
vn 0.859253 -0.328654 0.392009
vn 0.927970 -0.359342 0.098720
vn 0.908893 0.405264 0.098365
vn -0.145906 -0.366736 0.918812
vn -0.255196 -0.655659 0.710624
vn 0.279842 -0.642455 0.713401
vn -0.255196 -0.655659 0.710624
vn -0.145906 -0.366736 0.918812
vn -0.366304 -0.153611 0.917728
vn 0.279842 -0.642455 0.713401
vn 0.368136 -0.843150 0.391886
vn 0.859253 -0.328654 0.392009
vn 0.368136 -0.843150 0.391886
vn 0.279842 -0.642455 0.713401
vn -0.255196 -0.655659 0.710624
vn 0.927970 -0.359342 0.098720
vn 0.859253 -0.328654 0.392009
vn 0.368136 -0.843150 0.391886
vn -0.366304 -0.153611 0.917728
vn -0.647049 -0.278427 0.709793
vn -0.255196 -0.655659 0.710624
vn -0.647049 -0.278427 0.709793
vn -0.366304 -0.153611 0.917728
vn -0.373533 0.145481 0.916138
vn 0.911695 0.410849 -0.003913
vn 0.908893 0.405264 0.098365
vn 0.927970 -0.359342 0.098720
vn 0.927970 -0.359342 0.098720
vn 0.933541 -0.358448 -0.003939
vn 0.911695 0.410849 -0.003913
vn 0.933541 -0.358448 -0.003939
vn 0.927970 -0.359342 0.098720
vn 0.398656 -0.911777 0.098677
vn 0.368136 -0.843150 0.391886
vn 0.398656 -0.911777 0.098677
vn 0.927970 -0.359342 0.098720
vn 0.398656 -0.911777 0.098677
vn 0.404313 -0.914612 -0.003925
vn 0.933541 -0.358448 -0.003939
vn -0.255196 -0.655659 0.710624
vn -0.335691 -0.856998 0.390981
vn 0.368136 -0.843150 0.391886
vn 0.398656 -0.911777 0.098677
vn 0.368136 -0.843150 0.391886
vn -0.335691 -0.856998 0.390981
vn -0.335691 -0.856998 0.390981
vn -0.255196 -0.655659 0.710624
vn -0.647049 -0.278427 0.709793
vn 0.404313 -0.914612 -0.003925
vn 0.398656 -0.911777 0.098677
vn -0.366190 -0.925319 0.098438
vn -0.335691 -0.856998 0.390981
vn -0.366190 -0.925319 0.098438
vn 0.398656 -0.911777 0.098677
vn -0.366190 -0.925319 0.098438
vn -0.365285 -0.930888 -0.003928
vn 0.404313 -0.914612 -0.003925
vn -0.647049 -0.278427 0.709793
vn -0.845416 -0.365691 0.389284
vn -0.335691 -0.856998 0.390981
vn -0.366190 -0.925319 0.098438
vn -0.335691 -0.856998 0.390981
vn -0.845416 -0.365691 0.389284
vn -0.365285 -0.930888 -0.003928
vn -0.366190 -0.925319 0.098438
vn -0.913094 -0.395805 0.097971
vn -0.845416 -0.365691 0.389284
vn -0.913094 -0.395805 0.097971
vn -0.366190 -0.925319 0.098438
vn -0.913094 -0.395805 0.097971
vn -0.915882 -0.401429 -0.003897
vn -0.365285 -0.930888 -0.003928
vn -0.845416 -0.365691 0.389284
vn -0.647049 -0.278427 0.709793
vn -0.660101 0.253885 0.706972
vn -0.373533 0.145481 0.916138
vn -0.660101 0.253885 0.706972
vn -0.647049 -0.278427 0.709793
vn -0.660101 0.253885 0.706972
vn -0.373533 0.145481 0.916138
vn -0.161289 0.365850 0.916591
vn -0.913094 -0.395805 0.097971
vn -0.845416 -0.365691 0.389284
vn -0.859075 0.333431 0.388349
vn -0.660101 0.253885 0.706972
vn -0.859075 0.333431 0.388349
vn -0.845416 -0.365691 0.389284
vn -0.915882 -0.401429 -0.003897
vn -0.913094 -0.395805 0.097971
vn -0.926439 0.363539 0.097726
vn -0.859075 0.333431 0.388349
vn -0.926439 0.363539 0.097726
vn -0.913094 -0.395805 0.097971
vn -0.926439 0.363539 0.097726
vn -0.931924 0.362632 -0.003899
vn -0.915882 -0.401429 -0.003897
vn -0.161289 0.365850 0.916591
vn -0.285638 0.645621 0.708226
vn -0.660101 0.253885 0.706972
vn -0.859075 0.333431 0.388349
vn -0.660101 0.253885 0.706972
vn -0.285638 0.645621 0.708226
vn -0.285638 0.645621 0.708226
vn -0.161289 0.365850 0.916591
vn 0.137771 0.373949 0.917159
vn -0.926439 0.363539 0.097726
vn -0.859075 0.333431 0.388349
vn -0.372475 0.842969 0.388158
vn -0.285638 0.645621 0.708226
vn -0.372475 0.842969 0.388158
vn -0.859075 0.333431 0.388349
vn -0.931924 0.362632 -0.003899
vn -0.926439 0.363539 0.097726
vn -0.402384 0.910247 0.097666
vn -0.372475 0.842969 0.388158
vn -0.402384 0.910247 0.097666
vn -0.926439 0.363539 0.097726
vn -0.402384 0.910247 0.097666
vn -0.407937 0.913002 -0.003885
vn -0.931924 0.362632 -0.003899
vn 0.137771 0.373949 0.917159
vn 0.246555 0.661394 0.708357
vn -0.285638 0.645621 0.708226
vn -0.372475 0.842969 0.388158
vn -0.285638 0.645621 0.708226
vn 0.246555 0.661394 0.708357
vn 0.246555 0.661394 0.708357
vn 0.137771 0.373949 0.917159
vn 0.359006 0.161750 0.919213
vn 0.359006 0.161750 0.919213
vn 0.641022 0.287084 0.711810
vn 0.246555 0.661394 0.708357
vn 0.246555 0.661394 0.708357
vn 0.326430 0.861304 0.389357
vn -0.372475 0.842969 0.388158
vn 0.326430 0.861304 0.389357
vn 0.246555 0.661394 0.708357
vn 0.641022 0.287084 0.711810
vn -0.402384 0.910247 0.097666
vn -0.372475 0.842969 0.388158
vn 0.326430 0.861304 0.389357
vn 0.641022 0.287084 0.711810
vn 0.840677 0.374950 0.390737
vn 0.326430 0.861304 0.389357
vn 0.326430 0.861304 0.389357
vn 0.356726 0.929055 0.098002
vn -0.402384 0.910247 0.097666
vn 0.356726 0.929055 0.098002
vn 0.326430 0.861304 0.389357
vn 0.840677 0.374950 0.390737
vn -0.407937 0.913002 -0.003885
vn -0.402384 0.910247 0.097666
vn 0.356726 0.929055 0.098002
vn 0.840677 0.374950 0.390737
vn 0.908893 0.405264 0.098365
vn 0.356726 0.929055 0.098002
vn 0.356726 0.929055 0.098002
vn 0.355830 0.934543 -0.003910
vn -0.407937 0.913002 -0.003885
vn 0.355830 0.934543 -0.003910
vn 0.356726 0.929055 0.098002
vn 0.908893 0.405264 0.098365
vn 0.908893 0.405264 0.098365
vn 0.911695 0.410849 -0.003913
vn 0.355830 0.934543 -0.003910
vt 0.659668 0.980499
vt 0.574219 0.945129
vt 0.569824 0.883301
vt 0.569824 0.883301
vt 0.678711 0.869385
vt 0.659668 0.980499
vt 0.678711 0.869385
vt 0.569824 0.883301
vt 0.549316 0.832397
vt 0.824219 0.947052
vt 0.731934 0.968857
vt 0.678711 0.869385
vt 0.678711 0.869385
vt 0.769531 0.811035
vt 0.824219 0.947052
vt 0.549316 0.832397
vt 0.626465 0.792847
vt 0.678711 0.869385
vt 0.769531 0.811035
vt 0.678711 0.869385
vt 0.626465 0.792847
vt 0.626465 0.792847
vt 0.549316 0.832397
vt 0.509277 0.799072
vt 0.946289 0.821167
vt 0.890137 0.891663
vt 0.769531 0.811035
vt 0.769531 0.811035
vt 0.818848 0.630371
vt 0.946289 0.821167
vt 0.509277 0.799072
vt 0.557617 0.739746
vt 0.626465 0.792847
vt 0.557617 0.739746
vt 0.509277 0.799072
vt 0.459473 0.791870
vt 0.626465 0.792847
vt 0.680664 0.731689
vt 0.769531 0.811035
vt 0.680664 0.731689
vt 0.626465 0.792847
vt 0.557617 0.739746
vt 0.818848 0.630371
vt 0.769531 0.811035
vt 0.680664 0.731689
vt 0.459473 0.791870
vt 0.476074 0.720459
vt 0.557617 0.739746
vt 0.476074 0.720459
vt 0.459473 0.791870
vt 0.413086 0.810791
vt 0.952148 0.034180
vt 0.958496 0.630371
vt 0.818848 0.630371
vt 0.818848 0.630371
vt 0.859863 0.034180
vt 0.952148 0.034180
vt 0.859863 0.034180
vt 0.818848 0.630371
vt 0.703613 0.630371
vt 0.680664 0.731689
vt 0.703613 0.630371
vt 0.818848 0.630371
vt 0.703613 0.630371
vt 0.753418 0.034180
vt 0.859863 0.034180
vt 0.557617 0.739746
vt 0.587891 0.676514
vt 0.680664 0.731689
vt 0.703613 0.630371
vt 0.680664 0.731689
vt 0.587891 0.676514
vt 0.587891 0.676514
vt 0.557617 0.739746
vt 0.476074 0.720459
vt 0.753418 0.034180
vt 0.703613 0.630371
vt 0.598633 0.630371
vt 0.587891 0.676514
vt 0.598633 0.630371
vt 0.703613 0.630371
vt 0.598633 0.630371
vt 0.624023 0.034180
vt 0.753418 0.034180
vt 0.476074 0.720459
vt 0.488525 0.654785
vt 0.587891 0.676514
vt 0.598633 0.630371
vt 0.587891 0.676514
vt 0.488525 0.654785
vt 0.624023 0.034180
vt 0.598633 0.630371
vt 0.491455 0.630371
vt 0.488525 0.654785
vt 0.491455 0.630371
vt 0.598633 0.630371
vt 0.491455 0.630371
vt 0.484375 0.034180
vt 0.624023 0.034180
vt 0.488525 0.654785
vt 0.476074 0.720459
vt 0.393555 0.736328
vt 0.413086 0.810791
vt 0.393555 0.736328
vt 0.476074 0.720459
vt 0.393555 0.736328
vt 0.413086 0.810791
vt 0.378906 0.847778
vt 0.491455 0.630371
vt 0.488525 0.654785
vt 0.387451 0.667236
vt 0.393555 0.736328
vt 0.387451 0.667236
vt 0.488525 0.654785
vt 0.484375 0.034180
vt 0.491455 0.630371
vt 0.382568 0.630371
vt 0.387451 0.667236
vt 0.382568 0.630371
vt 0.491455 0.630371
vt 0.382568 0.630371
vt 0.347412 0.034180
vt 0.484375 0.034180
vt 0.378906 0.847778
vt 0.321045 0.783203
vt 0.393555 0.736328
vt 0.387451 0.667236
vt 0.393555 0.736328
vt 0.321045 0.783203
vt 0.321045 0.783203
vt 0.378906 0.847778
vt 0.363037 0.897278
vt 0.382568 0.630371
vt 0.387451 0.667236
vt 0.290039 0.711670
vt 0.321045 0.783203
vt 0.290039 0.711670
vt 0.387451 0.667236
vt 0.347412 0.034180
vt 0.382568 0.630371
vt 0.274902 0.630371
vt 0.290039 0.711670
vt 0.274902 0.630371
vt 0.382568 0.630371
vt 0.274902 0.630371
vt 0.223633 0.034180
vt 0.347412 0.034180
vt 0.363037 0.897278
vt 0.262695 0.854004
vt 0.321045 0.783203
vt 0.290039 0.711670
vt 0.321045 0.783203
vt 0.262695 0.854004
vt 0.262695 0.854004
vt 0.363037 0.897278
vt 0.331787 0.948975
vt 0.331787 0.948975
vt 0.221680 0.935547
vt 0.262695 0.854004
vt 0.262695 0.854004
vt 0.198853 0.784790
vt 0.290039 0.711670
vt 0.198853 0.784790
vt 0.262695 0.854004
vt 0.221680 0.935547
vt 0.274902 0.630371
vt 0.290039 0.711670
vt 0.198853 0.784790
vt 0.221680 0.935547
vt 0.120850 0.889404
vt 0.198853 0.784790
vt 0.198853 0.784790
vt 0.166992 0.630371
vt 0.274902 0.630371
vt 0.166992 0.630371
vt 0.198853 0.784790
vt 0.120850 0.889404
vt 0.223633 0.034180
vt 0.274902 0.630371
vt 0.166992 0.630371
vt 0.120850 0.889404
vt 0.050354 0.840698
vt 0.166992 0.630371
vt 0.166992 0.630371
vt 0.119873 0.034180
vt 0.223633 0.034180
vt 0.119873 0.034180
vt 0.166992 0.630371
vt 0.054779 0.630371
vt 0.054779 0.630371
vt 0.035187 0.034180
vt 0.119873 0.034180
f 1/1/1 2/2/2 3/3/3
f 4/4/4 5/5/5 6/6/6
f 7/7/7 8/8/8 9/9/9
f 10/10/10 11/11/11 12/12/12
f 13/13/13 14/14/14 15/15/15
f 16/16/16 17/17/17 18/18/18
f 19/19/19 20/20/20 21/21/21
f 22/22/22 23/23/23 24/24/24
f 25/25/25 26/26/26 27/27/27
f 28/28/28 29/29/29 30/30/30
f 31/31/31 32/32/32 33/33/33
f 34/34/34 35/35/35 36/36/36
f 37/37/37 38/38/38 39/39/39
f 40/40/40 41/41/41 42/42/42
f 43/43/43 44/44/44 45/45/45
f 46/46/46 47/47/47 48/48/48
f 49/49/49 50/50/50 51/51/51
f 52/52/52 53/53/53 54/54/54
f 55/55/55 56/56/56 57/57/57
f 58/58/58 59/59/59 60/60/60
f 61/61/61 62/62/62 63/63/63
f 64/64/64 65/65/65 66/66/66
f 67/67/67 68/68/68 69/69/69
f 70/70/70 71/71/71 72/72/72
f 73/73/73 74/74/74 75/75/75
f 76/76/76 77/77/77 78/78/78
f 79/79/79 80/80/80 81/81/81
f 82/82/82 83/83/83 84/84/84
f 85/85/85 86/86/86 87/87/87
f 88/88/88 89/89/89 90/90/90
f 91/91/91 92/92/92 93/93/93
f 94/94/94 95/95/95 96/96/96
f 97/97/97 98/98/98 99/99/99
f 100/100/100 101/101/101 102/102/102
f 103/103/103 104/104/104 105/105/105
f 106/106/106 107/107/107 108/108/108
f 109/109/109 110/110/110 111/111/111
f 112/112/112 113/113/113 114/114/114
f 115/115/115 116/116/116 117/117/117
f 118/118/118 119/119/119 120/120/120
f 121/121/121 122/122/122 123/123/123
f 124/124/124 125/125/125 126/126/126
f 127/127/127 128/128/128 129/129/129
f 130/130/130 131/131/131 132/132/132
f 133/133/133 134/134/134 135/135/135
f 136/136/136 137/137/137 138/138/138
f 139/139/139 140/140/140 141/141/141
f 142/142/142 143/143/143 144/144/144
f 145/145/145 146/146/146 147/147/147
f 148/148/148 149/149/149 150/150/150
f 151/151/151 152/152/152 153/153/153
f 154/154/154 155/155/155 156/156/156
f 157/157/157 158/158/158 159/159/159
f 160/160/160 161/161/161 162/162/162
f 163/163/163 164/164/164 165/165/165
f 166/166/166 167/167/167 168/168/168
f 169/169/169 170/170/170 171/171/171
f 172/172/172 173/173/173 174/174/174
f 175/175/175 176/176/176 177/177/177
f 178/178/178 179/179/179 180/180/180
f 181/181/181 182/182/182 183/183/183
f 184/184/184 185/185/185 186/186/186
f 187/187/187 188/188/188 189/189/189
f 190/190/190 191/191/191 192/192/192
