# OBJ file
v -1339.842900 -119.291760 405.147830
v -1339.892800 -120.213200 405.715330
v -1339.141400 -120.573180 405.715330
v -1339.141400 -120.573180 405.715330
v -1338.454600 -119.956910 405.147830
v -1339.842900 -119.291760 405.147830
v -1338.454600 -119.956910 405.147830
v -1339.141400 -120.573180 405.715330
v -1338.864700 -121.359010 405.715330
v -1339.809600 -118.676060 404.298500
v -1339.842900 -119.291760 405.147830
v -1338.454600 -119.956910 405.147830
v -1338.454600 -119.956910 405.147830
v -1337.995700 -119.545140 404.298500
v -1339.809600 -118.676060 404.298500
v -1338.864700 -121.359010 405.715330
v -1337.943400 -121.408910 405.147830
v -1338.454600 -119.956910 405.147830
v -1337.995700 -119.545140 404.298500
v -1338.454600 -119.956910 405.147830
v -1337.943400 -121.408910 405.147830
v -1337.943400 -121.408910 405.147830
v -1338.864700 -121.359010 405.715330
v -1339.224700 -122.110330 405.715330
v -1339.797900 -118.459870 403.296630
v -1339.809600 -118.676060 404.298500
v -1337.995700 -119.545140 404.298500
v -1337.995700 -119.545140 404.298500
v -1337.834400 -119.400540 403.296630
v -1339.797900 -118.459870 403.296630
v -1339.224700 -122.110330 405.715330
v -1338.608400 -122.797190 405.147830
v -1337.943400 -121.408910 405.147830
v -1338.608400 -122.797190 405.147830
v -1339.224700 -122.110330 405.715330
v -1340.010600 -122.387050 405.715330
v -1337.943400 -121.408910 405.147830
v -1337.327600 -121.442260 404.298500
v -1337.995700 -119.545140 404.298500
v -1337.327600 -121.442260 404.298500
v -1337.943400 -121.408910 405.147830
v -1338.608400 -122.797190 405.147830
v -1337.834400 -119.400540 403.296630
v -1337.995700 -119.545140 404.298500
v -1337.327600 -121.442260 404.298500
v -1340.010600 -122.387050 405.715330
v -1340.060400 -123.308490 405.147830
v -1338.608400 -122.797190 405.147830
v -1340.060400 -123.308490 405.147830
v -1340.010600 -122.387050 405.715330
v -1340.762000 -122.027070 405.715330
v -1339.797900 -118.459870 393.702880
v -1339.797900 -118.459870 403.296630
v -1337.834400 -119.400540 403.296630
v -1337.834400 -119.400540 403.296630
v -1337.834400 -119.400540 393.702880
v -1339.797900 -118.459870 393.702880
v -1337.834400 -119.400540 393.702880
v -1337.834400 -119.400540 403.296630
v -1337.111500 -121.453970 403.296630
v -1337.327600 -121.442260 404.298500
v -1337.111500 -121.453970 403.296630
v -1337.834400 -119.400540 403.296630
v -1337.111500 -121.453970 403.296630
v -1337.111500 -121.453960 393.702880
v -1337.834400 -119.400540 393.702880
v -1338.608400 -122.797190 405.147830
v -1338.196700 -123.256130 404.298500
v -1337.327600 -121.442260 404.298500
v -1337.111500 -121.453970 403.296630
v -1337.327600 -121.442260 404.298500
v -1338.196700 -123.256130 404.298500
v -1338.196700 -123.256130 404.298500
v -1338.608400 -122.797190 405.147830
v -1340.060400 -123.308490 405.147830
v -1337.111500 -121.453960 393.702880
v -1337.111500 -121.453970 403.296630
v -1338.052000 -123.417270 403.296630
v -1338.196700 -123.256130 404.298500
v -1338.052000 -123.417270 403.296630
v -1337.111500 -121.453970 403.296630
v -1338.052000 -123.417270 403.296630
v -1338.052000 -123.417270 393.702880
v -1337.111500 -121.453960 393.702880
v -1340.060400 -123.308490 405.147830
v -1340.093800 -123.924190 404.298500
v -1338.196700 -123.256130 404.298500
v -1338.052000 -123.417270 403.296630
v -1338.196700 -123.256130 404.298500
v -1340.093800 -123.924190 404.298500
v -1338.052000 -123.417270 393.702880
v -1338.052000 -123.417270 403.296630
v -1340.105500 -124.140390 403.296630
v -1340.093800 -123.924190 404.298500
v -1340.105500 -124.140390 403.296630
v -1338.052000 -123.417270 403.296630
v -1340.105500 -124.140390 403.296630
v -1340.105500 -124.140380 393.702880
v -1338.052000 -123.417270 393.702880
v -1340.093800 -123.924190 404.298500
v -1340.060400 -123.308490 405.147830
v -1341.448900 -122.643340 405.147830
v -1340.762000 -122.027070 405.715330
v -1341.448900 -122.643340 405.147830
v -1340.060400 -123.308490 405.147830
v -1341.448900 -122.643340 405.147830
v -1340.762000 -122.027070 405.715330
v -1341.038600 -121.241260 405.715330
v -1340.105500 -124.140390 403.296630
v -1340.093800 -123.924190 404.298500
v -1341.907600 -123.055130 404.298500
v -1341.448900 -122.643340 405.147830
v -1341.907600 -123.055130 404.298500
v -1340.093800 -123.924190 404.298500
v -1340.105500 -124.140380 393.702880
v -1340.105500 -124.140390 403.296630
v -1342.068800 -123.199710 403.296630
v -1341.907600 -123.055130 404.298500
v -1342.068800 -123.199710 403.296630
v -1340.105500 -124.140390 403.296630
v -1342.068800 -123.199710 403.296630
v -1342.068800 -123.199710 393.702880
v -1340.105500 -124.140380 393.702880
v -1341.038600 -121.241260 405.715330
v -1341.960000 -121.191350 405.147830
v -1341.448900 -122.643340 405.147830
v -1341.907600 -123.055130 404.298500
v -1341.448900 -122.643340 405.147830
v -1341.960000 -121.191350 405.147830
v -1341.960000 -121.191350 405.147830
v -1341.038600 -121.241260 405.715330
v -1340.678600 -120.489930 405.715330
v -1342.068800 -123.199710 403.296630
v -1341.907600 -123.055130 404.298500
v -1342.575700 -121.158010 404.298500
v -1341.960000 -121.191350 405.147830
v -1342.575700 -121.158010 404.298500
v -1341.907600 -123.055130 404.298500
v -1342.068800 -123.199710 393.702880
v -1342.068800 -123.199710 403.296630
v -1342.791900 -121.146290 403.296630
v -1342.575700 -121.158010 404.298500
v -1342.791900 -121.146290 403.296630
v -1342.068800 -123.199710 403.296630
v -1342.791900 -121.146290 403.296630
v -1342.791900 -121.146290 393.702880
v -1342.068800 -123.199710 393.702880
v -1340.678600 -120.489930 405.715330
v -1341.294800 -119.803090 405.147830
v -1341.960000 -121.191350 405.147830
v -1342.575700 -121.158010 404.298500
v -1341.960000 -121.191350 405.147830
v -1341.294800 -119.803090 405.147830
v -1341.294800 -119.803090 405.147830
v -1340.678600 -120.489930 405.715330
v -1339.892800 -120.213200 405.715330
v -1339.892800 -120.213200 405.715330
v -1339.842900 -119.291760 405.147830
v -1341.294800 -119.803090 405.147830
v -1341.294800 -119.803090 405.147830
v -1341.706500 -119.344150 404.298500
v -1342.575700 -121.158010 404.298500
v -1341.706500 -119.344150 404.298500
v -1341.294800 -119.803090 405.147830
v -1339.842900 -119.291760 405.147830
v -1342.791900 -121.146290 403.296630
v -1342.575700 -121.158010 404.298500
v -1341.706500 -119.344150 404.298500
v -1339.842900 -119.291760 405.147830
v -1339.809600 -118.676060 404.298500
v -1341.706500 -119.344150 404.298500
v -1341.706500 -119.344150 404.298500
v -1341.851200 -119.182980 403.296630
v -1342.791900 -121.146290 403.296630
v -1341.851200 -119.182980 403.296630
v -1341.706500 -119.344150 404.298500
v -1339.809600 -118.676060 404.298500
v -1342.791900 -121.146290 393.702880
v -1342.791900 -121.146290 403.296630
v -1341.851200 -119.182980 403.296630
v -1339.809600 -118.676060 404.298500
v -1339.797900 -118.459870 403.296630
v -1341.851200 -119.182980 403.296630
v -1341.851200 -119.182980 403.296630
v -1341.851200 -119.182980 393.702880
v -1342.791900 -121.146290 393.702880
v -1341.851200 -119.182980 393.702880
v -1341.851200 -119.182980 403.296630
v -1339.797900 -118.459870 403.296630
v -1339.797900 -118.459870 403.296630
v -1339.797900 -118.459870 393.702880
v -1341.851200 -119.182980 393.702880
vn 0.035138 0.706670 0.706670
vn 0.019623 0.404239 0.914443
vn 0.294912 0.271319 0.916195
vn 0.294912 0.271319 0.916195
vn 0.521304 0.474269 0.709444
vn 0.035138 0.706670 0.706670
vn 0.521304 0.474269 0.709444
vn 0.294912 0.271319 0.916195
vn 0.397641 -0.019685 0.917330
vn 0.043097 0.920705 0.387872
vn 0.035138 0.706670 0.706670
vn 0.521304 0.474269 0.709444
vn 0.521304 0.474269 0.709444
vn 0.681827 0.618768 0.390178
vn 0.043097 0.920705 0.387872
vn 0.397641 -0.019685 0.917330
vn 0.702728 -0.035333 0.710580
vn 0.521304 0.474269 0.709444
vn 0.681827 0.618768 0.390178
vn 0.521304 0.474269 0.709444
vn 0.702728 -0.035333 0.710580
vn 0.702728 -0.035333 0.710580
vn 0.397641 -0.019685 0.917330
vn 0.264011 -0.295535 0.918127
vn 0.050672 0.993950 0.097446
vn 0.043097 0.920705 0.387872
vn 0.681827 0.618768 0.390178
vn 0.681827 0.618768 0.390178
vn 0.734407 0.671570 0.098183
vn 0.050672 0.993950 0.097446
vn 0.264011 -0.295535 0.918127
vn 0.468159 -0.523237 0.712074
vn 0.702728 -0.035333 0.710580
vn 0.468159 -0.523237 0.712074
vn 0.264011 -0.295535 0.918127
vn -0.027554 -0.397567 0.917159
vn 0.702728 -0.035333 0.710580
vn 0.919499 -0.043410 0.390688
vn 0.681827 0.618768 0.390178
vn 0.919499 -0.043410 0.390688
vn 0.702728 -0.035333 0.710580
vn 0.468159 -0.523237 0.712074
vn 0.734407 0.671570 0.098183
vn 0.681827 0.618768 0.390178
vn 0.919499 -0.043410 0.390688
vn -0.027554 -0.397567 0.917159
vn -0.043171 -0.702512 0.710361
vn 0.468159 -0.523237 0.712074
vn -0.043171 -0.702512 0.710361
vn -0.027554 -0.397567 0.917159
vn -0.302702 -0.263390 0.915968
vn 0.050914 0.998695 -0.003916
vn 0.050672 0.993950 0.097446
vn 0.734407 0.671570 0.098183
vn 0.734407 0.671570 0.098183
vn 0.741530 0.670908 -0.003923
vn 0.050914 0.998695 -0.003916
vn 0.741530 0.670908 -0.003923
vn 0.734407 0.671570 0.098183
vn 0.993855 -0.051068 0.098207
vn 0.919499 -0.043410 0.390688
vn 0.993855 -0.051068 0.098207
vn 0.734407 0.671570 0.098183
vn 0.993855 -0.051068 0.098207
vn 0.998675 -0.051315 -0.003947
vn 0.741530 0.670908 -0.003923
vn 0.468159 -0.523237 0.712074
vn 0.613867 -0.685155 0.392083
vn 0.919499 -0.043410 0.390688
vn 0.993855 -0.051068 0.098207
vn 0.919499 -0.043410 0.390688
vn 0.613867 -0.685155 0.392083
vn 0.613867 -0.685155 0.392083
vn 0.468159 -0.523237 0.712074
vn -0.043171 -0.702512 0.710361
vn 0.998675 -0.051315 -0.003947
vn 0.993855 -0.051068 0.098207
vn 0.667224 -0.738289 0.098702
vn 0.613867 -0.685155 0.392083
vn 0.667224 -0.738289 0.098702
vn 0.993855 -0.051068 0.098207
vn 0.667224 -0.738289 0.098702
vn 0.666559 -0.745442 -0.003944
vn 0.998675 -0.051315 -0.003947
vn -0.043171 -0.702512 0.710361
vn -0.051283 -0.919155 0.390542
vn 0.613867 -0.685155 0.392083
vn 0.667224 -0.738289 0.098702
vn 0.613867 -0.685155 0.392083
vn -0.051283 -0.919155 0.390542
vn 0.666559 -0.745442 -0.003944
vn 0.667224 -0.738289 0.098702
vn -0.058899 -0.993426 0.098165
vn -0.051283 -0.919155 0.390542
vn -0.058899 -0.993426 0.098165
vn 0.667224 -0.738289 0.098702
vn -0.058899 -0.993426 0.098165
vn -0.059184 -0.998239 -0.003946
vn 0.666559 -0.745442 -0.003944
vn -0.051283 -0.919155 0.390542
vn -0.043171 -0.702512 0.710361
vn -0.528916 -0.466230 0.709139
vn -0.302702 -0.263390 0.915968
vn -0.528916 -0.466230 0.709139
vn -0.043171 -0.702512 0.710361
vn -0.528916 -0.466230 0.709139
vn -0.302702 -0.263390 0.915968
vn -0.404164 0.027467 0.914274
vn -0.058899 -0.993426 0.098165
vn -0.051283 -0.919155 0.390542
vn -0.689324 -0.610544 0.389960
vn -0.528916 -0.466230 0.709139
vn -0.689324 -0.610544 0.389960
vn -0.051283 -0.919155 0.390542
vn -0.059184 -0.998239 -0.003946
vn -0.058899 -0.993426 0.098165
vn -0.741850 -0.663347 0.098128
vn -0.689324 -0.610544 0.389960
vn -0.741850 -0.663347 0.098128
vn -0.058899 -0.993426 0.098165
vn -0.741850 -0.663347 0.098128
vn -0.748916 -0.662653 -0.003921
vn -0.059184 -0.998239 -0.003946
vn -0.404164 0.027467 0.914274
vn -0.706455 0.042934 0.706455
vn -0.528916 -0.466230 0.709139
vn -0.689324 -0.610544 0.389960
vn -0.528916 -0.466230 0.709139
vn -0.706455 0.042934 0.706455
vn -0.706455 0.042934 0.706455
vn -0.404164 0.027467 0.914274
vn -0.270684 0.302068 0.914049
vn -0.741850 -0.663347 0.098128
vn -0.689324 -0.610544 0.389960
vn -0.920366 0.050914 0.387729
vn -0.706455 0.042934 0.706455
vn -0.920366 0.050914 0.387729
vn -0.689324 -0.610544 0.389960
vn -0.748916 -0.662653 -0.003921
vn -0.741850 -0.663347 0.098128
vn -0.993528 0.058443 0.097405
vn -0.920366 0.050914 0.387729
vn -0.993528 0.058443 0.097405
vn -0.741850 -0.663347 0.098128
vn -0.993528 0.058443 0.097405
vn -0.998267 0.058722 -0.003915
vn -0.748916 -0.662653 -0.003921
vn -0.270684 0.302068 0.914049
vn -0.472328 0.526978 0.706541
vn -0.706455 0.042934 0.706455
vn -0.920366 0.050914 0.387729
vn -0.706455 0.042934 0.706455
vn -0.472328 0.526978 0.706541
vn -0.472328 0.526978 0.706541
vn -0.270684 0.302068 0.914049
vn 0.019623 0.404239 0.914443
vn 0.019623 0.404239 0.914443
vn 0.035138 0.706670 0.706670
vn -0.472328 0.526978 0.706541
vn -0.472328 0.526978 0.706541
vn -0.615450 0.686011 0.388086
vn -0.920366 0.050914 0.387729
vn -0.615450 0.686011 0.388086
vn -0.472328 0.526978 0.706541
vn 0.035138 0.706670 0.706670
vn -0.993528 0.058443 0.097405
vn -0.920366 0.050914 0.387729
vn -0.615450 0.686011 0.388086
vn 0.035138 0.706670 0.706670
vn 0.043097 0.920705 0.387872
vn -0.615450 0.686011 0.388086
vn -0.615450 0.686011 0.388086
vn -0.667709 0.737994 0.097618
vn -0.993528 0.058443 0.097405
vn -0.667709 0.737994 0.097618
vn -0.615450 0.686011 0.388086
vn 0.043097 0.920705 0.387872
vn -0.998267 0.058722 -0.003915
vn -0.993528 0.058443 0.097405
vn -0.667709 0.737994 0.097618
vn 0.043097 0.920705 0.387872
vn 0.050672 0.993950 0.097446
vn -0.667709 0.737994 0.097618
vn -0.667709 0.737994 0.097618
vn -0.667018 0.745032 -0.003901
vn -0.998267 0.058722 -0.003915
vn -0.667018 0.745032 -0.003901
vn -0.667709 0.737994 0.097618
vn 0.050672 0.993950 0.097446
vn 0.050672 0.993950 0.097446
vn 0.050914 0.998695 -0.003916
vn -0.667018 0.745032 -0.003901
vt 0.659668 0.980499
vt 0.574219 0.945129
vt 0.569824 0.883301
vt 0.569824 0.883301
vt 0.678711 0.869385
vt 0.659668 0.980499
vt 0.678711 0.869385
vt 0.569824 0.883301
vt 0.549316 0.832397
vt 0.824219 0.947052
vt 0.731934 0.968857
vt 0.678711 0.869385
vt 0.678711 0.869385
vt 0.769531 0.811035
vt 0.824219 0.947052
vt 0.549316 0.832397
vt 0.626465 0.792847
vt 0.678711 0.869385
vt 0.769531 0.811035
vt 0.678711 0.869385
vt 0.626465 0.792847
vt 0.626465 0.792847
vt 0.549316 0.832397
vt 0.509277 0.799072
vt 0.946289 0.821167
vt 0.890137 0.891663
vt 0.769531 0.811035
vt 0.769531 0.811035
vt 0.818848 0.630371
vt 0.946289 0.821167
vt 0.509277 0.799072
vt 0.557617 0.739746
vt 0.626465 0.792847
vt 0.557617 0.739746
vt 0.509277 0.799072
vt 0.459473 0.791870
vt 0.626465 0.792847
vt 0.680664 0.731689
vt 0.769531 0.811035
vt 0.680664 0.731689
vt 0.626465 0.792847
vt 0.557617 0.739746
vt 0.818848 0.630371
vt 0.769531 0.811035
vt 0.680664 0.731689
vt 0.459473 0.791870
vt 0.476074 0.720459
vt 0.557617 0.739746
vt 0.476074 0.720459
vt 0.459473 0.791870
vt 0.413086 0.810791
vt 0.952148 0.034180
vt 0.958496 0.630371
vt 0.818848 0.630371
vt 0.818848 0.630371
vt 0.859863 0.034180
vt 0.952148 0.034180
vt 0.859863 0.034180
vt 0.818848 0.630371
vt 0.703613 0.630371
vt 0.680664 0.731689
vt 0.703613 0.630371
vt 0.818848 0.630371
vt 0.703613 0.630371
vt 0.753418 0.034180
vt 0.859863 0.034180
vt 0.557617 0.739746
vt 0.587891 0.676514
vt 0.680664 0.731689
vt 0.703613 0.630371
vt 0.680664 0.731689
vt 0.587891 0.676514
vt 0.587891 0.676514
vt 0.557617 0.739746
vt 0.476074 0.720459
vt 0.753418 0.034180
vt 0.703613 0.630371
vt 0.598633 0.630371
vt 0.587891 0.676514
vt 0.598633 0.630371
vt 0.703613 0.630371
vt 0.598633 0.630371
vt 0.624023 0.034180
vt 0.753418 0.034180
vt 0.476074 0.720459
vt 0.488525 0.654785
vt 0.587891 0.676514
vt 0.598633 0.630371
vt 0.587891 0.676514
vt 0.488525 0.654785
vt 0.624023 0.034180
vt 0.598633 0.630371
vt 0.491455 0.630371
vt 0.488525 0.654785
vt 0.491455 0.630371
vt 0.598633 0.630371
vt 0.491455 0.630371
vt 0.484375 0.034180
vt 0.624023 0.034180
vt 0.488525 0.654785
vt 0.476074 0.720459
vt 0.393555 0.736328
vt 0.413086 0.810791
vt 0.393555 0.736328
vt 0.476074 0.720459
vt 0.393555 0.736328
vt 0.413086 0.810791
vt 0.378906 0.847778
vt 0.491455 0.630371
vt 0.488525 0.654785
vt 0.387451 0.667236
vt 0.393555 0.736328
vt 0.387451 0.667236
vt 0.488525 0.654785
vt 0.484375 0.034180
vt 0.491455 0.630371
vt 0.382568 0.630371
vt 0.387451 0.667236
vt 0.382568 0.630371
vt 0.491455 0.630371
vt 0.382568 0.630371
vt 0.347412 0.034180
vt 0.484375 0.034180
vt 0.378906 0.847778
vt 0.321045 0.783203
vt 0.393555 0.736328
vt 0.387451 0.667236
vt 0.393555 0.736328
vt 0.321045 0.783203
vt 0.321045 0.783203
vt 0.378906 0.847778
vt 0.363037 0.897278
vt 0.382568 0.630371
vt 0.387451 0.667236
vt 0.290039 0.711670
vt 0.321045 0.783203
vt 0.290039 0.711670
vt 0.387451 0.667236
vt 0.347412 0.034180
vt 0.382568 0.630371
vt 0.274902 0.630371
vt 0.290039 0.711670
vt 0.274902 0.630371
vt 0.382568 0.630371
vt 0.274902 0.630371
vt 0.223633 0.034180
vt 0.347412 0.034180
vt 0.363037 0.897278
vt 0.262695 0.854004
vt 0.321045 0.783203
vt 0.290039 0.711670
vt 0.321045 0.783203
vt 0.262695 0.854004
vt 0.262695 0.854004
vt 0.363037 0.897278
vt 0.331787 0.948975
vt 0.331787 0.948975
vt 0.221680 0.935547
vt 0.262695 0.854004
vt 0.262695 0.854004
vt 0.198853 0.784790
vt 0.290039 0.711670
vt 0.198853 0.784790
vt 0.262695 0.854004
vt 0.221680 0.935547
vt 0.274902 0.630371
vt 0.290039 0.711670
vt 0.198853 0.784790
vt 0.221680 0.935547
vt 0.120850 0.889404
vt 0.198853 0.784790
vt 0.198853 0.784790
vt 0.166992 0.630371
vt 0.274902 0.630371
vt 0.166992 0.630371
vt 0.198853 0.784790
vt 0.120850 0.889404
vt 0.223633 0.034180
vt 0.274902 0.630371
vt 0.166992 0.630371
vt 0.120850 0.889404
vt 0.050354 0.840698
vt 0.166992 0.630371
vt 0.166992 0.630371
vt 0.119873 0.034180
vt 0.223633 0.034180
vt 0.119873 0.034180
vt 0.166992 0.630371
vt 0.054779 0.630371
vt 0.054779 0.630371
vt 0.035187 0.034180
vt 0.119873 0.034180
f 1/1/1 2/2/2 3/3/3
f 4/4/4 5/5/5 6/6/6
f 7/7/7 8/8/8 9/9/9
f 10/10/10 11/11/11 12/12/12
f 13/13/13 14/14/14 15/15/15
f 16/16/16 17/17/17 18/18/18
f 19/19/19 20/20/20 21/21/21
f 22/22/22 23/23/23 24/24/24
f 25/25/25 26/26/26 27/27/27
f 28/28/28 29/29/29 30/30/30
f 31/31/31 32/32/32 33/33/33
f 34/34/34 35/35/35 36/36/36
f 37/37/37 38/38/38 39/39/39
f 40/40/40 41/41/41 42/42/42
f 43/43/43 44/44/44 45/45/45
f 46/46/46 47/47/47 48/48/48
f 49/49/49 50/50/50 51/51/51
f 52/52/52 53/53/53 54/54/54
f 55/55/55 56/56/56 57/57/57
f 58/58/58 59/59/59 60/60/60
f 61/61/61 62/62/62 63/63/63
f 64/64/64 65/65/65 66/66/66
f 67/67/67 68/68/68 69/69/69
f 70/70/70 71/71/71 72/72/72
f 73/73/73 74/74/74 75/75/75
f 76/76/76 77/77/77 78/78/78
f 79/79/79 80/80/80 81/81/81
f 82/82/82 83/83/83 84/84/84
f 85/85/85 86/86/86 87/87/87
f 88/88/88 89/89/89 90/90/90
f 91/91/91 92/92/92 93/93/93
f 94/94/94 95/95/95 96/96/96
f 97/97/97 98/98/98 99/99/99
f 100/100/100 101/101/101 102/102/102
f 103/103/103 104/104/104 105/105/105
f 106/106/106 107/107/107 108/108/108
f 109/109/109 110/110/110 111/111/111
f 112/112/112 113/113/113 114/114/114
f 115/115/115 116/116/116 117/117/117
f 118/118/118 119/119/119 120/120/120
f 121/121/121 122/122/122 123/123/123
f 124/124/124 125/125/125 126/126/126
f 127/127/127 128/128/128 129/129/129
f 130/130/130 131/131/131 132/132/132
f 133/133/133 134/134/134 135/135/135
f 136/136/136 137/137/137 138/138/138
f 139/139/139 140/140/140 141/141/141
f 142/142/142 143/143/143 144/144/144
f 145/145/145 146/146/146 147/147/147
f 148/148/148 149/149/149 150/150/150
f 151/151/151 152/152/152 153/153/153
f 154/154/154 155/155/155 156/156/156
f 157/157/157 158/158/158 159/159/159
f 160/160/160 161/161/161 162/162/162
f 163/163/163 164/164/164 165/165/165
f 166/166/166 167/167/167 168/168/168
f 169/169/169 170/170/170 171/171/171
f 172/172/172 173/173/173 174/174/174
f 175/175/175 176/176/176 177/177/177
f 178/178/178 179/179/179 180/180/180
f 181/181/181 182/182/182 183/183/183
f 184/184/184 185/185/185 186/186/186
f 187/187/187 188/188/188 189/189/189
f 190/190/190 191/191/191 192/192/192
