# OBJ file
v 779.690100 -866.852000 442.676240
v 780.516500 -866.441200 443.243770
v 780.459400 -865.610000 443.243770
v 780.459400 -865.610000 443.243770
v 779.584660 -865.316160 442.676240
v 779.690100 -866.852000 442.676240
v 779.584660 -865.316160 442.676240
v 780.459400 -865.610000 443.243770
v 781.006800 -864.982000 443.243770
v 779.137940 -867.126200 441.826900
v 779.690100 -866.852000 442.676240
v 779.584660 -865.316160 442.676240
v 779.584660 -865.316160 442.676240
v 779.000200 -865.119700 441.826900
v 779.137940 -867.126200 441.826900
v 781.006800 -864.982000 443.243770
v 780.596070 -864.155500 442.676240
v 779.584660 -865.316160 442.676240
v 779.000200 -865.119700 441.826900
v 779.584660 -865.316160 442.676240
v 780.596070 -864.155500 442.676240
v 780.596070 -864.155500 442.676240
v 781.006800 -864.982000 443.243770
v 781.837900 -864.924870 443.243770
v 778.944100 -867.222700 440.825040
v 779.137940 -867.126200 441.826900
v 779.000200 -865.119700 441.826900
v 779.000200 -865.119700 441.826900
v 778.794900 -865.050700 440.825040
v 778.944100 -867.222700 440.825040
v 781.837900 -864.924870 443.243770
v 782.131840 -864.050200 442.676240
v 780.596070 -864.155500 442.676240
v 782.131840 -864.050200 442.676240
v 781.837900 -864.924870 443.243770
v 782.466000 -865.472300 443.243770
v 780.596070 -864.155500 442.676240
v 780.321600 -863.603400 441.826900
v 779.000200 -865.119700 441.826900
v 780.321600 -863.603400 441.826900
v 780.596070 -864.155500 442.676240
v 782.131840 -864.050200 442.676240
v 778.794900 -865.050700 440.825040
v 779.000200 -865.119700 441.826900
v 780.321600 -863.603400 441.826900
v 782.466000 -865.472300 443.243770
v 783.292360 -865.061500 442.676240
v 782.131840 -864.050200 442.676240
v 783.292360 -865.061500 442.676240
v 782.466000 -865.472300 443.243770
v 782.523100 -866.303400 443.243770
v 778.944100 -867.222700 431.231300
v 778.944100 -867.222700 440.825040
v 778.794900 -865.050700 440.825040
v 778.794900 -865.050700 440.825040
v 778.794900 -865.050700 431.231300
v 778.944100 -867.222700 431.231300
v 778.794900 -865.050700 431.231300
v 778.794900 -865.050700 440.825040
v 780.225300 -863.409550 440.825040
v 780.321600 -863.603400 441.826900
v 780.225300 -863.409550 440.825040
v 778.794900 -865.050700 440.825040
v 780.225300 -863.409550 440.825040
v 780.225300 -863.409550 431.231300
v 778.794900 -865.050700 431.231300
v 782.131840 -864.050200 442.676240
v 782.328200 -863.465640 441.826900
v 780.321600 -863.603400 441.826900
v 780.225300 -863.409550 440.825040
v 780.321600 -863.603400 441.826900
v 782.328200 -863.465640 441.826900
v 782.328200 -863.465640 441.826900
v 782.131840 -864.050200 442.676240
v 783.292360 -865.061500 442.676240
v 780.225300 -863.409550 431.231300
v 780.225300 -863.409550 440.825040
v 782.397160 -863.260400 440.825040
v 782.328200 -863.465640 441.826900
v 782.397160 -863.260400 440.825040
v 780.225300 -863.409550 440.825040
v 782.397160 -863.260400 440.825040
v 782.397160 -863.260400 431.231300
v 780.225300 -863.409550 431.231300
v 783.292360 -865.061500 442.676240
v 783.844540 -864.787100 441.826900
v 782.328200 -863.465640 441.826900
v 782.397160 -863.260400 440.825040
v 782.328200 -863.465640 441.826900
v 783.844540 -864.787100 441.826900
v 782.397160 -863.260400 431.231300
v 782.397160 -863.260400 440.825040
v 784.038400 -864.690800 440.825040
v 783.844540 -864.787100 441.826900
v 784.038400 -864.690800 440.825040
v 782.397160 -863.260400 440.825040
v 784.038400 -864.690800 440.825040
v 784.038400 -864.690800 431.231300
v 782.397160 -863.260400 431.231300
v 783.844540 -864.787100 441.826900
v 783.292360 -865.061500 442.676240
v 783.397800 -866.597300 442.676240
v 782.523100 -866.303400 443.243770
v 783.397800 -866.597300 442.676240
v 783.292360 -865.061500 442.676240
v 783.397800 -866.597300 442.676240
v 782.523100 -866.303400 443.243770
v 781.975700 -866.931500 443.243770
v 784.038400 -864.690800 440.825040
v 783.844540 -864.787100 441.826900
v 783.982300 -866.793700 441.826900
v 783.397800 -866.597300 442.676240
v 783.982300 -866.793700 441.826900
v 783.844540 -864.787100 441.826900
v 784.038400 -864.690800 431.231300
v 784.038400 -864.690800 440.825040
v 784.187500 -866.862600 440.825040
v 783.982300 -866.793700 441.826900
v 784.187500 -866.862600 440.825040
v 784.038400 -864.690800 440.825040
v 784.187500 -866.862600 440.825040
v 784.187500 -866.862600 431.231300
v 784.038400 -864.690800 431.231300
v 781.975700 -866.931500 443.243770
v 782.386400 -867.757900 442.676240
v 783.397800 -866.597300 442.676240
v 783.982300 -866.793700 441.826900
v 783.397800 -866.597300 442.676240
v 782.386400 -867.757900 442.676240
v 782.386400 -867.757900 442.676240
v 781.975700 -866.931500 443.243770
v 781.144530 -866.988500 443.243770
v 784.187500 -866.862600 440.825040
v 783.982300 -866.793700 441.826900
v 782.660900 -868.310060 441.826900
v 782.386400 -867.757900 442.676240
v 782.660900 -868.310060 441.826900
v 783.982300 -866.793700 441.826900
v 784.187500 -866.862600 431.231300
v 784.187500 -866.862600 440.825040
v 782.757200 -868.503900 440.825040
v 782.660900 -868.310060 441.826900
v 782.757200 -868.503900 440.825040
v 784.187500 -866.862600 440.825040
v 782.757200 -868.503900 440.825040
v 782.757200 -868.503900 431.231300
v 784.187500 -866.862600 431.231300
v 781.144530 -866.988500 443.243770
v 780.850650 -867.863340 442.676240
v 782.386400 -867.757900 442.676240
v 782.660900 -868.310060 441.826900
v 782.386400 -867.757900 442.676240
v 780.850650 -867.863340 442.676240
v 780.850650 -867.863340 442.676240
v 781.144530 -866.988500 443.243770
v 780.516500 -866.441200 443.243770
v 780.516500 -866.441200 443.243770
v 779.690100 -866.852000 442.676240
v 780.850650 -867.863340 442.676240
v 780.850650 -867.863340 442.676240
v 780.654240 -868.447800 441.826900
v 782.660900 -868.310060 441.826900
v 780.654240 -868.447800 441.826900
v 780.850650 -867.863340 442.676240
v 779.690100 -866.852000 442.676240
v 782.757200 -868.503900 440.825040
v 782.660900 -868.310060 441.826900
v 780.654240 -868.447800 441.826900
v 779.690100 -866.852000 442.676240
v 779.137940 -867.126200 441.826900
v 780.654240 -868.447800 441.826900
v 780.654240 -868.447800 441.826900
v 780.585270 -868.653100 440.825040
v 782.757200 -868.503900 440.825040
v 780.585270 -868.653100 440.825040
v 780.654240 -868.447800 441.826900
v 779.137940 -867.126200 441.826900
v 782.757200 -868.503900 431.231300
v 782.757200 -868.503900 440.825040
v 780.585270 -868.653100 440.825040
v 779.137940 -867.126200 441.826900
v 778.944100 -867.222700 440.825040
v 780.585270 -868.653100 440.825040
v 780.585270 -868.653100 440.825040
v 780.585270 -868.653100 431.231300
v 782.757200 -868.503900 431.231300
v 780.585270 -868.653100 431.231300
v 780.585270 -868.653100 440.825040
v 778.944100 -867.222700 440.825040
v 778.944100 -867.222700 440.825040
v 778.944100 -867.222700 431.231300
v 780.585270 -868.653100 431.231300
vn -0.631868 -0.310047 0.710361
vn -0.358048 -0.177057 0.916762
vn -0.381090 0.129649 0.915402
vn -0.381090 0.129649 0.915402
vn -0.668239 0.230562 0.707317
vn -0.631868 -0.310047 0.710361
vn -0.668239 0.230562 0.707317
vn -0.381090 0.129649 0.915402
vn -0.184663 0.357540 0.915459
vn -0.828050 -0.404214 0.388516
vn -0.631868 -0.310047 0.710361
vn -0.668239 0.230562 0.707317
vn -0.668239 0.230562 0.707317
vn -0.873637 0.293824 0.387848
vn -0.828050 -0.404214 0.388516
vn -0.184663 0.357540 0.915459
vn -0.317116 0.630317 0.708617
vn -0.668239 0.230562 0.707317
vn -0.873637 0.293824 0.387848
vn -0.668239 0.230562 0.707317
vn -0.317116 0.630317 0.708617
vn -0.317116 0.630317 0.708617
vn -0.184663 0.357540 0.915459
vn 0.121912 0.381467 0.916308
vn -0.895550 -0.434088 0.097767
vn -0.828050 -0.404214 0.388516
vn -0.873637 0.293824 0.387848
vn -0.873637 0.293824 0.387848
vn -0.943344 0.317058 0.097857
vn -0.895550 -0.434088 0.097767
vn 0.121912 0.381467 0.916308
vn 0.223142 0.669426 0.708574
vn -0.317116 0.630317 0.708617
vn 0.223142 0.669426 0.708574
vn 0.121912 0.381467 0.916308
vn 0.350657 0.185179 0.918013
vn -0.317116 0.630317 0.708617
vn -0.410749 0.825410 0.387278
vn -0.873637 0.293824 0.387848
vn -0.410749 0.825410 0.387278
vn -0.317116 0.630317 0.708617
vn 0.223142 0.669426 0.708574
vn -0.943344 0.317058 0.097857
vn -0.873637 0.293824 0.387848
vn -0.410749 0.825410 0.387278
vn 0.350657 0.185179 0.918013
vn 0.625563 0.318683 0.712118
vn 0.223142 0.669426 0.708574
vn 0.625563 0.318683 0.712118
vn 0.350657 0.185179 0.918013
vn 0.374716 -0.122276 0.919041
vn -0.896758 -0.442505 -0.003916
vn -0.895550 -0.434088 0.097767
vn -0.943344 0.317058 0.097857
vn -0.943344 0.317058 0.097857
vn -0.946314 0.323226 -0.003894
vn -0.896758 -0.442505 -0.003916
vn -0.946314 0.323226 -0.003894
vn -0.943344 0.317058 0.097857
vn -0.440403 0.892498 0.097434
vn -0.410749 0.825410 0.387278
vn -0.440403 0.892498 0.097434
vn -0.943344 0.317058 0.097857
vn -0.440403 0.892498 0.097434
vn -0.448770 0.893639 -0.003902
vn -0.946314 0.323226 -0.003894
vn 0.223142 0.669426 0.708574
vn 0.286641 0.875628 0.388732
vn -0.410749 0.825410 0.387278
vn -0.440403 0.892498 0.097434
vn -0.410749 0.825410 0.387278
vn 0.286641 0.875628 0.388732
vn 0.286641 0.875628 0.388732
vn 0.223142 0.669426 0.708574
vn 0.625563 0.318683 0.712118
vn -0.448770 0.893639 -0.003902
vn -0.440403 0.892498 0.097434
vn 0.309990 0.945665 0.098098
vn 0.286641 0.875628 0.388732
vn 0.309990 0.945665 0.098098
vn -0.440403 0.892498 0.097434
vn 0.309990 0.945665 0.098098
vn 0.316225 0.948676 -0.003904
vn -0.448770 0.893639 -0.003902
vn 0.625563 0.318683 0.712118
vn 0.822892 0.413415 0.389791
vn 0.286641 0.875628 0.388732
vn 0.309990 0.945665 0.098098
vn 0.286641 0.875628 0.388732
vn 0.822892 0.413415 0.389791
vn 0.316225 0.948676 -0.003904
vn 0.309990 0.945665 0.098098
vn 0.890895 0.443485 0.098116
vn 0.822892 0.413415 0.389791
vn 0.890895 0.443485 0.098116
vn 0.309990 0.945665 0.098098
vn 0.890895 0.443485 0.098116
vn 0.892050 0.451920 -0.003930
vn 0.316225 0.948676 -0.003904
vn 0.822892 0.413415 0.389791
vn 0.625563 0.318683 0.712118
vn 0.665071 -0.224314 0.712295
vn 0.374716 -0.122276 0.919041
vn 0.665071 -0.224314 0.712295
vn 0.625563 0.318683 0.712118
vn 0.665071 -0.224314 0.712295
vn 0.374716 -0.122276 0.919041
vn 0.177552 -0.351159 0.919327
vn 0.890895 0.443485 0.098116
vn 0.822892 0.413415 0.389791
vn 0.873777 -0.288623 0.391421
vn 0.665071 -0.224314 0.712295
vn 0.873777 -0.288623 0.391421
vn 0.822892 0.413415 0.389791
vn 0.892050 0.451920 -0.003930
vn 0.890895 0.443485 0.098116
vn 0.944826 -0.312307 0.098831
vn 0.873777 -0.288623 0.391421
vn 0.944826 -0.312307 0.098831
vn 0.890895 0.443485 0.098116
vn 0.944826 -0.312307 0.098831
vn 0.947886 -0.318584 -0.003933
vn 0.892050 0.451920 -0.003930
vn 0.177552 -0.351159 0.919327
vn 0.311587 -0.627118 0.713889
vn 0.665071 -0.224314 0.712295
vn 0.873777 -0.288623 0.391421
vn 0.665071 -0.224314 0.712295
vn 0.311587 -0.627118 0.713889
vn 0.311587 -0.627118 0.713889
vn 0.177552 -0.351159 0.919327
vn -0.130035 -0.374344 0.918127
vn 0.944826 -0.312307 0.098831
vn 0.873777 -0.288623 0.391421
vn 0.406854 -0.825558 0.391054
vn 0.311587 -0.627118 0.713889
vn 0.406854 -0.825558 0.391054
vn 0.873777 -0.288623 0.391421
vn 0.947886 -0.318584 -0.003933
vn 0.944826 -0.312307 0.098831
vn 0.437147 -0.893985 0.098457
vn 0.406854 -0.825558 0.391054
vn 0.437147 -0.893985 0.098457
vn 0.944826 -0.312307 0.098831
vn 0.437147 -0.893985 0.098457
vn 0.445632 -0.895208 -0.003944
vn 0.947886 -0.318584 -0.003933
vn -0.130035 -0.374344 0.918127
vn -0.231768 -0.663879 0.711019
vn 0.311587 -0.627118 0.713889
vn 0.406854 -0.825558 0.391054
vn 0.311587 -0.627118 0.713889
vn -0.231768 -0.663879 0.711019
vn -0.231768 -0.663879 0.711019
vn -0.130035 -0.374344 0.918127
vn -0.358048 -0.177057 0.916762
vn -0.358048 -0.177057 0.916762
vn -0.631868 -0.310047 0.710361
vn -0.231768 -0.663879 0.711019
vn -0.231768 -0.663879 0.711019
vn -0.295847 -0.871763 0.390518
vn 0.406854 -0.825558 0.391054
vn -0.295847 -0.871763 0.390518
vn -0.231768 -0.663879 0.711019
vn -0.631868 -0.310047 0.710361
vn 0.437147 -0.893985 0.098457
vn 0.406854 -0.825558 0.391054
vn -0.295847 -0.871763 0.390518
vn -0.631868 -0.310047 0.710361
vn -0.828050 -0.404214 0.388516
vn -0.295847 -0.871763 0.390518
vn -0.295847 -0.871763 0.390518
vn -0.319415 -0.942473 0.098585
vn 0.437147 -0.893985 0.098457
vn -0.319415 -0.942473 0.098585
vn -0.295847 -0.871763 0.390518
vn -0.828050 -0.404214 0.388516
vn 0.445632 -0.895208 -0.003944
vn 0.437147 -0.893985 0.098457
vn -0.319415 -0.942473 0.098585
vn -0.828050 -0.404214 0.388516
vn -0.895550 -0.434088 0.097767
vn -0.319415 -0.942473 0.098585
vn -0.319415 -0.942473 0.098585
vn -0.325625 -0.945491 -0.003923
vn 0.445632 -0.895208 -0.003944
vn -0.325625 -0.945491 -0.003923
vn -0.319415 -0.942473 0.098585
vn -0.895550 -0.434088 0.097767
vn -0.895550 -0.434088 0.097767
vn -0.896758 -0.442505 -0.003916
vn -0.325625 -0.945491 -0.003923
vt 0.659668 0.980499
vt 0.574219 0.945129
vt 0.569824 0.883301
vt 0.569824 0.883301
vt 0.678711 0.869385
vt 0.659668 0.980499
vt 0.678711 0.869385
vt 0.569824 0.883301
vt 0.549316 0.832397
vt 0.824219 0.947052
vt 0.731934 0.968857
vt 0.678711 0.869385
vt 0.678711 0.869385
vt 0.769531 0.811035
vt 0.824219 0.947052
vt 0.549316 0.832397
vt 0.626465 0.792847
vt 0.678711 0.869385
vt 0.769531 0.811035
vt 0.678711 0.869385
vt 0.626465 0.792847
vt 0.626465 0.792847
vt 0.549316 0.832397
vt 0.509277 0.799072
vt 0.946289 0.821167
vt 0.890137 0.891663
vt 0.769531 0.811035
vt 0.769531 0.811035
vt 0.818848 0.630371
vt 0.946289 0.821167
vt 0.509277 0.799072
vt 0.557617 0.739746
vt 0.626465 0.792847
vt 0.557617 0.739746
vt 0.509277 0.799072
vt 0.459473 0.791870
vt 0.626465 0.792847
vt 0.680664 0.731689
vt 0.769531 0.811035
vt 0.680664 0.731689
vt 0.626465 0.792847
vt 0.557617 0.739746
vt 0.818848 0.630371
vt 0.769531 0.811035
vt 0.680664 0.731689
vt 0.459473 0.791870
vt 0.476074 0.720459
vt 0.557617 0.739746
vt 0.476074 0.720459
vt 0.459473 0.791870
vt 0.413086 0.810791
vt 0.952148 0.034180
vt 0.958496 0.630371
vt 0.818848 0.630371
vt 0.818848 0.630371
vt 0.859863 0.034180
vt 0.952148 0.034180
vt 0.859863 0.034180
vt 0.818848 0.630371
vt 0.703613 0.630371
vt 0.680664 0.731689
vt 0.703613 0.630371
vt 0.818848 0.630371
vt 0.703613 0.630371
vt 0.753418 0.034180
vt 0.859863 0.034180
vt 0.557617 0.739746
vt 0.587891 0.676514
vt 0.680664 0.731689
vt 0.703613 0.630371
vt 0.680664 0.731689
vt 0.587891 0.676514
vt 0.587891 0.676514
vt 0.557617 0.739746
vt 0.476074 0.720459
vt 0.753418 0.034180
vt 0.703613 0.630371
vt 0.598633 0.630371
vt 0.587891 0.676514
vt 0.598633 0.630371
vt 0.703613 0.630371
vt 0.598633 0.630371
vt 0.624023 0.034180
vt 0.753418 0.034180
vt 0.476074 0.720459
vt 0.488525 0.654785
vt 0.587891 0.676514
vt 0.598633 0.630371
vt 0.587891 0.676514
vt 0.488525 0.654785
vt 0.624023 0.034180
vt 0.598633 0.630371
vt 0.491455 0.630371
vt 0.488525 0.654785
vt 0.491455 0.630371
vt 0.598633 0.630371
vt 0.491455 0.630371
vt 0.484375 0.034180
vt 0.624023 0.034180
vt 0.488525 0.654785
vt 0.476074 0.720459
vt 0.393555 0.736328
vt 0.413086 0.810791
vt 0.393555 0.736328
vt 0.476074 0.720459
vt 0.393555 0.736328
vt 0.413086 0.810791
vt 0.378906 0.847778
vt 0.491455 0.630371
vt 0.488525 0.654785
vt 0.387451 0.667236
vt 0.393555 0.736328
vt 0.387451 0.667236
vt 0.488525 0.654785
vt 0.484375 0.034180
vt 0.491455 0.630371
vt 0.382568 0.630371
vt 0.387451 0.667236
vt 0.382568 0.630371
vt 0.491455 0.630371
vt 0.382568 0.630371
vt 0.347412 0.034180
vt 0.484375 0.034180
vt 0.378906 0.847778
vt 0.321045 0.783203
vt 0.393555 0.736328
vt 0.387451 0.667236
vt 0.393555 0.736328
vt 0.321045 0.783203
vt 0.321045 0.783203
vt 0.378906 0.847778
vt 0.363037 0.897278
vt 0.382568 0.630371
vt 0.387451 0.667236
vt 0.290039 0.711670
vt 0.321045 0.783203
vt 0.290039 0.711670
vt 0.387451 0.667236
vt 0.347412 0.034180
vt 0.382568 0.630371
vt 0.274902 0.630371
vt 0.290039 0.711670
vt 0.274902 0.630371
vt 0.382568 0.630371
vt 0.274902 0.630371
vt 0.223633 0.034180
vt 0.347412 0.034180
vt 0.363037 0.897278
vt 0.262695 0.854004
vt 0.321045 0.783203
vt 0.290039 0.711670
vt 0.321045 0.783203
vt 0.262695 0.854004
vt 0.262695 0.854004
vt 0.363037 0.897278
vt 0.331787 0.948975
vt 0.331787 0.948975
vt 0.221680 0.935547
vt 0.262695 0.854004
vt 0.262695 0.854004
vt 0.198853 0.784790
vt 0.290039 0.711670
vt 0.198853 0.784790
vt 0.262695 0.854004
vt 0.221680 0.935547
vt 0.274902 0.630371
vt 0.290039 0.711670
vt 0.198853 0.784790
vt 0.221680 0.935547
vt 0.120850 0.889404
vt 0.198853 0.784790
vt 0.198853 0.784790
vt 0.166992 0.630371
vt 0.274902 0.630371
vt 0.166992 0.630371
vt 0.198853 0.784790
vt 0.120850 0.889404
vt 0.223633 0.034180
vt 0.274902 0.630371
vt 0.166992 0.630371
vt 0.120850 0.889404
vt 0.050354 0.840698
vt 0.166992 0.630371
vt 0.166992 0.630371
vt 0.119873 0.034180
vt 0.223633 0.034180
vt 0.119873 0.034180
vt 0.166992 0.630371
vt 0.054779 0.630371
vt 0.054779 0.630371
vt 0.035187 0.034180
vt 0.119873 0.034180
f 1/1/1 2/2/2 3/3/3
f 4/4/4 5/5/5 6/6/6
f 7/7/7 8/8/8 9/9/9
f 10/10/10 11/11/11 12/12/12
f 13/13/13 14/14/14 15/15/15
f 16/16/16 17/17/17 18/18/18
f 19/19/19 20/20/20 21/21/21
f 22/22/22 23/23/23 24/24/24
f 25/25/25 26/26/26 27/27/27
f 28/28/28 29/29/29 30/30/30
f 31/31/31 32/32/32 33/33/33
f 34/34/34 35/35/35 36/36/36
f 37/37/37 38/38/38 39/39/39
f 40/40/40 41/41/41 42/42/42
f 43/43/43 44/44/44 45/45/45
f 46/46/46 47/47/47 48/48/48
f 49/49/49 50/50/50 51/51/51
f 52/52/52 53/53/53 54/54/54
f 55/55/55 56/56/56 57/57/57
f 58/58/58 59/59/59 60/60/60
f 61/61/61 62/62/62 63/63/63
f 64/64/64 65/65/65 66/66/66
f 67/67/67 68/68/68 69/69/69
f 70/70/70 71/71/71 72/72/72
f 73/73/73 74/74/74 75/75/75
f 76/76/76 77/77/77 78/78/78
f 79/79/79 80/80/80 81/81/81
f 82/82/82 83/83/83 84/84/84
f 85/85/85 86/86/86 87/87/87
f 88/88/88 89/89/89 90/90/90
f 91/91/91 92/92/92 93/93/93
f 94/94/94 95/95/95 96/96/96
f 97/97/97 98/98/98 99/99/99
f 100/100/100 101/101/101 102/102/102
f 103/103/103 104/104/104 105/105/105
f 106/106/106 107/107/107 108/108/108
f 109/109/109 110/110/110 111/111/111
f 112/112/112 113/113/113 114/114/114
f 115/115/115 116/116/116 117/117/117
f 118/118/118 119/119/119 120/120/120
f 121/121/121 122/122/122 123/123/123
f 124/124/124 125/125/125 126/126/126
f 127/127/127 128/128/128 129/129/129
f 130/130/130 131/131/131 132/132/132
f 133/133/133 134/134/134 135/135/135
f 136/136/136 137/137/137 138/138/138
f 139/139/139 140/140/140 141/141/141
f 142/142/142 143/143/143 144/144/144
f 145/145/145 146/146/146 147/147/147
f 148/148/148 149/149/149 150/150/150
f 151/151/151 152/152/152 153/153/153
f 154/154/154 155/155/155 156/156/156
f 157/157/157 158/158/158 159/159/159
f 160/160/160 161/161/161 162/162/162
f 163/163/163 164/164/164 165/165/165
f 166/166/166 167/167/167 168/168/168
f 169/169/169 170/170/170 171/171/171
f 172/172/172 173/173/173 174/174/174
f 175/175/175 176/176/176 177/177/177
f 178/178/178 179/179/179 180/180/180
f 181/181/181 182/182/182 183/183/183
f 184/184/184 185/185/185 186/186/186
f 187/187/187 188/188/188 189/189/189
f 190/190/190 191/191/191 192/192/192
