# OBJ file
v -210.679520 -465.790830 442.676240
v -209.807450 -465.489070 443.243770
v -209.757810 -464.657470 443.243770
v -209.757810 -464.657470 443.243770
v -210.587830 -464.254150 442.676240
v -210.679520 -465.790830 442.676240
v -210.587830 -464.254150 442.676240
v -209.757810 -464.657470 443.243770
v -209.134690 -464.104460 443.243770
v -211.262220 -465.992430 441.826900
v -210.679520 -465.790830 442.676240
v -210.587830 -464.254150 442.676240
v -210.587830 -464.254150 442.676240
v -211.142430 -463.984700 441.826900
v -211.262220 -465.992430 441.826900
v -209.134690 -464.104460 443.243770
v -209.436430 -463.232450 442.676240
v -210.587830 -464.254150 442.676240
v -211.142430 -463.984700 441.826900
v -210.587830 -464.254150 442.676240
v -209.436430 -463.232450 442.676240
v -209.436430 -463.232450 442.676240
v -209.134690 -464.104460 443.243770
v -208.303050 -464.154080 443.243770
v -211.466830 -466.063200 440.825040
v -211.262220 -465.992430 441.826900
v -211.142430 -463.984700 441.826900
v -211.142430 -463.984700 441.826900
v -211.337170 -463.890100 440.825040
v -211.466830 -466.063200 440.825040
v -208.303050 -464.154080 443.243770
v -207.899770 -463.324100 442.676240
v -209.436430 -463.232450 442.676240
v -207.899770 -463.324100 442.676240
v -208.303050 -464.154080 443.243770
v -207.750080 -464.777220 443.243770
v -209.436430 -463.232450 442.676240
v -209.638030 -462.649700 441.826900
v -211.142430 -463.984700 441.826900
v -209.638030 -462.649700 441.826900
v -209.436430 -463.232450 442.676240
v -207.899770 -463.324100 442.676240
v -211.337170 -463.890100 440.825040
v -211.142430 -463.984700 441.826900
v -209.638030 -462.649700 441.826900
v -207.750080 -464.777220 443.243770
v -206.877990 -464.475500 442.676240
v -207.899770 -463.324100 442.676240
v -206.877990 -464.475500 442.676240
v -207.750080 -464.777220 443.243770
v -207.799700 -465.608920 443.243770
v -211.466830 -466.063200 431.231300
v -211.466830 -466.063200 440.825040
v -211.337170 -463.890100 440.825040
v -211.337170 -463.890100 440.825040
v -211.337170 -463.890100 431.231300
v -211.466830 -466.063200 431.231300
v -211.337170 -463.890100 431.231300
v -211.337170 -463.890100 440.825040
v -209.708830 -462.445070 440.825040
v -209.638030 -462.649700 441.826900
v -209.708830 -462.445070 440.825040
v -211.337170 -463.890100 440.825040
v -209.708830 -462.445070 440.825040
v -209.708830 -462.445070 431.231300
v -211.337170 -463.890100 431.231300
v -207.899770 -463.324100 442.676240
v -207.630310 -462.769470 441.826900
v -209.638030 -462.649700 441.826900
v -209.708830 -462.445070 440.825040
v -209.638030 -462.649700 441.826900
v -207.630310 -462.769470 441.826900
v -207.630310 -462.769470 441.826900
v -207.899770 -463.324100 442.676240
v -206.877990 -464.475500 442.676240
v -209.708830 -462.445070 431.231300
v -209.708830 -462.445070 440.825040
v -207.535660 -462.574740 440.825040
v -207.630310 -462.769470 441.826900
v -207.535660 -462.574740 440.825040
v -209.708830 -462.445070 440.825040
v -207.535660 -462.574740 440.825040
v -207.535660 -462.574770 431.231300
v -209.708830 -462.445070 431.231300
v -206.877990 -464.475500 442.676240
v -206.295300 -464.273860 441.826900
v -207.630310 -462.769470 441.826900
v -207.535660 -462.574740 440.825040
v -207.630310 -462.769470 441.826900
v -206.295300 -464.273860 441.826900
v -207.535660 -462.574770 431.231300
v -207.535660 -462.574740 440.825040
v -206.090700 -464.203100 440.825040
v -206.295300 -464.273860 441.826900
v -206.090700 -464.203100 440.825040
v -207.535660 -462.574740 440.825040
v -206.090700 -464.203100 440.825040
v -206.090700 -464.203100 431.231300
v -207.535660 -462.574770 431.231300
v -206.295300 -464.273860 441.826900
v -206.877990 -464.475500 442.676240
v -206.969700 -466.012180 442.676240
v -207.799700 -465.608920 443.243770
v -206.969700 -466.012180 442.676240
v -206.877990 -464.475500 442.676240
v -206.969700 -466.012180 442.676240
v -207.799700 -465.608920 443.243770
v -208.422850 -466.161830 443.243770
v -206.090700 -464.203100 440.825040
v -206.295300 -464.273860 441.826900
v -206.415100 -466.281620 441.826900
v -206.969700 -466.012180 442.676240
v -206.415100 -466.281620 441.826900
v -206.295300 -464.273860 441.826900
v -206.090700 -464.203100 431.231300
v -206.090700 -464.203100 440.825040
v -206.220340 -466.376220 440.825040
v -206.415100 -466.281620 441.826900
v -206.220340 -466.376220 440.825040
v -206.090700 -464.203100 440.825040
v -206.220340 -466.376220 440.825040
v -206.220340 -466.376220 431.231300
v -206.090700 -464.203100 431.231300
v -208.422850 -466.161830 443.243770
v -208.121080 -467.033940 442.676240
v -206.969700 -466.012180 442.676240
v -206.415100 -466.281620 441.826900
v -206.969700 -466.012180 442.676240
v -208.121080 -467.033940 442.676240
v -208.121080 -467.033940 442.676240
v -208.422850 -466.161830 443.243770
v -209.254460 -466.112180 443.243770
v -206.220340 -466.376220 440.825040
v -206.415100 -466.281620 441.826900
v -207.919500 -467.616600 441.826900
v -208.121080 -467.033940 442.676240
v -207.919500 -467.616600 441.826900
v -206.415100 -466.281620 441.826900
v -206.220340 -466.376220 431.231300
v -206.220340 -466.376220 440.825040
v -207.848700 -467.821230 440.825040
v -207.919500 -467.616600 441.826900
v -207.848700 -467.821230 440.825040
v -206.220340 -466.376220 440.825040
v -207.848700 -467.821230 440.825040
v -207.848700 -467.821230 431.231300
v -206.220340 -466.376220 431.231300
v -209.254460 -466.112180 443.243770
v -209.657780 -466.942200 442.676240
v -208.121080 -467.033940 442.676240
v -207.919500 -467.616600 441.826900
v -208.121080 -467.033940 442.676240
v -209.657780 -466.942200 442.676240
v -209.657780 -466.942200 442.676240
v -209.254460 -466.112180 443.243770
v -209.807450 -465.489070 443.243770
v -209.807450 -465.489070 443.243770
v -210.679520 -465.790830 442.676240
v -209.657780 -466.942200 442.676240
v -209.657780 -466.942200 442.676240
v -209.927230 -467.496830 441.826900
v -207.919500 -467.616600 441.826900
v -209.927230 -467.496830 441.826900
v -209.657780 -466.942200 442.676240
v -210.679520 -465.790830 442.676240
v -207.848700 -467.821230 440.825040
v -207.919500 -467.616600 441.826900
v -209.927230 -467.496830 441.826900
v -210.679520 -465.790830 442.676240
v -211.262220 -465.992430 441.826900
v -209.927230 -467.496830 441.826900
v -209.927230 -467.496830 441.826900
v -210.021870 -467.691600 440.825040
v -207.848700 -467.821230 440.825040
v -210.021870 -467.691600 440.825040
v -209.927230 -467.496830 441.826900
v -211.262220 -465.992430 441.826900
v -207.848700 -467.821230 431.231300
v -207.848700 -467.821230 440.825040
v -210.021870 -467.691600 440.825040
v -211.262220 -465.992430 441.826900
v -211.466830 -466.063200 440.825040
v -210.021870 -467.691600 440.825040
v -210.021870 -467.691600 440.825040
v -210.021870 -467.691600 431.231300
v -207.848700 -467.821230 431.231300
v -210.021870 -467.691600 431.231300
v -210.021870 -467.691600 440.825040
v -211.466830 -466.063200 440.825040
v -211.466830 -466.063200 440.825040
v -211.466830 -466.063200 431.231300
v -210.021870 -467.691600 431.231300
vn -0.669426 -0.223142 0.708574
vn -0.381090 -0.129649 0.915402
vn -0.358048 0.177057 0.916762
vn -0.358048 0.177057 0.916762
vn -0.636549 0.308511 0.706843
vn -0.669426 -0.223142 0.708574
vn -0.636549 0.308511 0.706843
vn -0.358048 0.177057 0.916762
vn -0.137363 0.380691 0.914443
vn -0.873637 -0.293824 0.387848
vn -0.669426 -0.223142 0.708574
vn -0.636549 0.308511 0.706843
vn -0.636549 0.308511 0.706843
vn -0.830493 0.401600 0.386004
vn -0.873637 -0.293824 0.387848
vn -0.137363 0.380691 0.914443
vn -0.230562 0.668239 0.707317
vn -0.636549 0.308511 0.706843
vn -0.830493 0.401600 0.386004
vn -0.636549 0.308511 0.706843
vn -0.230562 0.668239 0.707317
vn -0.230562 0.668239 0.707317
vn -0.137363 0.380691 0.914443
vn 0.169419 0.358537 0.918013
vn -0.943344 -0.317058 0.097857
vn -0.873637 -0.293824 0.387848
vn -0.830493 0.401600 0.386004
vn -0.830493 0.401600 0.386004
vn -0.895550 0.434087 0.097768
vn -0.943344 -0.317058 0.097857
vn 0.169419 0.358537 0.918013
vn 0.301419 0.638069 0.708530
vn -0.230562 0.668239 0.707317
vn 0.301419 0.638069 0.708530
vn 0.169419 0.358537 0.918013
vn 0.373949 0.137771 0.917159
vn -0.230562 0.668239 0.707317
vn -0.300958 0.871606 0.386946
vn -0.830493 0.401600 0.386004
vn -0.300958 0.871606 0.386946
vn -0.230562 0.668239 0.707317
vn 0.301419 0.638069 0.708530
vn -0.895550 0.434087 0.097768
vn -0.830493 0.401600 0.386004
vn -0.300958 0.871606 0.386946
vn 0.373949 0.137771 0.917159
vn 0.663879 0.231768 0.711019
vn 0.301419 0.638069 0.708530
vn 0.663879 0.231768 0.711019
vn 0.373949 0.137771 0.917159
vn 0.351641 -0.169894 0.920589
vn -0.945491 -0.325625 -0.003923
vn -0.943344 -0.317058 0.097857
vn -0.895550 0.434087 0.097768
vn -0.895550 0.434087 0.097768
vn -0.898275 0.439416 -0.003889
vn -0.945491 -0.325625 -0.003923
vn -0.898275 0.439416 -0.003889
vn -0.895550 0.434087 0.097768
vn -0.324073 0.940983 0.097612
vn -0.300958 0.871606 0.386946
vn -0.324073 0.940983 0.097612
vn -0.895550 0.434087 0.097768
vn -0.324073 0.940983 0.097612
vn -0.332613 0.943055 -0.003913
vn -0.898275 0.439416 -0.003889
vn 0.301419 0.638069 0.708530
vn 0.395029 0.833081 0.387207
vn -0.300958 0.871606 0.386946
vn -0.324073 0.940983 0.097612
vn -0.300958 0.871606 0.386946
vn 0.395029 0.833081 0.387207
vn 0.395029 0.833081 0.387207
vn 0.301419 0.638069 0.708530
vn 0.663879 0.231768 0.711019
vn -0.332613 0.943055 -0.003913
vn -0.324073 0.940983 0.097612
vn 0.427708 0.898578 0.098098
vn 0.395029 0.833081 0.387207
vn 0.427708 0.898578 0.098098
vn -0.324073 0.940983 0.097612
vn 0.427708 0.898578 0.098098
vn 0.433108 0.901333 -0.003902
vn -0.332613 0.943055 -0.003913
vn 0.663879 0.231768 0.711019
vn 0.869708 0.303020 0.389598
vn 0.395029 0.833081 0.387207
vn 0.427708 0.898578 0.098098
vn 0.395029 0.833081 0.387207
vn 0.869708 0.303020 0.389598
vn 0.433108 0.901333 -0.003902
vn 0.427708 0.898578 0.098098
vn 0.940078 0.326471 0.098335
vn 0.869708 0.303020 0.389598
vn 0.940078 0.326471 0.098335
vn 0.427708 0.898578 0.098098
vn 0.940078 0.326471 0.098335
vn 0.942180 0.335085 -0.003942
vn 0.433108 0.901333 -0.003902
vn 0.869708 0.303020 0.389598
vn 0.663879 0.231768 0.711019
vn 0.633392 -0.302927 0.712074
vn 0.351641 -0.169894 0.920589
vn 0.633392 -0.302927 0.712074
vn 0.663879 0.231768 0.711019
vn 0.633392 -0.302927 0.712074
vn 0.351641 -0.169894 0.920589
vn 0.130035 -0.374344 0.918127
vn 0.940078 0.326471 0.098335
vn 0.869708 0.303020 0.389598
vn 0.830664 -0.397616 0.389743
vn 0.633392 -0.302927 0.712074
vn 0.830664 -0.397616 0.389743
vn 0.869708 0.303020 0.389598
vn 0.942180 0.335085 -0.003942
vn 0.940078 0.326471 0.098335
vn 0.897051 -0.430743 0.098794
vn 0.830664 -0.397616 0.389743
vn 0.897051 -0.430743 0.098794
vn 0.940078 0.326471 0.098335
vn 0.897051 -0.430743 0.098794
vn 0.899854 -0.436174 -0.003929
vn 0.942180 0.335085 -0.003942
vn 0.130035 -0.374344 0.918127
vn 0.224314 -0.665071 0.712295
vn 0.633392 -0.302927 0.712074
vn 0.830664 -0.397616 0.389743
vn 0.633392 -0.302927 0.712074
vn 0.224314 -0.665071 0.712295
vn 0.224314 -0.665071 0.712295
vn 0.130035 -0.374344 0.918127
vn -0.177552 -0.351159 0.919327
vn 0.897051 -0.430743 0.098794
vn 0.830664 -0.397616 0.389743
vn 0.295847 -0.871763 0.390518
vn 0.224314 -0.665071 0.712295
vn 0.295847 -0.871763 0.390518
vn 0.830664 -0.397616 0.389743
vn 0.899854 -0.436174 -0.003929
vn 0.897051 -0.430743 0.098794
vn 0.319415 -0.942473 0.098585
vn 0.295847 -0.871763 0.390518
vn 0.319415 -0.942473 0.098585
vn 0.897051 -0.430743 0.098794
vn 0.319415 -0.942473 0.098585
vn 0.328058 -0.944649 -0.003952
vn 0.899854 -0.436174 -0.003929
vn -0.177552 -0.351159 0.919327
vn -0.310047 -0.631868 0.710361
vn 0.224314 -0.665071 0.712295
vn 0.295847 -0.871763 0.390518
vn 0.224314 -0.665071 0.712295
vn -0.310047 -0.631868 0.710361
vn -0.310047 -0.631868 0.710361
vn -0.177552 -0.351159 0.919327
vn -0.381090 -0.129649 0.915402
vn -0.381090 -0.129649 0.915402
vn -0.669426 -0.223142 0.708574
vn -0.310047 -0.631868 0.710361
vn -0.310047 -0.631868 0.710361
vn -0.404214 -0.828050 0.388516
vn 0.295847 -0.871763 0.390518
vn -0.404214 -0.828050 0.388516
vn -0.310047 -0.631868 0.710361
vn -0.669426 -0.223142 0.708574
vn 0.319415 -0.942473 0.098585
vn 0.295847 -0.871763 0.390518
vn -0.404214 -0.828050 0.388516
vn -0.669426 -0.223142 0.708574
vn -0.873637 -0.293824 0.387848
vn -0.404214 -0.828050 0.388516
vn -0.404214 -0.828050 0.388516
vn -0.437147 -0.893985 0.098457
vn 0.319415 -0.942473 0.098585
vn -0.437147 -0.893985 0.098457
vn -0.404214 -0.828050 0.388516
vn -0.873637 -0.293824 0.387848
vn 0.328058 -0.944649 -0.003952
vn 0.319415 -0.942473 0.098585
vn -0.437147 -0.893985 0.098457
vn -0.873637 -0.293824 0.387848
vn -0.943344 -0.317058 0.097857
vn -0.437147 -0.893985 0.098457
vn -0.437147 -0.893985 0.098457
vn -0.442505 -0.896758 -0.003916
vn 0.328058 -0.944649 -0.003952
vn -0.442505 -0.896758 -0.003916
vn -0.437147 -0.893985 0.098457
vn -0.943344 -0.317058 0.097857
vn -0.943344 -0.317058 0.097857
vn -0.945491 -0.325625 -0.003923
vn -0.442505 -0.896758 -0.003916
vt 0.659668 0.980499
vt 0.574219 0.945129
vt 0.569824 0.883301
vt 0.569824 0.883301
vt 0.678711 0.869385
vt 0.659668 0.980499
vt 0.678711 0.869385
vt 0.569824 0.883301
vt 0.549316 0.832397
vt 0.824219 0.947052
vt 0.731934 0.968857
vt 0.678711 0.869385
vt 0.678711 0.869385
vt 0.769531 0.811035
vt 0.824219 0.947052
vt 0.549316 0.832397
vt 0.626465 0.792847
vt 0.678711 0.869385
vt 0.769531 0.811035
vt 0.678711 0.869385
vt 0.626465 0.792847
vt 0.626465 0.792847
vt 0.549316 0.832397
vt 0.509277 0.799072
vt 0.946289 0.821167
vt 0.890137 0.891663
vt 0.769531 0.811035
vt 0.769531 0.811035
vt 0.818848 0.630371
vt 0.946289 0.821167
vt 0.509277 0.799072
vt 0.557617 0.739746
vt 0.626465 0.792847
vt 0.557617 0.739746
vt 0.509277 0.799072
vt 0.459473 0.791870
vt 0.626465 0.792847
vt 0.680664 0.731689
vt 0.769531 0.811035
vt 0.680664 0.731689
vt 0.626465 0.792847
vt 0.557617 0.739746
vt 0.818848 0.630371
vt 0.769531 0.811035
vt 0.680664 0.731689
vt 0.459473 0.791870
vt 0.476074 0.720459
vt 0.557617 0.739746
vt 0.476074 0.720459
vt 0.459473 0.791870
vt 0.413086 0.810791
vt 0.952148 0.034180
vt 0.958496 0.630371
vt 0.818848 0.630371
vt 0.818848 0.630371
vt 0.859863 0.034180
vt 0.952148 0.034180
vt 0.859863 0.034180
vt 0.818848 0.630371
vt 0.703613 0.630371
vt 0.680664 0.731689
vt 0.703613 0.630371
vt 0.818848 0.630371
vt 0.703613 0.630371
vt 0.753418 0.034180
vt 0.859863 0.034180
vt 0.557617 0.739746
vt 0.587891 0.676514
vt 0.680664 0.731689
vt 0.703613 0.630371
vt 0.680664 0.731689
vt 0.587891 0.676514
vt 0.587891 0.676514
vt 0.557617 0.739746
vt 0.476074 0.720459
vt 0.753418 0.034180
vt 0.703613 0.630371
vt 0.598633 0.630371
vt 0.587891 0.676514
vt 0.598633 0.630371
vt 0.703613 0.630371
vt 0.598633 0.630371
vt 0.624023 0.034180
vt 0.753418 0.034180
vt 0.476074 0.720459
vt 0.488525 0.654785
vt 0.587891 0.676514
vt 0.598633 0.630371
vt 0.587891 0.676514
vt 0.488525 0.654785
vt 0.624023 0.034180
vt 0.598633 0.630371
vt 0.491455 0.630371
vt 0.488525 0.654785
vt 0.491455 0.630371
vt 0.598633 0.630371
vt 0.491455 0.630371
vt 0.484375 0.034180
vt 0.624023 0.034180
vt 0.488525 0.654785
vt 0.476074 0.720459
vt 0.393555 0.736328
vt 0.413086 0.810791
vt 0.393555 0.736328
vt 0.476074 0.720459
vt 0.393555 0.736328
vt 0.413086 0.810791
vt 0.378906 0.847778
vt 0.491455 0.630371
vt 0.488525 0.654785
vt 0.387451 0.667236
vt 0.393555 0.736328
vt 0.387451 0.667236
vt 0.488525 0.654785
vt 0.484375 0.034180
vt 0.491455 0.630371
vt 0.382568 0.630371
vt 0.387451 0.667236
vt 0.382568 0.630371
vt 0.491455 0.630371
vt 0.382568 0.630371
vt 0.347412 0.034180
vt 0.484375 0.034180
vt 0.378906 0.847778
vt 0.321045 0.783203
vt 0.393555 0.736328
vt 0.387451 0.667236
vt 0.393555 0.736328
vt 0.321045 0.783203
vt 0.321045 0.783203
vt 0.378906 0.847778
vt 0.363037 0.897278
vt 0.382568 0.630371
vt 0.387451 0.667236
vt 0.290039 0.711670
vt 0.321045 0.783203
vt 0.290039 0.711670
vt 0.387451 0.667236
vt 0.347412 0.034180
vt 0.382568 0.630371
vt 0.274902 0.630371
vt 0.290039 0.711670
vt 0.274902 0.630371
vt 0.382568 0.630371
vt 0.274902 0.630371
vt 0.223633 0.034180
vt 0.347412 0.034180
vt 0.363037 0.897278
vt 0.262695 0.854004
vt 0.321045 0.783203
vt 0.290039 0.711670
vt 0.321045 0.783203
vt 0.262695 0.854004
vt 0.262695 0.854004
vt 0.363037 0.897278
vt 0.331787 0.948975
vt 0.331787 0.948975
vt 0.221680 0.935547
vt 0.262695 0.854004
vt 0.262695 0.854004
vt 0.198853 0.784790
vt 0.290039 0.711670
vt 0.198853 0.784790
vt 0.262695 0.854004
vt 0.221680 0.935547
vt 0.274902 0.630371
vt 0.290039 0.711670
vt 0.198853 0.784790
vt 0.221680 0.935547
vt 0.120850 0.889404
vt 0.198853 0.784790
vt 0.198853 0.784790
vt 0.166992 0.630371
vt 0.274902 0.630371
vt 0.166992 0.630371
vt 0.198853 0.784790
vt 0.120850 0.889404
vt 0.223633 0.034180
vt 0.274902 0.630371
vt 0.166992 0.630371
vt 0.120850 0.889404
vt 0.050354 0.840698
vt 0.166992 0.630371
vt 0.166992 0.630371
vt 0.119873 0.034180
vt 0.223633 0.034180
vt 0.119873 0.034180
vt 0.166992 0.630371
vt 0.054779 0.630371
vt 0.054779 0.630371
vt 0.035187 0.034180
vt 0.119873 0.034180
f 1/1/1 2/2/2 3/3/3
f 4/4/4 5/5/5 6/6/6
f 7/7/7 8/8/8 9/9/9
f 10/10/10 11/11/11 12/12/12
f 13/13/13 14/14/14 15/15/15
f 16/16/16 17/17/17 18/18/18
f 19/19/19 20/20/20 21/21/21
f 22/22/22 23/23/23 24/24/24
f 25/25/25 26/26/26 27/27/27
f 28/28/28 29/29/29 30/30/30
f 31/31/31 32/32/32 33/33/33
f 34/34/34 35/35/35 36/36/36
f 37/37/37 38/38/38 39/39/39
f 40/40/40 41/41/41 42/42/42
f 43/43/43 44/44/44 45/45/45
f 46/46/46 47/47/47 48/48/48
f 49/49/49 50/50/50 51/51/51
f 52/52/52 53/53/53 54/54/54
f 55/55/55 56/56/56 57/57/57
f 58/58/58 59/59/59 60/60/60
f 61/61/61 62/62/62 63/63/63
f 64/64/64 65/65/65 66/66/66
f 67/67/67 68/68/68 69/69/69
f 70/70/70 71/71/71 72/72/72
f 73/73/73 74/74/74 75/75/75
f 76/76/76 77/77/77 78/78/78
f 79/79/79 80/80/80 81/81/81
f 82/82/82 83/83/83 84/84/84
f 85/85/85 86/86/86 87/87/87
f 88/88/88 89/89/89 90/90/90
f 91/91/91 92/92/92 93/93/93
f 94/94/94 95/95/95 96/96/96
f 97/97/97 98/98/98 99/99/99
f 100/100/100 101/101/101 102/102/102
f 103/103/103 104/104/104 105/105/105
f 106/106/106 107/107/107 108/108/108
f 109/109/109 110/110/110 111/111/111
f 112/112/112 113/113/113 114/114/114
f 115/115/115 116/116/116 117/117/117
f 118/118/118 119/119/119 120/120/120
f 121/121/121 122/122/122 123/123/123
f 124/124/124 125/125/125 126/126/126
f 127/127/127 128/128/128 129/129/129
f 130/130/130 131/131/131 132/132/132
f 133/133/133 134/134/134 135/135/135
f 136/136/136 137/137/137 138/138/138
f 139/139/139 140/140/140 141/141/141
f 142/142/142 143/143/143 144/144/144
f 145/145/145 146/146/146 147/147/147
f 148/148/148 149/149/149 150/150/150
f 151/151/151 152/152/152 153/153/153
f 154/154/154 155/155/155 156/156/156
f 157/157/157 158/158/158 159/159/159
f 160/160/160 161/161/161 162/162/162
f 163/163/163 164/164/164 165/165/165
f 166/166/166 167/167/167 168/168/168
f 169/169/169 170/170/170 171/171/171
f 172/172/172 173/173/173 174/174/174
f 175/175/175 176/176/176 177/177/177
f 178/178/178 179/179/179 180/180/180
f 181/181/181 182/182/182 183/183/183
f 184/184/184 185/185/185 186/186/186
f 187/187/187 188/188/188 189/189/189
f 190/190/190 191/191/191 192/192/192
