# OBJ file
v 2097.655300 -1236.613600 27.344193
v 2064.225600 -1316.021700 27.344189
v 2454.457500 -1372.819200 27.344187
v 2064.225600 -1316.021700 27.344189
v 2425.998000 -1455.719500 27.344183
v 2454.457500 -1372.819200 27.344187
vn -0.003921 0.003921 0.999985
vn -0.003921 0.003921 0.999985
vn -0.003921 0.003921 0.999985
vn -0.003921 0.003921 0.999985
vn -0.003921 0.003921 0.999985
vn -0.003921 0.003921 0.999985
vt 8.031250 4.406250
vt 8.296875 4.123047
vt 9.250000 5.601562
vt 8.296875 4.123047
vt 9.531250 5.332031
vt 9.250000 5.601562
f 1/1/1 2/2/2 3/3/3
f 4/4/4 5/5/5 6/6/6
