# OBJ file
v 1817.569100 -1888.066800 27.344164
v 1784.139600 -1967.474700 27.344160
v 2174.371600 -2024.272200 27.344158
v 1784.139600 -1967.474700 27.344160
v 2145.911900 -2107.172600 27.344154
v 2174.371600 -2024.272200 27.344158
vn -0.003921 0.003921 0.999985
vn -0.003921 0.003921 0.999985
vn -0.003921 0.003921 0.999985
vn -0.003921 0.003921 0.999985
vn -0.003921 0.003921 0.999985
vn -0.003921 0.003921 0.999985
vt 8.031250 4.406250
vt 8.296875 4.123047
vt 9.250000 5.601562
vt 8.296875 4.123047
vt 9.531250 5.332031
vt 9.250000 5.601562
f 1/1/1 2/2/2 3/3/3
f 4/4/4 5/5/5 6/6/6
