# OBJ file
v -565.023600 -1050.871000 27.344200
v -604.332150 -1127.539200 27.344196
v -127.069530 -1254.667700 27.344190
v -604.332150 -1127.539200 27.344196
v -161.684750 -1335.192100 27.344189
v -127.069530 -1254.667700 27.344190
vn -0.003921 0.003921 0.999985
vn -0.003921 0.003921 0.999985
vn -0.003921 0.003921 0.999985
vn -0.003921 0.003921 0.999985
vn -0.003921 0.003921 0.999985
vn -0.003921 0.003921 0.999985
vt 7.722656 4.082031
vt 7.984375 3.798828
vt 9.250000 5.601562
vt 7.984375 3.798828
vt 9.531250 5.332031
vt 9.250000 5.601562
f 1/1/1 2/2/2 3/3/3
f 4/4/4 5/5/5 6/6/6
