# OBJ file
v 1109.109131 3373.449463 374.017273
v 1109.109131 3373.449463 404.012848
v 1109.820679 3374.244629 404.012848
v 1109.820679 3374.244629 404.012848
v 1109.820679 3374.244629 374.017273
v 1109.109131 3373.449463 374.017273
v 1088.988892 3391.454834 372.983063
v 1108.338379 3374.139160 372.983063
v 1109.049927 3374.934326 372.983063
v 1109.049927 3374.934326 372.983063
v 1089.700439 3392.250000 372.983063
v 1088.988892 3391.454834 372.983063
v 1088.218262 3392.144531 404.012848
v 1088.218262 3392.144531 374.017273
v 1088.929810 3392.939697 374.017273
v 1088.929810 3392.939697 374.017273
v 1088.929810 3392.939697 404.012848
v 1088.218262 3392.144531 404.012848
v 1065.866089 3412.147461 404.012848
v 1088.218262 3392.144531 404.012848
v 1088.929810 3392.939697 404.012848
v 1088.929810 3392.939697 404.012848
v 1066.577637 3412.942627 404.012848
v 1065.866089 3412.147461 404.012848
v 1065.095459 3412.837158 431.013245
v 1065.095459 3412.837158 405.047058
v 1065.807007 3413.632324 405.047058
v 1065.807007 3413.632324 405.047058
v 1065.807007 3413.632324 431.013245
v 1065.095459 3412.837158 431.013245
v 1088.218262 3392.144287 432.047485
v 1065.866211 3412.147461 432.047455
v 1066.577637 3412.942627 432.047455
v 1066.577637 3412.942627 432.047455
v 1088.929810 3392.939697 432.047485
v 1088.218262 3392.144287 432.047485
v 1088.218262 3392.144287 462.043030
v 1088.218262 3392.144287 432.047485
v 1088.929810 3392.939697 432.047485
v 1088.929810 3392.939697 432.047485
v 1088.929810 3392.939697 462.043030
v 1088.218262 3392.144287 462.043030
v 1108.338379 3374.138916 463.077271
v 1088.988892 3391.454590 463.077271
v 1089.700439 3392.250000 463.077271
v 1089.700439 3392.250000 463.077271
v 1109.049927 3374.934326 463.077271
v 1108.338379 3374.138916 463.077271
v 1109.109131 3373.449219 432.047485
v 1109.109131 3373.449219 462.043030
v 1109.820679 3374.244629 462.043030
v 1109.820679 3374.244629 462.043030
v 1109.820679 3374.244629 432.047485
v 1109.109131 3373.449219 432.047485
v 1131.461182 3353.446533 432.047485
v 1109.109131 3373.449219 432.047485
v 1109.820679 3374.244629 432.047485
v 1109.820679 3374.244629 432.047485
v 1132.172729 3354.241699 432.047485
v 1131.461182 3353.446533 432.047485
v 1132.231934 3352.756836 405.047058
v 1132.231934 3352.756836 431.013275
v 1132.943359 3353.552002 431.013275
v 1132.943359 3353.552002 431.013275
v 1132.943359 3353.552002 405.047058
v 1132.231934 3352.756836 405.047058
v 1109.109131 3373.449463 404.012848
v 1131.461182 3353.446533 404.012848
v 1132.172729 3354.241699 404.012848
v 1132.172729 3354.241699 404.012848
v 1109.820679 3374.244629 404.012848
v 1109.109131 3373.449463 404.012848
v 1108.338379 3374.139160 372.983063
v 1109.109131 3373.449463 374.017273
v 1109.820679 3374.244629 374.017273
v 1109.820679 3374.244629 374.017273
v 1109.049927 3374.934326 372.983063
v 1108.338379 3374.139160 372.983063
v 1088.218262 3392.144531 374.017273
v 1088.988892 3391.454834 372.983063
v 1089.700439 3392.250000 372.983063
v 1089.700439 3392.250000 372.983063
v 1088.929810 3392.939697 374.017273
v 1088.218262 3392.144531 374.017273
v 1065.095459 3412.837158 405.047058
v 1065.866089 3412.147461 404.012848
v 1066.577637 3412.942627 404.012848
v 1066.577637 3412.942627 404.012848
v 1065.807007 3413.632324 405.047058
v 1065.095459 3412.837158 405.047058
v 1065.866211 3412.147461 432.047455
v 1065.095459 3412.837158 431.013245
v 1065.807007 3413.632324 431.013245
v 1065.807007 3413.632324 431.013245
v 1066.577637 3412.942627 432.047455
v 1065.866211 3412.147461 432.047455
v 1088.988892 3391.454590 463.077271
v 1088.218262 3392.144287 462.043030
v 1088.929810 3392.939697 462.043030
v 1088.929810 3392.939697 462.043030
v 1089.700439 3392.250000 463.077271
v 1088.988892 3391.454590 463.077271
v 1109.109131 3373.449219 462.043030
v 1108.338379 3374.138916 463.077271
v 1109.049927 3374.934326 463.077271
v 1109.049927 3374.934326 463.077271
v 1109.820679 3374.244629 462.043030
v 1109.109131 3373.449219 462.043030
v 1132.231934 3352.756836 431.013275
v 1131.461182 3353.446533 432.047485
v 1132.172729 3354.241699 432.047485
v 1132.172729 3354.241699 432.047485
v 1132.943359 3353.552002 431.013275
v 1132.231934 3352.756836 431.013275
v 1131.461182 3353.446533 404.012848
v 1132.231934 3352.756836 405.047058
v 1132.943359 3353.552002 405.047058
v 1132.943359 3353.552002 405.047058
v 1132.172729 3354.241699 404.012848
v 1131.461182 3353.446533 404.012848
v 1098.686279 3361.107910 371.485474
v 1077.104858 3380.420898 371.485474
v 1088.584473 3393.248779 371.485474
v 1088.584473 3393.248779 371.485474
v 1110.165894 3373.935303 371.485474
v 1098.686279 3361.107910 371.485474
v 1076.334229 3381.110596 402.515259
v 1053.982178 3401.113281 402.515259
v 1065.461792 3413.941162 402.515259
v 1065.461792 3413.941162 402.515259
v 1087.813843 3393.938477 402.515259
v 1076.334229 3381.110596 402.515259
v 1134.059326 3352.553711 432.510834
v 1122.579712 3339.725586 432.510864
v 1122.579712 3339.725586 403.549500
v 1122.579712 3339.725586 403.549500
v 1134.059326 3352.553711 403.549500
v 1134.059326 3352.553711 432.510834
v 1053.982178 3401.113281 433.545044
v 1076.334229 3381.110596 433.545044
v 1087.813843 3393.938477 433.545044
v 1087.813843 3393.938477 433.545044
v 1065.461792 3413.941162 433.545044
v 1053.982178 3401.113281 433.545044
v 1077.104980 3380.420898 464.574829
v 1098.686279 3361.107910 464.574829
v 1110.165894 3373.935303 464.574829
v 1110.165894 3373.935303 464.574829
v 1088.584595 3393.248779 464.574829
v 1077.104980 3380.420898 464.574829
v 1099.052612 3362.211914 374.017273
v 1098.341064 3361.416748 374.017273
v 1098.341064 3361.416748 404.012848
v 1098.341064 3361.416748 404.012848
v 1099.052612 3362.211914 404.012848
v 1099.052612 3362.211914 374.017273
v 1078.932373 3380.217285 372.983063
v 1078.220825 3379.422119 372.983063
v 1097.570435 3362.106445 372.983063
v 1097.570435 3362.106445 372.983063
v 1098.281860 3362.901611 372.983063
v 1078.932373 3380.217285 372.983063
v 1078.161743 3380.906982 404.012848
v 1077.450195 3380.111816 404.012848
v 1077.450317 3380.111816 374.017273
v 1077.450317 3380.111816 374.017273
v 1078.161743 3380.906982 374.017273
v 1078.161743 3380.906982 404.012848
v 1055.809570 3400.910156 404.012848
v 1055.098022 3400.114746 404.012848
v 1077.450195 3380.111816 404.012848
v 1077.450195 3380.111816 404.012848
v 1078.161743 3380.906982 404.012848
v 1055.809570 3400.910156 404.012848
v 1055.038940 3401.599854 431.013245
v 1054.327515 3400.804443 431.013245
v 1054.327515 3400.804443 405.047058
v 1054.327515 3400.804443 405.047058
v 1055.039062 3401.599854 405.047058
v 1055.038940 3401.599854 431.013245
v 1078.161743 3380.906982 432.047485
v 1077.450195 3380.111816 432.047485
v 1055.098145 3400.114746 432.047455
v 1055.098145 3400.114746 432.047455
v 1055.809570 3400.910156 432.047455
v 1078.161743 3380.906982 432.047485
v 1078.161743 3380.906982 462.043030
v 1077.450195 3380.111816 462.043030
v 1077.450195 3380.111816 432.047485
v 1077.450195 3380.111816 432.047485
v 1078.161743 3380.906982 432.047485
v 1078.161743 3380.906982 462.043030
v 1098.281860 3362.901611 463.077271
v 1097.570312 3362.106445 463.077271
v 1078.220825 3379.422119 463.077271
v 1078.220825 3379.422119 463.077271
v 1078.932373 3380.217285 463.077271
v 1098.281860 3362.901611 463.077271
v 1099.052612 3362.211914 432.047485
v 1098.341064 3361.416748 432.047485
v 1098.341064 3361.416748 462.043030
v 1098.341064 3361.416748 462.043030
v 1099.052490 3362.211914 462.043030
v 1099.052612 3362.211914 432.047485
v 1121.404663 3342.209229 432.047485
v 1120.693115 3341.413574 432.047485
v 1098.341064 3361.416748 432.047485
v 1098.341064 3361.416748 432.047485
v 1099.052612 3362.211914 432.047485
v 1121.404663 3342.209229 432.047485
v 1122.175293 3341.519531 405.047058
v 1121.463867 3340.724365 405.047058
v 1121.463867 3340.724121 431.013275
v 1121.463867 3340.724121 431.013275
v 1122.175293 3341.519531 431.013275
v 1122.175293 3341.519531 405.047058
v 1099.052612 3362.211914 404.012848
v 1098.341064 3361.416748 404.012848
v 1120.693115 3341.413574 404.012848
v 1120.693115 3341.413574 404.012848
v 1121.404663 3342.209229 404.012848
v 1099.052612 3362.211914 404.012848
v 1098.281860 3362.901611 372.983063
v 1097.570435 3362.106445 372.983063
v 1098.341064 3361.416748 374.017273
v 1098.341064 3361.416748 374.017273
v 1099.052612 3362.211914 374.017273
v 1098.281860 3362.901611 372.983063
v 1078.161743 3380.906982 374.017273
v 1077.450317 3380.111816 374.017273
v 1078.220825 3379.422119 372.983063
v 1078.220825 3379.422119 372.983063
v 1078.932373 3380.217285 372.983063
v 1078.161743 3380.906982 374.017273
v 1055.039062 3401.599854 405.047058
v 1054.327515 3400.804443 405.047058
v 1055.098022 3400.114746 404.012848
v 1055.098022 3400.114746 404.012848
v 1055.809570 3400.910156 404.012848
v 1055.039062 3401.599854 405.047058
v 1055.809570 3400.910156 432.047455
v 1055.098145 3400.114746 432.047455
v 1054.327515 3400.804443 431.013245
v 1054.327515 3400.804443 431.013245
v 1055.038940 3401.599854 431.013245
v 1055.809570 3400.910156 432.047455
v 1078.932373 3380.217285 463.077271
v 1078.220825 3379.422119 463.077271
v 1077.450195 3380.111816 462.043030
v 1077.450195 3380.111816 462.043030
v 1078.161743 3380.906982 462.043030
v 1078.932373 3380.217285 463.077271
v 1099.052490 3362.211914 462.043030
v 1098.341064 3361.416748 462.043030
v 1097.570312 3362.106445 463.077271
v 1097.570312 3362.106445 463.077271
v 1098.281860 3362.901611 463.077271
v 1099.052490 3362.211914 462.043030
v 1122.175293 3341.519531 431.013275
v 1121.463867 3340.724121 431.013275
v 1120.693115 3341.413574 432.047485
v 1120.693115 3341.413574 432.047485
v 1121.404663 3342.209229 432.047485
v 1122.175293 3341.519531 431.013275
v 1121.404663 3342.209229 404.012848
v 1120.693115 3341.413574 404.012848
v 1121.463867 3340.724365 405.047058
v 1121.463867 3340.724365 405.047058
v 1122.175293 3341.519531 405.047058
v 1121.404663 3342.209229 404.012848
v 1052.919800 3412.384033 426.762817
v 1057.971802 3407.862793 426.762848
v 1057.971802 3407.862793 428.420227
v 1057.971802 3407.862793 428.420227
v 1052.919800 3412.384033 428.420227
v 1052.919800 3412.384033 426.762817
v 1057.848755 3407.569824 428.845551
v 1057.848755 3407.569824 426.337524
v 1058.170776 3407.281250 426.337524
v 1058.170776 3407.281250 426.337524
v 1058.202148 3407.253174 428.845551
v 1057.848755 3407.569824 428.845551
v 1057.848755 3407.569824 426.337524
v 1060.029785 3410.006836 426.337524
v 1060.351807 3409.718506 426.337524
v 1060.351807 3409.718506 426.337524
v 1058.170776 3407.281250 426.337524
v 1057.848755 3407.569824 426.337524
v 1060.029785 3410.006836 426.337524
v 1060.029785 3410.006836 428.845551
v 1060.351807 3409.718506 428.845551
v 1060.351807 3409.718506 428.845551
v 1060.351807 3409.718506 426.337524
v 1060.029785 3410.006836 426.337524
v 1060.029785 3410.006836 428.845551
v 1057.848755 3407.569824 428.845551
v 1058.202148 3407.253174 428.845551
v 1058.202148 3407.253174 428.845551
v 1060.351807 3409.718506 428.845551
v 1060.029785 3410.006836 428.845551
v 1054.699829 3414.373047 407.550476
v 1054.699951 3414.373047 409.207886
v 1059.751953 3409.852295 409.207886
v 1059.751953 3409.852295 409.207886
v 1059.751953 3409.852295 407.550476
v 1054.699829 3414.373047 407.550476
v 1057.848755 3407.569824 409.633209
v 1057.848755 3407.569824 407.125153
v 1058.170776 3407.281250 407.125153
v 1058.170776 3407.281250 407.125153
v 1058.202148 3407.253174 409.633209
v 1057.848755 3407.569824 409.633209
v 1057.848755 3407.569824 407.125153
v 1060.029785 3410.006836 407.125153
v 1060.351807 3409.718506 407.125153
v 1060.351807 3409.718506 407.125153
v 1058.170776 3407.281250 407.125153
v 1057.848755 3407.569824 407.125153
v 1060.029785 3410.006836 407.125153
v 1060.029785 3410.006836 409.633209
v 1060.351807 3409.718506 409.633209
v 1060.351807 3409.718506 409.633209
v 1060.351807 3409.718506 407.125153
v 1060.029785 3410.006836 407.125153
v 1060.029785 3410.006836 409.633209
v 1057.848755 3407.569824 409.633209
v 1058.202148 3407.253174 409.633209
v 1058.202148 3407.253174 409.633209
v 1060.351807 3409.718506 409.633209
v 1060.029785 3410.006836 409.633209
v 1055.509521 3414.612793 406.669617
v 1055.043579 3415.029785 406.669617
v 1055.043579 3415.029785 410.205688
v 1055.043579 3415.029785 410.205688
v 1055.509521 3414.612793 410.205688
v 1055.509521 3414.612793 406.669617
v 1110.936646 3373.245605 402.515259
v 1099.457031 3360.418213 402.515259
v 1099.457031 3360.418213 372.519714
v 1099.457031 3360.418213 372.519714
v 1110.936523 3373.245605 372.519714
v 1110.936646 3373.245605 402.515259
v 1110.936523 3373.245605 372.519714
v 1099.457031 3360.418213 372.519714
v 1098.686279 3361.107910 371.485474
v 1098.686279 3361.107910 371.485474
v 1110.165894 3373.935303 371.485474
v 1110.936523 3373.245605 372.519714
v 1099.457031 3360.418213 402.515259
v 1110.936646 3373.245605 402.515259
v 1133.288696 3353.243408 402.515289
v 1133.288696 3353.243408 402.515289
v 1121.809082 3340.415283 402.515289
v 1099.457031 3360.418213 402.515259
v 1121.809082 3340.415283 402.515289
v 1133.288696 3353.243408 402.515289
v 1134.059326 3352.553711 403.549500
v 1134.059326 3352.553711 403.549500
v 1122.579712 3339.725586 403.549500
v 1121.809082 3340.415283 402.515289
v 1065.461792 3413.941162 402.515259
v 1053.982178 3401.113281 402.515259
v 1053.211548 3401.802979 403.549469
v 1053.211548 3401.802979 403.549469
v 1064.691040 3414.630859 403.549469
v 1065.461792 3413.941162 402.515259
v 1064.691040 3414.630859 403.549469
v 1053.211548 3401.802979 403.549469
v 1053.211426 3401.802979 432.510834
v 1053.211426 3401.802979 432.510834
v 1064.691040 3414.630859 432.510834
v 1064.691040 3414.630859 403.549469
v 1065.461792 3413.941162 433.545044
v 1064.691040 3414.630859 432.510834
v 1053.211426 3401.802979 432.510834
v 1053.211426 3401.802979 432.510834
v 1053.982178 3401.113281 433.545044
v 1065.461792 3413.941162 433.545044
v 1051.319824 3411.118896 435.776276
v 1049.899048 3412.390381 435.776276
v 1049.899048 3412.390381 418.127686
v 1049.899048 3412.390381 418.127686
v 1051.319824 3411.118896 418.127686
v 1051.319824 3411.118896 435.776276
v 1051.319824 3411.118896 418.127686
v 1049.899048 3412.390381 418.127686
v 1049.899048 3412.390381 400.479095
v 1049.899048 3412.390381 400.479095
v 1051.319824 3411.118896 400.479095
v 1051.319824 3411.118896 418.127686
v 1076.334229 3381.110596 372.519714
v 1076.334229 3381.110596 402.515259
v 1087.813843 3393.938477 402.515259
v 1087.813843 3393.938477 402.515259
v 1087.813843 3393.937988 372.519714
v 1076.334229 3381.110596 372.519714
v 1077.104858 3380.420898 371.485474
v 1076.334229 3381.110596 372.519714
v 1087.813843 3393.937988 372.519714
v 1087.813843 3393.937988 372.519714
v 1088.584473 3393.248779 371.485474
v 1077.104858 3380.420898 371.485474
v 1133.288696 3353.243408 433.545044
v 1110.936646 3373.245605 433.545044
v 1099.457031 3360.418213 433.545044
v 1099.457031 3360.418213 433.545044
v 1121.809082 3340.415283 433.545074
v 1133.288696 3353.243408 433.545044
v 1134.059326 3352.553711 432.510834
v 1133.288696 3353.243408 433.545044
v 1121.809082 3340.415283 433.545074
v 1121.809082 3340.415283 433.545074
v 1122.579712 3339.725586 432.510864
v 1134.059326 3352.553711 432.510834
v 1087.813843 3393.938477 463.540619
v 1087.813843 3393.938477 433.545044
v 1076.334229 3381.110596 433.545044
v 1076.334229 3381.110596 433.545044
v 1076.334229 3381.110596 463.540619
v 1087.813843 3393.938477 463.540619
v 1088.584595 3393.248779 464.574829
v 1087.813843 3393.938477 463.540619
v 1076.334229 3381.110596 463.540619
v 1076.334229 3381.110596 463.540619
v 1077.104980 3380.420898 464.574829
v 1088.584595 3393.248779 464.574829
v 1050.463501 3413.021484 436.622742
v 1049.899048 3412.390381 435.776276
v 1051.319824 3411.118896 435.776276
v 1051.319824 3411.118896 435.776276
v 1051.884277 3411.750000 436.622742
v 1050.463501 3413.021484 436.622742
v 1052.118408 3414.870605 436.622742
v 1050.463501 3413.021484 436.622742
v 1051.884277 3411.750000 436.622742
v 1051.884277 3411.750000 436.622742
v 1053.539185 3413.598633 436.622742
v 1052.118408 3414.870605 436.622742
v 1052.118408 3414.870605 436.622742
v 1053.539185 3413.598633 436.622742
v 1055.194092 3415.447754 436.622742
v 1055.194092 3415.447754 436.622742
v 1053.773315 3416.719727 436.622742
v 1052.118408 3414.870605 436.622742
v 1054.337646 3417.350342 435.776276
v 1053.773315 3416.719727 436.622742
v 1055.194092 3415.447754 436.622742
v 1055.194092 3415.447754 436.622742
v 1055.758545 3416.078857 435.776276
v 1054.337646 3417.350342 435.776276
v 1054.699829 3414.373047 426.762817
v 1054.699829 3414.373047 428.420227
v 1059.751953 3409.852295 428.420227
v 1059.751953 3409.852295 428.420227
v 1059.751953 3409.852295 426.762848
v 1054.699829 3414.373047 426.762817
v 1054.616821 3414.280029 426.638184
v 1054.699829 3414.373047 426.762817
v 1059.751953 3409.852295 426.762848
v 1059.751953 3409.852295 426.762848
v 1059.668823 3409.759033 426.638184
v 1054.616821 3414.280029 426.638184
v 1052.445557 3412.126465 429.418030
v 1052.445557 3412.126465 425.881989
v 1052.911255 3411.709473 425.881989
v 1052.911255 3411.709473 425.881989
v 1052.911377 3411.709473 429.418030
v 1052.445557 3412.126465 429.418030
v 1052.627197 3412.329834 429.690765
v 1052.445557 3412.126465 429.418030
v 1052.911377 3411.709473 429.418030
v 1052.911377 3411.709473 429.418030
v 1053.093140 3411.912354 429.690765
v 1052.627197 3412.329834 429.690765
v 1052.911377 3411.709473 410.205688
v 1053.093140 3411.912354 410.478424
v 1052.627319 3412.329834 410.478424
v 1052.627319 3412.329834 410.478424
v 1052.445557 3412.126465 410.205688
v 1052.911377 3411.709473 410.205688
v 1052.911377 3411.709473 406.669617
v 1052.911377 3411.709473 410.205688
v 1052.445557 3412.126465 410.205688
v 1052.445557 3412.126465 410.205688
v 1052.445557 3412.126465 406.669617
v 1052.911377 3411.709473 406.669617
v 1053.093262 3411.912354 406.396881
v 1052.911377 3411.709473 406.669617
v 1052.445557 3412.126465 406.669617
v 1052.445557 3412.126465 406.669617
v 1052.627319 3412.329834 406.396881
v 1053.093262 3411.912354 406.396881
v 1099.457031 3360.418213 463.540619
v 1099.457031 3360.418213 433.545044
v 1110.936646 3373.245605 433.545044
v 1110.936646 3373.245605 433.545044
v 1110.936646 3373.245605 463.540619
v 1099.457031 3360.418213 463.540619
v 1099.457031 3360.418213 463.540619
v 1110.936646 3373.245605 463.540619
v 1110.165894 3373.935303 464.574829
v 1110.165894 3373.935303 464.574829
v 1098.686279 3361.107910 464.574829
v 1099.457031 3360.418213 463.540619
v 1054.337646 3417.350342 418.127686
v 1054.337646 3417.350342 435.776276
v 1055.758545 3416.078857 435.776276
v 1055.758545 3416.078857 435.776276
v 1055.758545 3416.078857 418.127686
v 1054.337646 3417.350342 418.127686
v 1054.337646 3417.350342 418.127686
v 1055.758545 3416.078857 418.127686
v 1055.758545 3416.078857 400.479095
v 1055.758545 3416.078857 400.479095
v 1054.337646 3417.350342 400.479095
v 1054.337646 3417.350342 418.127686
v 1051.884277 3411.750000 399.632629
v 1051.319824 3411.118896 400.479095
v 1049.899048 3412.390381 400.479095
v 1049.899048 3412.390381 400.479095
v 1050.463501 3413.021484 399.632629
v 1051.884277 3411.750000 399.632629
v 1051.884277 3411.750000 399.632629
v 1050.463501 3413.021484 399.632629
v 1052.118408 3414.870605 399.632629
v 1052.118408 3414.870605 399.632629
v 1053.539185 3413.598633 399.632629
v 1051.884277 3411.750000 399.632629
v 1053.539185 3413.598633 399.632629
v 1052.118408 3414.870605 399.632629
v 1053.773315 3416.719727 399.632629
v 1053.773315 3416.719727 399.632629
v 1055.194092 3415.447754 399.632629
v 1053.539185 3413.598633 399.632629
v 1055.758545 3416.078857 400.479095
v 1055.194092 3415.447754 399.632629
v 1053.773315 3416.719727 399.632629
v 1053.773315 3416.719727 399.632629
v 1054.337646 3417.350342 400.479095
v 1055.758545 3416.078857 400.479095
v 1054.616821 3414.280029 426.638184
v 1059.668823 3409.759033 426.638184
v 1058.054932 3407.955566 426.638184
v 1058.054932 3407.955566 426.638184
v 1053.002930 3412.476562 426.638184
v 1054.616821 3414.280029 426.638184
v 1052.919800 3412.384033 426.762817
v 1053.002930 3412.476562 426.638184
v 1058.054932 3407.955566 426.638184
v 1058.054932 3407.955566 426.638184
v 1057.971802 3407.862793 426.762848
v 1052.919800 3412.384033 426.762817
v 1053.002930 3412.476562 428.544861
v 1052.919800 3412.384033 428.420227
v 1057.971802 3407.862793 428.420227
v 1057.971802 3407.862793 428.420227
v 1058.054932 3407.955566 428.544861
v 1053.002930 3412.476562 428.544861
v 1053.002930 3412.476562 428.544861
v 1058.054932 3407.955566 428.544861
v 1059.668823 3409.759033 428.544861
v 1059.668823 3409.759033 428.544861
v 1054.616821 3414.280029 428.544861
v 1053.002930 3412.476562 428.544861
v 1054.699829 3414.373047 428.420227
v 1054.616821 3414.280029 428.544861
v 1059.668823 3409.759033 428.544861
v 1059.668823 3409.759033 428.544861
v 1059.751953 3409.852295 428.420227
v 1054.699829 3414.373047 428.420227
v 1055.043579 3415.029785 429.418030
v 1055.509521 3414.612793 429.418030
v 1055.509521 3414.612793 425.881958
v 1055.509521 3414.612793 425.881958
v 1055.043579 3415.029785 425.881958
v 1055.043579 3415.029785 429.418030
v 1054.861694 3414.826660 425.609222
v 1055.043579 3415.029785 425.881958
v 1055.509521 3414.612793 425.881958
v 1055.509521 3414.612793 425.881958
v 1055.327637 3414.409668 425.609222
v 1054.861694 3414.826660 425.609222
v 1054.861694 3414.826660 425.609222
v 1055.327637 3414.409668 425.609222
v 1053.093140 3411.912354 425.609222
v 1053.093140 3411.912354 425.609222
v 1052.627197 3412.329834 425.609222
v 1054.861694 3414.826660 425.609222
v 1052.445557 3412.126465 425.881989
v 1052.627197 3412.329834 425.609222
v 1053.093140 3411.912354 425.609222
v 1053.093140 3411.912354 425.609222
v 1052.911255 3411.709473 425.881989
v 1052.445557 3412.126465 425.881989
v 1052.627197 3412.329834 429.690765
v 1053.093140 3411.912354 429.690765
v 1055.327637 3414.409668 429.690765
v 1055.327637 3414.409668 429.690765
v 1054.861694 3414.826660 429.690765
v 1052.627197 3412.329834 429.690765
v 1055.043579 3415.029785 429.418030
v 1054.861694 3414.826660 429.690765
v 1055.327637 3414.409668 429.690765
v 1055.327637 3414.409668 429.690765
v 1055.509521 3414.612793 429.418030
v 1055.043579 3415.029785 429.418030
v 1052.919800 3412.384033 407.550476
v 1057.971802 3407.862793 407.550476
v 1057.971802 3407.862793 409.207886
v 1057.971802 3407.862793 409.207886
v 1052.919800 3412.384033 409.207886
v 1052.919800 3412.384033 407.550476
v 1053.002930 3412.476562 409.332520
v 1052.919800 3412.384033 409.207886
v 1057.971802 3407.862793 409.207886
v 1057.971802 3407.862793 409.207886
v 1058.054932 3407.955566 409.332520
v 1053.002930 3412.476562 409.332520
v 1053.002930 3412.476562 409.332520
v 1058.054932 3407.955566 409.332520
v 1059.668823 3409.759033 409.332520
v 1059.668823 3409.759033 409.332520
v 1054.616821 3414.280029 409.332520
v 1053.002930 3412.476562 409.332520
v 1054.699951 3414.373047 409.207886
v 1054.616821 3414.280029 409.332520
v 1059.668823 3409.759033 409.332520
v 1059.668823 3409.759033 409.332520
v 1059.751953 3409.852295 409.207886
v 1054.699951 3414.373047 409.207886
v 1058.054932 3407.955566 407.425842
v 1057.971802 3407.862793 407.550476
v 1052.919800 3412.384033 407.550476
v 1052.919800 3412.384033 407.550476
v 1053.002930 3412.476562 407.425842
v 1058.054932 3407.955566 407.425842
v 1058.054932 3407.955566 407.425842
v 1053.002930 3412.476562 407.425842
v 1054.616821 3414.280029 407.425842
v 1054.616821 3414.280029 407.425842
v 1059.668823 3409.759033 407.425842
v 1058.054932 3407.955566 407.425842
v 1059.751953 3409.852295 407.550476
v 1059.668823 3409.759033 407.425842
v 1054.616821 3414.280029 407.425842
v 1054.616821 3414.280029 407.425842
v 1054.699829 3414.373047 407.550476
v 1059.751953 3409.852295 407.550476
v 1053.093262 3411.912354 406.396881
v 1052.627319 3412.329834 406.396881
v 1054.861694 3414.826660 406.396881
v 1054.861694 3414.826660 406.396881
v 1055.327637 3414.409668 406.396881
v 1053.093262 3411.912354 406.396881
v 1055.509521 3414.612793 406.669617
v 1055.327637 3414.409668 406.396881
v 1054.861694 3414.826660 406.396881
v 1054.861694 3414.826660 406.396881
v 1055.043579 3415.029785 406.669617
v 1055.509521 3414.612793 406.669617
v 1052.627319 3412.329834 410.478424
v 1053.093140 3411.912354 410.478424
v 1055.327637 3414.409668 410.478424
v 1055.327637 3414.409668 410.478424
v 1054.861694 3414.826660 410.478424
v 1052.627319 3412.329834 410.478424
v 1055.043579 3415.029785 410.205688
v 1054.861694 3414.826660 410.478424
v 1055.327637 3414.409668 410.478424
v 1055.327637 3414.409668 410.478424
v 1055.509521 3414.612793 410.205688
v 1055.043579 3415.029785 410.205688
v 1057.971802 3407.862793 428.420227
v 1057.971802 3407.862793 426.762848
v 1057.848755 3407.569824 426.337524
v 1057.971802 3407.862793 426.762848
v 1058.054932 3407.955566 426.638184
v 1057.848755 3407.569824 426.337524
v 1057.848755 3407.569824 426.337524
v 1057.848755 3407.569824 428.845551
v 1057.971802 3407.862793 428.420227
v 1060.029785 3410.006836 426.337524
v 1057.848755 3407.569824 426.337524
v 1058.054932 3407.955566 426.638184
v 1058.054932 3407.955566 428.544861
v 1057.971802 3407.862793 428.420227
v 1057.848755 3407.569824 428.845551
v 1058.054932 3407.955566 426.638184
v 1059.668823 3409.759033 426.638184
v 1060.029785 3410.006836 426.337524
v 1059.668823 3409.759033 428.544861
v 1058.054932 3407.955566 428.544861
v 1057.848755 3407.569824 428.845551
v 1059.668823 3409.759033 426.638184
v 1059.751953 3409.852295 426.762848
v 1060.029785 3410.006836 426.337524
v 1057.848755 3407.569824 428.845551
v 1060.029785 3410.006836 428.845551
v 1059.668823 3409.759033 428.544861
v 1060.029785 3410.006836 428.845551
v 1060.029785 3410.006836 426.337524
v 1059.751953 3409.852295 426.762848
v 1059.751953 3409.852295 428.420227
v 1059.668823 3409.759033 428.544861
v 1060.029785 3410.006836 428.845551
v 1059.751953 3409.852295 426.762848
v 1059.751953 3409.852295 428.420227
v 1060.029785 3410.006836 428.845551
v 1057.971802 3407.862793 409.207886
v 1057.971802 3407.862793 407.550476
v 1057.848755 3407.569824 407.125153
v 1057.971802 3407.862793 407.550476
v 1058.054932 3407.955566 407.425842
v 1057.848755 3407.569824 407.125153
v 1057.848755 3407.569824 407.125153
v 1057.848755 3407.569824 409.633209
v 1057.971802 3407.862793 409.207886
v 1060.029785 3410.006836 407.125153
v 1057.848755 3407.569824 407.125153
v 1058.054932 3407.955566 407.425842
v 1058.054932 3407.955566 409.332520
v 1057.971802 3407.862793 409.207886
v 1057.848755 3407.569824 409.633209
v 1058.054932 3407.955566 407.425842
v 1059.668823 3409.759033 407.425842
v 1060.029785 3410.006836 407.125153
v 1059.668823 3409.759033 409.332520
v 1058.054932 3407.955566 409.332520
v 1057.848755 3407.569824 409.633209
v 1059.668823 3409.759033 407.425842
v 1059.751953 3409.852295 407.550476
v 1060.029785 3410.006836 407.125153
v 1057.848755 3407.569824 409.633209
v 1060.029785 3410.006836 409.633209
v 1059.668823 3409.759033 409.332520
v 1060.029785 3410.006836 409.633209
v 1060.029785 3410.006836 407.125153
v 1059.751953 3409.852295 407.550476
v 1059.751953 3409.852295 409.207886
v 1059.668823 3409.759033 409.332520
v 1060.029785 3410.006836 409.633209
v 1059.751953 3409.852295 407.550476
v 1059.751953 3409.852295 409.207886
v 1060.029785 3410.006836 409.633209
v 1109.820679 3374.244629 374.017273
v 1109.820679 3374.244629 404.012848
v 1110.936646 3373.245605 402.515259
v 1110.936646 3373.245605 402.515259
v 1110.936523 3373.245605 372.519714
v 1109.820679 3374.244629 374.017273
v 1133.288696 3353.243408 402.515289
v 1110.936646 3373.245605 402.515259
v 1109.820679 3374.244629 404.012848
v 1109.049927 3374.934326 372.983063
v 1109.820679 3374.244629 374.017273
v 1110.936523 3373.245605 372.519714
v 1109.820679 3374.244629 404.012848
v 1132.172729 3354.241699 404.012848
v 1133.288696 3353.243408 402.515289
v 1110.936523 3373.245605 372.519714
v 1110.165894 3373.935303 371.485474
v 1109.049927 3374.934326 372.983063
v 1134.059326 3352.553711 403.549500
v 1133.288696 3353.243408 402.515289
v 1132.172729 3354.241699 404.012848
v 1089.700439 3392.250000 372.983063
v 1109.049927 3374.934326 372.983063
v 1110.165894 3373.935303 371.485474
v 1132.172729 3354.241699 404.012848
v 1132.943359 3353.552002 405.047058
v 1134.059326 3352.553711 403.549500
v 1110.165894 3373.935303 371.485474
v 1088.584473 3393.248779 371.485474
v 1089.700439 3392.250000 372.983063
v 1134.059326 3352.553711 432.510834
v 1134.059326 3352.553711 403.549500
v 1132.943359 3353.552002 405.047058
v 1088.929810 3392.939697 374.017273
v 1089.700439 3392.250000 372.983063
v 1088.584473 3393.248779 371.485474
v 1132.943359 3353.552002 405.047058
v 1132.943359 3353.552002 431.013275
v 1134.059326 3352.553711 432.510834
v 1088.584473 3393.248779 371.485474
v 1087.813843 3393.937988 372.519714
v 1088.929810 3392.939697 374.017273
v 1133.288696 3353.243408 433.545044
v 1134.059326 3352.553711 432.510834
v 1132.943359 3353.552002 431.013275
v 1088.929810 3392.939697 404.012848
v 1088.929810 3392.939697 374.017273
v 1087.813843 3393.937988 372.519714
v 1132.943359 3353.552002 431.013275
v 1132.172729 3354.241699 432.047485
v 1133.288696 3353.243408 433.545044
v 1087.813843 3393.937988 372.519714
v 1087.813843 3393.938477 402.515259
v 1088.929810 3392.939697 404.012848
v 1110.936646 3373.245605 433.545044
v 1133.288696 3353.243408 433.545044
v 1132.172729 3354.241699 432.047485
v 1066.577637 3412.942627 404.012848
v 1088.929810 3392.939697 404.012848
v 1087.813843 3393.938477 402.515259
v 1132.172729 3354.241699 432.047485
v 1109.820679 3374.244629 432.047485
v 1110.936646 3373.245605 433.545044
v 1087.813843 3393.938477 402.515259
v 1065.461792 3413.941162 402.515259
v 1066.577637 3412.942627 404.012848
v 1110.936646 3373.245605 463.540619
v 1110.936646 3373.245605 433.545044
v 1109.820679 3374.244629 432.047485
v 1065.807007 3413.632324 405.047058
v 1066.577637 3412.942627 404.012848
v 1065.461792 3413.941162 402.515259
v 1109.820679 3374.244629 432.047485
v 1109.820679 3374.244629 462.043030
v 1110.936646 3373.245605 463.540619
v 1065.461792 3413.941162 402.515259
v 1064.691040 3414.630859 403.549469
v 1065.807007 3413.632324 405.047058
v 1110.165894 3373.935303 464.574829
v 1110.936646 3373.245605 463.540619
v 1109.820679 3374.244629 462.043030
v 1065.807007 3413.632324 431.013245
v 1065.807007 3413.632324 405.047058
v 1064.691040 3414.630859 403.549469
v 1109.820679 3374.244629 462.043030
v 1109.049927 3374.934326 463.077271
v 1110.165894 3373.935303 464.574829
v 1064.691040 3414.630859 403.549469
v 1064.691040 3414.630859 432.510834
v 1065.807007 3413.632324 431.013245
v 1088.584595 3393.248779 464.574829
v 1110.165894 3373.935303 464.574829
v 1109.049927 3374.934326 463.077271
v 1066.577637 3412.942627 432.047455
v 1065.807007 3413.632324 431.013245
v 1064.691040 3414.630859 432.510834
v 1109.049927 3374.934326 463.077271
v 1089.700439 3392.250000 463.077271
v 1088.584595 3393.248779 464.574829
v 1064.691040 3414.630859 432.510834
v 1065.461792 3413.941162 433.545044
v 1066.577637 3412.942627 432.047455
v 1087.813843 3393.938477 463.540619
v 1088.584595 3393.248779 464.574829
v 1089.700439 3392.250000 463.077271
v 1088.929810 3392.939697 432.047485
v 1066.577637 3412.942627 432.047455
v 1065.461792 3413.941162 433.545044
v 1089.700439 3392.250000 463.077271
v 1088.929810 3392.939697 462.043030
v 1087.813843 3393.938477 463.540619
v 1065.461792 3413.941162 433.545044
v 1087.813843 3393.938477 433.545044
v 1088.929810 3392.939697 432.047485
v 1087.813843 3393.938477 433.545044
v 1087.813843 3393.938477 463.540619
v 1088.929810 3392.939697 462.043030
v 1088.929810 3392.939697 462.043030
v 1088.929810 3392.939697 432.047485
v 1087.813843 3393.938477 433.545044
v 1098.341064 3361.416748 374.017273
v 1099.457031 3360.418213 372.519714
v 1099.457031 3360.418213 402.515259
v 1099.457031 3360.418213 372.519714
v 1098.341064 3361.416748 374.017273
v 1097.570435 3362.106445 372.983063
v 1099.457031 3360.418213 402.515259
v 1098.341064 3361.416748 404.012848
v 1098.341064 3361.416748 374.017273
v 1097.570435 3362.106445 372.983063
v 1098.686279 3361.107910 371.485474
v 1099.457031 3360.418213 372.519714
v 1098.341064 3361.416748 404.012848
v 1099.457031 3360.418213 402.515259
v 1121.809082 3340.415283 402.515289
v 1098.686279 3361.107910 371.485474
v 1097.570435 3362.106445 372.983063
v 1078.220825 3379.422119 372.983063
v 1121.809082 3340.415283 402.515289
v 1120.693115 3341.413574 404.012848
v 1098.341064 3361.416748 404.012848
v 1078.220825 3379.422119 372.983063
v 1077.104858 3380.420898 371.485474
v 1098.686279 3361.107910 371.485474
v 1120.693115 3341.413574 404.012848
v 1121.809082 3340.415283 402.515289
v 1122.579712 3339.725586 403.549500
v 1077.104858 3380.420898 371.485474
v 1078.220825 3379.422119 372.983063
v 1077.450317 3380.111816 374.017273
v 1122.579712 3339.725586 403.549500
v 1121.463867 3340.724365 405.047058
v 1120.693115 3341.413574 404.012848
v 1077.450317 3380.111816 374.017273
v 1076.334229 3381.110596 372.519714
v 1077.104858 3380.420898 371.485474
v 1121.463867 3340.724365 405.047058
v 1122.579712 3339.725586 403.549500
v 1122.579712 3339.725586 432.510864
v 1076.334229 3381.110596 372.519714
v 1077.450317 3380.111816 374.017273
v 1077.450195 3380.111816 404.012848
v 1122.579712 3339.725586 432.510864
v 1121.463867 3340.724121 431.013275
v 1121.463867 3340.724365 405.047058
v 1077.450195 3380.111816 404.012848
v 1076.334229 3381.110596 402.515259
v 1076.334229 3381.110596 372.519714
v 1121.463867 3340.724121 431.013275
v 1122.579712 3339.725586 432.510864
v 1121.809082 3340.415283 433.545074
v 1076.334229 3381.110596 402.515259
v 1077.450195 3380.111816 404.012848
v 1055.098022 3400.114746 404.012848
v 1121.809082 3340.415283 433.545074
v 1120.693115 3341.413574 432.047485
v 1121.463867 3340.724121 431.013275
v 1055.098022 3400.114746 404.012848
v 1053.982178 3401.113281 402.515259
v 1076.334229 3381.110596 402.515259
v 1120.693115 3341.413574 432.047485
v 1121.809082 3340.415283 433.545074
v 1099.457031 3360.418213 433.545044
v 1053.982178 3401.113281 402.515259
v 1055.098022 3400.114746 404.012848
v 1054.327515 3400.804443 405.047058
v 1099.457031 3360.418213 433.545044
v 1098.341064 3361.416748 432.047485
v 1120.693115 3341.413574 432.047485
v 1054.327515 3400.804443 405.047058
v 1053.211548 3401.802979 403.549469
v 1053.982178 3401.113281 402.515259
v 1098.341064 3361.416748 432.047485
v 1099.457031 3360.418213 433.545044
v 1099.457031 3360.418213 463.540619
v 1053.211548 3401.802979 403.549469
v 1054.327515 3400.804443 405.047058
v 1054.327515 3400.804443 431.013245
v 1099.457031 3360.418213 463.540619
v 1098.341064 3361.416748 462.043030
v 1098.341064 3361.416748 432.047485
v 1054.327515 3400.804443 431.013245
v 1053.211426 3401.802979 432.510834
v 1053.211548 3401.802979 403.549469
v 1098.341064 3361.416748 462.043030
v 1099.457031 3360.418213 463.540619
v 1098.686279 3361.107910 464.574829
v 1053.211426 3401.802979 432.510834
v 1054.327515 3400.804443 431.013245
v 1055.098145 3400.114746 432.047455
v 1098.686279 3361.107910 464.574829
v 1097.570312 3362.106445 463.077271
v 1098.341064 3361.416748 462.043030
v 1055.098145 3400.114746 432.047455
v 1053.982178 3401.113281 433.545044
v 1053.211426 3401.802979 432.510834
v 1097.570312 3362.106445 463.077271
v 1098.686279 3361.107910 464.574829
v 1077.104980 3380.420898 464.574829
v 1053.982178 3401.113281 433.545044
v 1055.098145 3400.114746 432.047455
v 1077.450195 3380.111816 432.047485
v 1077.104980 3380.420898 464.574829
v 1078.220825 3379.422119 463.077271
v 1097.570312 3362.106445 463.077271
v 1077.450195 3380.111816 432.047485
v 1076.334229 3381.110596 433.545044
v 1053.982178 3401.113281 433.545044
v 1078.220825 3379.422119 463.077271
v 1077.104980 3380.420898 464.574829
v 1076.334229 3381.110596 463.540619
v 1076.334229 3381.110596 433.545044
v 1077.450195 3380.111816 432.047485
v 1077.450195 3380.111816 462.043030
v 1076.334229 3381.110596 463.540619
v 1077.450195 3380.111816 462.043030
v 1078.220825 3379.422119 463.077271
v 1077.450195 3380.111816 462.043030
v 1076.334229 3381.110596 463.540619
v 1076.334229 3381.110596 433.545044
v 1051.319824 3411.118896 400.479095
v 1051.884277 3411.750000 399.632629
v 1052.311279 3411.628174 400.101318
v 1052.311279 3411.628174 400.101318
v 1051.884277 3411.750000 399.632629
v 1053.539185 3413.598633 399.632629
v 1052.311279 3411.628174 400.101318
v 1051.929932 3411.201904 400.673218
v 1051.319824 3411.118896 400.479095
v 1051.319824 3411.118896 418.127686
v 1051.319824 3411.118896 400.479095
v 1051.929932 3411.201904 400.673218
v 1053.539185 3413.598633 399.632629
v 1053.836792 3413.332520 400.101318
v 1052.311279 3411.628174 400.101318
v 1055.362183 3415.037354 400.101318
v 1053.836792 3413.332520 400.101318
v 1053.539185 3413.598633 399.632629
v 1053.539185 3413.598633 399.632629
v 1055.194092 3415.447754 399.632629
v 1055.362183 3415.037354 400.101318
v 1052.311279 3411.628174 400.101318
v 1053.836792 3413.332520 400.101318
v 1053.836792 3413.332520 400.673218
v 1053.836792 3413.332520 400.673218
v 1053.836792 3413.332520 400.101318
v 1055.362183 3415.037354 400.101318
v 1053.836792 3413.332520 400.673218
v 1051.929932 3411.201904 400.673218
v 1052.311279 3411.628174 400.101318
v 1055.743408 3415.463379 400.673218
v 1055.362183 3415.037354 400.101318
v 1055.194092 3415.447754 399.632629
v 1055.362183 3415.037354 400.101318
v 1055.743408 3415.463379 400.673218
v 1053.836792 3413.332520 400.673218
v 1055.194092 3415.447754 399.632629
v 1055.758545 3416.078857 400.479095
v 1055.743408 3415.463379 400.673218
v 1055.743408 3415.463379 400.673218
v 1055.758545 3416.078857 400.479095
v 1055.758545 3416.078857 418.127686
v 1051.929932 3411.201904 400.673218
v 1053.836792 3413.332520 400.673218
v 1053.836792 3413.332764 418.127686
v 1053.836792 3413.332764 418.127686
v 1053.836792 3413.332520 400.673218
v 1055.743408 3415.463379 400.673218
v 1055.758545 3416.078857 418.127686
v 1055.743408 3415.463379 418.127686
v 1055.743408 3415.463379 400.673218
v 1055.743408 3415.463379 400.673218
v 1055.743408 3415.463379 418.127686
v 1053.836792 3413.332764 418.127686
v 1055.743408 3415.463379 435.582153
v 1055.743408 3415.463379 418.127686
v 1055.758545 3416.078857 418.127686
v 1055.758545 3416.078857 418.127686
v 1055.758545 3416.078857 435.776276
v 1055.743408 3415.463379 435.582153
v 1053.836792 3413.332764 435.582153
v 1053.836792 3413.332764 418.127686
v 1055.743408 3415.463379 418.127686
v 1055.743408 3415.463379 418.127686
v 1055.743408 3415.463379 435.582153
v 1053.836792 3413.332764 435.582153
v 1053.836792 3413.332764 418.127686
v 1051.929932 3411.201904 418.127686
v 1051.929932 3411.201904 400.673218
v 1051.929932 3411.201904 418.127686
v 1053.836792 3413.332764 418.127686
v 1053.836792 3413.332764 435.582153
v 1051.929932 3411.201904 400.673218
v 1051.929932 3411.201904 418.127686
v 1051.319824 3411.118896 418.127686
v 1055.362183 3415.037354 436.154053
v 1055.743408 3415.463379 435.582153
v 1055.758545 3416.078857 435.776276
v 1053.836792 3413.332764 435.582153
v 1055.743408 3415.463379 435.582153
v 1055.362183 3415.037354 436.154053
v 1055.758545 3416.078857 435.776276
v 1055.194092 3415.447754 436.622742
v 1055.362183 3415.037354 436.154053
v 1055.362183 3415.037354 436.154053
v 1055.194092 3415.447754 436.622742
v 1053.539185 3413.598633 436.622742
v 1051.319824 3411.118896 418.127686
v 1051.929932 3411.201904 418.127686
v 1051.929932 3411.201904 435.582123
v 1053.836792 3413.332764 435.582153
v 1051.929932 3411.201904 435.582123
v 1051.929932 3411.201904 418.127686
v 1051.929932 3411.201904 435.582123
v 1051.319824 3411.118896 435.776276
v 1051.319824 3411.118896 418.127686
v 1051.884277 3411.750000 436.622742
v 1051.319824 3411.118896 435.776276
v 1051.929932 3411.201904 435.582123
v 1055.362183 3415.037354 436.154053
v 1053.836792 3413.332764 436.154053
v 1053.836792 3413.332764 435.582153
v 1053.539185 3413.598633 436.622742
v 1053.836792 3413.332764 436.154053
v 1055.362183 3415.037354 436.154053
v 1052.311401 3411.628174 436.154053
v 1051.929932 3411.201904 435.582123
v 1053.836792 3413.332764 435.582153
v 1053.836792 3413.332764 435.582153
v 1053.836792 3413.332764 436.154053
v 1052.311401 3411.628174 436.154053
v 1051.929932 3411.201904 435.582123
v 1052.311401 3411.628174 436.154053
v 1051.884277 3411.750000 436.622742
v 1052.311401 3411.628174 436.154053
v 1053.836792 3413.332764 436.154053
v 1053.539185 3413.598633 436.622742
v 1053.539185 3413.598633 436.622742
v 1051.884277 3411.750000 436.622742
v 1052.311401 3411.628174 436.154053
v 1052.911255 3411.709473 425.881989
v 1053.093140 3411.912354 425.609222
v 1053.245728 3411.876221 425.789093
v 1055.380737 3414.261963 425.789093
v 1053.245728 3411.876221 425.789093
v 1053.093140 3411.912354 425.609222
v 1053.093140 3411.912354 425.609222
v 1055.327637 3414.409668 425.609222
v 1055.380737 3414.261963 425.789093
v 1053.245728 3411.876221 425.789093
v 1053.134033 3411.751465 425.956482
v 1052.911255 3411.709473 425.881989
v 1053.134033 3411.751465 425.956482
v 1053.245728 3411.876221 425.789093
v 1055.380737 3414.261963 425.789093
v 1052.911377 3411.709473 429.418030
v 1052.911255 3411.709473 425.881989
v 1053.134033 3411.751465 425.956482
v 1055.492432 3414.386475 425.956482
v 1055.380737 3414.261963 425.789093
v 1055.327637 3414.409668 425.609222
v 1055.380737 3414.261963 425.789093
v 1055.492432 3414.386475 425.956482
v 1053.134033 3411.751465 425.956482
v 1055.327637 3414.409668 425.609222
v 1055.509521 3414.612793 425.881958
v 1055.492432 3414.386475 425.956482
v 1053.134033 3411.751465 425.956482
v 1053.134033 3411.751465 429.343536
v 1052.911377 3411.709473 429.418030
v 1053.093140 3411.912354 429.690765
v 1052.911377 3411.709473 429.418030
v 1053.134033 3411.751465 429.343536
v 1053.134033 3411.751465 425.956482
v 1055.492432 3414.386475 425.956482
v 1055.492432 3414.386475 429.343536
v 1055.492432 3414.386475 429.343536
v 1055.492432 3414.386475 425.956482
v 1055.509521 3414.612793 425.881958
v 1055.492432 3414.386475 429.343536
v 1053.134033 3411.751465 429.343536
v 1053.134033 3411.751465 425.956482
v 1055.509521 3414.612793 425.881958
v 1055.509521 3414.612793 429.418030
v 1055.492432 3414.386475 429.343536
v 1053.134033 3411.751465 429.343536
v 1053.245728 3411.876221 429.510925
v 1053.093140 3411.912354 429.690765
v 1055.327637 3414.409668 429.690765
v 1053.093140 3411.912354 429.690765
v 1053.245728 3411.876221 429.510925
v 1053.134033 3411.751465 429.343536
v 1055.492432 3414.386475 429.343536
v 1055.380737 3414.261963 429.510925
v 1055.380737 3414.261963 429.510925
v 1053.245728 3411.876221 429.510925
v 1053.134033 3411.751465 429.343536
v 1055.380737 3414.261963 429.510925
v 1055.492432 3414.386475 429.343536
v 1055.509521 3414.612793 429.418030
v 1053.245728 3411.876221 429.510925
v 1055.380737 3414.261963 429.510925
v 1055.327637 3414.409668 429.690765
v 1055.509521 3414.612793 429.418030
v 1055.327637 3414.409668 429.690765
v 1055.380737 3414.261963 429.510925
v 1052.911377 3411.709473 406.669617
v 1053.093262 3411.912354 406.396881
v 1053.245728 3411.876221 406.576721
v 1055.380737 3414.261963 406.576721
v 1053.245728 3411.876221 406.576721
v 1053.093262 3411.912354 406.396881
v 1053.093262 3411.912354 406.396881
v 1055.327637 3414.409668 406.396881
v 1055.380737 3414.261963 406.576721
v 1053.245728 3411.876221 406.576721
v 1053.134033 3411.751465 406.744110
v 1052.911377 3411.709473 406.669617
v 1053.134033 3411.751465 406.744110
v 1053.245728 3411.876221 406.576721
v 1055.380737 3414.261963 406.576721
v 1052.911377 3411.709473 410.205688
v 1052.911377 3411.709473 406.669617
v 1053.134033 3411.751465 406.744110
v 1055.492432 3414.386475 406.744110
v 1055.380737 3414.261963 406.576721
v 1055.327637 3414.409668 406.396881
v 1055.380737 3414.261963 406.576721
v 1055.492432 3414.386475 406.744110
v 1053.134033 3411.751465 406.744110
v 1055.327637 3414.409668 406.396881
v 1055.509521 3414.612793 406.669617
v 1055.492432 3414.386475 406.744110
v 1053.134033 3411.751465 406.744110
v 1053.134033 3411.751465 410.131195
v 1052.911377 3411.709473 410.205688
v 1053.093140 3411.912354 410.478424
v 1052.911377 3411.709473 410.205688
v 1053.134033 3411.751465 410.131195
v 1053.134033 3411.751465 406.744110
v 1055.492432 3414.386475 406.744110
v 1055.492432 3414.386475 410.131195
v 1055.492432 3414.386475 410.131195
v 1055.492432 3414.386475 406.744110
v 1055.509521 3414.612793 406.669617
v 1055.492432 3414.386475 410.131195
v 1053.134033 3411.751465 410.131195
v 1053.134033 3411.751465 406.744110
v 1055.509521 3414.612793 406.669617
v 1055.509521 3414.612793 410.205688
v 1055.492432 3414.386475 410.131195
v 1053.134033 3411.751465 410.131195
v 1053.245728 3411.876221 410.298584
v 1053.093140 3411.912354 410.478424
v 1055.327637 3414.409668 410.478424
v 1053.093140 3411.912354 410.478424
v 1053.245728 3411.876221 410.298584
v 1053.134033 3411.751465 410.131195
v 1055.492432 3414.386475 410.131195
v 1055.380737 3414.261963 410.298584
v 1055.380737 3414.261963 410.298584
v 1053.245728 3411.876221 410.298584
v 1053.134033 3411.751465 410.131195
v 1055.380737 3414.261963 410.298584
v 1055.492432 3414.386475 410.131195
v 1055.509521 3414.612793 410.205688
v 1053.245728 3411.876221 410.298584
v 1055.380737 3414.261963 410.298584
v 1055.327637 3414.409668 410.478424
v 1055.509521 3414.612793 410.205688
v 1055.327637 3414.409668 410.478424
v 1055.380737 3414.261963 410.298584
vt 0.705566 0.858521
vt 0.868652 0.858521
vt 0.868652 0.864258
vt 0.868652 0.864258
vt 0.705566 0.864258
vt 0.705566 0.858521
vt 0.711426 0.896667
vt 0.852539 0.896667
vt 0.852539 0.902466
vt 0.852539 0.902466
vt 0.711426 0.902466
vt 0.711426 0.896667
vt 0.868652 0.826050
vt 0.705566 0.826050
vt 0.705566 0.820312
vt 0.705566 0.820312
vt 0.868652 0.820312
vt 0.868652 0.826050
vt 0.169678 0.211426
vt 0.332520 0.211426
vt 0.332520 0.217285
vt 0.332520 0.217285
vt 0.169678 0.217285
vt 0.169678 0.211426
vt 0.844238 0.434570
vt 0.703125 0.434570
vt 0.703125 0.428711
vt 0.703125 0.428711
vt 0.844238 0.428711
vt 0.844238 0.434570
vt 0.872070 0.306152
vt 0.708984 0.306152
vt 0.708984 0.300293
vt 0.708984 0.300293
vt 0.872070 0.300293
vt 0.872070 0.306152
vt 0.866211 0.366211
vt 0.703125 0.366211
vt 0.703125 0.360352
vt 0.703125 0.360352
vt 0.866211 0.360352
vt 0.866211 0.366211
vt 0.662598 0.921936
vt 0.521484 0.921936
vt 0.521484 0.916138
vt 0.521484 0.916138
vt 0.662598 0.916138
vt 0.662598 0.921936
vt 0.158569 0.721436
vt 0.321533 0.721436
vt 0.321533 0.727295
vt 0.321533 0.727295
vt 0.158569 0.727295
vt 0.158569 0.721436
vt 0.326904 0.203125
vt 0.164062 0.203125
vt 0.164062 0.197266
vt 0.164062 0.197266
vt 0.326904 0.197266
vt 0.326904 0.203125
vt 0.516113 0.418457
vt 0.657227 0.418457
vt 0.657227 0.423828
vt 0.657227 0.423828
vt 0.516113 0.423828
vt 0.516113 0.418457
vt 0.705566 0.790161
vt 0.868652 0.790161
vt 0.868652 0.796021
vt 0.868652 0.796021
vt 0.705566 0.796021
vt 0.705566 0.790161
vt 0.852539 0.896667
vt 0.857910 0.896667
vt 0.857910 0.902466
vt 0.857910 0.902466
vt 0.852539 0.902466
vt 0.852539 0.896667
vt 0.705566 0.896667
vt 0.711426 0.896667
vt 0.711426 0.902466
vt 0.711426 0.902466
vt 0.705566 0.902466
vt 0.705566 0.896667
vt 0.164062 0.211426
vt 0.169678 0.211426
vt 0.169678 0.217285
vt 0.169678 0.217285
vt 0.164062 0.217285
vt 0.164062 0.211426
vt 0.708984 0.306152
vt 0.703125 0.306152
vt 0.703125 0.300293
vt 0.703125 0.300293
vt 0.708984 0.300293
vt 0.708984 0.306152
vt 0.521484 0.921936
vt 0.516113 0.921936
vt 0.516113 0.916138
vt 0.516113 0.916138
vt 0.521484 0.916138
vt 0.521484 0.921936
vt 0.321533 0.721436
vt 0.327148 0.721436
vt 0.327148 0.727295
vt 0.327148 0.727295
vt 0.321533 0.727295
vt 0.321533 0.721436
vt 0.332520 0.203125
vt 0.326904 0.203125
vt 0.326904 0.197266
vt 0.326904 0.197266
vt 0.332520 0.197266
vt 0.332520 0.203125
vt 0.868652 0.790161
vt 0.874512 0.790161
vt 0.874512 0.796021
vt 0.874512 0.796021
vt 0.868652 0.796021
vt 0.868652 0.790161
vt 0.866211 0.735840
vt 0.708984 0.735840
vt 0.708984 0.642334
vt 0.708984 0.642334
vt 0.866211 0.642334
vt 0.866211 0.735840
vt 0.679199 0.355957
vt 0.516113 0.355957
vt 0.516113 0.262207
vt 0.516113 0.262207
vt 0.679199 0.262207
vt 0.679199 0.355957
vt 0.673340 0.760132
vt 0.673340 0.853638
vt 0.516113 0.853638
vt 0.516113 0.853638
vt 0.516113 0.760132
vt 0.673340 0.760132
vt 0.716797 0.516357
vt 0.879883 0.516357
vt 0.879883 0.609863
vt 0.879883 0.609863
vt 0.716797 0.609863
vt 0.716797 0.516357
vt 0.716797 0.136230
vt 0.874512 0.136230
vt 0.874512 0.229980
vt 0.874512 0.229980
vt 0.716797 0.229980
vt 0.716797 0.136230
vt 0.169678 0.189453
vt 0.169678 0.183594
vt 0.332520 0.183594
vt 0.332520 0.183594
vt 0.332520 0.189453
vt 0.169678 0.189453
vt 0.516113 0.952026
vt 0.516113 0.946228
vt 0.657227 0.946228
vt 0.657227 0.946228
vt 0.657227 0.952026
vt 0.516113 0.952026
vt 0.327148 0.693604
vt 0.327148 0.699463
vt 0.164185 0.699463
vt 0.164185 0.699463
vt 0.164185 0.693604
vt 0.327148 0.693604
vt 0.711426 0.765869
vt 0.711426 0.760132
vt 0.874512 0.760132
vt 0.874512 0.760132
vt 0.874512 0.765869
vt 0.711426 0.765869
vt 0.846680 0.926758
vt 0.846680 0.932556
vt 0.705566 0.932556
vt 0.705566 0.932556
vt 0.705566 0.926758
vt 0.846680 0.926758
vt 0.872070 0.330566
vt 0.872070 0.336426
vt 0.708984 0.336426
vt 0.708984 0.336426
vt 0.708984 0.330566
vt 0.872070 0.330566
vt 0.866211 0.262207
vt 0.866211 0.268066
vt 0.703125 0.268066
vt 0.703125 0.268066
vt 0.703125 0.262207
vt 0.866211 0.262207
vt 0.844238 0.467285
vt 0.844238 0.472656
vt 0.703125 0.472656
vt 0.703125 0.472656
vt 0.703125 0.467285
vt 0.844238 0.467285
vt 0.158569 0.713379
vt 0.158569 0.707520
vt 0.321533 0.707520
vt 0.321533 0.707520
vt 0.321533 0.713379
vt 0.158569 0.713379
vt 0.679199 0.886047
vt 0.679199 0.891846
vt 0.516113 0.891846
vt 0.516113 0.891846
vt 0.516113 0.886047
vt 0.679199 0.886047
vt 0.521484 0.385742
vt 0.521484 0.379883
vt 0.662598 0.379883
vt 0.662598 0.379883
vt 0.662598 0.385742
vt 0.521484 0.385742
vt 0.703125 0.404785
vt 0.703125 0.398926
vt 0.866211 0.398926
vt 0.866211 0.398926
vt 0.866211 0.404785
vt 0.703125 0.404785
vt 0.164062 0.189453
vt 0.164062 0.183594
vt 0.169678 0.183594
vt 0.169678 0.183594
vt 0.169678 0.189453
vt 0.164062 0.189453
vt 0.164185 0.693604
vt 0.164185 0.699463
vt 0.158569 0.699463
vt 0.158569 0.699463
vt 0.158569 0.693604
vt 0.164185 0.693604
vt 0.705566 0.765869
vt 0.705566 0.760132
vt 0.711426 0.760132
vt 0.711426 0.760132
vt 0.711426 0.765869
vt 0.705566 0.765869
vt 0.708984 0.330566
vt 0.708984 0.336426
vt 0.703125 0.336426
vt 0.703125 0.336426
vt 0.703125 0.330566
vt 0.708984 0.330566
vt 0.872070 0.262207
vt 0.872070 0.268066
vt 0.866211 0.268066
vt 0.866211 0.268066
vt 0.866211 0.262207
vt 0.872070 0.262207
vt 0.321533 0.713379
vt 0.321533 0.707520
vt 0.327148 0.707520
vt 0.327148 0.707520
vt 0.327148 0.713379
vt 0.321533 0.713379
vt 0.662598 0.385742
vt 0.662598 0.379883
vt 0.668457 0.379883
vt 0.668457 0.379883
vt 0.668457 0.385742
vt 0.662598 0.385742
vt 0.516113 0.385742
vt 0.516113 0.379883
vt 0.521484 0.379883
vt 0.521484 0.379883
vt 0.521484 0.385742
vt 0.516113 0.385742
vt 0.916504 0.840576
vt 0.882812 0.840576
vt 0.882812 0.832275
vt 0.882812 0.832275
vt 0.916504 0.832275
vt 0.916504 0.840576
vt 0.984375 0.258301
vt 0.971680 0.258301
vt 0.971680 0.256348
vt 0.971680 0.256348
vt 0.984375 0.256348
vt 0.984375 0.258301
vt 0.540527 0.976334
vt 0.557129 0.976334
vt 0.557129 0.978500
vt 0.557129 0.978500
vt 0.540527 0.978500
vt 0.540527 0.976334
vt 0.887695 0.596191
vt 0.900391 0.596191
vt 0.900391 0.598389
vt 0.900391 0.598389
vt 0.887695 0.598389
vt 0.887695 0.596191
vt 0.943359 0.832031
vt 0.959961 0.832031
vt 0.959961 0.834351
vt 0.959961 0.834351
vt 0.943359 0.834229
vt 0.943359 0.832031
vt 0.896973 0.717773
vt 0.896973 0.709473
vt 0.930664 0.709473
vt 0.930664 0.709473
vt 0.930664 0.717773
vt 0.896973 0.717773
vt 0.931641 0.087402
vt 0.918945 0.087402
vt 0.918945 0.085449
vt 0.918945 0.085449
vt 0.931641 0.084961
vt 0.931641 0.087402
vt 0.936035 0.456055
vt 0.952637 0.456055
vt 0.952637 0.458008
vt 0.952637 0.458008
vt 0.936035 0.458008
vt 0.936035 0.456055
vt 0.940918 0.560303
vt 0.953613 0.560303
vt 0.953613 0.562500
vt 0.953613 0.562500
vt 0.940918 0.562500
vt 0.940918 0.560303
vt 0.957520 0.709229
vt 0.974121 0.709229
vt 0.974121 0.711670
vt 0.974121 0.711670
vt 0.957520 0.711426
vt 0.957520 0.709229
vt 0.750488 0.903564
vt 0.750488 0.900452
vt 0.768066 0.900452
vt 0.768066 0.900452
vt 0.768066 0.903564
vt 0.750488 0.903564
vt 0.684570 0.010254
vt 0.684570 0.104004
vt 0.521484 0.104004
vt 0.521484 0.104004
vt 0.521484 0.010254
vt 0.684570 0.010254
vt 0.521484 0.010254
vt 0.521484 0.104004
vt 0.516113 0.104004
vt 0.516113 0.104004
vt 0.516113 0.010254
vt 0.521484 0.010254
vt 0.516113 0.735840
vt 0.516113 0.642334
vt 0.679199 0.642334
vt 0.679199 0.642334
vt 0.679199 0.735840
vt 0.516113 0.735840
vt 0.679199 0.735840
vt 0.679199 0.642334
vt 0.684570 0.642334
vt 0.684570 0.642334
vt 0.684570 0.735840
vt 0.679199 0.735840
vt 0.516113 0.609863
vt 0.516113 0.516357
vt 0.521484 0.516357
vt 0.521484 0.516357
vt 0.521484 0.609863
vt 0.516113 0.609863
vt 0.521484 0.609863
vt 0.521484 0.516357
vt 0.679199 0.516357
vt 0.679199 0.516357
vt 0.679199 0.609863
vt 0.521484 0.609863
vt 0.684570 0.609863
vt 0.679199 0.609863
vt 0.679199 0.516357
vt 0.679199 0.516357
vt 0.684570 0.516357
vt 0.684570 0.609863
vt 0.879883 0.759399
vt 0.879883 0.768921
vt 0.791992 0.768921
vt 0.791992 0.768921
vt 0.791992 0.759399
vt 0.879883 0.759399
vt 0.791992 0.759399
vt 0.791992 0.768921
vt 0.703613 0.768921
vt 0.703613 0.768921
vt 0.703613 0.759399
vt 0.791992 0.759399
vt 0.521484 0.136230
vt 0.684570 0.136230
vt 0.684570 0.229980
vt 0.684570 0.229980
vt 0.521484 0.229980
vt 0.521484 0.136230
vt 0.516113 0.136230
vt 0.521484 0.136230
vt 0.521484 0.229980
vt 0.521484 0.229980
vt 0.516113 0.229980
vt 0.516113 0.136230
vt 0.879883 0.104004
vt 0.716797 0.104004
vt 0.716797 0.010254
vt 0.716797 0.010254
vt 0.879883 0.010254
vt 0.879883 0.104004
vt 0.885742 0.104004
vt 0.879883 0.104004
vt 0.879883 0.010254
vt 0.879883 0.010254
vt 0.885742 0.010254
vt 0.885742 0.104004
vt 0.326904 0.318848
vt 0.164062 0.318848
vt 0.164062 0.225098
vt 0.164062 0.225098
vt 0.326904 0.225098
vt 0.326904 0.318848
vt 0.332520 0.318848
vt 0.326904 0.318848
vt 0.326904 0.225098
vt 0.326904 0.225098
vt 0.332520 0.225098
vt 0.332520 0.318848
vt 0.187378 0.154297
vt 0.191772 0.154297
vt 0.191772 0.164062
vt 0.191772 0.164062
vt 0.187378 0.164062
vt 0.187378 0.154297
vt 0.174316 0.154297
vt 0.187378 0.154297
vt 0.187378 0.164062
vt 0.187378 0.164062
vt 0.174316 0.164062
vt 0.174316 0.154297
vt 0.174316 0.154297
vt 0.174316 0.164062
vt 0.161255 0.164062
vt 0.161255 0.164062
vt 0.161255 0.154297
vt 0.174316 0.154297
vt 0.156738 0.154297
vt 0.161255 0.154297
vt 0.161255 0.164062
vt 0.161255 0.164062
vt 0.156738 0.164062
vt 0.156738 0.154297
vt 0.945801 0.391602
vt 0.945801 0.383301
vt 0.979980 0.383301
vt 0.979980 0.383301
vt 0.979980 0.391602
vt 0.945801 0.391602
vt 0.945801 0.392578
vt 0.945801 0.391602
vt 0.979980 0.391602
vt 0.979980 0.391602
vt 0.979980 0.392578
vt 0.945801 0.392578
vt 0.967773 0.524658
vt 0.949707 0.524658
vt 0.949707 0.521484
vt 0.949707 0.521484
vt 0.967773 0.521484
vt 0.967773 0.524658
vt 0.968750 0.524658
vt 0.967773 0.524658
vt 0.967773 0.521484
vt 0.967773 0.521484
vt 0.968750 0.521484
vt 0.968750 0.524658
vt 0.938965 0.049316
vt 0.939941 0.049316
vt 0.939941 0.052734
vt 0.939941 0.052734
vt 0.938965 0.052734
vt 0.938965 0.049316
vt 0.920410 0.049316
vt 0.938965 0.049316
vt 0.938965 0.052734
vt 0.938965 0.052734
vt 0.920410 0.052734
vt 0.920410 0.049316
vt 0.919434 0.049316
vt 0.920410 0.049316
vt 0.920410 0.052734
vt 0.920410 0.052734
vt 0.919434 0.052734
vt 0.919434 0.049316
vt 0.321533 0.828857
vt 0.158569 0.828857
vt 0.158569 0.735352
vt 0.158569 0.735352
vt 0.321533 0.735352
vt 0.321533 0.828857
vt 0.321533 0.828857
vt 0.321533 0.735352
vt 0.327148 0.735352
vt 0.327148 0.735352
vt 0.327148 0.828857
vt 0.321533 0.828857
vt 0.814941 0.383301
vt 0.903320 0.383301
vt 0.903320 0.393066
vt 0.903320 0.393066
vt 0.814941 0.393066
vt 0.814941 0.383301
vt 0.814941 0.383301
vt 0.814941 0.393066
vt 0.726562 0.393066
vt 0.726562 0.393066
vt 0.726562 0.383301
vt 0.814941 0.383301
vt 0.205933 0.164062
vt 0.201416 0.164062
vt 0.201416 0.154297
vt 0.201416 0.154297
vt 0.205933 0.154297
vt 0.205933 0.164062
vt 0.205933 0.164062
vt 0.205933 0.154297
vt 0.218994 0.154297
vt 0.218994 0.154297
vt 0.218994 0.164062
vt 0.205933 0.164062
vt 0.218994 0.164062
vt 0.218994 0.154297
vt 0.231934 0.154297
vt 0.231934 0.154297
vt 0.231934 0.164062
vt 0.218994 0.164062
vt 0.236450 0.164062
vt 0.231934 0.164062
vt 0.231934 0.154297
vt 0.231934 0.154297
vt 0.236450 0.154297
vt 0.236450 0.164062
vt 0.911133 0.256836
vt 0.945312 0.256836
vt 0.945312 0.269043
vt 0.945312 0.269043
vt 0.911133 0.269043
vt 0.911133 0.256836
vt 0.911133 0.269531
vt 0.911133 0.269043
vt 0.945312 0.269043
vt 0.945312 0.269043
vt 0.945312 0.269531
vt 0.911133 0.269531
vt 0.888672 0.522461
vt 0.888672 0.521729
vt 0.922852 0.521729
vt 0.922852 0.521729
vt 0.922852 0.522461
vt 0.888672 0.522461
vt 0.888672 0.522461
vt 0.922852 0.522461
vt 0.922852 0.534912
vt 0.922852 0.534912
vt 0.888672 0.534912
vt 0.888672 0.522461
vt 0.888672 0.535400
vt 0.888672 0.534912
vt 0.922852 0.534912
vt 0.922852 0.534912
vt 0.922852 0.535400
vt 0.888672 0.535400
vt 0.907227 0.560303
vt 0.907227 0.563477
vt 0.889160 0.563477
vt 0.889160 0.563477
vt 0.889160 0.560303
vt 0.907227 0.560303
vt 0.887695 0.560303
vt 0.889160 0.560303
vt 0.889160 0.563477
vt 0.889160 0.563477
vt 0.887695 0.563477
vt 0.887695 0.560303
vt 0.713867 0.954163
vt 0.713867 0.957336
vt 0.696777 0.957336
vt 0.696777 0.957336
vt 0.696777 0.954163
vt 0.713867 0.954163
vt 0.695312 0.954163
vt 0.696777 0.954163
vt 0.696777 0.957336
vt 0.696777 0.957336
vt 0.695312 0.957336
vt 0.695312 0.954163
vt 0.917969 0.175781
vt 0.917969 0.178711
vt 0.900879 0.178711
vt 0.900879 0.178711
vt 0.900879 0.175781
vt 0.917969 0.175781
vt 0.899414 0.175781
vt 0.900879 0.175781
vt 0.900879 0.178711
vt 0.900879 0.178711
vt 0.899414 0.178711
vt 0.899414 0.175781
vt 0.957031 0.768188
vt 0.922363 0.768188
vt 0.922363 0.759766
vt 0.922363 0.759766
vt 0.957031 0.759766
vt 0.957031 0.768188
vt 0.957031 0.759155
vt 0.957031 0.759766
vt 0.922363 0.759766
vt 0.922363 0.759766
vt 0.922363 0.759155
vt 0.957031 0.759155
vt 0.900391 0.137695
vt 0.934570 0.137695
vt 0.934570 0.149902
vt 0.934570 0.149902
vt 0.900391 0.149902
vt 0.900391 0.137695
vt 0.900391 0.150879
vt 0.900391 0.149902
vt 0.934570 0.149902
vt 0.934570 0.149902
vt 0.934570 0.150879
vt 0.900391 0.150879
vt 0.954590 0.023926
vt 0.954590 0.024414
vt 0.919922 0.024414
vt 0.919922 0.024414
vt 0.919922 0.023926
vt 0.954590 0.023926
vt 0.954590 0.023926
vt 0.919922 0.023926
vt 0.919922 0.011230
vt 0.919922 0.011230
vt 0.954590 0.011230
vt 0.954590 0.023926
vt 0.954590 0.010742
vt 0.954590 0.011230
vt 0.919922 0.011230
vt 0.919922 0.011230
vt 0.919922 0.010742
vt 0.954590 0.010742
vt 0.961426 0.140625
vt 0.961426 0.137207
vt 0.978516 0.137207
vt 0.978516 0.137207
vt 0.978516 0.140625
vt 0.961426 0.140625
vt 0.979980 0.140625
vt 0.978516 0.140625
vt 0.978516 0.137207
vt 0.978516 0.137207
vt 0.979980 0.137207
vt 0.979980 0.140625
vt 0.928223 0.294434
vt 0.928223 0.297363
vt 0.911621 0.297363
vt 0.911621 0.297363
vt 0.911621 0.294434
vt 0.928223 0.294434
vt 0.910156 0.294434
vt 0.911621 0.294434
vt 0.911621 0.297363
vt 0.911621 0.297363
vt 0.910156 0.297363
vt 0.910156 0.294434
vt 0.895020 0.458496
vt 0.895020 0.467285
vt 0.893555 0.469238
vt 0.895020 0.467285
vt 0.895996 0.467773
vt 0.893555 0.469238
vt 0.893555 0.469238
vt 0.893555 0.456543
vt 0.895020 0.458496
vt 0.910645 0.469238
vt 0.893555 0.469238
vt 0.895996 0.467773
vt 0.895996 0.458008
vt 0.895020 0.458496
vt 0.893555 0.456543
vt 0.895996 0.467773
vt 0.908203 0.467773
vt 0.910645 0.469238
vt 0.908203 0.458008
vt 0.895996 0.458008
vt 0.893555 0.456543
vt 0.908203 0.467773
vt 0.908691 0.467285
vt 0.910645 0.469238
vt 0.893555 0.456543
vt 0.910645 0.456543
vt 0.908203 0.458008
vt 0.910645 0.456543
vt 0.910645 0.469238
vt 0.908691 0.467285
vt 0.908691 0.458496
vt 0.908203 0.458008
vt 0.910645 0.456543
vt 0.908691 0.467285
vt 0.908691 0.458496
vt 0.910645 0.456543
vt 0.500000 0.978867
vt 0.500000 0.987373
vt 0.498291 0.989555
vt 0.500000 0.987373
vt 0.500488 0.988014
vt 0.498291 0.989555
vt 0.498291 0.989555
vt 0.498291 0.976685
vt 0.500000 0.978867
vt 0.515137 0.989555
vt 0.498291 0.989555
vt 0.500488 0.988014
vt 0.500488 0.978226
vt 0.500000 0.978867
vt 0.498291 0.976685
vt 0.500488 0.988014
vt 0.512695 0.988014
vt 0.515137 0.989555
vt 0.512695 0.978226
vt 0.500488 0.978226
vt 0.498291 0.976685
vt 0.512695 0.988014
vt 0.513672 0.987373
vt 0.515137 0.989555
vt 0.498291 0.976685
vt 0.515137 0.976685
vt 0.512695 0.978226
vt 0.515137 0.976685
vt 0.515137 0.989555
vt 0.513672 0.987373
vt 0.513672 0.978867
vt 0.512695 0.978226
vt 0.515137 0.976685
vt 0.513672 0.987373
vt 0.513672 0.978867
vt 0.515137 0.976685
vt 0.366455 0.532471
vt 0.248901 0.645508
vt 0.249146 0.634033
vt 0.249146 0.634033
vt 0.366699 0.520996
vt 0.366455 0.532471
vt 0.136230 0.516602
vt 0.249146 0.634033
vt 0.248901 0.645508
vt 0.374268 0.532715
vt 0.366455 0.532471
vt 0.366699 0.520996
vt 0.248901 0.645508
vt 0.135986 0.528076
vt 0.136230 0.516602
vt 0.366699 0.520996
vt 0.374512 0.521240
vt 0.374268 0.532715
vt 0.128174 0.516357
vt 0.136230 0.516602
vt 0.135986 0.528076
vt 0.472168 0.634277
vt 0.374268 0.532715
vt 0.374512 0.521240
vt 0.135986 0.528076
vt 0.128052 0.527832
vt 0.128174 0.516357
vt 0.374512 0.521240
vt 0.483643 0.634521
vt 0.472168 0.634277
vt 0.014832 0.625488
vt 0.128174 0.516357
vt 0.128052 0.527832
vt 0.471924 0.642334
vt 0.472168 0.634277
vt 0.483643 0.634521
vt 0.128052 0.527832
vt 0.026337 0.625732
vt 0.014832 0.625488
vt 0.483643 0.634521
vt 0.483398 0.642578
vt 0.471924 0.642334
vt 0.014671 0.633301
vt 0.014832 0.625488
vt 0.026337 0.625732
vt 0.354492 0.755249
vt 0.471924 0.642334
vt 0.483398 0.642578
vt 0.026337 0.625732
vt 0.026184 0.633545
vt 0.014671 0.633301
vt 0.483398 0.642578
vt 0.365967 0.755493
vt 0.354492 0.755249
vt 0.127563 0.750854
vt 0.014671 0.633301
vt 0.026184 0.633545
vt 0.467529 0.872803
vt 0.354492 0.755249
vt 0.365967 0.755493
vt 0.026184 0.633545
vt 0.139160 0.751099
vt 0.127563 0.750854
vt 0.365967 0.755493
vt 0.479004 0.873047
vt 0.467529 0.872803
vt 0.010155 0.863770
vt 0.127563 0.750854
vt 0.139160 0.751099
vt 0.467285 0.880676
vt 0.467529 0.872803
vt 0.479004 0.873047
vt 0.139160 0.751099
vt 0.021652 0.864014
vt 0.010155 0.863770
vt 0.479004 0.873047
vt 0.478760 0.880920
vt 0.467285 0.880676
vt 0.009995 0.871826
vt 0.010155 0.863770
vt 0.021652 0.864014
vt 0.365723 0.978500
vt 0.467285 0.880676
vt 0.478760 0.880920
vt 0.021652 0.864014
vt 0.021500 0.871948
vt 0.009995 0.871826
vt 0.478760 0.880920
vt 0.365479 0.990005
vt 0.365723 0.978500
vt 0.119080 0.985176
vt 0.009995 0.871826
vt 0.021500 0.871948
vt 0.357666 0.978348
vt 0.365723 0.978500
vt 0.365479 0.990005
vt 0.021500 0.871948
vt 0.119324 0.973663
vt 0.119080 0.985176
vt 0.365479 0.990005
vt 0.357422 0.989845
vt 0.357666 0.978348
vt 0.126953 0.985329
vt 0.119080 0.985176
vt 0.119324 0.973663
vt 0.244751 0.860840
vt 0.357666 0.978348
vt 0.357422 0.989845
vt 0.119324 0.973663
vt 0.127197 0.973816
vt 0.126953 0.985329
vt 0.357422 0.989845
vt 0.244507 0.872437
vt 0.244751 0.860840
vt 0.244507 0.872437
vt 0.126953 0.985329
vt 0.127197 0.973816
vt 0.127197 0.973816
vt 0.244751 0.860840
vt 0.244507 0.872437
vt 0.471924 0.136230
vt 0.483398 0.136719
vt 0.365967 0.249512
vt 0.483398 0.136719
vt 0.471924 0.136230
vt 0.472168 0.128418
vt 0.365967 0.249512
vt 0.354492 0.249023
vt 0.471924 0.136230
vt 0.472168 0.128418
vt 0.483643 0.128418
vt 0.483398 0.136719
vt 0.354492 0.249023
vt 0.365967 0.249512
vt 0.479004 0.367188
vt 0.483643 0.128418
vt 0.472168 0.128418
vt 0.374268 0.026367
vt 0.479004 0.367188
vt 0.467529 0.366699
vt 0.354492 0.249023
vt 0.374268 0.026367
vt 0.374512 0.015137
vt 0.483643 0.128418
vt 0.467529 0.366699
vt 0.479004 0.367188
vt 0.478760 0.375000
vt 0.374512 0.015137
vt 0.374268 0.026367
vt 0.366455 0.026367
vt 0.478760 0.375000
vt 0.467285 0.374512
vt 0.467529 0.366699
vt 0.366455 0.026367
vt 0.366699 0.015137
vt 0.374512 0.015137
vt 0.467285 0.374512
vt 0.478760 0.375000
vt 0.365479 0.483887
vt 0.366699 0.015137
vt 0.366455 0.026367
vt 0.248901 0.139648
vt 0.365479 0.483887
vt 0.365723 0.472656
vt 0.467285 0.374512
vt 0.248901 0.139648
vt 0.249146 0.127930
vt 0.366699 0.015137
vt 0.365723 0.472656
vt 0.365479 0.483887
vt 0.357422 0.483887
vt 0.249146 0.127930
vt 0.248901 0.139648
vt 0.135986 0.021973
vt 0.357422 0.483887
vt 0.357666 0.472168
vt 0.365723 0.472656
vt 0.135986 0.021973
vt 0.136230 0.010254
vt 0.249146 0.127930
vt 0.357666 0.472168
vt 0.357422 0.483887
vt 0.244507 0.366211
vt 0.136230 0.010254
vt 0.135986 0.021973
vt 0.128052 0.021973
vt 0.244507 0.366211
vt 0.244751 0.354980
vt 0.357666 0.472168
vt 0.128052 0.021973
vt 0.128174 0.010254
vt 0.136230 0.010254
vt 0.244751 0.354980
vt 0.244507 0.366211
vt 0.126953 0.479492
vt 0.128174 0.010254
vt 0.128052 0.021973
vt 0.026337 0.119629
vt 0.126953 0.479492
vt 0.127197 0.467773
vt 0.244751 0.354980
vt 0.026337 0.119629
vt 0.014832 0.119141
vt 0.128174 0.010254
vt 0.127197 0.467773
vt 0.126953 0.479492
vt 0.119080 0.479004
vt 0.014832 0.119141
vt 0.026337 0.119629
vt 0.026184 0.127441
vt 0.119080 0.479004
vt 0.119324 0.467773
vt 0.127197 0.467773
vt 0.026184 0.127441
vt 0.014671 0.127441
vt 0.014832 0.119141
vt 0.119324 0.467773
vt 0.119080 0.479004
vt 0.009995 0.365723
vt 0.014671 0.127441
vt 0.026184 0.127441
vt 0.139160 0.245117
vt 0.009995 0.365723
vt 0.021500 0.366211
vt 0.119324 0.467773
vt 0.139160 0.245117
vt 0.127563 0.244629
vt 0.014671 0.127441
vt 0.021500 0.366211
vt 0.009995 0.365723
vt 0.010155 0.357910
vt 0.127563 0.244629
vt 0.139160 0.245117
vt 0.021652 0.357910
vt 0.010155 0.357910
vt 0.021652 0.357910
vt 0.021500 0.366211
vt 0.021652 0.357910
vt 0.010155 0.357910
vt 0.127563 0.244629
vt 0.703613 0.675537
vt 0.699219 0.671143
vt 0.701660 0.670166
vt 0.701660 0.670166
vt 0.699219 0.671143
vt 0.699219 0.658447
vt 0.701660 0.670166
vt 0.704590 0.673096
vt 0.703613 0.675537
vt 0.793945 0.675537
vt 0.703613 0.675537
vt 0.704590 0.673096
vt 0.699219 0.658447
vt 0.701660 0.658447
vt 0.701660 0.670166
vt 0.701660 0.646729
vt 0.701660 0.658447
vt 0.699219 0.658447
vt 0.699219 0.658447
vt 0.699219 0.645752
vt 0.701660 0.646729
vt 0.701660 0.670166
vt 0.701660 0.658447
vt 0.704590 0.658447
vt 0.704590 0.658447
vt 0.701660 0.658447
vt 0.701660 0.646729
vt 0.704590 0.658447
vt 0.704590 0.673096
vt 0.701660 0.670166
vt 0.704590 0.643799
vt 0.701660 0.646729
vt 0.699219 0.645752
vt 0.701660 0.646729
vt 0.704590 0.643799
vt 0.704590 0.658447
vt 0.699219 0.645752
vt 0.703613 0.641357
vt 0.704590 0.643799
vt 0.704590 0.643799
vt 0.703613 0.641357
vt 0.793945 0.641357
vt 0.704590 0.673096
vt 0.704590 0.658447
vt 0.793945 0.658447
vt 0.793945 0.658447
vt 0.704590 0.658447
vt 0.704590 0.643799
vt 0.793945 0.641357
vt 0.793945 0.643799
vt 0.704590 0.643799
vt 0.704590 0.643799
vt 0.793945 0.643799
vt 0.793945 0.658447
vt 0.883301 0.643799
vt 0.793945 0.643799
vt 0.793945 0.641357
vt 0.793945 0.641357
vt 0.884277 0.641357
vt 0.883301 0.643799
vt 0.883301 0.658447
vt 0.793945 0.658447
vt 0.793945 0.643799
vt 0.793945 0.643799
vt 0.883301 0.643799
vt 0.883301 0.658447
vt 0.793945 0.658447
vt 0.793945 0.673096
vt 0.704590 0.673096
vt 0.793945 0.673096
vt 0.793945 0.658447
vt 0.883301 0.658447
vt 0.704590 0.673096
vt 0.793945 0.673096
vt 0.793945 0.675537
vt 0.886230 0.646729
vt 0.883301 0.643799
vt 0.884277 0.641357
vt 0.883301 0.658447
vt 0.883301 0.643799
vt 0.886230 0.646729
vt 0.884277 0.641357
vt 0.888672 0.645752
vt 0.886230 0.646729
vt 0.886230 0.646729
vt 0.888672 0.645752
vt 0.888672 0.658447
vt 0.793945 0.675537
vt 0.793945 0.673096
vt 0.883301 0.673096
vt 0.883301 0.658447
vt 0.883301 0.673096
vt 0.793945 0.673096
vt 0.883301 0.673096
vt 0.884277 0.675537
vt 0.793945 0.675537
vt 0.888672 0.671143
vt 0.884277 0.675537
vt 0.883301 0.673096
vt 0.886230 0.646729
vt 0.886230 0.658447
vt 0.883301 0.658447
vt 0.888672 0.658447
vt 0.886230 0.658447
vt 0.886230 0.646729
vt 0.886230 0.670166
vt 0.883301 0.673096
vt 0.883301 0.658447
vt 0.883301 0.658447
vt 0.886230 0.658447
vt 0.886230 0.670166
vt 0.883301 0.673096
vt 0.886230 0.670166
vt 0.888672 0.671143
vt 0.886230 0.670166
vt 0.886230 0.658447
vt 0.888672 0.658447
vt 0.888672 0.658447
vt 0.888672 0.671143
vt 0.886230 0.670166
vt 0.930176 0.660889
vt 0.928711 0.659424
vt 0.929688 0.658936
vt 0.929688 0.642578
vt 0.929688 0.658936
vt 0.928711 0.659424
vt 0.928711 0.659424
vt 0.928711 0.642334
vt 0.929688 0.642578
vt 0.929688 0.658936
vt 0.930664 0.659912
vt 0.930176 0.660889
vt 0.930664 0.659912
vt 0.929688 0.658936
vt 0.929688 0.642578
vt 0.948242 0.660889
vt 0.930176 0.660889
vt 0.930664 0.659912
vt 0.930664 0.641846
vt 0.929688 0.642578
vt 0.928711 0.642334
vt 0.929688 0.642578
vt 0.930664 0.641846
vt 0.930664 0.659912
vt 0.928711 0.642334
vt 0.930176 0.640869
vt 0.930664 0.641846
vt 0.930664 0.659912
vt 0.947754 0.659912
vt 0.948242 0.660889
vt 0.949707 0.659424
vt 0.948242 0.660889
vt 0.947754 0.659912
vt 0.930664 0.659912
vt 0.930664 0.641846
vt 0.947754 0.641846
vt 0.947754 0.641846
vt 0.930664 0.641846
vt 0.930176 0.640869
vt 0.947754 0.641846
vt 0.947754 0.659912
vt 0.930664 0.659912
vt 0.930176 0.640869
vt 0.948242 0.640869
vt 0.947754 0.641846
vt 0.947754 0.659912
vt 0.948730 0.658936
vt 0.949707 0.659424
vt 0.949707 0.642334
vt 0.949707 0.659424
vt 0.948730 0.658936
vt 0.947754 0.659912
vt 0.947754 0.641846
vt 0.948730 0.642578
vt 0.948730 0.642578
vt 0.948730 0.658936
vt 0.947754 0.659912
vt 0.948730 0.642578
vt 0.947754 0.641846
vt 0.948242 0.640869
vt 0.948730 0.658936
vt 0.948730 0.642578
vt 0.949707 0.642334
vt 0.948242 0.640869
vt 0.949707 0.642334
vt 0.948730 0.642578
vt 0.696777 0.920898
vt 0.695801 0.919556
vt 0.696289 0.919128
vt 0.696289 0.902771
vt 0.696289 0.919128
vt 0.695801 0.919556
vt 0.695801 0.919556
vt 0.695801 0.902405
vt 0.696289 0.902771
vt 0.696289 0.919128
vt 0.697266 0.919983
vt 0.696777 0.920898
vt 0.697266 0.919983
vt 0.696289 0.919128
vt 0.696289 0.902771
vt 0.714844 0.920898
vt 0.696777 0.920898
vt 0.697266 0.919983
vt 0.697266 0.901917
vt 0.696289 0.902771
vt 0.695801 0.902405
vt 0.696289 0.902771
vt 0.697266 0.901917
vt 0.697266 0.919983
vt 0.695801 0.902405
vt 0.696777 0.901001
vt 0.697266 0.901917
vt 0.697266 0.919983
vt 0.714844 0.919983
vt 0.714844 0.920898
vt 0.716309 0.919556
vt 0.714844 0.920898
vt 0.714844 0.919983
vt 0.697266 0.919983
vt 0.697266 0.901917
vt 0.714844 0.901917
vt 0.714844 0.901917
vt 0.697266 0.901917
vt 0.696777 0.901001
vt 0.714844 0.901917
vt 0.714844 0.919983
vt 0.697266 0.919983
vt 0.696777 0.901001
vt 0.714844 0.901001
vt 0.714844 0.901917
vt 0.714844 0.919983
vt 0.715332 0.919128
vt 0.716309 0.919556
vt 0.716309 0.902405
vt 0.716309 0.919556
vt 0.715332 0.919128
vt 0.714844 0.919983
vt 0.714844 0.901917
vt 0.715332 0.902771
vt 0.715332 0.902771
vt 0.715332 0.919128
vt 0.714844 0.919983
vt 0.715332 0.902771
vt 0.714844 0.901917
vt 0.714844 0.901001
vt 0.715332 0.919128
vt 0.715332 0.902771
vt 0.716309 0.902405
vt 0.714844 0.901001
vt 0.716309 0.902405
vt 0.715332 0.902771
f 1/1/1 2/2/2 3/3/3
f 4/4/4 5/5/5 6/6/6
f 7/7/7 8/8/8 9/9/9
f 10/10/10 11/11/11 12/12/12
f 13/13/13 14/14/14 15/15/15
f 16/16/16 17/17/17 18/18/18
f 19/19/19 20/20/20 21/21/21
f 22/22/22 23/23/23 24/24/24
f 25/25/25 26/26/26 27/27/27
f 28/28/28 29/29/29 30/30/30
f 31/31/31 32/32/32 33/33/33
f 34/34/34 35/35/35 36/36/36
f 37/37/37 38/38/38 39/39/39
f 40/40/40 41/41/41 42/42/42
f 43/43/43 44/44/44 45/45/45
f 46/46/46 47/47/47 48/48/48
f 49/49/49 50/50/50 51/51/51
f 52/52/52 53/53/53 54/54/54
f 55/55/55 56/56/56 57/57/57
f 58/58/58 59/59/59 60/60/60
f 61/61/61 62/62/62 63/63/63
f 64/64/64 65/65/65 66/66/66
f 67/67/67 68/68/68 69/69/69
f 70/70/70 71/71/71 72/72/72
f 73/73/73 74/74/74 75/75/75
f 76/76/76 77/77/77 78/78/78
f 79/79/79 80/80/80 81/81/81
f 82/82/82 83/83/83 84/84/84
f 85/85/85 86/86/86 87/87/87
f 88/88/88 89/89/89 90/90/90
f 91/91/91 92/92/92 93/93/93
f 94/94/94 95/95/95 96/96/96
f 97/97/97 98/98/98 99/99/99
f 100/100/100 101/101/101 102/102/102
f 103/103/103 104/104/104 105/105/105
f 106/106/106 107/107/107 108/108/108
f 109/109/109 110/110/110 111/111/111
f 112/112/112 113/113/113 114/114/114
f 115/115/115 116/116/116 117/117/117
f 118/118/118 119/119/119 120/120/120
f 121/121/121 122/122/122 123/123/123
f 124/124/124 125/125/125 126/126/126
f 127/127/127 128/128/128 129/129/129
f 130/130/130 131/131/131 132/132/132
f 133/133/133 134/134/134 135/135/135
f 136/136/136 137/137/137 138/138/138
f 139/139/139 140/140/140 141/141/141
f 142/142/142 143/143/143 144/144/144
f 145/145/145 146/146/146 147/147/147
f 148/148/148 149/149/149 150/150/150
f 151/151/151 152/152/152 153/153/153
f 154/154/154 155/155/155 156/156/156
f 157/157/157 158/158/158 159/159/159
f 160/160/160 161/161/161 162/162/162
f 163/163/163 164/164/164 165/165/165
f 166/166/166 167/167/167 168/168/168
f 169/169/169 170/170/170 171/171/171
f 172/172/172 173/173/173 174/174/174
f 175/175/175 176/176/176 177/177/177
f 178/178/178 179/179/179 180/180/180
f 181/181/181 182/182/182 183/183/183
f 184/184/184 185/185/185 186/186/186
f 187/187/187 188/188/188 189/189/189
f 190/190/190 191/191/191 192/192/192
f 193/193/193 194/194/194 195/195/195
f 196/196/196 197/197/197 198/198/198
f 199/199/199 200/200/200 201/201/201
f 202/202/202 203/203/203 204/204/204
f 205/205/205 206/206/206 207/207/207
f 208/208/208 209/209/209 210/210/210
f 211/211/211 212/212/212 213/213/213
f 214/214/214 215/215/215 216/216/216
f 217/217/217 218/218/218 219/219/219
f 220/220/220 221/221/221 222/222/222
f 223/223/223 224/224/224 225/225/225
f 226/226/226 227/227/227 228/228/228
f 229/229/229 230/230/230 231/231/231
f 232/232/232 233/233/233 234/234/234
f 235/235/235 236/236/236 237/237/237
f 238/238/238 239/239/239 240/240/240
f 241/241/241 242/242/242 243/243/243
f 244/244/244 245/245/245 246/246/246
f 247/247/247 248/248/248 249/249/249
f 250/250/250 251/251/251 252/252/252
f 253/253/253 254/254/254 255/255/255
f 256/256/256 257/257/257 258/258/258
f 259/259/259 260/260/260 261/261/261
f 262/262/262 263/263/263 264/264/264
f 265/265/265 266/266/266 267/267/267
f 268/268/268 269/269/269 270/270/270
f 271/271/271 272/272/272 273/273/273
f 274/274/274 275/275/275 276/276/276
f 277/277/277 278/278/278 279/279/279
f 280/280/280 281/281/281 282/282/282
f 283/283/283 284/284/284 285/285/285
f 286/286/286 287/287/287 288/288/288
f 289/289/289 290/290/290 291/291/291
f 292/292/292 293/293/293 294/294/294
f 295/295/295 296/296/296 297/297/297
f 298/298/298 299/299/299 300/300/300
f 301/301/301 302/302/302 303/303/303
f 304/304/304 305/305/305 306/306/306
f 307/307/307 308/308/308 309/309/309
f 310/310/310 311/311/311 312/312/312
f 313/313/313 314/314/314 315/315/315
f 316/316/316 317/317/317 318/318/318
f 319/319/319 320/320/320 321/321/321
f 322/322/322 323/323/323 324/324/324
f 325/325/325 326/326/326 327/327/327
f 328/328/328 329/329/329 330/330/330
f 331/331/331 332/332/332 333/333/333
f 334/334/334 335/335/335 336/336/336
f 337/337/337 338/338/338 339/339/339
f 340/340/340 341/341/341 342/342/342
f 343/343/343 344/344/344 345/345/345
f 346/346/346 347/347/347 348/348/348
f 349/349/349 350/350/350 351/351/351
f 352/352/352 353/353/353 354/354/354
f 355/355/355 356/356/356 357/357/357
f 358/358/358 359/359/359 360/360/360
f 361/361/361 362/362/362 363/363/363
f 364/364/364 365/365/365 366/366/366
f 367/367/367 368/368/368 369/369/369
f 370/370/370 371/371/371 372/372/372
f 373/373/373 374/374/374 375/375/375
f 376/376/376 377/377/377 378/378/378
f 379/379/379 380/380/380 381/381/381
f 382/382/382 383/383/383 384/384/384
f 385/385/385 386/386/386 387/387/387
f 388/388/388 389/389/389 390/390/390
f 391/391/391 392/392/392 393/393/393
f 394/394/394 395/395/395 396/396/396
f 397/397/397 398/398/398 399/399/399
f 400/400/400 401/401/401 402/402/402
f 403/403/403 404/404/404 405/405/405
f 406/406/406 407/407/407 408/408/408
f 409/409/409 410/410/410 411/411/411
f 412/412/412 413/413/413 414/414/414
f 415/415/415 416/416/416 417/417/417
f 418/418/418 419/419/419 420/420/420
f 421/421/421 422/422/422 423/423/423
f 424/424/424 425/425/425 426/426/426
f 427/427/427 428/428/428 429/429/429
f 430/430/430 431/431/431 432/432/432
f 433/433/433 434/434/434 435/435/435
f 436/436/436 437/437/437 438/438/438
f 439/439/439 440/440/440 441/441/441
f 442/442/442 443/443/443 444/444/444
f 445/445/445 446/446/446 447/447/447
f 448/448/448 449/449/449 450/450/450
f 451/451/451 452/452/452 453/453/453
f 454/454/454 455/455/455 456/456/456
f 457/457/457 458/458/458 459/459/459
f 460/460/460 461/461/461 462/462/462
f 463/463/463 464/464/464 465/465/465
f 466/466/466 467/467/467 468/468/468
f 469/469/469 470/470/470 471/471/471
f 472/472/472 473/473/473 474/474/474
f 475/475/475 476/476/476 477/477/477
f 478/478/478 479/479/479 480/480/480
f 481/481/481 482/482/482 483/483/483
f 484/484/484 485/485/485 486/486/486
f 487/487/487 488/488/488 489/489/489
f 490/490/490 491/491/491 492/492/492
f 493/493/493 494/494/494 495/495/495
f 496/496/496 497/497/497 498/498/498
f 499/499/499 500/500/500 501/501/501
f 502/502/502 503/503/503 504/504/504
f 505/505/505 506/506/506 507/507/507
f 508/508/508 509/509/509 510/510/510
f 511/511/511 512/512/512 513/513/513
f 514/514/514 515/515/515 516/516/516
f 517/517/517 518/518/518 519/519/519
f 520/520/520 521/521/521 522/522/522
f 523/523/523 524/524/524 525/525/525
f 526/526/526 527/527/527 528/528/528
f 529/529/529 530/530/530 531/531/531
f 532/532/532 533/533/533 534/534/534
f 535/535/535 536/536/536 537/537/537
f 538/538/538 539/539/539 540/540/540
f 541/541/541 542/542/542 543/543/543
f 544/544/544 545/545/545 546/546/546
f 547/547/547 548/548/548 549/549/549
f 550/550/550 551/551/551 552/552/552
f 553/553/553 554/554/554 555/555/555
f 556/556/556 557/557/557 558/558/558
f 559/559/559 560/560/560 561/561/561
f 562/562/562 563/563/563 564/564/564
f 565/565/565 566/566/566 567/567/567
f 568/568/568 569/569/569 570/570/570
f 571/571/571 572/572/572 573/573/573
f 574/574/574 575/575/575 576/576/576
f 577/577/577 578/578/578 579/579/579
f 580/580/580 581/581/581 582/582/582
f 583/583/583 584/584/584 585/585/585
f 586/586/586 587/587/587 588/588/588
f 589/589/589 590/590/590 591/591/591
f 592/592/592 593/593/593 594/594/594
f 595/595/595 596/596/596 597/597/597
f 598/598/598 599/599/599 600/600/600
f 601/601/601 602/602/602 603/603/603
f 604/604/604 605/605/605 606/606/606
f 607/607/607 608/608/608 609/609/609
f 610/610/610 611/611/611 612/612/612
f 613/613/613 614/614/614 615/615/615
f 616/616/616 617/617/617 618/618/618
f 619/619/619 620/620/620 621/621/621
f 622/622/622 623/623/623 624/624/624
f 625/625/625 626/626/626 627/627/627
f 628/628/628 629/629/629 630/630/630
f 631/631/631 632/632/632 633/633/633
f 634/634/634 635/635/635 636/636/636
f 637/637/637 638/638/638 639/639/639
f 640/640/640 641/641/641 642/642/642
f 643/643/643 644/644/644 645/645/645
f 646/646/646 647/647/647 648/648/648
f 649/649/649 650/650/650 651/651/651
f 652/652/652 653/653/653 654/654/654
f 655/655/655 656/656/656 657/657/657
f 658/658/658 659/659/659 660/660/660
f 661/661/661 662/662/662 663/663/663
f 664/664/664 665/665/665 666/666/666
f 667/667/667 668/668/668 669/669/669
f 670/670/670 671/671/671 672/672/672
f 673/673/673 674/674/674 675/675/675
f 676/676/676 677/677/677 678/678/678
f 679/679/679 680/680/680 681/681/681
f 682/682/682 683/683/683 684/684/684
f 685/685/685 686/686/686 687/687/687
f 688/688/688 689/689/689 690/690/690
f 691/691/691 692/692/692 693/693/693
f 694/694/694 695/695/695 696/696/696
f 697/697/697 698/698/698 699/699/699
f 700/700/700 701/701/701 702/702/702
f 703/703/703 704/704/704 705/705/705
f 706/706/706 707/707/707 708/708/708
f 709/709/709 710/710/710 711/711/711
f 712/712/712 713/713/713 714/714/714
f 715/715/715 716/716/716 717/717/717
f 718/718/718 719/719/719 720/720/720
f 721/721/721 722/722/722 723/723/723
f 724/724/724 725/725/725 726/726/726
f 727/727/727 728/728/728 729/729/729
f 730/730/730 731/731/731 732/732/732
f 733/733/733 734/734/734 735/735/735
f 736/736/736 737/737/737 738/738/738
f 739/739/739 740/740/740 741/741/741
f 742/742/742 743/743/743 744/744/744
f 745/745/745 746/746/746 747/747/747
f 748/748/748 749/749/749 750/750/750
f 751/751/751 752/752/752 753/753/753
f 754/754/754 755/755/755 756/756/756
f 757/757/757 758/758/758 759/759/759
f 760/760/760 761/761/761 762/762/762
f 763/763/763 764/764/764 765/765/765
f 766/766/766 767/767/767 768/768/768
f 769/769/769 770/770/770 771/771/771
f 772/772/772 773/773/773 774/774/774
f 775/775/775 776/776/776 777/777/777
f 778/778/778 779/779/779 780/780/780
f 781/781/781 782/782/782 783/783/783
f 784/784/784 785/785/785 786/786/786
f 787/787/787 788/788/788 789/789/789
f 790/790/790 791/791/791 792/792/792
f 793/793/793 794/794/794 795/795/795
f 796/796/796 797/797/797 798/798/798
f 799/799/799 800/800/800 801/801/801
f 802/802/802 803/803/803 804/804/804
f 805/805/805 806/806/806 807/807/807
f 808/808/808 809/809/809 810/810/810
f 811/811/811 812/812/812 813/813/813
f 814/814/814 815/815/815 816/816/816
f 817/817/817 818/818/818 819/819/819
f 820/820/820 821/821/821 822/822/822
f 823/823/823 824/824/824 825/825/825
f 826/826/826 827/827/827 828/828/828
f 829/829/829 830/830/830 831/831/831
f 832/832/832 833/833/833 834/834/834
f 835/835/835 836/836/836 837/837/837
f 838/838/838 839/839/839 840/840/840
f 841/841/841 842/842/842 843/843/843
f 844/844/844 845/845/845 846/846/846
f 847/847/847 848/848/848 849/849/849
f 850/850/850 851/851/851 852/852/852
f 853/853/853 854/854/854 855/855/855
f 856/856/856 857/857/857 858/858/858
f 859/859/859 860/860/860 861/861/861
f 862/862/862 863/863/863 864/864/864
f 865/865/865 866/866/866 867/867/867
f 868/868/868 869/869/869 870/870/870
f 871/871/871 872/872/872 873/873/873
f 874/874/874 875/875/875 876/876/876
f 877/877/877 878/878/878 879/879/879
f 880/880/880 881/881/881 882/882/882
f 883/883/883 884/884/884 885/885/885
f 886/886/886 887/887/887 888/888/888
f 889/889/889 890/890/890 891/891/891
f 892/892/892 893/893/893 894/894/894
f 895/895/895 896/896/896 897/897/897
f 898/898/898 899/899/899 900/900/900
f 901/901/901 902/902/902 903/903/903
f 904/904/904 905/905/905 906/906/906
f 907/907/907 908/908/908 909/909/909
f 910/910/910 911/911/911 912/912/912
f 913/913/913 914/914/914 915/915/915
f 916/916/916 917/917/917 918/918/918
f 919/919/919 920/920/920 921/921/921
f 922/922/922 923/923/923 924/924/924
f 925/925/925 926/926/926 927/927/927
f 928/928/928 929/929/929 930/930/930
f 931/931/931 932/932/932 933/933/933
f 934/934/934 935/935/935 936/936/936
f 937/937/937 938/938/938 939/939/939
f 940/940/940 941/941/941 942/942/942
f 943/943/943 944/944/944 945/945/945
f 946/946/946 947/947/947 948/948/948
f 949/949/949 950/950/950 951/951/951
f 952/952/952 953/953/953 954/954/954
f 955/955/955 956/956/956 957/957/957
f 958/958/958 959/959/959 960/960/960
f 961/961/961 962/962/962 963/963/963
f 964/964/964 965/965/965 966/966/966
f 967/967/967 968/968/968 969/969/969
f 970/970/970 971/971/971 972/972/972
f 973/973/973 974/974/974 975/975/975
f 976/976/976 977/977/977 978/978/978
f 979/979/979 980/980/980 981/981/981
f 982/982/982 983/983/983 984/984/984
f 985/985/985 986/986/986 987/987/987
f 988/988/988 989/989/989 990/990/990
f 991/991/991 992/992/992 993/993/993
f 994/994/994 995/995/995 996/996/996
f 997/997/997 998/998/998 999/999/999
f 1000/1000/1000 1001/1001/1001 1002/1002/1002
f 1003/1003/1003 1004/1004/1004 1005/1005/1005
f 1006/1006/1006 1007/1007/1007 1008/1008/1008
f 1009/1009/1009 1010/1010/1010 1011/1011/1011
f 1012/1012/1012 1013/1013/1013 1014/1014/1014
f 1015/1015/1015 1016/1016/1016 1017/1017/1017
f 1018/1018/1018 1019/1019/1019 1020/1020/1020
f 1021/1021/1021 1022/1022/1022 1023/1023/1023
f 1024/1024/1024 1025/1025/1025 1026/1026/1026
f 1027/1027/1027 1028/1028/1028 1029/1029/1029
f 1030/1030/1030 1031/1031/1031 1032/1032/1032
f 1033/1033/1033 1034/1034/1034 1035/1035/1035
f 1036/1036/1036 1037/1037/1037 1038/1038/1038
f 1039/1039/1039 1040/1040/1040 1041/1041/1041
f 1042/1042/1042 1043/1043/1043 1044/1044/1044
f 1045/1045/1045 1046/1046/1046 1047/1047/1047
f 1048/1048/1048 1049/1049/1049 1050/1050/1050
f 1051/1051/1051 1052/1052/1052 1053/1053/1053
f 1054/1054/1054 1055/1055/1055 1056/1056/1056
f 1057/1057/1057 1058/1058/1058 1059/1059/1059
f 1060/1060/1060 1061/1061/1061 1062/1062/1062
f 1063/1063/1063 1064/1064/1064 1065/1065/1065
f 1066/1066/1066 1067/1067/1067 1068/1068/1068
f 1069/1069/1069 1070/1070/1070 1071/1071/1071
f 1072/1072/1072 1073/1073/1073 1074/1074/1074
f 1075/1075/1075 1076/1076/1076 1077/1077/1077
f 1078/1078/1078 1079/1079/1079 1080/1080/1080
f 1081/1081/1081 1082/1082/1082 1083/1083/1083
f 1084/1084/1084 1085/1085/1085 1086/1086/1086
f 1087/1087/1087 1088/1088/1088 1089/1089/1089
f 1090/1090/1090 1091/1091/1091 1092/1092/1092
f 1093/1093/1093 1094/1094/1094 1095/1095/1095
f 1096/1096/1096 1097/1097/1097 1098/1098/1098
f 1099/1099/1099 1100/1100/1100 1101/1101/1101
f 1102/1102/1102 1103/1103/1103 1104/1104/1104
f 1105/1105/1105 1106/1106/1106 1107/1107/1107
f 1108/1108/1108 1109/1109/1109 1110/1110/1110
f 1111/1111/1111 1112/1112/1112 1113/1113/1113
f 1114/1114/1114 1115/1115/1115 1116/1116/1116
f 1117/1117/1117 1118/1118/1118 1119/1119/1119
f 1120/1120/1120 1121/1121/1121 1122/1122/1122
f 1123/1123/1123 1124/1124/1124 1125/1125/1125
f 1126/1126/1126 1127/1127/1127 1128/1128/1128
f 1129/1129/1129 1130/1130/1130 1131/1131/1131
f 1132/1132/1132 1133/1133/1133 1134/1134/1134
f 1135/1135/1135 1136/1136/1136 1137/1137/1137
f 1138/1138/1138 1139/1139/1139 1140/1140/1140
f 1141/1141/1141 1142/1142/1142 1143/1143/1143
f 1144/1144/1144 1145/1145/1145 1146/1146/1146
f 1147/1147/1147 1148/1148/1148 1149/1149/1149
f 1150/1150/1150 1151/1151/1151 1152/1152/1152
f 1153/1153/1153 1154/1154/1154 1155/1155/1155
f 1156/1156/1156 1157/1157/1157 1158/1158/1158
f 1159/1159/1159 1160/1160/1160 1161/1161/1161
f 1162/1162/1162 1163/1163/1163 1164/1164/1164
f 1165/1165/1165 1166/1166/1166 1167/1167/1167
f 1168/1168/1168 1169/1169/1169 1170/1170/1170
f 1171/1171/1171 1172/1172/1172 1173/1173/1173
f 1174/1174/1174 1175/1175/1175 1176/1176/1176
f 1177/1177/1177 1178/1178/1178 1179/1179/1179
f 1180/1180/1180 1181/1181/1181 1182/1182/1182
f 1183/1183/1183 1184/1184/1184 1185/1185/1185
f 1186/1186/1186 1187/1187/1187 1188/1188/1188
f 1189/1189/1189 1190/1190/1190 1191/1191/1191
f 1192/1192/1192 1193/1193/1193 1194/1194/1194
f 1195/1195/1195 1196/1196/1196 1197/1197/1197
f 1198/1198/1198 1199/1199/1199 1200/1200/1200
f 1201/1201/1201 1202/1202/1202 1203/1203/1203
f 1204/1204/1204 1205/1205/1205 1206/1206/1206
f 1207/1207/1207 1208/1208/1208 1209/1209/1209
f 1210/1210/1210 1211/1211/1211 1212/1212/1212
f 1213/1213/1213 1214/1214/1214 1215/1215/1215
f 1216/1216/1216 1217/1217/1217 1218/1218/1218
f 1219/1219/1219 1220/1220/1220 1221/1221/1221
f 1222/1222/1222 1223/1223/1223 1224/1224/1224
f 1225/1225/1225 1226/1226/1226 1227/1227/1227
f 1228/1228/1228 1229/1229/1229 1230/1230/1230
f 1231/1231/1231 1232/1232/1232 1233/1233/1233
f 1234/1234/1234 1235/1235/1235 1236/1236/1236
