# OBJ file
v -2268.950200 968.160500 541.041400
v -2297.932900 943.246200 541.041300
v -2297.932900 943.246200 437.801060
v -2297.932900 943.246200 437.801060
v -2268.950000 968.160500 437.801060
v -2268.950200 968.160500 541.041400
v -2268.950000 968.160600 333.704000
v -2268.950000 968.160500 437.801060
v -2297.932900 943.246200 437.801060
v -2297.932900 943.246200 437.801060
v -2297.932600 943.246300 333.704000
v -2268.950000 968.160600 333.704000
v -2301.737500 947.672550 541.041400
v -2272.755100 972.586850 541.041300
v -2272.755100 972.586850 437.801060
v -2272.755100 972.586850 437.801060
v -2301.737500 947.672550 437.801060
v -2301.737500 947.672550 541.041400
v -2301.737500 947.672550 333.704040
v -2301.737500 947.672550 437.801060
v -2272.755100 972.586850 437.801060
v -2272.755100 972.586850 437.801060
v -2272.755000 972.586850 333.704000
v -2301.737500 947.672550 333.704040
vn 0.649813 -0.760084 -0.003938
vn 0.649813 -0.760084 -0.003938
vn 0.649813 -0.760084 -0.003938
vn 0.649813 -0.760084 -0.003938
vn 0.649813 -0.760084 -0.003938
vn 0.649813 -0.760084 -0.003938
vn 0.649813 -0.760084 -0.003938
vn 0.649813 -0.760084 -0.003938
vn 0.649813 -0.760084 -0.003938
vn 0.649813 -0.760084 -0.003938
vn 0.649813 -0.760084 -0.003938
vn 0.649813 -0.760084 -0.003938
vn -0.650466 0.759526 -0.003895
vn -0.650466 0.759526 -0.003895
vn -0.650466 0.759526 -0.003895
vn -0.650466 0.759526 -0.003895
vn -0.650466 0.759526 -0.003895
vn -0.650466 0.759526 -0.003895
vn -0.650466 0.759526 -0.003895
vn -0.650466 0.759526 -0.003895
vn -0.650466 0.759526 -0.003895
vn -0.650466 0.759526 -0.003895
vn -0.650466 0.759526 -0.003895
vn -0.650466 0.759526 -0.003895
vt 0.006191 0.882690
vt 0.006191 0.676025
vt 0.500977 0.676025
vt 0.500977 0.676025
vt 0.500977 0.882690
vt 0.006191 0.882690
vt 0.995605 0.882690
vt 0.500977 0.882690
vt 0.500977 0.676025
vt 0.500977 0.676025
vt 0.995605 0.676025
vt 0.995605 0.882690
vt 0.006191 0.882690
vt 0.006191 0.676025
vt 0.500977 0.676025
vt 0.500977 0.676025
vt 0.500977 0.882690
vt 0.006191 0.882690
vt 0.995605 0.882690
vt 0.500977 0.882690
vt 0.500977 0.676025
vt 0.500977 0.676025
vt 0.995605 0.676025
vt 0.995605 0.882690
f 1/1/1 2/2/2 3/3/3
f 4/4/4 5/5/5 6/6/6
f 7/7/7 8/8/8 9/9/9
f 10/10/10 11/11/11 12/12/12
f 13/13/13 14/14/14 15/15/15
f 16/16/16 17/17/17 18/18/18
f 19/19/19 20/20/20 21/21/21
f 22/22/22 23/23/23 24/24/24
