# OBJ file
v 495.706665 -602.284607 138.076645
v 495.539673 -601.717957 138.076645
v 495.475372 -601.754028 142.249969
v 495.475372 -601.754028 142.249969
v 495.633148 -602.289185 142.249969
v 495.706665 -602.284607 138.076645
v 495.633148 -602.289185 142.249969
v 495.475372 -601.754028 142.249969
v 495.591736 -601.688782 142.388092
v 495.611389 -602.867554 138.076645
v 495.706665 -602.284607 138.076645
v 495.633148 -602.289185 142.249969
v 495.591736 -601.688782 142.388092
v 495.766266 -602.280884 142.388092
v 495.633148 -602.289185 142.249969
v 495.766266 -602.280884 142.388092
v 495.591736 -601.688782 142.388092
v 495.568665 -601.701782 143.225113
v 495.633148 -602.289185 142.249969
v 495.543030 -602.839783 142.249969
v 495.611389 -602.867554 138.076645
v 495.543030 -602.839783 142.249969
v 495.633148 -602.289185 142.249969
v 495.766266 -602.280884 142.388092
v 495.272522 -603.351440 138.076645
v 495.611389 -602.867554 138.076645
v 495.543030 -602.839783 142.249969
v 495.568665 -601.701782 143.225113
v 495.739868 -602.282532 143.225113
v 495.766266 -602.280884 142.388092
v 495.739868 -602.282532 143.225113
v 495.568665 -601.701782 143.225113
v 495.477325 -601.752930 143.401138
v 495.766266 -602.280884 142.388092
v 495.666626 -602.890076 142.388092
v 495.543030 -602.839783 142.249969
v 495.666626 -602.890076 142.388092
v 495.766266 -602.280884 142.388092
v 495.739868 -602.282532 143.225113
v 495.543030 -602.839783 142.249969
v 495.223083 -603.296753 142.249969
v 495.272522 -603.351440 138.076645
v 495.223083 -603.296753 142.249969
v 495.543030 -602.839783 142.249969
v 495.666626 -602.890076 142.388092
v 494.757233 -603.640320 138.076645
v 495.272522 -603.351440 138.076645
v 495.223083 -603.296753 142.249969
v 495.477325 -601.752930 143.401138
v 495.635406 -602.289001 143.401138
v 495.739868 -602.282532 143.225113
v 495.635406 -602.289001 143.401138
v 495.477325 -601.752930 143.401138
v 495.477325 -601.752930 143.904556
v 495.477325 -601.752930 143.904556
v 495.635406 -602.289001 143.904556
v 495.635406 -602.289001 143.401138
v 495.223083 -603.296753 142.249969
v 494.736450 -603.569641 142.249969
v 494.757233 -603.640320 138.076645
v 494.167755 -603.677124 138.076645
v 494.757233 -603.640320 138.076645
v 494.736450 -603.569641 142.249969
v 495.545197 -602.840637 143.401138
v 495.635406 -602.289001 143.401138
v 495.635406 -602.289001 143.904556
v 495.635406 -602.289001 143.904556
v 495.545197 -602.840637 143.904556
v 495.545197 -602.840637 143.401138
v 495.642120 -602.880127 143.225113
v 495.739868 -602.282532 143.225113
v 495.635406 -602.289001 143.401138
v 495.635406 -602.289001 143.401138
v 495.545197 -602.840637 143.401138
v 495.642120 -602.880127 143.225113
v 495.739868 -602.282532 143.225113
v 495.642120 -602.880127 143.225113
v 495.666626 -602.890076 142.388092
v 495.224609 -603.298462 143.401138
v 495.545197 -602.840637 143.401138
v 495.545197 -602.840637 143.904556
v 495.545197 -602.840637 143.904556
v 495.224609 -603.298462 143.904556
v 495.224609 -603.298462 143.401138
v 495.294800 -603.376038 143.225113
v 495.642120 -602.880127 143.225113
v 495.545197 -602.840637 143.401138
v 495.545197 -602.840637 143.401138
v 495.224609 -603.298462 143.401138
v 495.294800 -603.376038 143.225113
v 495.312592 -603.395691 142.388092
v 495.666626 -602.890076 142.388092
v 495.642120 -602.880127 143.225113
v 495.666626 -602.890076 142.388092
v 495.312592 -603.395691 142.388092
v 495.223083 -603.296753 142.249969
v 495.642120 -602.880127 143.225113
v 495.294800 -603.376038 143.225113
v 495.312592 -603.395691 142.388092
v 494.736450 -603.569641 142.249969
v 495.223083 -603.296753 142.249969
v 495.312592 -603.395691 142.388092
v 494.774170 -603.697571 142.388092
v 495.312592 -603.395691 142.388092
v 495.294800 -603.376038 143.225113
v 495.312592 -603.395691 142.388092
v 494.774170 -603.697571 142.388092
v 494.736450 -603.569641 142.249969
v 494.766663 -603.672241 143.225113
v 495.294800 -603.376038 143.225113
v 495.224609 -603.298462 143.401138
v 495.294800 -603.376038 143.225113
v 494.766663 -603.672241 143.225113
v 494.774170 -603.697571 142.388092
v 494.737091 -603.571838 143.401138
v 495.224609 -603.298462 143.401138
v 495.224609 -603.298462 143.904556
v 495.224609 -603.298462 143.401138
v 494.737091 -603.571838 143.401138
v 494.766663 -603.672241 143.225113
v 495.224609 -603.298462 143.904556
v 494.737091 -603.571838 143.904556
v 494.737091 -603.571838 143.401138
v 494.179626 -603.604370 142.249969
v 494.736450 -603.569641 142.249969
v 494.774170 -603.697571 142.388092
v 494.736450 -603.569641 142.249969
v 494.179626 -603.604370 142.249969
v 494.167755 -603.677124 138.076645
v 493.620636 -603.454407 138.076645
v 494.167755 -603.677124 138.076645
v 494.179626 -603.604370 142.249969
v 494.774170 -603.697571 142.388092
v 494.158081 -603.736023 142.388092
v 494.179626 -603.604370 142.249969
v 494.158081 -603.736023 142.388092
v 494.774170 -603.697571 142.388092
v 494.766663 -603.672241 143.225113
v 494.179626 -603.604370 142.249969
v 493.662872 -603.394043 142.249969
v 493.620636 -603.454407 138.076645
v 493.662872 -603.394043 142.249969
v 494.179626 -603.604370 142.249969
v 494.158081 -603.736023 142.388092
v 493.224274 -603.016418 138.076645
v 493.620636 -603.454407 138.076645
v 493.662872 -603.394043 142.249969
v 494.766663 -603.672241 143.225113
v 494.162354 -603.709961 143.225113
v 494.158081 -603.736023 142.388092
v 494.162354 -603.709961 143.225113
v 494.766663 -603.672241 143.225113
v 494.737091 -603.571838 143.401138
v 494.158081 -603.736023 142.388092
v 493.586304 -603.503357 142.388092
v 493.662872 -603.394043 142.249969
v 493.586304 -603.503357 142.388092
v 494.158081 -603.736023 142.388092
v 494.162354 -603.709961 143.225113
v 493.662872 -603.394043 142.249969
v 493.288513 -602.980347 142.249969
v 493.224274 -603.016418 138.076645
v 493.288513 -602.980347 142.249969
v 493.662872 -603.394043 142.249969
v 493.586304 -603.503357 142.388092
v 493.057220 -602.449829 138.076645
v 493.224274 -603.016418 138.076645
v 493.288513 -602.980347 142.249969
v 494.737091 -603.571838 143.401138
v 494.179230 -603.606628 143.401138
v 494.162354 -603.709961 143.225113
v 494.179230 -603.606628 143.401138
v 494.737091 -603.571838 143.401138
v 494.737091 -603.571838 143.904556
v 494.737091 -603.571838 143.904556
v 494.179230 -603.606628 143.904556
v 494.179230 -603.606628 143.401138
v 493.288513 -602.980347 142.249969
v 493.130798 -602.445251 142.249969
v 493.057220 -602.449829 138.076645
v 493.152557 -601.866882 138.076645
v 493.057220 -602.449829 138.076645
v 493.130798 -602.445251 142.249969
v 493.661560 -603.395935 143.401138
v 494.179230 -603.606628 143.401138
v 494.179230 -603.606628 143.904556
v 494.179230 -603.606628 143.904556
v 493.661560 -603.395935 143.904556
v 493.661560 -603.395935 143.401138
v 493.601532 -603.481628 143.225113
v 494.162354 -603.709961 143.225113
v 494.179230 -603.606628 143.401138
v 494.179230 -603.606628 143.401138
v 493.661560 -603.395935 143.401138
v 493.601532 -603.481628 143.225113
v 494.162354 -603.709961 143.225113
v 493.601532 -603.481628 143.225113
v 493.586304 -603.503357 142.388092
v 493.286560 -602.981445 143.401138
v 493.661560 -603.395935 143.401138
v 493.661560 -603.395935 143.904556
v 493.661560 -603.395935 143.904556
v 493.286560 -602.981445 143.904556
v 493.286560 -602.981445 143.401138
v 493.195221 -603.032654 143.225113
v 493.601532 -603.481628 143.225113
v 493.661560 -603.395935 143.401138
v 493.661560 -603.395935 143.401138
v 493.286560 -602.981445 143.401138
v 493.195221 -603.032654 143.225113
v 493.172211 -603.045654 142.388092
v 493.586304 -603.503357 142.388092
v 493.601532 -603.481628 143.225113
v 493.586304 -603.503357 142.388092
v 493.172211 -603.045654 142.388092
v 493.288513 -602.980347 142.249969
v 493.601532 -603.481628 143.225113
v 493.195221 -603.032654 143.225113
v 493.172211 -603.045654 142.388092
v 493.130798 -602.445251 142.249969
v 493.288513 -602.980347 142.249969
v 493.172211 -603.045654 142.388092
v 492.997620 -602.453491 142.388092
v 493.172211 -603.045654 142.388092
v 493.195221 -603.032654 143.225113
v 493.172211 -603.045654 142.388092
v 492.997620 -602.453491 142.388092
v 493.130798 -602.445251 142.249969
v 493.024078 -602.451904 143.225113
v 493.195221 -603.032654 143.225113
v 493.286560 -602.981445 143.401138
v 493.195221 -603.032654 143.225113
v 493.024078 -602.451904 143.225113
v 492.997620 -602.453491 142.388092
v 493.128540 -602.445374 143.401138
v 493.286560 -602.981445 143.401138
v 493.286560 -602.981445 143.904556
v 493.286560 -602.981445 143.401138
v 493.128540 -602.445374 143.401138
v 493.024078 -602.451904 143.225113
v 493.286560 -602.981445 143.904556
v 493.128540 -602.445374 143.904556
v 493.128540 -602.445374 143.401138
v 493.220856 -601.894653 142.249969
v 493.130798 -602.445251 142.249969
v 492.997620 -602.453491 142.388092
v 493.130798 -602.445251 142.249969
v 493.220856 -601.894653 142.249969
v 493.152557 -601.866882 138.076645
v 493.491425 -601.382996 138.076645
v 493.152557 -601.866882 138.076645
v 493.220856 -601.894653 142.249969
v 492.997620 -602.453491 142.388092
v 493.097260 -601.844360 142.388092
v 493.220856 -601.894653 142.249969
v 493.097260 -601.844360 142.388092
v 492.997620 -602.453491 142.388092
v 493.024078 -602.451904 143.225113
v 493.220856 -601.894653 142.249969
v 493.540863 -601.437683 142.249969
v 493.491425 -601.382996 138.076645
v 493.540863 -601.437683 142.249969
v 493.220856 -601.894653 142.249969
v 493.097260 -601.844360 142.388092
v 494.006653 -601.094055 138.076645
v 493.491425 -601.382996 138.076645
v 493.540863 -601.437683 142.249969
v 493.024078 -602.451904 143.225113
v 493.121765 -601.854309 143.225113
v 493.097260 -601.844360 142.388092
v 493.121765 -601.854309 143.225113
v 493.024078 -602.451904 143.225113
v 493.128540 -602.445374 143.401138
v 493.097260 -601.844360 142.388092
v 493.451355 -601.338684 142.388092
v 493.540863 -601.437683 142.249969
v 493.451355 -601.338684 142.388092
v 493.097260 -601.844360 142.388092
v 493.121765 -601.854309 143.225113
v 493.540863 -601.437683 142.249969
v 494.027496 -601.164795 142.249969
v 494.006653 -601.094055 138.076645
v 494.027496 -601.164795 142.249969
v 493.540863 -601.437683 142.249969
v 493.451355 -601.338684 142.388092
v 494.596191 -601.057312 138.076645
v 494.006653 -601.094055 138.076645
v 494.027496 -601.164795 142.249969
v 493.128540 -602.445374 143.401138
v 493.218689 -601.893738 143.401138
v 493.121765 -601.854309 143.225113
v 493.218689 -601.893738 143.401138
v 493.128540 -602.445374 143.401138
v 493.128540 -602.445374 143.904556
v 493.128540 -602.445374 143.904556
v 493.218689 -601.893738 143.904556
v 493.218689 -601.893738 143.401138
v 494.027496 -601.164795 142.249969
v 494.584320 -601.130005 142.249969
v 494.596191 -601.057312 138.076645
v 495.143311 -601.279968 138.076645
v 494.596191 -601.057312 138.076645
v 494.584320 -601.130005 142.249969
v 493.539276 -601.435974 143.401138
v 493.218689 -601.893738 143.401138
v 493.218689 -601.893738 143.904556
v 493.218689 -601.893738 143.904556
v 493.539276 -601.435974 143.904556
v 493.539276 -601.435974 143.401138
v 493.469086 -601.358337 143.225113
v 493.121765 -601.854309 143.225113
v 493.218689 -601.893738 143.401138
v 493.218689 -601.893738 143.401138
v 493.539276 -601.435974 143.401138
v 493.469086 -601.358337 143.225113
v 493.121765 -601.854309 143.225113
v 493.469086 -601.358337 143.225113
v 493.451355 -601.338684 142.388092
v 494.026855 -601.162537 143.401138
v 493.539276 -601.435974 143.401138
v 493.539276 -601.435974 143.904556
v 493.539276 -601.435974 143.904556
v 494.026855 -601.162537 143.904556
v 494.026855 -601.162537 143.401138
v 493.997253 -601.062134 143.225113
v 493.469086 -601.358337 143.225113
v 493.539276 -601.435974 143.401138
v 493.539276 -601.435974 143.401138
v 494.026855 -601.162537 143.401138
v 493.997253 -601.062134 143.225113
v 493.989746 -601.036804 142.388092
v 493.451355 -601.338684 142.388092
v 493.469086 -601.358337 143.225113
v 493.451355 -601.338684 142.388092
v 493.989746 -601.036804 142.388092
v 494.027496 -601.164795 142.249969
v 493.469086 -601.358337 143.225113
v 493.997253 -601.062134 143.225113
v 493.989746 -601.036804 142.388092
v 494.584320 -601.130005 142.249969
v 494.027496 -601.164795 142.249969
v 493.989746 -601.036804 142.388092
v 494.605835 -600.998413 142.388092
v 493.989746 -601.036804 142.388092
v 493.997253 -601.062134 143.225113
v 493.989746 -601.036804 142.388092
v 494.605835 -600.998413 142.388092
v 494.584320 -601.130005 142.249969
v 494.601562 -601.024475 143.225113
v 493.997253 -601.062134 143.225113
v 494.026855 -601.162537 143.401138
v 493.997253 -601.062134 143.225113
v 494.601562 -601.024475 143.225113
v 494.605835 -600.998413 142.388092
v 494.584686 -601.127808 143.401138
v 494.026855 -601.162537 143.401138
v 494.026855 -601.162537 143.904556
v 494.026855 -601.162537 143.401138
v 494.584686 -601.127808 143.401138
v 494.601562 -601.024475 143.225113
v 494.026855 -601.162537 143.904556
v 494.584686 -601.127808 143.904556
v 494.584686 -601.127808 143.401138
v 495.101044 -601.340393 142.249969
v 494.584320 -601.130005 142.249969
v 494.605835 -600.998413 142.388092
v 494.584320 -601.130005 142.249969
v 495.101044 -601.340393 142.249969
v 495.143311 -601.279968 138.076645
v 495.539673 -601.717957 138.076645
v 495.143311 -601.279968 138.076645
v 495.101044 -601.340393 142.249969
v 495.101044 -601.340393 142.249969
v 495.475372 -601.754028 142.249969
v 495.539673 -601.717957 138.076645
v 494.605835 -600.998413 142.388092
v 495.177582 -601.231079 142.388092
v 495.101044 -601.340393 142.249969
v 495.475372 -601.754028 142.249969
v 495.101044 -601.340393 142.249969
v 495.177582 -601.231079 142.388092
v 495.177582 -601.231079 142.388092
v 494.605835 -600.998413 142.388092
v 494.601562 -601.024475 143.225113
v 495.177582 -601.231079 142.388092
v 495.591736 -601.688782 142.388092
v 495.475372 -601.754028 142.249969
v 494.601562 -601.024475 143.225113
v 495.162415 -601.252747 143.225113
v 495.177582 -601.231079 142.388092
v 495.591736 -601.688782 142.388092
v 495.177582 -601.231079 142.388092
v 495.162415 -601.252747 143.225113
v 495.162415 -601.252747 143.225113
v 494.601562 -601.024475 143.225113
v 494.584686 -601.127808 143.401138
v 495.162415 -601.252747 143.225113
v 495.568665 -601.701782 143.225113
v 495.591736 -601.688782 142.388092
v 494.584686 -601.127808 143.401138
v 495.102386 -601.338440 143.401138
v 495.162415 -601.252747 143.225113
v 495.568665 -601.701782 143.225113
v 495.162415 -601.252747 143.225113
v 495.102386 -601.338440 143.401138
v 495.102386 -601.338440 143.401138
v 494.584686 -601.127808 143.401138
v 494.584686 -601.127808 143.904556
v 495.102386 -601.338440 143.401138
v 495.477325 -601.752930 143.401138
v 495.568665 -601.701782 143.225113
v 494.584686 -601.127808 143.904556
v 495.102386 -601.338440 143.904556
v 495.102386 -601.338440 143.401138
v 495.477325 -601.752930 143.401138
v 495.102386 -601.338440 143.401138
v 495.102386 -601.338440 143.904556
v 495.102386 -601.338440 143.904556
v 495.477325 -601.752930 143.904556
v 495.477325 -601.752930 143.401138
v 494.167755 -603.677124 138.076645
v 493.620636 -603.454407 138.076645
v 494.381958 -602.367188 138.076645
v 494.757233 -603.640320 138.076645
v 494.167755 -603.677124 138.076645
v 494.381958 -602.367188 138.076645
v 493.620636 -603.454407 138.076645
v 493.224274 -603.016418 138.076645
v 494.381958 -602.367188 138.076645
v 495.272522 -603.351440 138.076645
v 494.757233 -603.640320 138.076645
v 494.381958 -602.367188 138.076645
v 493.224274 -603.016418 138.076645
v 493.057220 -602.449829 138.076645
v 494.381958 -602.367188 138.076645
v 495.611389 -602.867554 138.076645
v 495.272522 -603.351440 138.076645
v 494.381958 -602.367188 138.076645
v 493.057220 -602.449829 138.076645
v 493.152557 -601.866882 138.076645
v 494.381958 -602.367188 138.076645
v 495.706665 -602.284607 138.076645
v 495.611389 -602.867554 138.076645
v 494.381958 -602.367188 138.076645
v 493.152557 -601.866882 138.076645
v 493.491425 -601.382996 138.076645
v 494.381958 -602.367188 138.076645
v 495.539673 -601.717957 138.076645
v 495.706665 -602.284607 138.076645
v 494.381958 -602.367188 138.076645
v 493.491425 -601.382996 138.076645
v 494.006653 -601.094055 138.076645
v 494.381958 -602.367188 138.076645
v 495.143311 -601.279968 138.076645
v 495.539673 -601.717957 138.076645
v 494.381958 -602.367188 138.076645
v 494.006653 -601.094055 138.076645
v 494.596191 -601.057312 138.076645
v 494.381958 -602.367188 138.076645
v 494.596191 -601.057312 138.076645
v 495.143311 -601.279968 138.076645
v 494.381958 -602.367188 138.076645
v 494.179230 -603.606628 143.904556
v 494.737091 -603.571838 143.904556
v 494.381958 -602.367188 143.904556
v 493.661560 -603.395935 143.904556
v 494.179230 -603.606628 143.904556
v 494.381958 -602.367188 143.904556
v 494.737091 -603.571838 143.904556
v 495.224609 -603.298462 143.904556
v 494.381958 -602.367188 143.904556
v 493.286560 -602.981445 143.904556
v 493.661560 -603.395935 143.904556
v 494.381958 -602.367188 143.904556
v 495.224609 -603.298462 143.904556
v 495.545197 -602.840637 143.904556
v 494.381958 -602.367188 143.904556
v 493.128540 -602.445374 143.904556
v 493.286560 -602.981445 143.904556
v 494.381958 -602.367188 143.904556
v 495.545197 -602.840637 143.904556
v 495.635406 -602.289001 143.904556
v 494.381958 -602.367188 143.904556
v 493.218689 -601.893738 143.904556
v 493.128540 -602.445374 143.904556
v 494.381958 -602.367188 143.904556
v 495.635406 -602.289001 143.904556
v 495.477325 -601.752930 143.904556
v 494.381958 -602.367188 143.904556
v 493.539276 -601.435974 143.904556
v 493.218689 -601.893738 143.904556
v 494.381958 -602.367188 143.904556
v 495.477325 -601.752930 143.904556
v 495.102386 -601.338440 143.904556
v 494.381958 -602.367188 143.904556
v 494.026855 -601.162537 143.904556
v 493.539276 -601.435974 143.904556
v 494.381958 -602.367188 143.904556
v 495.102386 -601.338440 143.904556
v 494.584686 -601.127808 143.904556
v 494.381958 -602.367188 143.904556
v 494.584686 -601.127808 143.904556
v 494.026855 -601.162537 143.904556
v 494.381958 -602.367188 143.904556
vt 0.718262 0.011230
vt 0.744629 0.011230
vt 0.744629 0.200195
vt 0.744629 0.200195
vt 0.718262 0.199219
vt 0.718262 0.011230
vt 0.718262 0.199219
vt 0.744629 0.200195
vt 0.744629 0.208008
vt 0.692871 0.011230
vt 0.718262 0.011230
vt 0.718262 0.199219
vt 0.744629 0.208008
vt 0.718262 0.208008
vt 0.718262 0.199219
vt 0.718262 0.208008
vt 0.744629 0.208008
vt 0.744629 0.246094
vt 0.718262 0.199219
vt 0.692871 0.199219
vt 0.692871 0.011230
vt 0.692871 0.199219
vt 0.718262 0.199219
vt 0.718262 0.208008
vt 0.666504 0.011230
vt 0.692871 0.011230
vt 0.692871 0.199219
vt 0.744629 0.246094
vt 0.718262 0.246094
vt 0.718262 0.208008
vt 0.718262 0.246094
vt 0.744629 0.246094
vt 0.744629 0.255371
vt 0.718262 0.208008
vt 0.692871 0.208008
vt 0.692871 0.199219
vt 0.692871 0.208008
vt 0.718262 0.208008
vt 0.718262 0.246094
vt 0.692871 0.199219
vt 0.666504 0.199219
vt 0.666504 0.011230
vt 0.666504 0.199219
vt 0.692871 0.199219
vt 0.692871 0.208008
vt 0.640137 0.011230
vt 0.666504 0.011230
vt 0.666504 0.199219
vt 0.744629 0.255371
vt 0.718262 0.255371
vt 0.718262 0.246094
vt 0.718262 0.255371
vt 0.744629 0.255371
vt 0.744629 0.278320
vt 0.744629 0.278320
vt 0.718262 0.278320
vt 0.718262 0.255371
vt 0.666504 0.199219
vt 0.640137 0.199219
vt 0.640137 0.011230
vt 0.613770 0.011230
vt 0.640137 0.011230
vt 0.640137 0.199219
vt 0.692871 0.255371
vt 0.718262 0.255371
vt 0.718262 0.278320
vt 0.718262 0.278320
vt 0.692871 0.278320
vt 0.692871 0.255371
vt 0.692871 0.246094
vt 0.718262 0.246094
vt 0.718262 0.255371
vt 0.718262 0.255371
vt 0.692871 0.255371
vt 0.692871 0.246094
vt 0.718262 0.246094
vt 0.692871 0.246094
vt 0.692871 0.208008
vt 0.666504 0.255371
vt 0.692871 0.255371
vt 0.692871 0.278320
vt 0.692871 0.278320
vt 0.666504 0.278320
vt 0.666504 0.255371
vt 0.666504 0.246094
vt 0.692871 0.246094
vt 0.692871 0.255371
vt 0.692871 0.255371
vt 0.666504 0.255371
vt 0.666504 0.246094
vt 0.666504 0.208008
vt 0.692871 0.208008
vt 0.692871 0.246094
vt 0.692871 0.208008
vt 0.666504 0.208008
vt 0.666504 0.199219
vt 0.692871 0.246094
vt 0.666504 0.246094
vt 0.666504 0.208008
vt 0.640137 0.199219
vt 0.666504 0.199219
vt 0.666504 0.208008
vt 0.640137 0.208008
vt 0.666504 0.208008
vt 0.666504 0.246094
vt 0.666504 0.208008
vt 0.640137 0.208008
vt 0.640137 0.199219
vt 0.640137 0.246094
vt 0.666504 0.246094
vt 0.666504 0.255371
vt 0.666504 0.246094
vt 0.640137 0.246094
vt 0.640137 0.208008
vt 0.640137 0.255371
vt 0.666504 0.255371
vt 0.666504 0.278320
vt 0.666504 0.255371
vt 0.640137 0.255371
vt 0.640137 0.246094
vt 0.666504 0.278320
vt 0.640137 0.278320
vt 0.640137 0.255371
vt 0.613770 0.199219
vt 0.640137 0.199219
vt 0.640137 0.208008
vt 0.640137 0.199219
vt 0.613770 0.199219
vt 0.613770 0.011230
vt 0.587402 0.011230
vt 0.613770 0.011230
vt 0.613770 0.199219
vt 0.640137 0.208008
vt 0.613770 0.208008
vt 0.613770 0.199219
vt 0.613770 0.208008
vt 0.640137 0.208008
vt 0.640137 0.246094
vt 0.613770 0.199219
vt 0.587402 0.199219
vt 0.587402 0.011230
vt 0.587402 0.199219
vt 0.613770 0.199219
vt 0.613770 0.208008
vt 0.561035 0.011230
vt 0.587402 0.011230
vt 0.587402 0.199219
vt 0.640137 0.246094
vt 0.613770 0.246094
vt 0.613770 0.208008
vt 0.613770 0.246094
vt 0.640137 0.246094
vt 0.640137 0.255371
vt 0.613770 0.208008
vt 0.587402 0.208008
vt 0.587402 0.199219
vt 0.587402 0.208008
vt 0.613770 0.208008
vt 0.613770 0.246094
vt 0.587402 0.199219
vt 0.561035 0.199219
vt 0.561035 0.011230
vt 0.561035 0.199219
vt 0.587402 0.199219
vt 0.587402 0.208008
vt 0.534668 0.011230
vt 0.561035 0.011230
vt 0.561035 0.199219
vt 0.640137 0.255371
vt 0.613770 0.255371
vt 0.613770 0.246094
vt 0.613770 0.255371
vt 0.640137 0.255371
vt 0.640137 0.278320
vt 0.640137 0.278320
vt 0.613770 0.278320
vt 0.613770 0.255371
vt 0.561035 0.199219
vt 0.534668 0.199219
vt 0.534668 0.011230
vt 0.508301 0.011230
vt 0.534668 0.011230
vt 0.534668 0.199219
vt 0.587402 0.255371
vt 0.613770 0.255371
vt 0.613770 0.278320
vt 0.613770 0.278320
vt 0.587402 0.278320
vt 0.587402 0.255371
vt 0.587402 0.246094
vt 0.613770 0.246094
vt 0.613770 0.255371
vt 0.613770 0.255371
vt 0.587402 0.255371
vt 0.587402 0.246094
vt 0.613770 0.246094
vt 0.587402 0.246094
vt 0.587402 0.208008
vt 0.561035 0.255371
vt 0.587402 0.255371
vt 0.587402 0.278320
vt 0.587402 0.278320
vt 0.561035 0.278320
vt 0.561035 0.255371
vt 0.561035 0.246094
vt 0.587402 0.246094
vt 0.587402 0.255371
vt 0.587402 0.255371
vt 0.561035 0.255371
vt 0.561035 0.246094
vt 0.561035 0.208008
vt 0.587402 0.208008
vt 0.587402 0.246094
vt 0.587402 0.208008
vt 0.561035 0.208008
vt 0.561035 0.199219
vt 0.587402 0.246094
vt 0.561035 0.246094
vt 0.561035 0.208008
vt 0.534668 0.199219
vt 0.561035 0.199219
vt 0.561035 0.208008
vt 0.534668 0.208008
vt 0.561035 0.208008
vt 0.561035 0.246094
vt 0.561035 0.208008
vt 0.534668 0.208008
vt 0.534668 0.199219
vt 0.534668 0.246094
vt 0.561035 0.246094
vt 0.561035 0.255371
vt 0.561035 0.246094
vt 0.534668 0.246094
vt 0.534668 0.208008
vt 0.534668 0.255371
vt 0.561035 0.255371
vt 0.561035 0.278320
vt 0.561035 0.255371
vt 0.534668 0.255371
vt 0.534668 0.246094
vt 0.561035 0.278320
vt 0.534668 0.278320
vt 0.534668 0.255371
vt 0.508301 0.199219
vt 0.534668 0.199219
vt 0.534668 0.208008
vt 0.534668 0.199219
vt 0.508301 0.199219
vt 0.508301 0.011230
vt 0.482178 0.011230
vt 0.508301 0.011230
vt 0.508301 0.199219
vt 0.534668 0.208008
vt 0.508301 0.208008
vt 0.508301 0.199219
vt 0.508301 0.208008
vt 0.534668 0.208008
vt 0.534668 0.246094
vt 0.508301 0.199219
vt 0.482178 0.199219
vt 0.482178 0.011230
vt 0.482178 0.199219
vt 0.508301 0.199219
vt 0.508301 0.208008
vt 0.455811 0.011230
vt 0.482178 0.011230
vt 0.482178 0.199219
vt 0.534668 0.246094
vt 0.508301 0.246094
vt 0.508301 0.208008
vt 0.508301 0.246094
vt 0.534668 0.246094
vt 0.534668 0.255371
vt 0.508301 0.208008
vt 0.482178 0.208008
vt 0.482178 0.199219
vt 0.482178 0.208008
vt 0.508301 0.208008
vt 0.508301 0.246094
vt 0.482178 0.199219
vt 0.455811 0.199219
vt 0.455811 0.011230
vt 0.455811 0.199219
vt 0.482178 0.199219
vt 0.482178 0.208008
vt 0.429443 0.011230
vt 0.455811 0.011230
vt 0.455811 0.199219
vt 0.534668 0.255371
vt 0.508301 0.255371
vt 0.508301 0.246094
vt 0.508301 0.255371
vt 0.534668 0.255371
vt 0.534668 0.278320
vt 0.534668 0.278320
vt 0.508301 0.278320
vt 0.508301 0.255371
vt 0.455811 0.199219
vt 0.429443 0.199219
vt 0.429443 0.011230
vt 0.403320 0.011230
vt 0.429443 0.011230
vt 0.429443 0.199219
vt 0.482178 0.255371
vt 0.508301 0.255371
vt 0.508301 0.278320
vt 0.508301 0.278320
vt 0.482178 0.278320
vt 0.482178 0.255371
vt 0.482178 0.246094
vt 0.508301 0.246094
vt 0.508301 0.255371
vt 0.508301 0.255371
vt 0.482178 0.255371
vt 0.482178 0.246094
vt 0.508301 0.246094
vt 0.482178 0.246094
vt 0.482178 0.208008
vt 0.455811 0.255371
vt 0.482178 0.255371
vt 0.482178 0.278320
vt 0.482178 0.278320
vt 0.455811 0.278320
vt 0.455811 0.255371
vt 0.455811 0.246094
vt 0.482178 0.246094
vt 0.482178 0.255371
vt 0.482178 0.255371
vt 0.455811 0.255371
vt 0.455811 0.246094
vt 0.455811 0.208008
vt 0.482178 0.208008
vt 0.482178 0.246094
vt 0.482178 0.208008
vt 0.455811 0.208008
vt 0.455811 0.199219
vt 0.482178 0.246094
vt 0.455811 0.246094
vt 0.455811 0.208008
vt 0.429443 0.199219
vt 0.455811 0.199219
vt 0.455811 0.208008
vt 0.429443 0.208008
vt 0.455811 0.208008
vt 0.455811 0.246094
vt 0.455811 0.208008
vt 0.429443 0.208008
vt 0.429443 0.199219
vt 0.429443 0.246094
vt 0.455811 0.246094
vt 0.455811 0.255371
vt 0.455811 0.246094
vt 0.429443 0.246094
vt 0.429443 0.208008
vt 0.429443 0.255371
vt 0.455811 0.255371
vt 0.455811 0.278320
vt 0.455811 0.255371
vt 0.429443 0.255371
vt 0.429443 0.246094
vt 0.455811 0.278320
vt 0.429443 0.278320
vt 0.429443 0.255371
vt 0.403320 0.199219
vt 0.429443 0.199219
vt 0.429443 0.208008
vt 0.429443 0.199219
vt 0.403320 0.199219
vt 0.403320 0.011230
vt 0.377197 0.011230
vt 0.403320 0.011230
vt 0.403320 0.199219
vt 0.403320 0.199219
vt 0.377197 0.199219
vt 0.377197 0.011230
vt 0.429443 0.208008
vt 0.403320 0.208008
vt 0.403320 0.199219
vt 0.377197 0.199219
vt 0.403320 0.199219
vt 0.403320 0.208008
vt 0.403320 0.208008
vt 0.429443 0.208008
vt 0.429443 0.246094
vt 0.403320 0.208008
vt 0.377197 0.208008
vt 0.377197 0.199219
vt 0.429443 0.246094
vt 0.403320 0.246094
vt 0.403320 0.208008
vt 0.377197 0.208008
vt 0.403320 0.208008
vt 0.403320 0.246094
vt 0.403320 0.246094
vt 0.429443 0.246094
vt 0.429443 0.255371
vt 0.403320 0.246094
vt 0.377197 0.246094
vt 0.377197 0.208008
vt 0.429443 0.255371
vt 0.403320 0.255371
vt 0.403320 0.246094
vt 0.377197 0.246094
vt 0.403320 0.246094
vt 0.403320 0.255371
vt 0.403320 0.255371
vt 0.429443 0.255371
vt 0.429443 0.278320
vt 0.403320 0.255371
vt 0.377197 0.255371
vt 0.377197 0.246094
vt 0.429443 0.278320
vt 0.403320 0.278320
vt 0.403320 0.255371
vt 0.377197 0.255371
vt 0.403320 0.255371
vt 0.403320 0.278320
vt 0.403320 0.278320
vt 0.377197 0.278320
vt 0.377197 0.255371
vt 0.913086 0.344238
vt 0.936035 0.344238
vt 0.924316 0.395020
vt 0.892090 0.354004
vt 0.913086 0.344238
vt 0.924316 0.395020
vt 0.936035 0.344238
vt 0.957031 0.354004
vt 0.924316 0.395020
vt 0.877441 0.372070
vt 0.892090 0.354004
vt 0.924316 0.395020
vt 0.957031 0.354004
vt 0.971680 0.372070
vt 0.924316 0.395020
vt 0.872559 0.395020
vt 0.877441 0.372070
vt 0.924316 0.395020
vt 0.971680 0.372070
vt 0.976562 0.395020
vt 0.924316 0.395020
vt 0.877441 0.417480
vt 0.872559 0.395020
vt 0.924316 0.395020
vt 0.976562 0.395020
vt 0.971680 0.417480
vt 0.924316 0.395020
vt 0.892090 0.435547
vt 0.877441 0.417480
vt 0.924316 0.395020
vt 0.971680 0.417480
vt 0.957031 0.435547
vt 0.924316 0.395020
vt 0.913086 0.445801
vt 0.892090 0.435547
vt 0.924316 0.395020
vt 0.957031 0.435547
vt 0.936035 0.445801
vt 0.924316 0.395020
vt 0.936035 0.445801
vt 0.913086 0.445801
vt 0.924316 0.395020
vt 0.785645 0.625977
vt 0.809082 0.637207
vt 0.772461 0.682861
vt 0.759766 0.625977
vt 0.785645 0.625977
vt 0.772461 0.682861
vt 0.809082 0.637207
vt 0.825195 0.657471
vt 0.772461 0.682861
vt 0.736328 0.637207
vt 0.759766 0.625977
vt 0.772461 0.682861
vt 0.825195 0.657471
vt 0.831055 0.682861
vt 0.772461 0.682861
vt 0.720215 0.657471
vt 0.736328 0.637207
vt 0.772461 0.682861
vt 0.831055 0.682861
vt 0.825195 0.708008
vt 0.772461 0.682861
vt 0.714355 0.682861
vt 0.720215 0.657471
vt 0.772461 0.682861
vt 0.825195 0.708008
vt 0.809082 0.728271
vt 0.772461 0.682861
vt 0.720215 0.708008
vt 0.714355 0.682861
vt 0.772461 0.682861
vt 0.809082 0.728271
vt 0.785645 0.739746
vt 0.772461 0.682861
vt 0.736328 0.728271
vt 0.720215 0.708008
vt 0.772461 0.682861
vt 0.785645 0.739746
vt 0.759766 0.739746
vt 0.772461 0.682861
vt 0.759766 0.739746
vt 0.736328 0.728271
vt 0.772461 0.682861
f 1/1/1 2/2/2 3/3/3
f 4/4/4 5/5/5 6/6/6
f 7/7/7 8/8/8 9/9/9
f 10/10/10 11/11/11 12/12/12
f 13/13/13 14/14/14 15/15/15
f 16/16/16 17/17/17 18/18/18
f 19/19/19 20/20/20 21/21/21
f 22/22/22 23/23/23 24/24/24
f 25/25/25 26/26/26 27/27/27
f 28/28/28 29/29/29 30/30/30
f 31/31/31 32/32/32 33/33/33
f 34/34/34 35/35/35 36/36/36
f 37/37/37 38/38/38 39/39/39
f 40/40/40 41/41/41 42/42/42
f 43/43/43 44/44/44 45/45/45
f 46/46/46 47/47/47 48/48/48
f 49/49/49 50/50/50 51/51/51
f 52/52/52 53/53/53 54/54/54
f 55/55/55 56/56/56 57/57/57
f 58/58/58 59/59/59 60/60/60
f 61/61/61 62/62/62 63/63/63
f 64/64/64 65/65/65 66/66/66
f 67/67/67 68/68/68 69/69/69
f 70/70/70 71/71/71 72/72/72
f 73/73/73 74/74/74 75/75/75
f 76/76/76 77/77/77 78/78/78
f 79/79/79 80/80/80 81/81/81
f 82/82/82 83/83/83 84/84/84
f 85/85/85 86/86/86 87/87/87
f 88/88/88 89/89/89 90/90/90
f 91/91/91 92/92/92 93/93/93
f 94/94/94 95/95/95 96/96/96
f 97/97/97 98/98/98 99/99/99
f 100/100/100 101/101/101 102/102/102
f 103/103/103 104/104/104 105/105/105
f 106/106/106 107/107/107 108/108/108
f 109/109/109 110/110/110 111/111/111
f 112/112/112 113/113/113 114/114/114
f 115/115/115 116/116/116 117/117/117
f 118/118/118 119/119/119 120/120/120
f 121/121/121 122/122/122 123/123/123
f 124/124/124 125/125/125 126/126/126
f 127/127/127 128/128/128 129/129/129
f 130/130/130 131/131/131 132/132/132
f 133/133/133 134/134/134 135/135/135
f 136/136/136 137/137/137 138/138/138
f 139/139/139 140/140/140 141/141/141
f 142/142/142 143/143/143 144/144/144
f 145/145/145 146/146/146 147/147/147
f 148/148/148 149/149/149 150/150/150
f 151/151/151 152/152/152 153/153/153
f 154/154/154 155/155/155 156/156/156
f 157/157/157 158/158/158 159/159/159
f 160/160/160 161/161/161 162/162/162
f 163/163/163 164/164/164 165/165/165
f 166/166/166 167/167/167 168/168/168
f 169/169/169 170/170/170 171/171/171
f 172/172/172 173/173/173 174/174/174
f 175/175/175 176/176/176 177/177/177
f 178/178/178 179/179/179 180/180/180
f 181/181/181 182/182/182 183/183/183
f 184/184/184 185/185/185 186/186/186
f 187/187/187 188/188/188 189/189/189
f 190/190/190 191/191/191 192/192/192
f 193/193/193 194/194/194 195/195/195
f 196/196/196 197/197/197 198/198/198
f 199/199/199 200/200/200 201/201/201
f 202/202/202 203/203/203 204/204/204
f 205/205/205 206/206/206 207/207/207
f 208/208/208 209/209/209 210/210/210
f 211/211/211 212/212/212 213/213/213
f 214/214/214 215/215/215 216/216/216
f 217/217/217 218/218/218 219/219/219
f 220/220/220 221/221/221 222/222/222
f 223/223/223 224/224/224 225/225/225
f 226/226/226 227/227/227 228/228/228
f 229/229/229 230/230/230 231/231/231
f 232/232/232 233/233/233 234/234/234
f 235/235/235 236/236/236 237/237/237
f 238/238/238 239/239/239 240/240/240
f 241/241/241 242/242/242 243/243/243
f 244/244/244 245/245/245 246/246/246
f 247/247/247 248/248/248 249/249/249
f 250/250/250 251/251/251 252/252/252
f 253/253/253 254/254/254 255/255/255
f 256/256/256 257/257/257 258/258/258
f 259/259/259 260/260/260 261/261/261
f 262/262/262 263/263/263 264/264/264
f 265/265/265 266/266/266 267/267/267
f 268/268/268 269/269/269 270/270/270
f 271/271/271 272/272/272 273/273/273
f 274/274/274 275/275/275 276/276/276
f 277/277/277 278/278/278 279/279/279
f 280/280/280 281/281/281 282/282/282
f 283/283/283 284/284/284 285/285/285
f 286/286/286 287/287/287 288/288/288
f 289/289/289 290/290/290 291/291/291
f 292/292/292 293/293/293 294/294/294
f 295/295/295 296/296/296 297/297/297
f 298/298/298 299/299/299 300/300/300
f 301/301/301 302/302/302 303/303/303
f 304/304/304 305/305/305 306/306/306
f 307/307/307 308/308/308 309/309/309
f 310/310/310 311/311/311 312/312/312
f 313/313/313 314/314/314 315/315/315
f 316/316/316 317/317/317 318/318/318
f 319/319/319 320/320/320 321/321/321
f 322/322/322 323/323/323 324/324/324
f 325/325/325 326/326/326 327/327/327
f 328/328/328 329/329/329 330/330/330
f 331/331/331 332/332/332 333/333/333
f 334/334/334 335/335/335 336/336/336
f 337/337/337 338/338/338 339/339/339
f 340/340/340 341/341/341 342/342/342
f 343/343/343 344/344/344 345/345/345
f 346/346/346 347/347/347 348/348/348
f 349/349/349 350/350/350 351/351/351
f 352/352/352 353/353/353 354/354/354
f 355/355/355 356/356/356 357/357/357
f 358/358/358 359/359/359 360/360/360
f 361/361/361 362/362/362 363/363/363
f 364/364/364 365/365/365 366/366/366
f 367/367/367 368/368/368 369/369/369
f 370/370/370 371/371/371 372/372/372
f 373/373/373 374/374/374 375/375/375
f 376/376/376 377/377/377 378/378/378
f 379/379/379 380/380/380 381/381/381
f 382/382/382 383/383/383 384/384/384
f 385/385/385 386/386/386 387/387/387
f 388/388/388 389/389/389 390/390/390
f 391/391/391 392/392/392 393/393/393
f 394/394/394 395/395/395 396/396/396
f 397/397/397 398/398/398 399/399/399
f 400/400/400 401/401/401 402/402/402
f 403/403/403 404/404/404 405/405/405
f 406/406/406 407/407/407 408/408/408
f 409/409/409 410/410/410 411/411/411
f 412/412/412 413/413/413 414/414/414
f 415/415/415 416/416/416 417/417/417
f 418/418/418 419/419/419 420/420/420
f 421/421/421 422/422/422 423/423/423
f 424/424/424 425/425/425 426/426/426
f 427/427/427 428/428/428 429/429/429
f 430/430/430 431/431/431 432/432/432
f 433/433/433 434/434/434 435/435/435
f 436/436/436 437/437/437 438/438/438
f 439/439/439 440/440/440 441/441/441
f 442/442/442 443/443/443 444/444/444
f 445/445/445 446/446/446 447/447/447
f 448/448/448 449/449/449 450/450/450
f 451/451/451 452/452/452 453/453/453
f 454/454/454 455/455/455 456/456/456
f 457/457/457 458/458/458 459/459/459
f 460/460/460 461/461/461 462/462/462
f 463/463/463 464/464/464 465/465/465
f 466/466/466 467/467/467 468/468/468
f 469/469/469 470/470/470 471/471/471
f 472/472/472 473/473/473 474/474/474
f 475/475/475 476/476/476 477/477/477
f 478/478/478 479/479/479 480/480/480
f 481/481/481 482/482/482 483/483/483
f 484/484/484 485/485/485 486/486/486
f 487/487/487 488/488/488 489/489/489
f 490/490/490 491/491/491 492/492/492
f 493/493/493 494/494/494 495/495/495
f 496/496/496 497/497/497 498/498/498
f 499/499/499 500/500/500 501/501/501
f 502/502/502 503/503/503 504/504/504
