# OBJ file
v 445.199620 -338.068700 128.640620
v 445.220180 -338.073060 121.165370
v 445.410950 -338.015050 120.968730
v 445.410950 -338.015050 120.968730
v 445.389100 -338.010000 128.821500
v 445.199620 -338.068700 128.640620
v 445.389100 -338.010000 128.821500
v 445.410950 -338.015050 120.968730
v 446.776060 -337.604640 120.968730
v 446.776060 -337.604640 120.968730
v 446.746950 -337.595950 128.821500
v 445.389100 -338.010000 128.821500
v 446.746950 -337.595950 128.821500
v 446.776060 -337.604640 120.968730
v 448.125180 -336.362700 120.968730
v 448.125180 -336.362700 120.968730
v 448.089780 -336.349670 128.821500
v 446.746950 -337.595950 128.821500
v 448.089780 -336.349670 128.821500
v 448.125180 -336.362700 120.968730
v 448.801820 -334.658420 120.968730
v 448.801820 -334.658420 120.968730
v 448.767100 -334.643620 128.821500
v 448.089780 -336.349670 128.821500
v 448.767100 -334.643620 128.821500
v 448.801820 -334.658420 120.968730
v 448.672000 -332.829350 120.968730
v 448.672000 -332.829350 120.968730
v 448.644840 -332.815640 128.821500
v 448.767100 -334.643620 128.821500
v 448.644840 -332.815640 128.821500
v 448.672000 -332.829350 120.968730
v 447.906860 -331.578980 120.968730
v 447.906860 -331.578980 120.968730
v 447.887600 -331.567660 128.821500
v 448.644840 -332.815640 128.821500
v 447.887600 -331.567660 128.821500
v 447.906860 -331.578980 120.968730
v 447.799200 -331.390930 121.165990
v 447.799200 -331.390930 121.165990
v 447.781560 -331.380070 128.627200
v 447.887600 -331.567660 128.821500
vn 0.294912 -0.955516 -0.003932
vn 0.287707 -0.957710 -0.003941
vn 0.287707 -0.957710 -0.003941
vn 0.287707 -0.957710 -0.003941
vn 0.287707 -0.957710 -0.003941
vn 0.294912 -0.955516 -0.003932
vn 0.287707 -0.957710 -0.003941
vn 0.287707 -0.957710 -0.003941
vn 0.492313 -0.870409 -0.003938
vn 0.492313 -0.870409 -0.003938
vn 0.498246 -0.867027 -0.003923
vn 0.287707 -0.957710 -0.003941
vn 0.498246 -0.867027 -0.003923
vn 0.492313 -0.870409 -0.003938
vn 0.825301 -0.564680 0.003949
vn 0.825301 -0.564680 0.003949
vn 0.825301 -0.564680 0.003949
vn 0.498246 -0.867027 -0.003923
vn 0.825301 -0.564680 0.003949
vn 0.825301 -0.564680 0.003949
vn 0.988135 -0.153535 0.003937
vn 0.988135 -0.153535 0.003937
vn 0.988135 -0.153535 0.003937
vn 0.825301 -0.564680 0.003949
vn 0.988135 -0.153535 0.003937
vn 0.988135 -0.153535 0.003937
vn 0.950241 0.311490 -0.003943
vn 0.950241 0.311490 -0.003943
vn 0.953279 0.302068 -0.003923
vn 0.988135 -0.153535 0.003937
vn 0.953279 0.302068 -0.003923
vn 0.950241 0.311490 -0.003943
vn 0.856091 0.516810 -0.003945
vn 0.856091 0.516810 -0.003945
vn 0.858177 0.513339 -0.003919
vn 0.953279 0.302068 -0.003923
vn 0.858177 0.513339 -0.003919
vn 0.856091 0.516810 -0.003945
vn 0.867027 0.498246 -0.003923
vn 0.867027 0.498246 -0.003923
vn 0.867027 0.498246 -0.003923
vn 0.858177 0.513339 -0.003919
vt 0.458496 0.634033
vt 0.458496 0.518555
vt 0.461426 0.515625
vt 0.461426 0.515625
vt 0.461670 0.636475
vt 0.458496 0.634033
vt 0.461670 0.636475
vt 0.461426 0.515625
vt 0.483398 0.515625
vt 0.483398 0.515625
vt 0.483398 0.636475
vt 0.461670 0.636475
vt 0.483398 0.636475
vt 0.483398 0.515625
vt 0.511719 0.515625
vt 0.511719 0.515625
vt 0.511719 0.636475
vt 0.483398 0.636475
vt 0.511719 0.636475
vt 0.511719 0.515625
vt 0.540039 0.515625
vt 0.540039 0.515625
vt 0.540039 0.636475
vt 0.511719 0.636475
vt 0.540039 0.636475
vt 0.540039 0.515625
vt 0.568359 0.515625
vt 0.568359 0.515625
vt 0.568359 0.636475
vt 0.540039 0.636475
vt 0.568359 0.636475
vt 0.568359 0.515625
vt 0.590820 0.515625
vt 0.590820 0.515625
vt 0.590820 0.636719
vt 0.568359 0.636475
vt 0.590820 0.636719
vt 0.590820 0.515625
vt 0.594238 0.518555
vt 0.594238 0.518555
vt 0.594238 0.633789
vt 0.590820 0.636719
f 1/1/1 2/2/2 3/3/3
f 4/4/4 5/5/5 6/6/6
f 7/7/7 8/8/8 9/9/9
f 10/10/10 11/11/11 12/12/12
f 13/13/13 14/14/14 15/15/15
f 16/16/16 17/17/17 18/18/18
f 19/19/19 20/20/20 21/21/21
f 22/22/22 23/23/23 24/24/24
f 25/25/25 26/26/26 27/27/27
f 28/28/28 29/29/29 30/30/30
f 31/31/31 32/32/32 33/33/33
f 34/34/34 35/35/35 36/36/36
f 37/37/37 38/38/38 39/39/39
f 40/40/40 41/41/41 42/42/42
