# OBJ file
v 2136.941700 3449.201400 1973.048000
v 2138.606400 3448.840000 1973.048000
v 2138.606400 3448.840000 2308.945600
v 2138.606400 3448.840000 2308.945600
v 2136.941700 3449.201400 2308.945600
v 2136.941700 3449.201400 1973.048000
v 2136.941700 3449.201400 1973.048000
v 2136.941700 3449.201400 2308.945600
v 2007.243300 3526.133300 2308.945600
v 2007.243300 3526.133300 2308.945600
v 2007.243300 3526.133300 1973.048000
v 2136.941700 3449.201400 1973.048000
v 2006.128200 3527.420700 1973.048000
v 2007.243300 3526.133300 1973.048000
v 2007.243300 3526.133300 2308.945600
v 2007.243300 3526.133300 2308.945600
v 2006.128200 3527.420700 2308.945600
v 2006.128200 3527.420700 1973.048000
v 2169.019000 3499.057400 1973.048000
v 2169.380100 3500.722000 1973.048000
v 2169.380100 3500.722000 2308.945600
v 2169.380100 3500.722000 2308.945600
v 2169.019000 3499.057400 2308.945600
v 2169.019000 3499.057400 1973.048000
v 2169.019000 3499.057400 1973.048000
v 2169.019000 3499.057400 2308.945600
v 2139.894500 3449.955600 2308.945600
v 2139.894500 3449.955600 2308.945600
v 2139.894500 3449.955600 1973.048000
v 2169.019000 3499.057400 1973.048000
v 2138.606400 3448.840000 1973.048000
v 2139.894500 3449.955600 1973.048000
v 2139.894500 3449.955600 2308.945600
v 2139.894500 3449.955600 2308.945600
v 2138.606400 3448.840000 2308.945600
v 2138.606400 3448.840000 1973.048000
v 2038.566500 3578.941200 1973.048000
v 2036.901900 3579.302500 1973.048000
v 2036.901900 3579.302500 2308.945600
v 2036.901900 3579.302500 2308.945600
v 2038.566500 3578.941200 2308.945600
v 2038.566500 3578.941200 1973.048000
v 2038.566500 3578.941200 1973.048000
v 2038.566500 3578.941200 2308.945600
v 2168.265000 3502.009800 2308.945600
v 2168.265000 3502.009800 2308.945600
v 2168.265000 3502.009800 1973.048000
v 2038.566500 3578.941200 1973.048000
v 2169.380100 3500.722000 1973.048000
v 2168.265000 3502.009800 1973.048000
v 2168.265000 3502.009800 2308.945600
v 2168.265000 3502.009800 2308.945600
v 2169.380100 3500.722000 2308.945600
v 2169.380100 3500.722000 1973.048000
v 2035.613900 3578.187000 2308.945600
v 2036.901900 3579.302500 2308.945600
v 2036.901900 3579.302500 1973.048000
v 2036.901900 3579.302500 1973.048000
v 2035.613900 3578.187000 1973.048000
v 2035.613900 3578.187000 2308.945600
v 2035.613900 3578.187000 2308.945600
v 2035.613900 3578.187000 1973.048000
v 2006.489400 3529.085700 1973.048000
v 2006.489400 3529.085700 1973.048000
v 2006.489400 3529.085700 2308.945600
v 2035.613900 3578.187000 2308.945600
v 2006.128200 3527.420700 2308.945600
v 2006.489400 3529.085700 2308.945600
v 2006.489400 3529.085700 1973.048000
v 2006.489400 3529.085700 1973.048000
v 2006.128200 3527.420700 1973.048000
v 2006.128200 3527.420700 2308.945600
vn -0.513339 -0.858177 -0.003919
vn 0.247146 -0.968970 -0.003923
vn 0.247146 -0.968970 -0.003923
vn 0.247146 -0.968970 -0.003923
vn -0.372063 -0.928199 -0.003916
vn -0.513339 -0.858177 -0.003919
vn -0.513339 -0.858177 -0.003919
vn -0.372063 -0.928199 -0.003916
vn -0.645937 -0.763380 -0.003915
vn -0.645937 -0.763380 -0.003915
vn -0.516810 -0.856091 -0.003945
vn -0.513339 -0.858177 -0.003919
vn -0.969444 -0.245281 -0.003893
vn -0.516810 -0.856091 -0.003945
vn -0.645937 -0.763380 -0.003915
vn -0.645937 -0.763380 -0.003915
vn -0.969444 -0.245281 -0.003893
vn -0.969444 -0.245281 -0.003893
vn 0.865059 -0.501655 -0.003950
vn 0.967067 0.254491 -0.003915
vn 0.967067 0.254491 -0.003915
vn 0.967067 0.254491 -0.003915
vn 0.930887 -0.365285 -0.003928
vn 0.865059 -0.501655 -0.003950
vn 0.865059 -0.501655 -0.003950
vn 0.930887 -0.365285 -0.003928
vn 0.767247 -0.641340 -0.003935
vn 0.767247 -0.641340 -0.003935
vn 0.856091 -0.516811 -0.003945
vn 0.865059 -0.501655 -0.003950
vn 0.247146 -0.968970 -0.003923
vn 0.856091 -0.516811 -0.003945
vn 0.767247 -0.641340 -0.003935
vn 0.767247 -0.641340 -0.003935
vn 0.247146 -0.968970 -0.003923
vn 0.247146 -0.968970 -0.003923
vn 0.504110 0.863630 -0.003908
vn -0.252578 0.967569 -0.003886
vn -0.252578 0.967569 -0.003886
vn -0.252578 0.967569 -0.003886
vn 0.362632 0.931924 -0.003899
vn 0.504110 0.863630 -0.003908
vn 0.504110 0.863630 -0.003908
vn 0.362632 0.931924 -0.003899
vn 0.637483 0.770455 -0.003911
vn 0.637483 0.770455 -0.003911
vn 0.507532 0.861624 -0.003934
vn 0.504110 0.863630 -0.003908
vn 0.967067 0.254491 -0.003915
vn 0.507532 0.861624 -0.003934
vn 0.637483 0.770455 -0.003911
vn 0.637483 0.770455 -0.003911
vn 0.967067 0.254491 -0.003915
vn 0.967067 0.254491 -0.003915
vn -0.766618 0.642091 -0.003891
vn -0.252578 0.967569 -0.003886
vn -0.252578 0.967569 -0.003886
vn -0.252578 0.967569 -0.003886
vn -0.854719 0.519076 -0.003903
vn -0.766618 0.642091 -0.003891
vn -0.766618 0.642091 -0.003891
vn -0.854719 0.519076 -0.003903
vn -0.863631 0.504110 -0.003908
vn -0.863631 0.504110 -0.003908
vn -0.929272 0.369376 -0.003888
vn -0.766618 0.642091 -0.003891
vn -0.969444 -0.245281 -0.003893
vn -0.929272 0.369376 -0.003888
vn -0.863631 0.504110 -0.003908
vn -0.863631 0.504110 -0.003908
vn -0.969444 -0.245281 -0.003893
vn -0.969444 -0.245281 -0.003893
vt 0.583496 0.505371
vt 0.591797 0.505371
vt 0.591797 2.185547
vt 0.591797 2.185547
vt 0.583496 2.185547
vt 0.583496 0.505371
vt 0.583496 0.505371
vt 0.583496 2.185547
vt -0.170654 2.185547
vt -0.170654 2.185547
vt -0.170654 0.505371
vt 0.583496 0.505371
vt -0.178711 0.505371
vt -0.170654 0.505371
vt -0.170654 2.185547
vt -0.170654 2.185547
vt -0.178711 2.185547
vt -0.178711 0.505371
vt 0.001281 0.504639
vt 0.009369 0.504639
vt 0.009369 2.185547
vt 0.009369 2.185547
vt 0.001281 2.185547
vt 0.001281 0.504639
vt 0.001281 0.504639
vt 0.001281 2.185547
vt -0.284424 2.185547
vt -0.284424 2.185547
vt -0.284424 0.504639
vt 0.001281 0.504639
vt -0.292480 0.504639
vt -0.284424 0.504639
vt -0.284424 2.185547
vt -0.284424 2.185547
vt -0.292480 2.185547
vt -0.292480 0.504639
vt 0.877441 0.505371
vt 0.885742 0.505371
vt 0.885742 2.185547
vt 0.885742 2.185547
vt 0.877441 2.185547
vt 0.877441 0.505371
vt 0.877441 0.505371
vt 0.877441 2.185547
vt 0.123352 2.185547
vt 0.123352 2.185547
vt 0.123352 0.505371
vt 0.877441 0.505371
vt 0.115234 0.505371
vt 0.123352 0.505371
vt 0.123352 2.185547
vt 0.123352 2.185547
vt 0.115234 2.185547
vt 0.115234 0.505371
vt -0.150391 2.185547
vt -0.158447 2.185547
vt -0.158447 0.504639
vt -0.158447 0.504639
vt -0.150391 0.504639
vt -0.150391 2.185547
vt -0.150391 2.185547
vt -0.150391 0.504639
vt 0.135376 0.504639
vt 0.135376 0.504639
vt 0.135376 2.185547
vt -0.150391 2.185547
vt 0.143433 2.185547
vt 0.135376 2.185547
vt 0.135376 0.504639
vt 0.135376 0.504639
vt 0.143433 0.504639
vt 0.143433 2.185547
f 1/1/1 2/2/2 3/3/3
f 4/4/4 5/5/5 6/6/6
f 7/7/7 8/8/8 9/9/9
f 10/10/10 11/11/11 12/12/12
f 13/13/13 14/14/14 15/15/15
f 16/16/16 17/17/17 18/18/18
f 19/19/19 20/20/20 21/21/21
f 22/22/22 23/23/23 24/24/24
f 25/25/25 26/26/26 27/27/27
f 28/28/28 29/29/29 30/30/30
f 31/31/31 32/32/32 33/33/33
f 34/34/34 35/35/35 36/36/36
f 37/37/37 38/38/38 39/39/39
f 40/40/40 41/41/41 42/42/42
f 43/43/43 44/44/44 45/45/45
f 46/46/46 47/47/47 48/48/48
f 49/49/49 50/50/50 51/51/51
f 52/52/52 53/53/53 54/54/54
f 55/55/55 56/56/56 57/57/57
f 58/58/58 59/59/59 60/60/60
f 61/61/61 62/62/62 63/63/63
f 64/64/64 65/65/65 66/66/66
f 67/67/67 68/68/68 69/69/69
f 70/70/70 71/71/71 72/72/72
