# OBJ file
v 387.101320 -1408.460000 61.250973
v 366.604400 -1458.627800 61.250970
v 387.101380 -1408.460000 43.926020
v 366.604400 -1458.627800 61.250970
v 366.604460 -1458.627800 43.926018
v 387.101380 -1408.460000 43.926020
v 243.215160 -1349.680800 42.876904
v 386.201000 -1408.092000 42.877020
v 222.718250 -1399.848900 42.876900
v 386.201000 -1408.092000 42.877020
v 365.704040 -1458.260100 42.877018
v 222.718250 -1399.848900 42.876900
v 243.611910 -1348.709700 43.925903
v 243.611900 -1348.709700 61.250973
v 386.597720 -1407.121000 43.926020
v 243.611900 -1348.709700 61.250973
v 386.597720 -1407.121000 61.250973
v 386.597720 -1407.121000 43.926020
v 221.817830 -1399.481000 43.925900
v 221.817830 -1399.481000 61.250973
v 242.314740 -1349.313000 43.925903
v 221.817830 -1399.481000 61.250973
v 242.314730 -1349.313000 61.250973
v 242.314740 -1349.313000 43.925903
v 365.307280 -1459.231100 61.250970
v 222.321490 -1400.820000 61.250973
v 365.307280 -1459.231100 43.926018
v 222.321490 -1400.820000 61.250973
v 222.321490 -1400.820000 43.925900
v 365.307280 -1459.231100 43.926018
v 365.704070 -1458.260100 62.299965
v 386.200930 -1408.092000 62.299970
v 222.718250 -1399.848900 62.299970
v 386.200930 -1408.092000 62.299970
v 243.215130 -1349.680800 62.299970
v 222.718250 -1399.848900 62.299970
v 366.604460 -1458.627800 43.926018
v 365.704040 -1458.260100 42.877018
v 387.101380 -1408.460000 43.926020
v 365.704040 -1458.260100 42.877018
v 386.201000 -1408.092000 42.877020
v 387.101380 -1408.460000 43.926020
v 365.704040 -1458.260100 42.877018
v 365.307280 -1459.231100 43.926018
v 222.718250 -1399.848900 42.876900
v 365.307280 -1459.231100 43.926018
v 222.321490 -1400.820000 43.925900
v 222.718250 -1399.848900 42.876900
v 222.718250 -1399.848900 42.876900
v 221.817830 -1399.481000 43.925900
v 243.215160 -1349.680800 42.876904
v 221.817830 -1399.481000 43.925900
v 242.314740 -1349.313000 43.925903
v 243.215160 -1349.680800 42.876904
v 386.200930 -1408.092000 62.299970
v 386.597720 -1407.121000 61.250973
v 243.215130 -1349.680800 62.299970
v 386.597720 -1407.121000 61.250973
v 243.611900 -1348.709700 61.250973
v 243.215130 -1349.680800 62.299970
v 387.101320 -1408.460000 61.250973
v 386.200930 -1408.092000 62.299970
v 366.604400 -1458.627800 61.250970
v 386.200930 -1408.092000 62.299970
v 365.704070 -1458.260100 62.299965
v 366.604400 -1458.627800 61.250970
v 365.307280 -1459.231100 61.250970
v 365.704070 -1458.260100 62.299965
v 222.321490 -1400.820000 61.250973
v 365.704070 -1458.260100 62.299965
v 222.718250 -1399.848900 62.299970
v 222.321490 -1400.820000 61.250973
v 243.215130 -1349.680800 62.299970
v 242.314730 -1349.313000 61.250973
v 222.718250 -1399.848900 62.299970
v 242.314730 -1349.313000 61.250973
v 221.817830 -1399.481000 61.250973
v 222.718250 -1399.848900 62.299970
v 386.597720 -1407.121000 61.250973
v 386.200930 -1408.092000 62.299970
v 387.101320 -1408.460000 61.250973
v 386.597720 -1407.121000 61.250973
v 387.101320 -1408.460000 61.250973
v 386.597720 -1407.121000 43.926020
v 387.101320 -1408.460000 61.250973
v 387.101380 -1408.460000 43.926020
v 386.597720 -1407.121000 43.926020
v 386.597720 -1407.121000 43.926020
v 387.101380 -1408.460000 43.926020
v 386.201000 -1408.092000 42.877020
v 243.611910 -1348.709700 43.925903
v 386.597720 -1407.121000 43.926020
v 386.201000 -1408.092000 42.877020
v 243.215160 -1349.680800 42.876904
v 243.611910 -1348.709700 43.925903
v 386.201000 -1408.092000 42.877020
v 242.314730 -1349.313000 61.250973
v 243.215130 -1349.680800 62.299970
v 243.611900 -1348.709700 61.250973
v 242.314730 -1349.313000 61.250973
v 243.611900 -1348.709700 61.250973
v 242.314740 -1349.313000 43.925903
v 243.611900 -1348.709700 61.250973
v 243.611910 -1348.709700 43.925903
v 242.314740 -1349.313000 43.925903
v 243.215160 -1349.680800 42.876904
v 242.314740 -1349.313000 43.925903
v 243.611910 -1348.709700 43.925903
v 366.604400 -1458.627800 61.250970
v 365.704070 -1458.260100 62.299965
v 365.307280 -1459.231100 61.250970
v 366.604400 -1458.627800 61.250970
v 365.307280 -1459.231100 61.250970
v 366.604460 -1458.627800 43.926018
v 365.307280 -1459.231100 61.250970
v 365.307280 -1459.231100 43.926018
v 366.604460 -1458.627800 43.926018
v 366.604460 -1458.627800 43.926018
v 365.307280 -1459.231100 43.926018
v 365.704040 -1458.260100 42.877018
v 222.321490 -1400.820000 61.250973
v 222.718250 -1399.848900 62.299970
v 221.817830 -1399.481000 61.250973
v 222.321490 -1400.820000 61.250973
v 221.817830 -1399.481000 61.250973
v 222.321490 -1400.820000 43.925900
v 221.817830 -1399.481000 61.250973
v 221.817830 -1399.481000 43.925900
v 222.321490 -1400.820000 43.925900
v 222.718250 -1399.848900 42.876900
v 222.321490 -1400.820000 43.925900
v 221.817830 -1399.481000 43.925900
vn 0.927103 -0.374786 -0.003945
vn 0.927103 -0.374786 -0.003945
vn 0.927103 -0.374786 -0.003945
vn 0.927103 -0.374786 -0.003945
vn 0.927103 -0.374786 -0.003945
vn 0.927103 -0.374786 -0.003945
vn -0.003921 0.003921 -0.999985
vn -0.003921 0.003921 -0.999985
vn -0.003921 0.003921 -0.999985
vn -0.003921 0.003921 -0.999985
vn -0.003921 0.003921 -0.999985
vn -0.003921 0.003921 -0.999985
vn 0.372063 0.928199 -0.003916
vn 0.372063 0.928199 -0.003916
vn 0.372063 0.928199 -0.003916
vn 0.372063 0.928199 -0.003916
vn 0.372063 0.928199 -0.003916
vn 0.372063 0.928199 -0.003916
vn -0.925478 0.378782 -0.003905
vn -0.925478 0.378782 -0.003905
vn -0.925478 0.378782 -0.003905
vn -0.925478 0.378782 -0.003905
vn -0.925478 0.378782 -0.003905
vn -0.925478 0.378782 -0.003905
vn -0.381538 -0.924345 -0.003933
vn -0.381538 -0.924345 -0.003933
vn -0.381538 -0.924345 -0.003933
vn -0.381538 -0.924345 -0.003933
vn -0.381538 -0.924345 -0.003933
vn -0.381538 -0.924345 -0.003933
vn -0.003921 0.003921 0.999985
vn -0.003921 0.003921 0.999985
vn -0.003921 0.003921 0.999985
vn -0.003921 0.003921 0.999985
vn -0.003921 0.003921 0.999985
vn -0.003921 0.003921 0.999985
vn 0.554367 -0.703771 -0.444280
vn 0.278633 -0.600434 -0.749562
vn 0.889417 0.113626 -0.442749
vn 0.278633 -0.600434 -0.749562
vn 0.616512 0.239536 -0.750024
vn 0.889417 0.113626 -0.442749
vn 0.278633 -0.600434 -0.749562
vn 0.168315 -0.872887 -0.457972
vn -0.622487 -0.230986 -0.747767
vn 0.168315 -0.872887 -0.457972
vn -0.735397 -0.501938 -0.455246
vn -0.622487 -0.230986 -0.747767
vn -0.622487 -0.230986 -0.747767
vn -0.891794 -0.105146 -0.440055
vn -0.284508 0.604092 -0.744398
vn -0.891794 -0.105146 -0.440055
vn -0.556715 0.704654 -0.439922
vn -0.284508 0.604092 -0.744398
vn 0.620156 0.240952 0.746558
vn 0.731480 0.512427 0.449840
vn -0.286164 0.607610 0.740892
vn 0.731480 0.512427 0.449840
vn -0.175328 0.876642 0.448061
vn -0.286164 0.607610 0.740892
vn 0.892491 0.114019 0.436416
vn 0.620156 0.240952 0.746558
vn 0.556296 -0.706220 0.437935
vn 0.620156 0.240952 0.746558
vn 0.280278 -0.603979 0.746092
vn 0.556296 -0.706220 0.437935
vn 0.168916 -0.876007 0.451752
vn 0.280278 -0.603979 0.746092
vn -0.737994 -0.503710 0.449044
vn 0.280278 -0.603979 0.746092
vn -0.626144 -0.232343 0.744285
vn -0.737994 -0.503710 0.449044
vn -0.286164 0.607610 0.740892
vn -0.558615 0.707058 0.433610
vn -0.626144 -0.232343 0.744285
vn -0.558615 0.707058 0.433610
vn -0.894838 -0.105505 0.433743
vn -0.626144 -0.232343 0.744285
vn 0.731480 0.512427 0.449840
vn 0.620156 0.240952 0.746558
vn 0.892491 0.114019 0.436416
vn 0.731480 0.512427 0.449840
vn 0.892491 0.114019 0.436416
vn 0.728897 0.510617 -0.456048
vn 0.892491 0.114019 0.436416
vn 0.889417 0.113626 -0.442749
vn 0.728897 0.510617 -0.456048
vn 0.728897 0.510617 -0.456048
vn 0.889417 0.113626 -0.442749
vn 0.616512 0.239536 -0.750024
vn -0.174714 0.873571 -0.454257
vn 0.728897 0.510617 -0.456048
vn 0.616512 0.239536 -0.750024
vn -0.284508 0.604092 -0.744398
vn -0.174714 0.873571 -0.454257
vn 0.616512 0.239536 -0.750024
vn -0.558615 0.707058 0.433610
vn -0.286164 0.607610 0.740892
vn -0.175328 0.876642 0.448061
vn -0.558615 0.707058 0.433610
vn -0.175328 0.876642 0.448061
vn -0.556715 0.704654 -0.439922
vn -0.175328 0.876642 0.448061
vn -0.174714 0.873571 -0.454257
vn -0.556715 0.704654 -0.439922
vn -0.284508 0.604092 -0.744398
vn -0.556715 0.704654 -0.439922
vn -0.174714 0.873571 -0.454257
vn 0.556296 -0.706220 0.437935
vn 0.280278 -0.603979 0.746092
vn 0.168916 -0.876007 0.451752
vn 0.556296 -0.706220 0.437935
vn 0.168916 -0.876007 0.451752
vn 0.554367 -0.703771 -0.444280
vn 0.168916 -0.876007 0.451752
vn 0.168315 -0.872887 -0.457972
vn 0.554367 -0.703771 -0.444280
vn 0.554367 -0.703771 -0.444280
vn 0.168315 -0.872887 -0.457972
vn 0.278633 -0.600434 -0.749562
vn -0.737994 -0.503710 0.449044
vn -0.626144 -0.232343 0.744285
vn -0.894838 -0.105505 0.433743
vn -0.737994 -0.503710 0.449044
vn -0.894838 -0.105505 0.433743
vn -0.735397 -0.501938 -0.455246
vn -0.894838 -0.105505 0.433743
vn -0.891794 -0.105146 -0.440055
vn -0.735397 -0.501938 -0.455246
vn -0.622487 -0.230986 -0.747767
vn -0.735397 -0.501938 -0.455246
vn -0.891794 -0.105146 -0.440055
vt 0.637695 0.550049
vt 0.366943 0.550049
vt 0.637695 0.463379
vt 0.366943 0.550049
vt 0.366943 0.463379
vt 0.637695 0.463379
vt 0.083496 0.362305
vt 0.916016 0.362305
vt 0.083557 0.633301
vt 0.916016 0.362305
vt 0.916016 0.633057
vt 0.083557 0.633301
vt 0.916016 0.463379
vt 0.916016 0.550049
vt 0.083557 0.463379
vt 0.916016 0.550049
vt 0.083557 0.550049
vt 0.083557 0.463379
vt 0.632812 0.463379
vt 0.632812 0.550049
vt 0.362061 0.463379
vt 0.632812 0.550049
vt 0.362061 0.550049
vt 0.362061 0.463379
vt 0.916016 0.550049
vt 0.083557 0.550049
vt 0.916016 0.463379
vt 0.083557 0.550049
vt 0.083557 0.463379
vt 0.916016 0.463379
vt 0.083496 0.633057
vt 0.083557 0.362305
vt 0.916016 0.633301
vt 0.083557 0.362305
vt 0.916016 0.362305
vt 0.916016 0.633301
vt 0.921387 0.633057
vt 0.916016 0.633057
vt 0.921387 0.362305
vt 0.916016 0.633057
vt 0.916016 0.362305
vt 0.921387 0.362305
vt 0.916016 0.458496
vt 0.916016 0.463379
vt 0.083557 0.458496
vt 0.916016 0.463379
vt 0.083557 0.463379
vt 0.083557 0.458496
vt 0.083557 0.633301
vt 0.078308 0.633301
vt 0.083496 0.362305
vt 0.078308 0.633301
vt 0.078247 0.362305
vt 0.083496 0.362305
vt 0.083557 0.362305
vt 0.083557 0.356934
vt 0.916016 0.362305
vt 0.083557 0.356934
vt 0.916016 0.356934
vt 0.916016 0.362305
vt 0.078308 0.362305
vt 0.083557 0.362305
vt 0.078247 0.633057
vt 0.083557 0.362305
vt 0.083496 0.633057
vt 0.078247 0.633057
vt 0.083496 0.638184
vt 0.083496 0.633057
vt 0.916016 0.638428
vt 0.083496 0.633057
vt 0.916016 0.633301
vt 0.916016 0.638428
vt 0.916016 0.362305
vt 0.921387 0.362305
vt 0.916016 0.633301
vt 0.921387 0.362305
vt 0.921387 0.633301
vt 0.916016 0.633301
vt 0.083557 0.550049
vt 0.083557 0.555420
vt 0.078308 0.550049
vt 0.083557 0.550049
vt 0.078308 0.550049
vt 0.083557 0.463379
vt 0.078308 0.550049
vt 0.078308 0.463379
vt 0.083557 0.463379
vt 0.083557 0.463379
vt 0.078308 0.463379
vt 0.083557 0.458496
vt 0.916016 0.463379
vt 0.083557 0.463379
vt 0.083557 0.458496
vt 0.916016 0.458496
vt 0.916016 0.463379
vt 0.083557 0.458496
vt 0.362061 0.550049
vt 0.362061 0.555420
vt 0.356689 0.550049
vt 0.362061 0.550049
vt 0.356689 0.550049
vt 0.362061 0.463379
vt 0.356689 0.550049
vt 0.356689 0.463379
vt 0.362061 0.463379
vt 0.362061 0.458496
vt 0.362061 0.463379
vt 0.356689 0.463379
vt 0.366943 0.550049
vt 0.366943 0.555420
vt 0.361816 0.550049
vt 0.366943 0.550049
vt 0.361816 0.550049
vt 0.366943 0.463379
vt 0.361816 0.550049
vt 0.361816 0.463379
vt 0.366943 0.463379
vt 0.366943 0.463379
vt 0.361816 0.463379
vt 0.366943 0.458496
vt 0.083557 0.550049
vt 0.083557 0.555420
vt 0.078308 0.550049
vt 0.083557 0.550049
vt 0.078308 0.550049
vt 0.083557 0.463379
vt 0.078308 0.550049
vt 0.078308 0.463379
vt 0.083557 0.463379
vt 0.083557 0.458496
vt 0.083557 0.463379
vt 0.078308 0.463379
f 1/1/1 2/2/2 3/3/3
f 4/4/4 5/5/5 6/6/6
f 7/7/7 8/8/8 9/9/9
f 10/10/10 11/11/11 12/12/12
f 13/13/13 14/14/14 15/15/15
f 16/16/16 17/17/17 18/18/18
f 19/19/19 20/20/20 21/21/21
f 22/22/22 23/23/23 24/24/24
f 25/25/25 26/26/26 27/27/27
f 28/28/28 29/29/29 30/30/30
f 31/31/31 32/32/32 33/33/33
f 34/34/34 35/35/35 36/36/36
f 37/37/37 38/38/38 39/39/39
f 40/40/40 41/41/41 42/42/42
f 43/43/43 44/44/44 45/45/45
f 46/46/46 47/47/47 48/48/48
f 49/49/49 50/50/50 51/51/51
f 52/52/52 53/53/53 54/54/54
f 55/55/55 56/56/56 57/57/57
f 58/58/58 59/59/59 60/60/60
f 61/61/61 62/62/62 63/63/63
f 64/64/64 65/65/65 66/66/66
f 67/67/67 68/68/68 69/69/69
f 70/70/70 71/71/71 72/72/72
f 73/73/73 74/74/74 75/75/75
f 76/76/76 77/77/77 78/78/78
f 79/79/79 80/80/80 81/81/81
f 82/82/82 83/83/83 84/84/84
f 85/85/85 86/86/86 87/87/87
f 88/88/88 89/89/89 90/90/90
f 91/91/91 92/92/92 93/93/93
f 94/94/94 95/95/95 96/96/96
f 97/97/97 98/98/98 99/99/99
f 100/100/100 101/101/101 102/102/102
f 103/103/103 104/104/104 105/105/105
f 106/106/106 107/107/107 108/108/108
f 109/109/109 110/110/110 111/111/111
f 112/112/112 113/113/113 114/114/114
f 115/115/115 116/116/116 117/117/117
f 118/118/118 119/119/119 120/120/120
f 121/121/121 122/122/122 123/123/123
f 124/124/124 125/125/125 126/126/126
f 127/127/127 128/128/128 129/129/129
f 130/130/130 131/131/131 132/132/132
