# OBJ file
v -167.762120 -1370.169200 1026.041600
v -175.031800 -1369.535300 1032.956300
v -152.438870 -1332.695600 1026.041400
v -175.031800 -1369.535300 1032.956300
v -158.332870 -1328.697100 1032.956400
v -152.438870 -1332.695600 1026.041400
v -146.092360 -1377.270800 1019.452900
v -160.358350 -1371.436000 1019.454000
v -132.056960 -1342.946500 1019.453400
v -160.358350 -1371.436000 1019.454000
v -146.323350 -1337.114400 1019.454500
v -132.056960 -1342.946500 1019.453400
v -175.910030 -1369.814100 1034.660600
v -178.457550 -1375.452600 1048.960000
v -158.800420 -1327.957200 1034.660600
v -178.457550 -1375.452600 1048.960000
v -156.234390 -1322.255200 1048.960300
v -158.800420 -1327.957200 1034.660600
v -161.986970 -1370.945700 1020.174900
v -167.762120 -1370.169200 1026.041600
v -147.824020 -1336.311200 1020.175500
v -167.762120 -1370.169200 1026.041600
v -152.438870 -1332.695600 1026.041400
v -147.824020 -1336.311200 1020.175500
v -150.290920 -1387.534500 1049.961000
v -128.071150 -1333.195200 1049.960300
v -177.728700 -1376.314600 1049.960000
v -128.071150 -1333.195200 1049.960300
v -155.109900 -1322.144200 1049.960300
v -177.728700 -1376.314600 1049.960000
v -154.887530 -1321.587300 1049.044000
v -155.109900 -1322.144200 1049.960300
v -127.844220 -1332.640100 1049.043800
v -155.109900 -1322.144200 1049.960300
v -128.071150 -1333.195200 1049.960300
v -127.844220 -1332.640100 1049.043800
v -150.519350 -1388.093000 1049.043100
v -150.290920 -1387.534500 1049.961000
v -177.951980 -1376.875000 1049.042000
v -150.290920 -1387.534500 1049.961000
v -177.728700 -1376.314600 1049.960000
v -177.951980 -1376.875000 1049.042000
v -154.887530 -1321.587300 1049.044000
v -127.844220 -1332.640100 1049.043800
v -157.624330 -1327.731000 1033.660800
v -127.844220 -1332.640100 1049.043800
v -130.388090 -1338.860600 1033.660900
v -157.624330 -1327.731000 1033.660800
v -157.624330 -1327.731000 1033.660800
v -130.388090 -1338.860600 1033.660900
v -151.134370 -1332.147300 1026.041400
v -130.388090 -1338.860600 1033.660900
v -130.997970 -1340.355800 1026.041400
v -151.134370 -1332.147300 1026.041400
v -151.134370 -1332.147300 1026.041400
v -130.997970 -1340.355800 1026.041400
v -146.367480 -1335.732700 1020.419600
v -130.997970 -1340.355800 1026.041400
v -131.578810 -1341.777100 1020.418200
v -146.367480 -1335.732700 1020.419600
v -161.351170 -1372.370200 1020.424600
v -146.561970 -1378.419000 1020.423500
v -167.215070 -1371.473400 1026.041600
v -146.561970 -1378.419000 1020.423500
v -147.089320 -1379.707900 1026.041500
v -167.215070 -1371.473400 1026.041600
v -167.215070 -1371.473400 1026.041600
v -147.089320 -1379.707900 1026.041500
v -175.235500 -1370.800000 1033.660600
v -147.089320 -1379.707900 1026.041500
v -148.004780 -1381.942900 1033.660800
v -175.235500 -1370.800000 1033.660600
v -175.235500 -1370.800000 1033.660600
v -148.004780 -1381.942900 1033.660800
v -177.951980 -1376.875000 1049.042000
v -148.004780 -1381.942900 1033.660800
v -150.519350 -1388.093000 1049.043100
v -177.951980 -1376.875000 1049.042000
v -158.332870 -1328.697100 1032.956400
v -157.624330 -1327.731000 1033.660800
v -152.438870 -1332.695600 1026.041400
v -157.624330 -1327.731000 1033.660800
v -151.134370 -1332.147300 1026.041400
v -152.438870 -1332.695600 1026.041400
v -152.438870 -1332.695600 1026.041400
v -151.134370 -1332.147300 1026.041400
v -147.824020 -1336.311200 1020.175500
v -151.134370 -1332.147300 1026.041400
v -146.367480 -1335.732700 1020.419600
v -147.824020 -1336.311200 1020.175500
v -131.578810 -1341.777100 1020.418200
v -132.056960 -1342.946500 1019.453400
v -146.367480 -1335.732700 1020.419600
v -132.056960 -1342.946500 1019.453400
v -146.323350 -1337.114400 1019.454500
v -146.367480 -1335.732700 1020.419600
v -146.367480 -1335.732700 1020.419600
v -146.323350 -1337.114400 1019.454500
v -147.824020 -1336.311200 1020.175500
v -161.986970 -1370.945700 1020.174900
v -147.824020 -1336.311200 1020.175500
v -146.323350 -1337.114400 1019.454500
v -160.358350 -1371.436000 1019.454000
v -161.986970 -1370.945700 1020.174900
v -146.323350 -1337.114400 1019.454500
v -146.092360 -1377.270800 1019.452900
v -146.561970 -1378.419000 1020.423500
v -160.358350 -1371.436000 1019.454000
v -146.561970 -1378.419000 1020.423500
v -161.351170 -1372.370200 1020.424600
v -160.358350 -1371.436000 1019.454000
v -161.986970 -1370.945700 1020.174900
v -160.358350 -1371.436000 1019.454000
v -161.351170 -1372.370200 1020.424600
v -161.986970 -1370.945700 1020.174900
v -161.351170 -1372.370200 1020.424600
v -167.762120 -1370.169200 1026.041600
v -161.351170 -1372.370200 1020.424600
v -167.215070 -1371.473400 1026.041600
v -167.762120 -1370.169200 1026.041600
v -167.762120 -1370.169200 1026.041600
v -167.215070 -1371.473400 1026.041600
v -175.031800 -1369.535300 1032.956300
v -167.215070 -1371.473400 1026.041600
v -175.235500 -1370.800000 1033.660600
v -175.031800 -1369.535300 1032.956300
v -158.800420 -1327.957200 1034.660600
v -157.624330 -1327.731000 1033.660800
v -158.332870 -1328.697100 1032.956400
v -154.887530 -1321.587300 1049.044000
v -157.624330 -1327.731000 1033.660800
v -158.800420 -1327.957200 1034.660600
v -158.800420 -1327.957200 1034.660600
v -158.332870 -1328.697100 1032.956400
v -175.910030 -1369.814100 1034.660600
v -156.234390 -1322.255200 1048.960300
v -154.887530 -1321.587300 1049.044000
v -158.800420 -1327.957200 1034.660600
v -158.332870 -1328.697100 1032.956400
v -175.031800 -1369.535300 1032.956300
v -175.910030 -1369.814100 1034.660600
v -156.234390 -1322.255200 1048.960300
v -155.109900 -1322.144200 1049.960300
v -154.887530 -1321.587300 1049.044000
v -175.235500 -1370.800000 1033.660600
v -175.910030 -1369.814100 1034.660600
v -175.031800 -1369.535300 1032.956300
v -177.728700 -1376.314600 1049.960000
v -155.109900 -1322.144200 1049.960300
v -156.234390 -1322.255200 1048.960300
v -175.910030 -1369.814100 1034.660600
v -175.235500 -1370.800000 1033.660600
v -178.457550 -1375.452600 1048.960000
v -178.457550 -1375.452600 1048.960000
v -177.728700 -1376.314600 1049.960000
v -156.234390 -1322.255200 1048.960300
v -175.235500 -1370.800000 1033.660600
v -177.951980 -1376.875000 1049.042000
v -178.457550 -1375.452600 1048.960000
v -177.951980 -1376.875000 1049.042000
v -177.728700 -1376.314600 1049.960000
v -178.457550 -1375.452600 1048.960000
vn -0.657418 0.268413 -0.704099
vn -0.649363 0.268300 -0.711578
vn -0.657418 0.268413 -0.704099
vn -0.649363 0.268300 -0.711578
vn -0.649363 0.268300 -0.711578
vn -0.657418 0.268413 -0.704099
vn -0.003921 0.003921 -0.999985
vn -0.003921 0.003921 -0.999985
vn -0.003921 0.003921 -0.999985
vn -0.003921 0.003921 -0.999985
vn -0.003921 0.003921 -0.999985
vn -0.003921 0.003921 -0.999985
vn -0.922724 0.385442 -0.003893
vn -0.922724 0.385442 -0.003893
vn -0.922724 0.385442 -0.003893
vn -0.922724 0.385442 -0.003893
vn -0.922724 0.385442 -0.003893
vn -0.922724 0.385442 -0.003893
vn -0.667587 0.277185 -0.691011
vn -0.657418 0.268413 -0.704099
vn -0.667587 0.277185 -0.691011
vn -0.657418 0.268413 -0.704099
vn -0.657418 0.268413 -0.704099
vn -0.667587 0.277185 -0.691011
vn -0.003921 0.003921 0.999985
vn -0.003921 0.003921 0.999985
vn -0.003921 0.003921 0.999985
vn -0.003921 0.003921 0.999985
vn -0.003921 0.003921 0.999985
vn -0.003921 0.003921 0.999985
vn -0.151924 0.946601 0.284370
vn -0.238596 0.739258 0.629738
vn 0.309476 0.779565 0.544521
vn -0.238596 0.739258 0.629738
vn 0.309476 0.779565 0.544521
vn 0.309476 0.779565 0.544521
vn -0.318466 -0.774541 0.546503
vn -0.318466 -0.774541 0.546503
vn -0.773442 -0.569285 0.278753
vn -0.318466 -0.774541 0.546503
vn -0.689238 -0.350527 0.634099
vn -0.773442 -0.569285 0.278753
vn 0.340543 0.849401 -0.403172
vn 0.340543 0.849401 -0.403172
vn 0.348500 0.873208 -0.340669
vn 0.340543 0.849401 -0.403172
vn 0.356528 0.881526 -0.309514
vn 0.348500 0.873208 -0.340669
vn 0.348500 0.873208 -0.340669
vn 0.356528 0.881526 -0.309514
vn 0.364051 0.904257 -0.223128
vn 0.356528 0.881526 -0.309514
vn 0.362742 0.901004 -0.237927
vn 0.364051 0.904257 -0.223128
vn 0.364051 0.904257 -0.223128
vn 0.362742 0.901004 -0.237927
vn 0.356354 0.896758 -0.262370
vn 0.362742 0.901004 -0.237927
vn 0.356354 0.896758 -0.262370
vn 0.356354 0.896758 -0.262370
vn -0.371380 -0.895221 -0.246283
vn -0.371380 -0.895221 -0.246283
vn -0.365060 -0.883209 -0.294403
vn -0.371380 -0.895221 -0.246283
vn -0.364163 -0.888871 -0.278017
vn -0.365060 -0.883209 -0.294403
vn -0.365060 -0.883209 -0.294403
vn -0.364163 -0.888871 -0.278017
vn -0.356200 -0.857230 -0.371858
vn -0.364163 -0.888871 -0.278017
vn -0.355830 -0.864159 -0.355830
vn -0.356200 -0.857230 -0.371858
vn -0.356200 -0.857230 -0.371858
vn -0.355830 -0.864159 -0.355830
vn -0.349746 -0.844893 -0.404763
vn -0.355830 -0.864159 -0.355830
vn -0.349746 -0.844893 -0.404763
vn -0.349746 -0.844893 -0.404763
vn -0.594925 0.594925 -0.540488
vn -0.424865 0.767875 -0.479435
vn -0.277016 0.706197 -0.651574
vn -0.424865 0.767875 -0.479435
vn -0.261060 0.713045 -0.650703
vn -0.277016 0.706197 -0.651574
vn -0.277016 0.706197 -0.651574
vn -0.261060 0.713045 -0.650703
vn -0.262129 0.512521 -0.817686
vn -0.261060 0.713045 -0.650703
vn -0.042981 0.636899 -0.769749
vn -0.262129 0.512521 -0.817686
vn 0.222746 0.566635 -0.793290
vn 0.222746 0.566635 -0.793290
vn -0.042981 0.636899 -0.769749
vn 0.222746 0.566635 -0.793290
vn -0.058231 0.438674 -0.896758
vn -0.042981 0.636899 -0.769749
vn -0.042981 0.636899 -0.769749
vn -0.058231 0.438674 -0.896758
vn -0.262129 0.512521 -0.817686
vn -0.549796 -0.183265 -0.814947
vn -0.262129 0.512521 -0.817686
vn -0.058231 0.438674 -0.896758
vn -0.355613 -0.269640 -0.894893
vn -0.549796 -0.183265 -0.814947
vn -0.058231 0.438674 -0.896758
vn -0.238991 -0.568095 -0.787497
vn -0.238991 -0.568095 -0.787497
vn -0.355613 -0.269640 -0.894893
vn -0.238991 -0.568095 -0.787497
vn -0.482316 -0.427418 -0.764647
vn -0.355613 -0.269640 -0.894893
vn -0.549796 -0.183265 -0.814947
vn -0.355613 -0.269640 -0.894893
vn -0.482316 -0.427418 -0.764647
vn -0.549796 -0.183265 -0.814947
vn -0.482316 -0.427418 -0.764647
vn -0.678046 -0.301789 -0.670207
vn -0.482316 -0.427418 -0.764647
vn -0.682496 -0.315898 -0.659096
vn -0.678046 -0.301789 -0.670207
vn -0.678046 -0.301789 -0.670207
vn -0.682496 -0.315898 -0.659096
vn -0.830241 0.003898 -0.557392
vn -0.682496 -0.315898 -0.659096
vn -0.836411 -0.237307 -0.494066
vn -0.830241 0.003898 -0.557392
vn -0.602593 0.711449 -0.361556
vn -0.424865 0.767875 -0.479435
vn -0.594925 0.594925 -0.540488
vn -0.151924 0.946601 0.284370
vn -0.424865 0.767875 -0.479435
vn -0.602593 0.711449 -0.361556
vn -0.602593 0.711449 -0.361556
vn -0.594925 0.594925 -0.540488
vn -0.922388 -0.081731 -0.377518
vn -0.616056 0.733774 0.286446
vn -0.151924 0.946601 0.284370
vn -0.602593 0.711449 -0.361556
vn -0.594925 0.594925 -0.540488
vn -0.830241 0.003898 -0.557392
vn -0.922388 -0.081731 -0.377518
vn -0.616056 0.733774 0.286446
vn -0.238596 0.739258 0.629738
vn -0.151924 0.946601 0.284370
vn -0.836411 -0.237307 -0.494066
vn -0.922388 -0.081731 -0.377518
vn -0.830241 0.003898 -0.557392
vn -0.689238 -0.350527 0.634099
vn -0.238596 0.739258 0.629738
vn -0.616056 0.733774 0.286446
vn -0.922388 -0.081731 -0.377518
vn -0.836411 -0.237307 -0.494066
vn -0.955146 -0.081870 0.284594
vn -0.955146 -0.081870 0.284594
vn -0.689238 -0.350527 0.634099
vn -0.616056 0.733774 0.286446
vn -0.836411 -0.237307 -0.494066
vn -0.773442 -0.569285 0.278753
vn -0.955146 -0.081870 0.284594
vn -0.773442 -0.569285 0.278753
vn -0.689238 -0.350527 0.634099
vn -0.955146 -0.081870 0.284594
vt -0.838379 0.462402
vt -0.849121 0.427734
vt -0.635742 0.462402
vt -0.849121 0.427734
vt -0.628418 0.427734
vt -0.635742 0.462402
vt -0.830078 0.576172
vt -0.830078 0.499512
vt -0.644531 0.576172
vt -0.830078 0.499512
vt -0.644531 0.499512
vt -0.644531 0.576172
vt 1.851562 0.481445
vt 1.882812 0.552734
vt 1.625977 0.481445
vt 1.882812 0.552734
vt 1.594727 0.552734
vt 1.625977 0.481445
vt 1.831055 0.409180
vt 1.837891 0.438477
vt 1.643555 0.409180
vt 1.837891 0.438477
vt 1.635742 0.438477
vt 1.643555 0.409180
vt 1.885742 0.576172
vt 1.591797 0.576172
vt 1.885742 0.428223
vt 1.591797 0.576172
vt 1.591797 0.430176
vt 1.885742 0.428223
vt 0.569824 0.553223
vt 0.569824 0.557861
vt 0.423828 0.553223
vt 0.569824 0.557861
vt 0.423828 0.557861
vt 0.423828 0.553223
vt 0.575684 0.553223
vt 0.575684 0.557861
vt 0.427734 0.553223
vt 0.575684 0.557861
vt 0.427734 0.557861
vt 0.427734 0.553223
vt 0.569824 0.553223
vt 0.423828 0.553223
vt 0.570801 0.476562
vt 0.423828 0.553223
vt 0.423828 0.476562
vt 0.570801 0.476562
vt 0.570801 0.476562
vt 0.423828 0.476562
vt 0.532227 0.438477
vt 0.423828 0.476562
vt 0.423828 0.438477
vt 0.532227 0.438477
vt 0.532227 0.438477
vt 0.423828 0.438477
vt 0.503418 0.410156
vt 0.423828 0.438477
vt 0.423828 0.410156
vt 0.503418 0.410156
vt 0.496094 0.410156
vt 0.575684 0.410156
vt 0.467285 0.438477
vt 0.575684 0.410156
vt 0.575684 0.438477
vt 0.467285 0.438477
vt 0.467285 0.438477
vt 0.575684 0.438477
vt 0.428955 0.476562
vt 0.575684 0.438477
vt 0.575684 0.476562
vt 0.428955 0.476562
vt 0.428955 0.476562
vt 0.575684 0.476562
vt 0.427734 0.553223
vt 0.575684 0.476562
vt 0.575684 0.553223
vt 0.427734 0.553223
vt -0.628418 0.427734
vt -0.622559 0.429199
vt -0.635742 0.462402
vt -0.622559 0.429199
vt -0.630859 0.467773
vt -0.635742 0.462402
vt -0.635742 0.462402
vt -0.630859 0.467773
vt -0.644043 0.490723
vt -0.630859 0.467773
vt -0.638184 0.496582
vt -0.644043 0.490723
vt -0.638184 0.576172
vt -0.644531 0.576172
vt -0.638184 0.496582
vt -0.644531 0.576172
vt -0.644531 0.499512
vt -0.638184 0.496582
vt -0.638184 0.496582
vt -0.644531 0.499512
vt -0.644043 0.490723
vt -0.831055 0.490723
vt -0.644043 0.490723
vt -0.644531 0.499512
vt -0.830078 0.499512
vt -0.831055 0.490723
vt -0.644531 0.499512
vt -0.830078 0.576172
vt -0.836426 0.576172
vt -0.830078 0.499512
vt -0.836426 0.576172
vt -0.836426 0.496582
vt -0.830078 0.499512
vt -0.831055 0.490723
vt -0.830078 0.499512
vt -0.836426 0.496582
vt -0.831055 0.490723
vt -0.836426 0.496582
vt -0.838379 0.462402
vt -0.836426 0.496582
vt -0.843262 0.467773
vt -0.838379 0.462402
vt -0.838379 0.462402
vt -0.843262 0.467773
vt -0.849121 0.427734
vt -0.843262 0.467773
vt -0.855469 0.429199
vt -0.849121 0.427734
vt 1.625977 0.481445
vt 1.622070 0.476562
vt 1.627930 0.472656
vt 1.588867 0.553223
vt 1.622070 0.476562
vt 1.625977 0.481445
vt 1.625977 0.481445
vt 1.627930 0.472656
vt 1.851562 0.481445
vt 1.594727 0.552734
vt 1.588867 0.553223
vt 1.625977 0.481445
vt 1.627930 0.472656
vt 1.848633 0.472656
vt 1.851562 0.481445
vt 1.594727 0.552734
vt 1.591797 0.557861
vt 1.588867 0.553223
vt 1.855469 0.476562
vt 1.851562 0.481445
vt 1.848633 0.472656
vt 1.885742 0.557861
vt 1.591797 0.557861
vt 1.594727 0.552734
vt 1.851562 0.481445
vt 1.855469 0.476562
vt 1.882812 0.552734
vt 1.882812 0.552734
vt 1.885742 0.557861
vt 1.594727 0.552734
vt 1.855469 0.476562
vt 1.888672 0.553223
vt 1.882812 0.552734
vt 1.888672 0.553223
vt 1.885742 0.557861
vt 1.882812 0.552734
f 1/1/1 2/2/2 3/3/3
f 4/4/4 5/5/5 6/6/6
f 7/7/7 8/8/8 9/9/9
f 10/10/10 11/11/11 12/12/12
f 13/13/13 14/14/14 15/15/15
f 16/16/16 17/17/17 18/18/18
f 19/19/19 20/20/20 21/21/21
f 22/22/22 23/23/23 24/24/24
f 25/25/25 26/26/26 27/27/27
f 28/28/28 29/29/29 30/30/30
f 31/31/31 32/32/32 33/33/33
f 34/34/34 35/35/35 36/36/36
f 37/37/37 38/38/38 39/39/39
f 40/40/40 41/41/41 42/42/42
f 43/43/43 44/44/44 45/45/45
f 46/46/46 47/47/47 48/48/48
f 49/49/49 50/50/50 51/51/51
f 52/52/52 53/53/53 54/54/54
f 55/55/55 56/56/56 57/57/57
f 58/58/58 59/59/59 60/60/60
f 61/61/61 62/62/62 63/63/63
f 64/64/64 65/65/65 66/66/66
f 67/67/67 68/68/68 69/69/69
f 70/70/70 71/71/71 72/72/72
f 73/73/73 74/74/74 75/75/75
f 76/76/76 77/77/77 78/78/78
f 79/79/79 80/80/80 81/81/81
f 82/82/82 83/83/83 84/84/84
f 85/85/85 86/86/86 87/87/87
f 88/88/88 89/89/89 90/90/90
f 91/91/91 92/92/92 93/93/93
f 94/94/94 95/95/95 96/96/96
f 97/97/97 98/98/98 99/99/99
f 100/100/100 101/101/101 102/102/102
f 103/103/103 104/104/104 105/105/105
f 106/106/106 107/107/107 108/108/108
f 109/109/109 110/110/110 111/111/111
f 112/112/112 113/113/113 114/114/114
f 115/115/115 116/116/116 117/117/117
f 118/118/118 119/119/119 120/120/120
f 121/121/121 122/122/122 123/123/123
f 124/124/124 125/125/125 126/126/126
f 127/127/127 128/128/128 129/129/129
f 130/130/130 131/131/131 132/132/132
f 133/133/133 134/134/134 135/135/135
f 136/136/136 137/137/137 138/138/138
f 139/139/139 140/140/140 141/141/141
f 142/142/142 143/143/143 144/144/144
f 145/145/145 146/146/146 147/147/147
f 148/148/148 149/149/149 150/150/150
f 151/151/151 152/152/152 153/153/153
f 154/154/154 155/155/155 156/156/156
f 157/157/157 158/158/158 159/159/159
f 160/160/160 161/161/161 162/162/162
