# OBJ file
v 253.170120 -1374.312622 1007.110229
v 250.159409 -1365.588745 1007.115479
v 253.654510 -1374.512573 1010.582520
v 250.159409 -1365.588745 1007.115479
v 250.891373 -1365.874390 1013.213318
v 253.654510 -1374.512573 1010.582520
v 360.261169 -1418.102783 1007.110229
v 359.775330 -1417.906250 1010.582520
v 368.521729 -1413.987915 1007.115479
v 359.775330 -1417.906250 1010.582520
v 367.799255 -1413.678833 1013.213318
v 368.521729 -1413.987915 1007.115479
v 234.557587 -1358.400269 1007.121399
v 233.253494 -1358.947388 1007.121277
v 233.798157 -1358.087769 1052.005127
v 233.253494 -1358.947388 1007.121277
v 233.030060 -1358.854004 1051.909790
v 233.798157 -1358.087769 1052.005127
v 278.099091 -1384.500610 1018.101074
v 277.397522 -1384.213623 1017.130920
v 278.999542 -1377.653320 1025.145630
v 277.397522 -1384.213623 1017.130920
v 278.423523 -1377.104248 1024.045776
v 278.999542 -1377.653320 1025.145630
v 277.128723 -1391.239868 1011.481812
v 276.516541 -1390.226562 1011.219299
v 278.099091 -1384.500610 1018.101074
v 276.516541 -1390.226562 1011.219299
v 277.397522 -1384.213623 1017.130920
v 278.099091 -1384.500610 1018.101074
v 256.542145 -1383.299438 1006.121399
v 257.267853 -1384.180054 1007.121399
v 250.613464 -1397.798340 1006.121399
v 257.267853 -1384.180054 1007.121399
v 251.543747 -1398.178711 1007.121399
v 250.613464 -1397.798340 1006.121399
v 276.048645 -1391.878784 1010.511475
v 277.128723 -1391.239868 1011.481812
v 270.324493 -1405.877441 1010.511475
v 277.128723 -1391.239868 1011.481812
v 271.026093 -1406.164185 1011.481812
v 270.324493 -1405.877441 1010.511475
v 385.450958 -1420.099609 1052.005127
v 385.462097 -1421.184692 1051.909790
v 384.690125 -1419.790527 1007.121399
v 385.462097 -1421.184692 1051.909790
v 385.237305 -1421.094604 1007.121277
v 384.690125 -1419.790527 1007.121399
v 339.491272 -1402.388794 1025.145630
v 340.286835 -1402.400635 1024.045776
v 335.336060 -1407.905151 1018.101074
v 340.286835 -1402.400635 1024.045776
v 336.037598 -1408.192017 1017.130920
v 335.336060 -1407.905151 1018.101074
v 335.336060 -1407.905151 1018.101074
v 336.037598 -1408.192017 1017.130920
v 331.306427 -1413.393555 1011.481812
v 336.037598 -1408.192017 1017.130920
v 332.453186 -1413.099365 1011.219299
v 331.306427 -1413.393555 1011.481812
v 345.629700 -1436.651123 1006.121399
v 344.699432 -1436.270752 1007.121399
v 351.558380 -1422.152222 1006.121399
v 344.699432 -1436.270752 1007.121399
v 350.423553 -1422.271973 1007.121399
v 351.558380 -1422.152222 1006.121399
v 325.905304 -1428.604736 1010.511475
v 325.203766 -1428.317749 1011.481812
v 331.629456 -1414.606079 1010.511475
v 325.203766 -1428.317749 1011.481812
v 331.306427 -1413.393555 1011.481812
v 331.629456 -1414.606079 1010.511475
v 278.999542 -1377.653320 1025.145630
v 272.816864 -1375.121338 1051.931641
v 278.099091 -1384.500610 1018.101074
v 272.816864 -1375.121338 1051.931641
v 270.288422 -1381.304565 1051.931641
v 278.099091 -1384.500610 1018.101074
v 278.099091 -1384.500610 1018.101074
v 270.288422 -1381.304565 1051.931641
v 277.128723 -1391.239868 1011.481812
v 270.288422 -1381.304565 1051.931641
v 267.788452 -1387.418335 1051.931641
v 277.128723 -1391.239868 1011.481812
v 277.128723 -1391.239868 1011.481812
v 267.788452 -1387.418335 1051.931641
v 271.026093 -1406.164185 1011.481812
v 267.788452 -1387.418335 1051.931641
v 261.685852 -1402.342529 1051.931641
v 271.026093 -1406.164185 1011.481812
v 233.030060 -1358.854004 1051.909790
v 233.253494 -1358.947388 1007.121277
v 230.500961 -1365.039062 1051.909790
v 233.253494 -1358.947388 1007.121277
v 230.723816 -1365.133911 1007.121277
v 230.500961 -1365.039062 1051.909790
v 230.500961 -1365.039062 1051.909790
v 230.723816 -1365.133911 1007.121277
v 228.005234 -1371.142456 1051.909790
v 230.723816 -1365.133911 1007.121277
v 228.232117 -1371.227417 1007.121399
v 228.005234 -1371.142456 1051.909790
v 228.005234 -1371.142456 1051.909790
v 228.232117 -1371.227417 1007.121399
v 221.902603 -1386.066772 1051.909790
v 228.232117 -1371.227417 1007.121399
v 222.129471 -1386.151733 1007.121399
v 221.902603 -1386.066772 1051.909790
v 271.667206 -1374.651123 1052.902100
v 233.950684 -1359.230469 1052.909546
v 269.138794 -1380.834473 1052.902100
v 233.950684 -1359.230469 1052.909546
v 231.421631 -1365.415405 1052.909546
v 269.138794 -1380.834473 1052.902100
v 269.138794 -1380.834473 1052.902100
v 231.421631 -1365.415405 1052.909546
v 266.638885 -1386.947998 1052.902100
v 231.421631 -1365.415405 1052.909546
v 228.925720 -1371.519165 1052.909546
v 266.638885 -1386.947998 1052.902100
v 266.638885 -1386.947998 1052.902100
v 228.925720 -1371.519165 1052.909546
v 260.536255 -1401.872314 1052.902100
v 228.925720 -1371.519165 1052.909546
v 222.823074 -1386.443481 1052.909546
v 260.536255 -1401.872314 1052.902100
v 276.048645 -1391.878784 1010.511475
v 270.324493 -1405.877441 1010.511475
v 255.568970 -1399.843994 1010.511475
v 261.293121 -1385.845215 1010.511475
v 276.048645 -1391.878784 1010.511475
v 255.568970 -1399.843994 1010.511475
v 261.293121 -1385.845215 1010.511475
v 255.568970 -1399.843994 1010.511475
v 254.054459 -1399.218262 1010.184570
v 259.778595 -1385.219604 1010.184570
v 261.293121 -1385.845215 1010.511475
v 254.054459 -1399.218262 1010.184570
v 259.778595 -1385.219604 1010.184570
v 254.054459 -1399.218262 1010.184570
v 252.389755 -1398.527588 1009.160400
v 258.113892 -1384.528931 1009.160400
v 259.778595 -1385.219604 1010.184570
v 252.389755 -1398.527588 1009.160400
v 258.113892 -1384.528931 1009.160400
v 252.389755 -1398.527588 1009.160400
v 251.546982 -1398.180054 1007.820312
v 257.271118 -1384.181274 1007.820312
v 258.113892 -1384.528931 1009.160400
v 251.546982 -1398.180054 1007.820312
v 257.271118 -1384.181274 1007.820312
v 251.546982 -1398.180054 1007.820312
v 251.543747 -1398.178711 1007.121399
v 257.267853 -1384.180054 1007.121399
v 257.271118 -1384.181274 1007.820312
v 251.543747 -1398.178711 1007.121399
v 384.690125 -1419.790527 1007.121399
v 370.356964 -1413.929565 1007.121399
v 385.450958 -1420.099609 1052.005127
v 370.356964 -1413.929565 1007.121399
v 369.043579 -1413.392456 1014.396484
v 385.450958 -1420.099609 1052.005127
v 385.388733 -1420.074219 1052.040039
v 385.450958 -1420.099609 1052.005127
v 369.043579 -1413.392456 1014.396484
v 367.493683 -1412.758789 1017.973389
v 385.388733 -1420.074219 1052.040039
v 369.043579 -1413.392456 1014.396484
v 385.313629 -1420.043457 1052.091309
v 385.388733 -1420.074219 1052.040039
v 367.493683 -1412.758789 1017.973389
v 365.019043 -1411.746948 1020.868713
v 385.313629 -1420.043457 1052.091309
v 367.493683 -1412.758789 1017.973389
v 385.244995 -1420.015381 1052.148804
v 385.313629 -1420.043457 1052.091309
v 365.019043 -1411.746948 1020.868713
v 362.323975 -1410.644897 1023.109314
v 385.244995 -1420.015381 1052.148804
v 365.019043 -1411.746948 1020.868713
v 385.186584 -1419.991577 1052.207520
v 385.244995 -1420.015381 1052.148804
v 362.323975 -1410.644897 1023.109314
v 359.246704 -1409.386597 1024.564331
v 385.186584 -1419.991577 1052.207520
v 362.323975 -1410.644897 1023.109314
v 385.144775 -1419.974487 1052.256470
v 385.186584 -1419.991577 1052.207520
v 359.246704 -1409.386597 1024.564331
v 356.128723 -1408.111572 1025.208984
v 385.144775 -1419.974487 1052.256470
v 359.246704 -1409.386597 1024.564331
v 385.113586 -1419.961670 1052.297607
v 385.144775 -1419.974487 1052.256470
v 356.128723 -1408.111572 1025.208984
v 352.901489 -1406.791992 1025.362183
v 385.113586 -1419.961670 1052.297607
v 356.128723 -1408.111572 1025.208984
v 352.901489 -1406.791992 1025.362183
v 340.963287 -1401.910278 1025.750122
v 385.113586 -1419.961670 1052.297607
v 340.963287 -1401.910278 1025.750122
v 347.002289 -1404.375854 1051.902100
v 385.113586 -1419.961670 1052.297607
v 358.117432 -1409.698242 1023.197876
v 353.536682 -1415.358521 1016.728516
v 351.539001 -1414.530884 1017.135986
v 355.065491 -1408.449951 1023.864197
v 358.117432 -1409.698242 1023.197876
v 351.539001 -1414.530884 1017.135986
v 355.065491 -1408.449951 1023.864197
v 351.539001 -1414.530884 1017.135986
v 349.263428 -1413.600098 1017.130920
v 351.900818 -1407.149658 1024.045776
v 355.065491 -1408.449951 1023.864197
v 349.263428 -1413.600098 1017.130920
v 351.900818 -1407.149658 1024.045776
v 349.263428 -1413.600098 1017.130920
v 340.286835 -1402.400635 1024.045776
v 349.263428 -1413.600098 1017.130920
v 336.037598 -1408.192017 1017.130920
v 340.286835 -1402.400635 1024.045776
v 369.585815 -1414.694580 1006.121399
v 384.306641 -1420.714111 1006.121399
v 361.325104 -1418.537231 1006.121399
v 384.306641 -1420.714111 1006.121399
v 381.776978 -1426.900513 1006.121399
v 361.325104 -1418.537231 1006.121399
v 351.558380 -1422.152222 1006.121399
v 361.325104 -1418.537231 1006.121399
v 381.776978 -1426.900513 1006.121399
v 345.629700 -1436.651123 1006.121399
v 351.558380 -1422.152222 1006.121399
v 381.776978 -1426.900513 1006.121399
v 379.285309 -1432.993896 1006.121399
v 345.629700 -1436.651123 1006.121399
v 381.776978 -1426.900513 1006.121399
v 373.182709 -1447.918213 1006.121399
v 345.629700 -1436.651123 1006.121399
v 379.285309 -1432.993896 1006.121399
v 350.423553 -1422.271973 1007.121399
v 344.699432 -1436.270752 1007.121399
v 350.420349 -1422.270752 1007.820312
v 344.699432 -1436.270752 1007.121399
v 344.696198 -1436.269409 1007.820312
v 350.420349 -1422.270752 1007.820312
v 350.420349 -1422.270752 1007.820312
v 344.696198 -1436.269409 1007.820312
v 349.575500 -1421.928223 1009.160400
v 344.696198 -1436.269409 1007.820312
v 343.851349 -1435.927002 1009.160400
v 349.575500 -1421.928223 1009.160400
v 349.575500 -1421.928223 1009.160400
v 343.851349 -1435.927002 1009.160400
v 347.903870 -1421.254639 1010.184570
v 343.851349 -1435.927002 1009.160400
v 342.179718 -1435.253296 1010.184570
v 347.903870 -1421.254639 1010.184570
v 347.903870 -1421.254639 1010.184570
v 342.179718 -1435.253296 1010.184570
v 346.384857 -1420.639893 1010.511475
v 342.179718 -1435.253296 1010.184570
v 340.660706 -1434.638550 1010.511475
v 346.384857 -1420.639893 1010.511475
v 346.384857 -1420.639893 1010.511475
v 340.660706 -1434.638550 1010.511475
v 331.629456 -1414.606079 1010.511475
v 340.660706 -1434.638550 1010.511475
v 325.905304 -1428.604736 1010.511475
v 331.629456 -1414.606079 1010.511475
v 325.203766 -1428.317749 1011.481812
v 334.545593 -1432.135498 1051.931641
v 340.648254 -1417.211182 1051.931641
v 331.306427 -1413.393555 1011.481812
v 325.203766 -1428.317749 1011.481812
v 340.648254 -1417.211182 1051.931641
v 331.306427 -1413.393555 1011.481812
v 340.648254 -1417.211182 1051.931641
v 343.148254 -1411.097412 1051.931641
v 335.336060 -1407.905151 1018.101074
v 331.306427 -1413.393555 1011.481812
v 343.148254 -1411.097412 1051.931641
v 335.336060 -1407.905151 1018.101074
v 343.148254 -1411.097412 1051.931641
v 345.676575 -1404.914185 1051.931641
v 339.491272 -1402.388794 1025.145630
v 335.336060 -1407.905151 1018.101074
v 345.676575 -1404.914185 1051.931641
v 374.334625 -1448.397217 1051.909790
v 374.113220 -1448.298950 1007.121399
v 380.215851 -1433.374634 1007.121399
v 380.437225 -1433.473022 1051.909790
v 374.334625 -1448.397217 1051.909790
v 380.215851 -1433.374634 1007.121399
v 380.437225 -1433.473022 1051.909790
v 380.215851 -1433.374634 1007.121399
v 382.707581 -1427.281128 1007.121277
v 382.933014 -1427.369629 1051.909790
v 380.437225 -1433.473022 1051.909790
v 382.707581 -1427.281128 1007.121277
v 382.933014 -1427.369629 1051.909790
v 382.707581 -1427.281128 1007.121277
v 385.237305 -1421.094604 1007.121277
v 385.462097 -1421.184692 1051.909790
v 382.933014 -1427.369629 1051.909790
v 385.237305 -1421.094604 1007.121277
v 335.695343 -1432.605347 1052.902100
v 373.413910 -1448.021118 1052.909546
v 379.516541 -1433.096802 1052.909546
v 341.798004 -1417.681152 1052.902100
v 335.695343 -1432.605347 1052.902100
v 379.516541 -1433.096802 1052.909546
v 341.798004 -1417.681152 1052.902100
v 379.516541 -1433.096802 1052.909546
v 382.012421 -1426.993042 1052.909546
v 344.297882 -1411.567505 1052.902100
v 341.798004 -1417.681152 1052.902100
v 382.012421 -1426.993042 1052.909546
v 344.297882 -1411.567505 1052.902100
v 382.012421 -1426.993042 1052.909546
v 384.541473 -1420.808105 1052.909546
v 346.826294 -1405.384277 1052.902100
v 344.297882 -1411.567505 1052.902100
v 384.541473 -1420.808105 1052.909546
v 250.159409 -1365.588745 1007.115479
v 248.904922 -1365.347290 1006.121399
v 248.890793 -1364.261353 1007.121399
v 250.891373 -1365.874390 1013.213318
v 250.159409 -1365.588745 1007.115479
v 248.890793 -1364.261353 1007.121399
v 250.204163 -1364.798218 1014.396484
v 250.891373 -1365.874390 1013.213318
v 248.890793 -1364.261353 1007.121399
v 252.441879 -1366.495850 1016.682617
v 250.891373 -1365.874390 1013.213318
v 250.204163 -1364.798218 1014.396484
v 251.754074 -1365.432007 1017.973389
v 252.441879 -1366.495850 1016.682617
v 250.204163 -1364.798218 1014.396484
v 254.888443 -1367.495728 1019.513977
v 252.441879 -1366.495850 1016.682617
v 251.754074 -1365.432007 1017.973389
v 254.228714 -1366.443970 1020.868713
v 254.888443 -1367.495728 1019.513977
v 251.754074 -1365.432007 1017.973389
v 257.529510 -1368.571289 1021.722412
v 254.888443 -1367.495728 1019.513977
v 254.228714 -1366.443970 1020.868713
v 256.923737 -1367.545898 1023.109314
v 257.529510 -1368.571289 1021.722412
v 254.228714 -1366.443970 1020.868713
v 260.588348 -1369.817871 1023.197876
v 257.529510 -1368.571289 1021.722412
v 256.923737 -1367.545898 1023.109314
v 260.001007 -1368.804321 1024.564331
v 260.588348 -1369.817871 1023.197876
v 256.923737 -1367.545898 1023.109314
v 263.640564 -1371.065674 1023.864197
v 260.588348 -1369.817871 1023.197876
v 260.001007 -1368.804321 1024.564331
v 263.119049 -1370.079224 1025.208984
v 263.640564 -1371.065674 1023.864197
v 260.001007 -1368.804321 1024.564331
v 266.809509 -1372.355225 1024.045776
v 263.640564 -1371.065674 1023.864197
v 263.119049 -1370.079224 1025.208984
v 266.346283 -1371.398926 1025.362183
v 266.809509 -1372.355225 1024.045776
v 263.119049 -1370.079224 1025.208984
v 278.423523 -1377.104248 1024.045776
v 266.809509 -1372.355225 1024.045776
v 266.346283 -1371.398926 1025.362183
v 278.284485 -1376.280396 1025.750122
v 278.423523 -1377.104248 1024.045776
v 266.346283 -1371.398926 1025.362183
v 278.284485 -1376.280396 1025.750122
v 278.999542 -1377.653320 1025.145630
v 278.423523 -1377.104248 1024.045776
v 272.816864 -1375.121338 1051.931641
v 278.999542 -1377.653320 1025.145630
v 278.284485 -1376.280396 1025.750122
v 272.248138 -1373.808350 1051.902100
v 272.816864 -1375.121338 1051.931641
v 278.284485 -1376.280396 1025.750122
v 257.267853 -1384.180054 1007.121399
v 256.542145 -1383.299438 1006.121399
v 257.263214 -1382.329468 1007.116699
v 257.271118 -1384.181274 1007.820312
v 257.267853 -1384.180054 1007.121399
v 257.263214 -1382.329468 1007.116699
v 257.250153 -1382.381592 1008.096497
v 257.271118 -1384.181274 1007.820312
v 257.263214 -1382.329468 1007.116699
v 258.113892 -1384.528931 1009.160400
v 257.271118 -1384.181274 1007.820312
v 257.250153 -1382.381592 1008.096497
v 258.252441 -1382.786743 1009.685181
v 258.113892 -1384.528931 1009.160400
v 257.250153 -1382.381592 1008.096497
v 276.516541 -1390.226562 1011.219299
v 277.128723 -1391.239868 1011.481812
v 276.048645 -1391.878784 1010.511475
v 276.516541 -1390.226562 1011.219299
v 276.048645 -1391.878784 1010.511475
v 261.938965 -1384.265869 1011.219299
v 276.048645 -1391.878784 1010.511475
v 261.293121 -1385.845215 1010.511475
v 261.938965 -1384.265869 1011.219299
v 261.938965 -1384.265869 1011.219299
v 261.293121 -1385.845215 1010.511475
v 260.129761 -1383.552856 1010.855530
v 261.293121 -1385.845215 1010.511475
v 259.778595 -1385.219604 1010.184570
v 260.129761 -1383.552856 1010.855530
v 260.129761 -1383.552856 1010.855530
v 259.778595 -1385.219604 1010.184570
v 258.252441 -1382.786743 1009.685181
v 259.778595 -1385.219604 1010.184570
v 258.113892 -1384.528931 1009.160400
v 258.252441 -1382.786743 1009.685181
v 385.313629 -1420.043457 1052.091309
v 385.244995 -1420.015381 1052.148804
v 385.388733 -1420.074219 1052.040039
v 385.244995 -1420.015381 1052.148804
v 385.186584 -1419.991577 1052.207520
v 385.388733 -1420.074219 1052.040039
v 385.186584 -1419.991577 1052.207520
v 385.144775 -1419.974487 1052.256470
v 385.388733 -1420.074219 1052.040039
v 351.723541 -1420.954956 1007.116699
v 351.558380 -1422.152222 1006.121399
v 350.423553 -1422.271973 1007.121399
v 351.723541 -1420.954956 1007.116699
v 350.423553 -1422.271973 1007.121399
v 351.696350 -1421.001221 1008.096497
v 350.423553 -1422.271973 1007.121399
v 350.420349 -1422.270752 1007.820312
v 351.696350 -1421.001221 1008.096497
v 351.696350 -1421.001221 1008.096497
v 350.420349 -1422.270752 1007.820312
v 350.697388 -1420.588135 1009.685181
v 350.420349 -1422.270752 1007.820312
v 349.575500 -1421.928223 1009.160400
v 350.697388 -1420.588135 1009.685181
v 257.263214 -1382.329468 1007.116699
v 256.542145 -1383.299438 1006.121399
v 253.170120 -1374.312622 1007.110229
v 256.542145 -1383.299438 1006.121399
v 252.106583 -1373.876953 1006.121399
v 253.170120 -1374.312622 1007.110229
v 253.170120 -1374.312622 1007.110229
v 252.106583 -1373.876953 1006.121399
v 250.159409 -1365.588745 1007.115479
v 252.106583 -1373.876953 1006.121399
v 248.904922 -1365.347290 1006.121399
v 250.159409 -1365.588745 1007.115479
v 233.950684 -1359.230469 1052.909546
v 233.030060 -1358.854004 1051.909790
v 231.421631 -1365.415405 1052.909546
v 233.030060 -1358.854004 1051.909790
v 230.500961 -1365.039062 1051.909790
v 231.421631 -1365.415405 1052.909546
v 228.925720 -1371.519165 1052.909546
v 231.421631 -1365.415405 1052.909546
v 230.500961 -1365.039062 1051.909790
v 228.005234 -1371.142456 1051.909790
v 228.925720 -1371.519165 1052.909546
v 230.500961 -1365.039062 1051.909790
v 228.925720 -1371.519165 1052.909546
v 228.005234 -1371.142456 1051.909790
v 222.823074 -1386.443481 1052.909546
v 228.005234 -1371.142456 1051.909790
v 221.902603 -1386.066772 1051.909790
v 222.823074 -1386.443481 1052.909546
v 368.521729 -1413.987915 1007.115479
v 369.585815 -1414.694580 1006.121399
v 360.261169 -1418.102783 1007.110229
v 369.585815 -1414.694580 1006.121399
v 361.325104 -1418.537231 1006.121399
v 360.261169 -1418.102783 1007.110229
v 360.261169 -1418.102783 1007.110229
v 361.325104 -1418.537231 1006.121399
v 351.723541 -1420.954956 1007.116699
v 361.325104 -1418.537231 1006.121399
v 351.558380 -1422.152222 1006.121399
v 351.723541 -1420.954956 1007.116699
v 350.697388 -1420.588135 1009.685181
v 349.575500 -1421.928223 1009.160400
v 348.821045 -1419.819336 1010.855530
v 349.575500 -1421.928223 1009.160400
v 347.903870 -1421.254639 1010.184570
v 348.821045 -1419.819336 1010.855530
v 348.821045 -1419.819336 1010.855530
v 347.903870 -1421.254639 1010.184570
v 347.030701 -1419.060425 1011.219299
v 347.903870 -1421.254639 1010.184570
v 346.384857 -1420.639893 1010.511475
v 347.030701 -1419.060425 1011.219299
v 347.030701 -1419.060425 1011.219299
v 346.384857 -1420.639893 1010.511475
v 332.453186 -1413.099365 1011.219299
v 346.384857 -1420.639893 1010.511475
v 331.629456 -1414.606079 1010.511475
v 332.453186 -1413.099365 1011.219299
v 332.453186 -1413.099365 1011.219299
v 331.629456 -1414.606079 1010.511475
v 331.306427 -1413.393555 1011.481812
v 374.113220 -1448.298950 1007.121399
v 373.182709 -1447.918213 1006.121399
v 380.215851 -1433.374634 1007.121399
v 373.182709 -1447.918213 1006.121399
v 379.285309 -1432.993896 1006.121399
v 380.215851 -1433.374634 1007.121399
v 382.707581 -1427.281128 1007.121277
v 380.215851 -1433.374634 1007.121399
v 379.285309 -1432.993896 1006.121399
v 381.776978 -1426.900513 1006.121399
v 382.707581 -1427.281128 1007.121277
v 379.285309 -1432.993896 1006.121399
v 385.237305 -1421.094604 1007.121277
v 382.707581 -1427.281128 1007.121277
v 381.776978 -1426.900513 1006.121399
v 384.306641 -1420.714111 1006.121399
v 385.237305 -1421.094604 1007.121277
v 381.776978 -1426.900513 1006.121399
v 385.237305 -1421.094604 1007.121277
v 384.306641 -1420.714111 1006.121399
v 384.690125 -1419.790527 1007.121399
v 370.356964 -1413.929565 1007.121399
v 384.690125 -1419.790527 1007.121399
v 384.306641 -1420.714111 1006.121399
v 369.585815 -1414.694580 1006.121399
v 370.356964 -1413.929565 1007.121399
v 384.306641 -1420.714111 1006.121399
v 334.545593 -1432.135498 1051.931641
v 335.695343 -1432.605347 1052.902100
v 340.648254 -1417.211182 1051.931641
v 335.695343 -1432.605347 1052.902100
v 341.798004 -1417.681152 1052.902100
v 340.648254 -1417.211182 1051.931641
v 343.148254 -1411.097412 1051.931641
v 340.648254 -1417.211182 1051.931641
v 341.798004 -1417.681152 1052.902100
v 344.297882 -1411.567505 1052.902100
v 343.148254 -1411.097412 1051.931641
v 341.798004 -1417.681152 1052.902100
v 345.676575 -1404.914185 1051.931641
v 343.148254 -1411.097412 1051.931641
v 344.297882 -1411.567505 1052.902100
v 346.826294 -1405.384277 1052.902100
v 345.676575 -1404.914185 1051.931641
v 344.297882 -1411.567505 1052.902100
v 347.002289 -1404.375854 1051.902100
v 345.676575 -1404.914185 1051.931641
v 346.826294 -1405.384277 1052.902100
v 347.002289 -1404.375854 1051.902100
v 346.826294 -1405.384277 1052.902100
v 385.113586 -1419.961670 1052.297607
v 346.826294 -1405.384277 1052.902100
v 384.541473 -1420.808105 1052.909546
v 385.113586 -1419.961670 1052.297607
v 385.113586 -1419.961670 1052.297607
v 384.541473 -1420.808105 1052.909546
v 385.388733 -1420.074219 1052.040039
v 385.144775 -1419.974487 1052.256470
v 385.113586 -1419.961670 1052.297607
v 385.388733 -1420.074219 1052.040039
v 384.541473 -1420.808105 1052.909546
v 385.462097 -1421.184692 1051.909790
v 385.388733 -1420.074219 1052.040039
v 385.462097 -1421.184692 1051.909790
v 385.450958 -1420.099609 1052.005127
v 385.388733 -1420.074219 1052.040039
v 373.413910 -1448.021118 1052.909546
v 374.334625 -1448.397217 1051.909790
v 379.516541 -1433.096802 1052.909546
v 374.334625 -1448.397217 1051.909790
v 380.437225 -1433.473022 1051.909790
v 379.516541 -1433.096802 1052.909546
v 382.012421 -1426.993042 1052.909546
v 379.516541 -1433.096802 1052.909546
v 380.437225 -1433.473022 1051.909790
v 382.933014 -1427.369629 1051.909790
v 382.012421 -1426.993042 1052.909546
v 380.437225 -1433.473022 1051.909790
v 382.012421 -1426.993042 1052.909546
v 382.933014 -1427.369629 1051.909790
v 384.541473 -1420.808105 1052.909546
v 382.933014 -1427.369629 1051.909790
v 385.462097 -1421.184692 1051.909790
v 384.541473 -1420.808105 1052.909546
v 261.896057 -1377.875244 1017.135986
v 259.890778 -1377.066040 1016.728516
v 260.588348 -1369.817871 1023.197876
v 263.640564 -1371.065674 1023.864197
v 261.896057 -1377.875244 1017.135986
v 260.588348 -1369.817871 1023.197876
v 264.171692 -1378.805542 1017.130920
v 261.896057 -1377.875244 1017.135986
v 263.640564 -1371.065674 1023.864197
v 266.809509 -1372.355225 1024.045776
v 264.171692 -1378.805542 1017.130920
v 263.640564 -1371.065674 1023.864197
v 266.809509 -1372.355225 1024.045776
v 278.423523 -1377.104248 1024.045776
v 264.171692 -1378.805542 1017.130920
v 278.423523 -1377.104248 1024.045776
v 277.397522 -1384.213623 1017.130920
v 264.171692 -1378.805542 1017.130920
v 234.135513 -1358.225708 1052.297607
v 272.248138 -1373.808350 1051.902100
v 278.284485 -1376.280396 1025.750122
v 266.346283 -1371.398926 1025.362183
v 234.135513 -1358.225708 1052.297607
v 278.284485 -1376.280396 1025.750122
v 234.104340 -1358.212891 1052.256470
v 234.135513 -1358.225708 1052.297607
v 266.346283 -1371.398926 1025.362183
v 263.119049 -1370.079224 1025.208984
v 234.104340 -1358.212891 1052.256470
v 266.346283 -1371.398926 1025.362183
v 234.062500 -1358.195801 1052.207520
v 234.104340 -1358.212891 1052.256470
v 263.119049 -1370.079224 1025.208984
v 260.001007 -1368.804321 1024.564331
v 234.062500 -1358.195801 1052.207520
v 263.119049 -1370.079224 1025.208984
v 234.004120 -1358.171997 1052.148804
v 234.062500 -1358.195801 1052.207520
v 260.001007 -1368.804321 1024.564331
v 256.923737 -1367.545898 1023.109314
v 234.004120 -1358.171997 1052.148804
v 260.001007 -1368.804321 1024.564331
v 233.935455 -1358.143921 1052.091309
v 234.004120 -1358.171997 1052.148804
v 256.923737 -1367.545898 1023.109314
v 254.228714 -1366.443970 1020.868713
v 233.935455 -1358.143921 1052.091309
v 256.923737 -1367.545898 1023.109314
v 233.860382 -1358.113159 1052.040039
v 233.935455 -1358.143921 1052.091309
v 254.228714 -1366.443970 1020.868713
v 251.754074 -1365.432007 1017.973389
v 233.860382 -1358.113159 1052.040039
v 254.228714 -1366.443970 1020.868713
v 233.798157 -1358.087769 1052.005127
v 233.860382 -1358.113159 1052.040039
v 251.754074 -1365.432007 1017.973389
v 250.204163 -1364.798218 1014.396484
v 233.798157 -1358.087769 1052.005127
v 251.754074 -1365.432007 1017.973389
v 233.798157 -1358.087769 1052.005127
v 250.204163 -1364.798218 1014.396484
v 248.890793 -1364.261353 1007.121399
v 234.557587 -1358.400269 1007.121399
v 233.798157 -1358.087769 1052.005127
v 248.890793 -1364.261353 1007.121399
v 248.904922 -1365.347290 1006.121399
v 252.106583 -1373.876953 1006.121399
v 234.184097 -1359.327881 1006.121399
v 252.106583 -1373.876953 1006.121399
v 231.654404 -1365.514404 1006.121399
v 234.184097 -1359.327881 1006.121399
v 231.654404 -1365.514404 1006.121399
v 252.106583 -1373.876953 1006.121399
v 256.542145 -1383.299438 1006.121399
v 229.162781 -1371.607788 1006.121399
v 231.654404 -1365.514404 1006.121399
v 256.542145 -1383.299438 1006.121399
v 223.060135 -1386.531982 1006.121399
v 229.162781 -1371.607788 1006.121399
v 256.542145 -1383.299438 1006.121399
v 250.613464 -1397.798340 1006.121399
v 223.060135 -1386.531982 1006.121399
v 256.542145 -1383.299438 1006.121399
v 369.585815 -1414.694580 1006.121399
v 368.521729 -1413.987915 1007.115479
v 370.356964 -1413.929565 1007.121399
v 370.356964 -1413.929565 1007.121399
v 368.521729 -1413.987915 1007.115479
v 369.043579 -1413.392456 1014.396484
v 368.521729 -1413.987915 1007.115479
v 367.799255 -1413.678833 1013.213318
v 369.043579 -1413.392456 1014.396484
v 369.043579 -1413.392456 1014.396484
v 367.799255 -1413.678833 1013.213318
v 367.493683 -1412.758789 1017.973389
v 367.799255 -1413.678833 1013.213318
v 366.257538 -1413.035889 1016.682617
v 367.493683 -1412.758789 1017.973389
v 367.493683 -1412.758789 1017.973389
v 366.257538 -1413.035889 1016.682617
v 365.019043 -1411.746948 1020.868713
v 366.257538 -1413.035889 1016.682617
v 363.811371 -1412.035156 1019.513977
v 365.019043 -1411.746948 1020.868713
v 365.019043 -1411.746948 1020.868713
v 363.811371 -1412.035156 1019.513977
v 362.323975 -1410.644897 1023.109314
v 363.811371 -1412.035156 1019.513977
v 361.173340 -1410.952026 1021.722412
v 362.323975 -1410.644897 1023.109314
v 362.323975 -1410.644897 1023.109314
v 361.173340 -1410.952026 1021.722412
v 359.246704 -1409.386597 1024.564331
v 361.173340 -1410.952026 1021.722412
v 358.117432 -1409.698242 1023.197876
v 359.246704 -1409.386597 1024.564331
v 359.246704 -1409.386597 1024.564331
v 358.117432 -1409.698242 1023.197876
v 356.128723 -1408.111572 1025.208984
v 358.117432 -1409.698242 1023.197876
v 355.065491 -1408.449951 1023.864197
v 356.128723 -1408.111572 1025.208984
v 356.128723 -1408.111572 1025.208984
v 355.065491 -1408.449951 1023.864197
v 352.901489 -1406.791992 1025.362183
v 355.065491 -1408.449951 1023.864197
v 351.900818 -1407.149658 1024.045776
v 352.901489 -1406.791992 1025.362183
v 352.901489 -1406.791992 1025.362183
v 351.900818 -1407.149658 1024.045776
v 340.963287 -1401.910278 1025.750122
v 351.900818 -1407.149658 1024.045776
v 340.286835 -1402.400635 1024.045776
v 340.963287 -1401.910278 1025.750122
v 340.286835 -1402.400635 1024.045776
v 339.491272 -1402.388794 1025.145630
v 340.963287 -1401.910278 1025.750122
v 340.963287 -1401.910278 1025.750122
v 339.491272 -1402.388794 1025.145630
v 347.002289 -1404.375854 1051.902100
v 339.491272 -1402.388794 1025.145630
v 345.676575 -1404.914185 1051.931641
v 347.002289 -1404.375854 1051.902100
v 234.557587 -1358.400269 1007.121399
v 248.890793 -1364.261353 1007.121399
v 248.904922 -1365.347290 1006.121399
v 234.184097 -1359.327881 1006.121399
v 234.557587 -1358.400269 1007.121399
v 248.904922 -1365.347290 1006.121399
v 234.557587 -1358.400269 1007.121399
v 234.184097 -1359.327881 1006.121399
v 233.253494 -1358.947388 1007.121277
v 230.723816 -1365.133911 1007.121277
v 233.253494 -1358.947388 1007.121277
v 234.184097 -1359.327881 1006.121399
v 231.654404 -1365.514404 1006.121399
v 230.723816 -1365.133911 1007.121277
v 234.184097 -1359.327881 1006.121399
v 228.232117 -1371.227417 1007.121399
v 230.723816 -1365.133911 1007.121277
v 231.654404 -1365.514404 1006.121399
v 229.162781 -1371.607788 1006.121399
v 228.232117 -1371.227417 1007.121399
v 231.654404 -1365.514404 1006.121399
v 228.232117 -1371.227417 1007.121399
v 229.162781 -1371.607788 1006.121399
v 222.129471 -1386.151733 1007.121399
v 229.162781 -1371.607788 1006.121399
v 223.060135 -1386.531982 1006.121399
v 222.129471 -1386.151733 1007.121399
v 266.638885 -1386.947998 1052.902100
v 260.536255 -1401.872314 1052.902100
v 261.685852 -1402.342529 1051.931641
v 267.788452 -1387.418335 1051.931641
v 266.638885 -1386.947998 1052.902100
v 261.685852 -1402.342529 1051.931641
v 266.638885 -1386.947998 1052.902100
v 267.788452 -1387.418335 1051.931641
v 269.138794 -1380.834473 1052.902100
v 267.788452 -1387.418335 1051.931641
v 270.288422 -1381.304565 1051.931641
v 269.138794 -1380.834473 1052.902100
v 269.138794 -1380.834473 1052.902100
v 270.288422 -1381.304565 1051.931641
v 271.667206 -1374.651123 1052.902100
v 270.288422 -1381.304565 1051.931641
v 272.816864 -1375.121338 1051.931641
v 271.667206 -1374.651123 1052.902100
v 271.667206 -1374.651123 1052.902100
v 272.816864 -1375.121338 1051.931641
v 272.248138 -1373.808350 1051.902100
v 233.950684 -1359.230469 1052.909546
v 271.667206 -1374.651123 1052.902100
v 272.248138 -1373.808350 1051.902100
v 234.135513 -1358.225708 1052.297607
v 233.950684 -1359.230469 1052.909546
v 272.248138 -1373.808350 1051.902100
v 233.950684 -1359.230469 1052.909546
v 234.135513 -1358.225708 1052.297607
v 234.004120 -1358.171997 1052.148804
v 233.030060 -1358.854004 1051.909790
v 233.950684 -1359.230469 1052.909546
v 234.004120 -1358.171997 1052.148804
v 234.135513 -1358.225708 1052.297607
v 234.104340 -1358.212891 1052.256470
v 234.004120 -1358.171997 1052.148804
v 234.104340 -1358.212891 1052.256470
v 234.062500 -1358.195801 1052.207520
v 234.004120 -1358.171997 1052.148804
v 233.798157 -1358.087769 1052.005127
v 233.030060 -1358.854004 1051.909790
v 234.004120 -1358.171997 1052.148804
v 233.860382 -1358.113159 1052.040039
v 233.798157 -1358.087769 1052.005127
v 234.004120 -1358.171997 1052.148804
v 233.935455 -1358.143921 1052.091309
v 233.860382 -1358.113159 1052.040039
v 234.004120 -1358.171997 1052.148804
v 264.171692 -1378.805542 1017.130920
v 277.397522 -1384.213623 1017.130920
v 276.516541 -1390.226562 1011.219299
v 261.938965 -1384.265869 1011.219299
v 264.171692 -1378.805542 1017.130920
v 276.516541 -1390.226562 1011.219299
v 264.171692 -1378.805542 1017.130920
v 261.938965 -1384.265869 1011.219299
v 259.890778 -1377.066040 1016.728516
v 261.896057 -1377.875244 1017.135986
v 264.171692 -1378.805542 1017.130920
v 259.890778 -1377.066040 1016.728516
v 261.938965 -1384.265869 1011.219299
v 260.129761 -1383.552856 1010.855530
v 259.890778 -1377.066040 1016.728516
v 259.890778 -1377.066040 1016.728516
v 260.129761 -1383.552856 1010.855530
v 256.118530 -1375.523560 1014.353271
v 260.129761 -1383.552856 1010.855530
v 258.252441 -1382.786743 1009.685181
v 256.118530 -1375.523560 1014.353271
v 257.580139 -1376.121094 1015.660583
v 259.890778 -1377.066040 1016.728516
v 256.118530 -1375.523560 1014.353271
v 260.588348 -1369.817871 1023.197876
v 259.890778 -1377.066040 1016.728516
v 257.580139 -1376.121094 1015.660583
v 257.529510 -1368.571289 1021.722412
v 260.588348 -1369.817871 1023.197876
v 257.580139 -1376.121094 1015.660583
v 257.529510 -1368.571289 1021.722412
v 257.580139 -1376.121094 1015.660583
v 254.888443 -1367.495728 1019.513977
v 257.580139 -1376.121094 1015.660583
v 256.118530 -1375.523560 1014.353271
v 254.888443 -1367.495728 1019.513977
v 256.118530 -1375.523560 1014.353271
v 254.662018 -1374.926147 1012.633484
v 254.888443 -1367.495728 1019.513977
v 254.662018 -1374.926147 1012.633484
v 252.441879 -1366.495850 1016.682617
v 254.888443 -1367.495728 1019.513977
v 254.662018 -1374.926147 1012.633484
v 256.118530 -1375.523560 1014.353271
v 253.654510 -1374.512573 1010.582520
v 254.662018 -1374.926147 1012.633484
v 253.654510 -1374.512573 1010.582520
v 252.441879 -1366.495850 1016.682617
v 256.118530 -1375.523560 1014.353271
v 258.252441 -1382.786743 1009.685181
v 253.654510 -1374.512573 1010.582520
v 253.654510 -1374.512573 1010.582520
v 250.891373 -1365.874390 1013.213318
v 252.441879 -1366.495850 1016.682617
v 258.252441 -1382.786743 1009.685181
v 257.250153 -1382.381592 1008.096497
v 253.654510 -1374.512573 1010.582520
v 257.250153 -1382.381592 1008.096497
v 257.263214 -1382.329468 1007.116699
v 253.654510 -1374.512573 1010.582520
v 257.263214 -1382.329468 1007.116699
v 253.170120 -1374.312622 1007.110229
v 253.654510 -1374.512573 1010.582520
v 332.453186 -1413.099365 1011.219299
v 336.037598 -1408.192017 1017.130920
v 349.263428 -1413.600098 1017.130920
v 347.030701 -1419.060425 1011.219299
v 332.453186 -1413.099365 1011.219299
v 349.263428 -1413.600098 1017.130920
v 347.030701 -1419.060425 1011.219299
v 349.263428 -1413.600098 1017.130920
v 348.821045 -1419.819336 1010.855530
v 349.263428 -1413.600098 1017.130920
v 351.539001 -1414.530884 1017.135986
v 348.821045 -1419.819336 1010.855530
v 351.539001 -1414.530884 1017.135986
v 353.536682 -1415.358521 1016.728516
v 348.821045 -1419.819336 1010.855530
v 348.821045 -1419.819336 1010.855530
v 353.536682 -1415.358521 1016.728516
v 350.697388 -1420.588135 1009.685181
v 353.536682 -1415.358521 1016.728516
v 355.847321 -1416.303345 1015.660583
v 350.697388 -1420.588135 1009.685181
v 355.847321 -1416.303345 1015.660583
v 353.536682 -1415.358521 1016.728516
v 358.117432 -1409.698242 1023.197876
v 361.173340 -1410.952026 1021.722412
v 355.847321 -1416.303345 1015.660583
v 358.117432 -1409.698242 1023.197876
v 361.173340 -1410.952026 1021.722412
v 363.811371 -1412.035156 1019.513977
v 355.847321 -1416.303345 1015.660583
v 355.847321 -1416.303345 1015.660583
v 357.308960 -1416.901001 1014.353271
v 350.697388 -1420.588135 1009.685181
v 363.811371 -1412.035156 1019.513977
v 357.308960 -1416.901001 1014.353271
v 355.847321 -1416.303345 1015.660583
v 350.697388 -1420.588135 1009.685181
v 357.308960 -1416.901001 1014.353271
v 351.696350 -1421.001221 1008.096497
v 357.308960 -1416.901001 1014.353271
v 363.811371 -1412.035156 1019.513977
v 358.766632 -1417.495361 1012.633484
v 357.308960 -1416.901001 1014.353271
v 358.766632 -1417.495361 1012.633484
v 351.696350 -1421.001221 1008.096497
v 363.811371 -1412.035156 1019.513977
v 366.257538 -1413.035889 1016.682617
v 358.766632 -1417.495361 1012.633484
v 358.766632 -1417.495361 1012.633484
v 359.775330 -1417.906250 1010.582520
v 351.696350 -1421.001221 1008.096497
v 358.766632 -1417.495361 1012.633484
v 366.257538 -1413.035889 1016.682617
v 359.775330 -1417.906250 1010.582520
v 366.257538 -1413.035889 1016.682617
v 367.799255 -1413.678833 1013.213318
v 359.775330 -1417.906250 1010.582520
v 351.696350 -1421.001221 1008.096497
v 359.775330 -1417.906250 1010.582520
v 351.723541 -1420.954956 1007.116699
v 359.775330 -1417.906250 1010.582520
v 360.261169 -1418.102783 1007.110229
v 351.723541 -1420.954956 1007.116699
vt 0.537109 0.388184
vt 0.572266 0.388184
vt 0.537109 0.405762
vt 0.572266 0.388184
vt 0.572266 0.418945
vt 0.537109 0.405762
vt 0.462402 0.388184
vt 0.462402 0.405762
vt 0.427490 0.388184
vt 0.462402 0.405762
vt 0.427490 0.418945
vt 0.427490 0.388184
vt 0.423828 0.388184
vt 0.428955 0.388184
vt 0.423828 0.612549
vt 0.428955 0.388184
vt 0.428955 0.612061
vt 0.423828 0.612549
vt 0.537598 0.443359
vt 0.537598 0.438477
vt 0.570801 0.478516
vt 0.537598 0.438477
vt 0.572266 0.472656
vt 0.570801 0.478516
vt 0.325439 0.410156
vt 0.330078 0.408691
vt 0.333496 0.443359
vt 0.330078 0.408691
vt 0.337402 0.438477
vt 0.333496 0.443359
vt 0.563965 0.498047
vt 0.568848 0.500488
vt 0.563965 0.576172
vt 0.568848 0.500488
vt 0.568848 0.576172
vt 0.563965 0.576172
vt 0.499512 0.405273
vt 0.504395 0.410156
vt 0.423828 0.405273
vt 0.504395 0.410156
vt 0.423828 0.410156
vt 0.423828 0.405273
vt 0.575684 0.612549
vt 0.570801 0.612061
vt 0.575684 0.388184
vt 0.570801 0.612061
vt 0.570801 0.388184
vt 0.575684 0.388184
vt 0.428955 0.478516
vt 0.427490 0.472656
vt 0.462158 0.443359
vt 0.427490 0.472656
vt 0.462158 0.438477
vt 0.462158 0.443359
vt 0.024551 0.443359
vt 0.020752 0.438477
vt 0.032806 0.410156
vt 0.020752 0.438477
vt 0.028061 0.408691
vt 0.032806 0.410156
vt 1.077148 0.576172
vt 1.072266 0.576172
vt 1.077148 0.498047
vt 1.072266 0.576172
vt 1.072266 0.500488
vt 1.077148 0.498047
vt 0.575684 0.405273
vt 0.575684 0.410156
vt 0.500000 0.405273
vt 0.575684 0.410156
vt 0.495361 0.410156
vt 0.500000 0.405273
vt 0.570801 0.478516
vt 0.570801 0.612305
vt 0.537598 0.443359
vt 0.570801 0.612305
vt 0.537598 0.612305
vt 0.537598 0.443359
vt 0.537598 0.443359
vt 0.537598 0.612305
vt 0.504395 0.410156
vt 0.537598 0.612305
vt 0.504395 0.612305
vt 0.504395 0.410156
vt 0.504395 0.410156
vt 0.504395 0.612305
vt 0.423828 0.410156
vt 0.504395 0.612305
vt 0.423828 0.612305
vt 0.423828 0.410156
vt 0.428955 0.612061
vt 0.428955 0.388184
vt 0.462158 0.612061
vt 0.428955 0.388184
vt 0.462402 0.388184
vt 0.462158 0.612061
vt 0.462158 0.612061
vt 0.462402 0.388184
vt 0.495117 0.612061
vt 0.462402 0.388184
vt 0.495117 0.388184
vt 0.495117 0.612061
vt 0.495117 0.612061
vt 0.495117 0.388184
vt 0.575684 0.612061
vt 0.495117 0.388184
vt 0.575684 0.388184
vt 0.575684 0.612061
vt 0.382080 0.429199
vt 0.585449 0.429199
vt 0.382080 0.462402
vt 0.585449 0.429199
vt 0.585449 0.462402
vt 0.382080 0.462402
vt 0.382080 0.462402
vt 0.585449 0.462402
vt 0.382080 0.495605
vt 0.585449 0.462402
vt 0.585449 0.495605
vt 0.382080 0.495605
vt 0.382080 0.495605
vt 0.585449 0.495605
vt 0.382080 0.576172
vt 0.585449 0.495605
vt 0.585449 0.576172
vt 0.382080 0.576172
vt 0.670410 0.500488
vt 0.670410 0.576172
vt 0.590820 0.576172
vt 0.590820 0.500488
vt 0.670410 0.500488
vt 0.590820 0.576172
vt 0.590820 0.500488
vt 0.590820 0.576172
vt 0.582520 0.576172
vt 0.582520 0.500488
vt 0.590820 0.500488
vt 0.582520 0.576172
vt 0.582520 0.500488
vt 0.582520 0.576172
vt 0.573730 0.576172
vt 0.573730 0.500488
vt 0.582520 0.500488
vt 0.573730 0.576172
vt 0.499512 0.398438
vt 0.423828 0.398438
vt 0.423828 0.391602
vt 0.499512 0.391602
vt 0.499512 0.398438
vt 0.423828 0.391602
vt 0.499512 0.391602
vt 0.423828 0.391602
vt 0.423828 0.388184
vt 0.499512 0.388184
vt 0.499512 0.391602
vt 0.423828 0.388184
vt -0.226318 0.388184
vt -0.148804 0.388184
vt -0.230347 0.612549
vt -0.148804 0.388184
vt -0.141724 0.424805
vt -0.230347 0.612549
vt -0.230103 0.612793
vt -0.230347 0.612549
vt -0.141724 0.424805
vt -0.133423 0.442383
vt -0.230103 0.612793
vt -0.141724 0.424805
vt -0.229614 0.613037
vt -0.230103 0.612793
vt -0.133423 0.442383
vt -0.120056 0.457031
vt -0.229614 0.613037
vt -0.133423 0.442383
vt -0.229248 0.613281
vt -0.229614 0.613037
vt -0.120056 0.457031
vt -0.105530 0.468262
vt -0.229248 0.613281
vt -0.120056 0.457031
vt -0.229004 0.613525
vt -0.229248 0.613281
vt -0.105530 0.468262
vt -0.088867 0.475586
vt -0.229004 0.613525
vt -0.105530 0.468262
vt -0.228760 0.613770
vt -0.229004 0.613525
vt -0.088867 0.475586
vt -0.072021 0.478516
vt -0.228760 0.613770
vt -0.088867 0.475586
vt -0.228516 0.614014
vt -0.228760 0.613770
vt -0.072021 0.478516
vt -0.054626 0.479492
vt -0.228516 0.614014
vt -0.072021 0.478516
vt -0.054626 0.479492
vt 0.009850 0.481445
vt -0.228516 0.614014
vt 0.009850 0.481445
vt -0.022751 0.612061
vt -0.228516 0.614014
vt 1.083984 0.427734
vt 1.073242 0.462891
vt 1.062500 0.462402
vt 1.067383 0.427734
vt 1.083984 0.427734
vt 1.062500 0.462402
vt 1.067383 0.427734
vt 1.062500 0.462402
vt 1.049805 0.462402
vt 1.049805 0.427734
vt 1.067383 0.427734
vt 1.049805 0.462402
vt 1.049805 0.427734
vt 1.049805 0.462402
vt 0.987793 0.427734
vt 1.049805 0.462402
vt 0.979004 0.462402
vt 0.987793 0.427734
vt 1.146484 0.429199
vt 1.225586 0.429199
vt 1.115234 0.462891
vt 1.225586 0.429199
vt 1.225586 0.462891
vt 1.115234 0.462891
vt 1.077148 0.498047
vt 1.115234 0.462891
vt 1.225586 0.462891
vt 1.077148 0.576172
vt 1.077148 0.498047
vt 1.225586 0.462891
vt 1.225586 0.495605
vt 1.077148 0.576172
vt 1.225586 0.462891
vt 1.225586 0.576172
vt 1.077148 0.576172
vt 1.225586 0.495605
vt 0.500000 0.388184
vt 0.575684 0.388184
vt 0.500000 0.391602
vt 0.575684 0.388184
vt 0.575684 0.391602
vt 0.500000 0.391602
vt 0.500000 0.391602
vt 0.575684 0.391602
vt 0.500000 0.398438
vt 0.575684 0.391602
vt 0.575684 0.398438
vt 0.500000 0.398438
vt 1.067383 0.500488
vt 1.067383 0.576172
vt 1.058594 0.500488
vt 1.067383 0.576172
vt 1.058594 0.576172
vt 1.058594 0.500488
vt 1.058594 0.500488
vt 1.058594 0.576172
vt 1.049805 0.500488
vt 1.058594 0.576172
vt 1.049805 0.576172
vt 1.049805 0.500488
vt 1.049805 0.500488
vt 1.049805 0.576172
vt 0.970703 0.500488
vt 1.049805 0.576172
vt 0.970703 0.576172
vt 0.970703 0.500488
vt 0.575684 0.410156
vt 0.575684 0.612305
vt 0.495361 0.612305
vt 0.495361 0.410156
vt 0.575684 0.410156
vt 0.495361 0.612305
vt 0.495361 0.410156
vt 0.495361 0.612305
vt 0.462158 0.612305
vt 0.462158 0.443359
vt 0.495361 0.410156
vt 0.462158 0.612305
vt 0.462158 0.443359
vt 0.462158 0.612305
vt 0.428955 0.612305
vt 0.428955 0.478516
vt 0.462158 0.443359
vt 0.428955 0.612305
vt 0.423828 0.612061
vt 0.423828 0.388184
vt 0.504395 0.388184
vt 0.504395 0.612061
vt 0.423828 0.612061
vt 0.504395 0.388184
vt 0.504395 0.612061
vt 0.504395 0.388184
vt 0.537109 0.388184
vt 0.537598 0.612061
vt 0.504395 0.612061
vt 0.537109 0.388184
vt 0.537598 0.612061
vt 0.537109 0.388184
vt 0.570801 0.388184
vt 0.570801 0.612061
vt 0.537598 0.612061
vt 0.570801 0.388184
vt -0.023849 0.576172
vt -0.227539 0.576172
vt -0.227539 0.495605
vt -0.023849 0.495605
vt -0.023849 0.576172
vt -0.227539 0.495605
vt -0.023849 0.495605
vt -0.227539 0.495605
vt -0.227539 0.462402
vt -0.023849 0.462402
vt -0.023849 0.495605
vt -0.227539 0.462402
vt -0.023849 0.462402
vt -0.227539 0.462402
vt -0.227539 0.429199
vt -0.023849 0.429199
vt -0.023849 0.462402
vt -0.227539 0.429199
vt 0.498779 0.388184
vt 0.504883 0.383301
vt 0.506836 0.388184
vt 0.494873 0.418945
vt 0.498779 0.388184
vt 0.506836 0.388184
vt 0.500000 0.424805
vt 0.494873 0.418945
vt 0.506836 0.388184
vt 0.486328 0.436035
vt 0.494873 0.418945
vt 0.500000 0.424805
vt 0.491699 0.442383
vt 0.486328 0.436035
vt 0.500000 0.424805
vt 0.473145 0.450195
vt 0.486328 0.436035
vt 0.491699 0.442383
vt 0.478271 0.457031
vt 0.473145 0.450195
vt 0.491699 0.442383
vt 0.458984 0.461426
vt 0.473145 0.450195
vt 0.478271 0.457031
vt 0.463623 0.468262
vt 0.458984 0.461426
vt 0.478271 0.457031
vt 0.442383 0.468750
vt 0.458984 0.461426
vt 0.463623 0.468262
vt 0.447021 0.475586
vt 0.442383 0.468750
vt 0.463623 0.468262
vt 0.426025 0.472168
vt 0.442383 0.468750
vt 0.447021 0.475586
vt 0.430176 0.478516
vt 0.426025 0.472168
vt 0.447021 0.475586
vt 0.408936 0.472656
vt 0.426025 0.472168
vt 0.430176 0.478516
vt 0.412842 0.479492
vt 0.408936 0.472656
vt 0.430176 0.478516
vt 0.346191 0.472656
vt 0.408936 0.472656
vt 0.412842 0.479492
vt 0.348389 0.481445
vt 0.346191 0.472656
vt 0.412842 0.479492
vt 0.348389 0.481445
vt 0.342529 0.478516
vt 0.346191 0.472656
vt 0.375732 0.612305
vt 0.342529 0.478516
vt 0.348389 0.481445
vt 0.380859 0.612061
vt 0.375732 0.612305
vt 0.348389 0.481445
vt 0.499512 0.388184
vt 0.501953 0.383301
vt 0.507812 0.388184
vt 0.499512 0.391602
vt 0.499512 0.388184
vt 0.507812 0.388184
vt 0.507812 0.393066
vt 0.499512 0.391602
vt 0.507812 0.388184
vt 0.499512 0.398438
vt 0.499512 0.391602
vt 0.507812 0.393066
vt 0.507812 0.400879
vt 0.499512 0.398438
vt 0.507812 0.393066
vt 0.669434 0.492188
vt 0.674316 0.495605
vt 0.670410 0.500488
vt 0.669434 0.492188
vt 0.670410 0.500488
vt 0.590820 0.492188
vt 0.670410 0.500488
vt 0.590820 0.500488
vt 0.590820 0.492188
vt 0.590820 0.492188
vt 0.590820 0.500488
vt 0.581055 0.492188
vt 0.590820 0.500488
vt 0.582520 0.500488
vt 0.581055 0.492188
vt 0.581055 0.492188
vt 0.582520 0.500488
vt 0.570801 0.492188
vt 0.582520 0.500488
vt 0.573730 0.500488
vt 0.570801 0.492188
vt -0.229614 0.424316
vt -0.229248 0.424316
vt -0.230103 0.424316
vt -0.229248 0.424316
vt -0.229004 0.424316
vt -0.230103 0.424316
vt -0.229004 0.424316
vt -0.228760 0.424316
vt -0.230103 0.424316
vt 0.491699 0.388184
vt 0.497559 0.383301
vt 0.500000 0.388184
vt 0.491699 0.388184
vt 0.500000 0.388184
vt 0.491943 0.393066
vt 0.500000 0.388184
vt 0.500000 0.391602
vt 0.491943 0.393066
vt 0.491943 0.393066
vt 0.500000 0.391602
vt 0.491943 0.400879
vt 0.500000 0.391602
vt 0.500000 0.398438
vt 0.491943 0.400879
vt 0.565430 0.492188
vt 0.563965 0.498047
vt 0.531250 0.462891
vt 0.563965 0.498047
vt 0.525391 0.462891
vt 0.531250 0.462891
vt 0.531250 0.462891
vt 0.525391 0.462891
vt 0.500977 0.427734
vt 0.525391 0.462891
vt 0.494873 0.429199
vt 0.500977 0.427734
vt 0.428955 0.617188
vt 0.428955 0.612061
vt 0.462158 0.617188
vt 0.428955 0.612061
vt 0.462158 0.612061
vt 0.462158 0.617188
vt 0.495361 0.617188
vt 0.462158 0.617188
vt 0.462158 0.612061
vt 0.495117 0.612061
vt 0.495361 0.617188
vt 0.462158 0.612061
vt 0.495361 0.617188
vt 0.495117 0.612061
vt 0.575684 0.617188
vt 0.495117 0.612061
vt 0.575684 0.612061
vt 0.575684 0.617188
vt 1.139648 0.427734
vt 1.146484 0.429199
vt 1.109375 0.462891
vt 1.146484 0.429199
vt 1.115234 0.462891
vt 1.109375 0.462891
vt 1.109375 0.462891
vt 1.115234 0.462891
vt 1.075195 0.492188
vt 1.115234 0.462891
vt 1.077148 0.498047
vt 1.075195 0.492188
vt 1.070312 0.492188
vt 1.067383 0.500488
vt 1.059570 0.492188
vt 1.067383 0.500488
vt 1.058594 0.500488
vt 1.059570 0.492188
vt 1.059570 0.492188
vt 1.058594 0.500488
vt 1.049805 0.492188
vt 1.058594 0.500488
vt 1.049805 0.500488
vt 1.049805 0.492188
vt 1.049805 0.492188
vt 1.049805 0.500488
vt 0.971680 0.492188
vt 1.049805 0.500488
vt 0.970703 0.500488
vt 0.971680 0.492188
vt 0.971680 0.492188
vt 0.970703 0.500488
vt 0.966797 0.495605
vt 1.230469 0.576172
vt 1.225586 0.576172
vt 1.230469 0.495605
vt 1.225586 0.576172
vt 1.225586 0.495605
vt 1.230469 0.495605
vt 1.230469 0.462891
vt 1.230469 0.495605
vt 1.225586 0.495605
vt 1.225586 0.462891
vt 1.230469 0.462891
vt 1.225586 0.495605
vt 1.230469 0.429199
vt 1.230469 0.462891
vt 1.225586 0.462891
vt 1.225586 0.429199
vt 1.230469 0.429199
vt 1.225586 0.462891
vt 1.230469 0.429199
vt 1.225586 0.429199
vt 1.225586 0.424316
vt 1.148438 0.424316
vt 1.225586 0.424316
vt 1.225586 0.429199
vt 1.146484 0.429199
vt 1.148438 0.424316
vt 1.225586 0.429199
vt -0.017639 0.576172
vt -0.023849 0.576172
vt -0.017639 0.495605
vt -0.023849 0.576172
vt -0.023849 0.495605
vt -0.017639 0.495605
vt -0.017639 0.462402
vt -0.017639 0.495605
vt -0.023849 0.495605
vt -0.023849 0.462402
vt -0.017639 0.462402
vt -0.023849 0.495605
vt -0.017639 0.429199
vt -0.017639 0.462402
vt -0.023849 0.462402
vt -0.023849 0.429199
vt -0.017639 0.429199
vt -0.023849 0.462402
vt -0.022751 0.424316
vt -0.017639 0.429199
vt -0.023849 0.429199
vt -0.022751 0.424316
vt -0.023849 0.429199
vt -0.228516 0.424316
vt -0.023849 0.429199
vt -0.227539 0.429199
vt -0.228516 0.424316
vt -0.228516 0.424316
vt -0.227539 0.429199
vt -0.230103 0.424316
vt -0.228760 0.424316
vt -0.228516 0.424316
vt -0.230103 0.424316
vt -0.227539 0.429199
vt -0.232544 0.429199
vt -0.230103 0.424316
vt -0.232544 0.429199
vt -0.230347 0.424316
vt -0.230103 0.424316
vt 0.423828 0.617188
vt 0.423828 0.612061
vt 0.504395 0.617188
vt 0.423828 0.612061
vt 0.504395 0.612061
vt 0.504395 0.617188
vt 0.537598 0.617188
vt 0.504395 0.617188
vt 0.504395 0.612061
vt 0.537598 0.612061
vt 0.537598 0.617188
vt 0.504395 0.612061
vt 0.537598 0.617188
vt 0.537598 0.612061
vt 0.570801 0.617188
vt 0.537598 0.612061
vt 0.570801 0.612061
vt 0.570801 0.617188
vt 0.578613 0.462402
vt 0.567871 0.462891
vt 0.557129 0.427734
vt 0.573730 0.427734
vt 0.578613 0.462402
vt 0.557129 0.427734
vt 0.590820 0.462402
vt 0.578613 0.462402
vt 0.573730 0.427734
vt 0.590820 0.427734
vt 0.590820 0.462402
vt 0.573730 0.427734
vt 0.590820 0.427734
vt 0.653320 0.427734
vt 0.590820 0.462402
vt 0.653320 0.427734
vt 0.662109 0.462402
vt 0.590820 0.462402
vt 0.586914 0.614014
vt 0.380859 0.612061
vt 0.348389 0.481445
vt 0.412842 0.479492
vt 0.586914 0.614014
vt 0.348389 0.481445
vt 0.586914 0.613770
vt 0.586914 0.614014
vt 0.412842 0.479492
vt 0.430176 0.478516
vt 0.586914 0.613770
vt 0.412842 0.479492
vt 0.586914 0.613525
vt 0.586914 0.613770
vt 0.430176 0.478516
vt 0.447021 0.475586
vt 0.586914 0.613525
vt 0.430176 0.478516
vt 0.587402 0.613281
vt 0.586914 0.613525
vt 0.447021 0.475586
vt 0.463623 0.468262
vt 0.587402 0.613281
vt 0.447021 0.475586
vt 0.587891 0.613037
vt 0.587402 0.613281
vt 0.463623 0.468262
vt 0.478271 0.457031
vt 0.587891 0.613037
vt 0.463623 0.468262
vt 0.588379 0.612793
vt 0.587891 0.613037
vt 0.478271 0.457031
vt 0.491699 0.442383
vt 0.588379 0.612793
vt 0.478271 0.457031
vt 0.588379 0.612549
vt 0.588379 0.612793
vt 0.491699 0.442383
vt 0.500000 0.424805
vt 0.588379 0.612549
vt 0.491699 0.442383
vt 0.588379 0.612549
vt 0.500000 0.424805
vt 0.506836 0.388184
vt 0.584473 0.388184
vt 0.588379 0.612549
vt 0.506836 0.388184
vt 0.494873 0.429199
vt 0.525391 0.462891
vt 0.415283 0.429199
vt 0.525391 0.462891
vt 0.415283 0.462891
vt 0.415283 0.429199
vt 0.415283 0.462891
vt 0.525391 0.462891
vt 0.563965 0.498047
vt 0.415283 0.495605
vt 0.415283 0.462891
vt 0.563965 0.498047
vt 0.415283 0.576172
vt 0.415283 0.495605
vt 0.563965 0.498047
vt 0.563965 0.576172
vt 0.415283 0.576172
vt 0.563965 0.498047
vt -0.146729 0.383301
vt -0.140503 0.388184
vt -0.148804 0.388184
vt -0.148804 0.388184
vt -0.140503 0.388184
vt -0.141724 0.424805
vt -0.140503 0.388184
vt -0.136597 0.418945
vt -0.141724 0.424805
vt -0.141724 0.424805
vt -0.136597 0.418945
vt -0.133423 0.442383
vt -0.136597 0.418945
vt -0.128174 0.436035
vt -0.133423 0.442383
vt -0.133423 0.442383
vt -0.128174 0.436035
vt -0.120056 0.457031
vt -0.128174 0.436035
vt -0.114990 0.450195
vt -0.120056 0.457031
vt -0.120056 0.457031
vt -0.114990 0.450195
vt -0.105530 0.468262
vt -0.114990 0.450195
vt -0.100769 0.461426
vt -0.105530 0.468262
vt -0.105530 0.468262
vt -0.100769 0.461426
vt -0.088867 0.475586
vt -0.100769 0.461426
vt -0.084229 0.468750
vt -0.088867 0.475586
vt -0.088867 0.475586
vt -0.084229 0.468750
vt -0.072021 0.478516
vt -0.084229 0.468750
vt -0.067749 0.472168
vt -0.072021 0.478516
vt -0.072021 0.478516
vt -0.067749 0.472168
vt -0.054626 0.479492
vt -0.067749 0.472168
vt -0.050659 0.472656
vt -0.054626 0.479492
vt -0.054626 0.479492
vt -0.050659 0.472656
vt 0.009850 0.481445
vt -0.050659 0.472656
vt 0.012054 0.472656
vt 0.009850 0.481445
vt 0.012054 0.472656
vt 0.015762 0.478516
vt 0.009850 0.481445
vt 0.009850 0.481445
vt 0.015762 0.478516
vt -0.022751 0.612061
vt 0.015762 0.478516
vt -0.017639 0.612305
vt -0.022751 0.612061
vt 0.415283 0.424316
vt 0.492676 0.424316
vt 0.494873 0.429199
vt 0.415283 0.429199
vt 0.415283 0.424316
vt 0.494873 0.429199
vt 0.415283 0.424316
vt 0.415283 0.429199
vt 0.410156 0.429199
vt 0.410156 0.462891
vt 0.410156 0.429199
vt 0.415283 0.429199
vt 0.415283 0.462891
vt 0.410156 0.462891
vt 0.415283 0.429199
vt 0.410156 0.495605
vt 0.410156 0.462891
vt 0.415283 0.462891
vt 0.415283 0.495605
vt 0.410156 0.495605
vt 0.415283 0.462891
vt 0.410156 0.495605
vt 0.415283 0.495605
vt 0.410156 0.576172
vt 0.415283 0.495605
vt 0.415283 0.576172
vt 0.410156 0.576172
vt 0.382080 0.495605
vt 0.382080 0.576172
vt 0.375732 0.576172
vt 0.375732 0.495605
vt 0.382080 0.495605
vt 0.375732 0.576172
vt 0.382080 0.495605
vt 0.375732 0.495605
vt 0.382080 0.462402
vt 0.375732 0.495605
vt 0.375732 0.462402
vt 0.382080 0.462402
vt 0.382080 0.462402
vt 0.375732 0.462402
vt 0.382080 0.429199
vt 0.375732 0.462402
vt 0.375732 0.429199
vt 0.382080 0.429199
vt 0.382080 0.429199
vt 0.375732 0.429199
vt 0.380859 0.424316
vt 0.585449 0.429199
vt 0.382080 0.429199
vt 0.380859 0.424316
vt 0.586914 0.424316
vt 0.585449 0.429199
vt 0.380859 0.424316
vt 0.585449 0.429199
vt 0.586914 0.424316
vt 0.587402 0.424316
vt 0.590820 0.429199
vt 0.585449 0.429199
vt 0.587402 0.424316
vt 0.586914 0.424316
vt 0.586914 0.424316
vt 0.587402 0.424316
vt 0.586914 0.424316
vt 0.586914 0.424316
vt 0.587402 0.424316
vt 0.588379 0.424316
vt 0.590820 0.429199
vt 0.587402 0.424316
vt 0.588379 0.424316
vt 0.588379 0.424316
vt 0.587402 0.424316
vt 0.587891 0.424316
vt 0.588379 0.424316
vt 0.587402 0.424316
vt 0.408936 0.438477
vt 0.337402 0.438477
vt 0.330078 0.408691
vt 0.408936 0.408691
vt 0.408936 0.438477
vt 0.330078 0.408691
vt 0.408936 0.438477
vt 0.408936 0.408691
vt 0.431885 0.436523
vt 0.421143 0.438477
vt 0.408936 0.438477
vt 0.431885 0.436523
vt 0.408936 0.408691
vt 0.418457 0.406738
vt 0.431885 0.436523
vt 0.431885 0.436523
vt 0.418457 0.406738
vt 0.452393 0.424316
vt 0.418457 0.406738
vt 0.428711 0.400879
vt 0.452393 0.424316
vt 0.444336 0.431152
vt 0.431885 0.436523
vt 0.452393 0.424316
vt 0.442383 0.468750
vt 0.431885 0.436523
vt 0.444336 0.431152
vt 0.458984 0.461426
vt 0.442383 0.468750
vt 0.444336 0.431152
vt 0.458984 0.461426
vt 0.444336 0.431152
vt 0.473145 0.450195
vt 0.444336 0.431152
vt 0.452393 0.424316
vt 0.473145 0.450195
vt 0.452393 0.424316
vt 0.460205 0.416016
vt 0.473145 0.450195
vt 0.460205 0.416016
vt 0.486328 0.436035
vt 0.473145 0.450195
vt 0.460205 0.416016
vt 0.452393 0.424316
vt 0.465576 0.405762
vt 0.460205 0.416016
vt 0.465576 0.405762
vt 0.486328 0.436035
vt 0.452393 0.424316
vt 0.428711 0.400879
vt 0.465576 0.405762
vt 0.465576 0.405762
vt 0.494873 0.418945
vt 0.486328 0.436035
vt 0.428711 0.400879
vt 0.434082 0.393066
vt 0.465576 0.405762
vt 0.434082 0.393066
vt 0.434082 0.388184
vt 0.465576 0.405762
vt 0.434082 0.388184
vt 0.468262 0.388184
vt 0.465576 0.405762
vt 0.028061 0.408691
vt 0.020752 0.438477
vt -0.050659 0.438477
vt -0.050659 0.408691
vt 0.028061 0.408691
vt -0.050659 0.438477
vt -0.050659 0.408691
vt -0.050659 0.438477
vt -0.060394 0.406738
vt -0.050659 0.438477
vt -0.062927 0.438477
vt -0.060394 0.406738
vt -0.062927 0.438477
vt -0.073730 0.436523
vt -0.060394 0.406738
vt -0.060394 0.406738
vt -0.073730 0.436523
vt -0.070496 0.400879
vt -0.073730 0.436523
vt -0.086243 0.431152
vt -0.070496 0.400879
vt -0.086243 0.431152
vt -0.073730 0.436523
vt -0.084229 0.468750
vt -0.100769 0.461426
vt -0.086243 0.431152
vt -0.084229 0.468750
vt -0.100769 0.461426
vt -0.114990 0.450195
vt -0.086243 0.431152
vt -0.086243 0.431152
vt -0.094116 0.424316
vt -0.070496 0.400879
vt -0.114990 0.450195
vt -0.094116 0.424316
vt -0.086243 0.431152
vt -0.070496 0.400879
vt -0.094116 0.424316
vt -0.075928 0.393066
vt -0.094116 0.424316
vt -0.114990 0.450195
vt -0.101990 0.416016
vt -0.094116 0.424316
vt -0.101990 0.416016
vt -0.075928 0.393066
vt -0.114990 0.450195
vt -0.128174 0.436035
vt -0.101990 0.416016
vt -0.101990 0.416016
vt -0.107422 0.405762
vt -0.075928 0.393066
vt -0.101990 0.416016
vt -0.128174 0.436035
vt -0.107422 0.405762
vt -0.128174 0.436035
vt -0.136597 0.418945
vt -0.107422 0.405762
vt -0.075928 0.393066
vt -0.107422 0.405762
vt -0.075928 0.388184
vt -0.107422 0.405762
vt -0.110046 0.388184
vt -0.075928 0.388184
f 1/1/1 2/2/2 3/3/3
f 4/4/4 5/5/5 6/6/6
f 7/7/7 8/8/8 9/9/9
f 10/10/10 11/11/11 12/12/12
f 13/13/13 14/14/14 15/15/15
f 16/16/16 17/17/17 18/18/18
f 19/19/19 20/20/20 21/21/21
f 22/22/22 23/23/23 24/24/24
f 25/25/25 26/26/26 27/27/27
f 28/28/28 29/29/29 30/30/30
f 31/31/31 32/32/32 33/33/33
f 34/34/34 35/35/35 36/36/36
f 37/37/37 38/38/38 39/39/39
f 40/40/40 41/41/41 42/42/42
f 43/43/43 44/44/44 45/45/45
f 46/46/46 47/47/47 48/48/48
f 49/49/49 50/50/50 51/51/51
f 52/52/52 53/53/53 54/54/54
f 55/55/55 56/56/56 57/57/57
f 58/58/58 59/59/59 60/60/60
f 61/61/61 62/62/62 63/63/63
f 64/64/64 65/65/65 66/66/66
f 67/67/67 68/68/68 69/69/69
f 70/70/70 71/71/71 72/72/72
f 73/73/73 74/74/74 75/75/75
f 76/76/76 77/77/77 78/78/78
f 79/79/79 80/80/80 81/81/81
f 82/82/82 83/83/83 84/84/84
f 85/85/85 86/86/86 87/87/87
f 88/88/88 89/89/89 90/90/90
f 91/91/91 92/92/92 93/93/93
f 94/94/94 95/95/95 96/96/96
f 97/97/97 98/98/98 99/99/99
f 100/100/100 101/101/101 102/102/102
f 103/103/103 104/104/104 105/105/105
f 106/106/106 107/107/107 108/108/108
f 109/109/109 110/110/110 111/111/111
f 112/112/112 113/113/113 114/114/114
f 115/115/115 116/116/116 117/117/117
f 118/118/118 119/119/119 120/120/120
f 121/121/121 122/122/122 123/123/123
f 124/124/124 125/125/125 126/126/126
f 127/127/127 128/128/128 129/129/129
f 130/130/130 131/131/131 132/132/132
f 133/133/133 134/134/134 135/135/135
f 136/136/136 137/137/137 138/138/138
f 139/139/139 140/140/140 141/141/141
f 142/142/142 143/143/143 144/144/144
f 145/145/145 146/146/146 147/147/147
f 148/148/148 149/149/149 150/150/150
f 151/151/151 152/152/152 153/153/153
f 154/154/154 155/155/155 156/156/156
f 157/157/157 158/158/158 159/159/159
f 160/160/160 161/161/161 162/162/162
f 163/163/163 164/164/164 165/165/165
f 166/166/166 167/167/167 168/168/168
f 169/169/169 170/170/170 171/171/171
f 172/172/172 173/173/173 174/174/174
f 175/175/175 176/176/176 177/177/177
f 178/178/178 179/179/179 180/180/180
f 181/181/181 182/182/182 183/183/183
f 184/184/184 185/185/185 186/186/186
f 187/187/187 188/188/188 189/189/189
f 190/190/190 191/191/191 192/192/192
f 193/193/193 194/194/194 195/195/195
f 196/196/196 197/197/197 198/198/198
f 199/199/199 200/200/200 201/201/201
f 202/202/202 203/203/203 204/204/204
f 205/205/205 206/206/206 207/207/207
f 208/208/208 209/209/209 210/210/210
f 211/211/211 212/212/212 213/213/213
f 214/214/214 215/215/215 216/216/216
f 217/217/217 218/218/218 219/219/219
f 220/220/220 221/221/221 222/222/222
f 223/223/223 224/224/224 225/225/225
f 226/226/226 227/227/227 228/228/228
f 229/229/229 230/230/230 231/231/231
f 232/232/232 233/233/233 234/234/234
f 235/235/235 236/236/236 237/237/237
f 238/238/238 239/239/239 240/240/240
f 241/241/241 242/242/242 243/243/243
f 244/244/244 245/245/245 246/246/246
f 247/247/247 248/248/248 249/249/249
f 250/250/250 251/251/251 252/252/252
f 253/253/253 254/254/254 255/255/255
f 256/256/256 257/257/257 258/258/258
f 259/259/259 260/260/260 261/261/261
f 262/262/262 263/263/263 264/264/264
f 265/265/265 266/266/266 267/267/267
f 268/268/268 269/269/269 270/270/270
f 271/271/271 272/272/272 273/273/273
f 274/274/274 275/275/275 276/276/276
f 277/277/277 278/278/278 279/279/279
f 280/280/280 281/281/281 282/282/282
f 283/283/283 284/284/284 285/285/285
f 286/286/286 287/287/287 288/288/288
f 289/289/289 290/290/290 291/291/291
f 292/292/292 293/293/293 294/294/294
f 295/295/295 296/296/296 297/297/297
f 298/298/298 299/299/299 300/300/300
f 301/301/301 302/302/302 303/303/303
f 304/304/304 305/305/305 306/306/306
f 307/307/307 308/308/308 309/309/309
f 310/310/310 311/311/311 312/312/312
f 313/313/313 314/314/314 315/315/315
f 316/316/316 317/317/317 318/318/318
f 319/319/319 320/320/320 321/321/321
f 322/322/322 323/323/323 324/324/324
f 325/325/325 326/326/326 327/327/327
f 328/328/328 329/329/329 330/330/330
f 331/331/331 332/332/332 333/333/333
f 334/334/334 335/335/335 336/336/336
f 337/337/337 338/338/338 339/339/339
f 340/340/340 341/341/341 342/342/342
f 343/343/343 344/344/344 345/345/345
f 346/346/346 347/347/347 348/348/348
f 349/349/349 350/350/350 351/351/351
f 352/352/352 353/353/353 354/354/354
f 355/355/355 356/356/356 357/357/357
f 358/358/358 359/359/359 360/360/360
f 361/361/361 362/362/362 363/363/363
f 364/364/364 365/365/365 366/366/366
f 367/367/367 368/368/368 369/369/369
f 370/370/370 371/371/371 372/372/372
f 373/373/373 374/374/374 375/375/375
f 376/376/376 377/377/377 378/378/378
f 379/379/379 380/380/380 381/381/381
f 382/382/382 383/383/383 384/384/384
f 385/385/385 386/386/386 387/387/387
f 388/388/388 389/389/389 390/390/390
f 391/391/391 392/392/392 393/393/393
f 394/394/394 395/395/395 396/396/396
f 397/397/397 398/398/398 399/399/399
f 400/400/400 401/401/401 402/402/402
f 403/403/403 404/404/404 405/405/405
f 406/406/406 407/407/407 408/408/408
f 409/409/409 410/410/410 411/411/411
f 412/412/412 413/413/413 414/414/414
f 415/415/415 416/416/416 417/417/417
f 418/418/418 419/419/419 420/420/420
f 421/421/421 422/422/422 423/423/423
f 424/424/424 425/425/425 426/426/426
f 427/427/427 428/428/428 429/429/429
f 430/430/430 431/431/431 432/432/432
f 433/433/433 434/434/434 435/435/435
f 436/436/436 437/437/437 438/438/438
f 439/439/439 440/440/440 441/441/441
f 442/442/442 443/443/443 444/444/444
f 445/445/445 446/446/446 447/447/447
f 448/448/448 449/449/449 450/450/450
f 451/451/451 452/452/452 453/453/453
f 454/454/454 455/455/455 456/456/456
f 457/457/457 458/458/458 459/459/459
f 460/460/460 461/461/461 462/462/462
f 463/463/463 464/464/464 465/465/465
f 466/466/466 467/467/467 468/468/468
f 469/469/469 470/470/470 471/471/471
f 472/472/472 473/473/473 474/474/474
f 475/475/475 476/476/476 477/477/477
f 478/478/478 479/479/479 480/480/480
f 481/481/481 482/482/482 483/483/483
f 484/484/484 485/485/485 486/486/486
f 487/487/487 488/488/488 489/489/489
f 490/490/490 491/491/491 492/492/492
f 493/493/493 494/494/494 495/495/495
f 496/496/496 497/497/497 498/498/498
f 499/499/499 500/500/500 501/501/501
f 502/502/502 503/503/503 504/504/504
f 505/505/505 506/506/506 507/507/507
f 508/508/508 509/509/509 510/510/510
f 511/511/511 512/512/512 513/513/513
f 514/514/514 515/515/515 516/516/516
f 517/517/517 518/518/518 519/519/519
f 520/520/520 521/521/521 522/522/522
f 523/523/523 524/524/524 525/525/525
f 526/526/526 527/527/527 528/528/528
f 529/529/529 530/530/530 531/531/531
f 532/532/532 533/533/533 534/534/534
f 535/535/535 536/536/536 537/537/537
f 538/538/538 539/539/539 540/540/540
f 541/541/541 542/542/542 543/543/543
f 544/544/544 545/545/545 546/546/546
f 547/547/547 548/548/548 549/549/549
f 550/550/550 551/551/551 552/552/552
f 553/553/553 554/554/554 555/555/555
f 556/556/556 557/557/557 558/558/558
f 559/559/559 560/560/560 561/561/561
f 562/562/562 563/563/563 564/564/564
f 565/565/565 566/566/566 567/567/567
f 568/568/568 569/569/569 570/570/570
f 571/571/571 572/572/572 573/573/573
f 574/574/574 575/575/575 576/576/576
f 577/577/577 578/578/578 579/579/579
f 580/580/580 581/581/581 582/582/582
f 583/583/583 584/584/584 585/585/585
f 586/586/586 587/587/587 588/588/588
f 589/589/589 590/590/590 591/591/591
f 592/592/592 593/593/593 594/594/594
f 595/595/595 596/596/596 597/597/597
f 598/598/598 599/599/599 600/600/600
f 601/601/601 602/602/602 603/603/603
f 604/604/604 605/605/605 606/606/606
f 607/607/607 608/608/608 609/609/609
f 610/610/610 611/611/611 612/612/612
f 613/613/613 614/614/614 615/615/615
f 616/616/616 617/617/617 618/618/618
f 619/619/619 620/620/620 621/621/621
f 622/622/622 623/623/623 624/624/624
f 625/625/625 626/626/626 627/627/627
f 628/628/628 629/629/629 630/630/630
f 631/631/631 632/632/632 633/633/633
f 634/634/634 635/635/635 636/636/636
f 637/637/637 638/638/638 639/639/639
f 640/640/640 641/641/641 642/642/642
f 643/643/643 644/644/644 645/645/645
f 646/646/646 647/647/647 648/648/648
f 649/649/649 650/650/650 651/651/651
f 652/652/652 653/653/653 654/654/654
f 655/655/655 656/656/656 657/657/657
f 658/658/658 659/659/659 660/660/660
f 661/661/661 662/662/662 663/663/663
f 664/664/664 665/665/665 666/666/666
f 667/667/667 668/668/668 669/669/669
f 670/670/670 671/671/671 672/672/672
f 673/673/673 674/674/674 675/675/675
f 676/676/676 677/677/677 678/678/678
f 679/679/679 680/680/680 681/681/681
f 682/682/682 683/683/683 684/684/684
f 685/685/685 686/686/686 687/687/687
f 688/688/688 689/689/689 690/690/690
f 691/691/691 692/692/692 693/693/693
f 694/694/694 695/695/695 696/696/696
f 697/697/697 698/698/698 699/699/699
f 700/700/700 701/701/701 702/702/702
f 703/703/703 704/704/704 705/705/705
f 706/706/706 707/707/707 708/708/708
f 709/709/709 710/710/710 711/711/711
f 712/712/712 713/713/713 714/714/714
f 715/715/715 716/716/716 717/717/717
f 718/718/718 719/719/719 720/720/720
f 721/721/721 722/722/722 723/723/723
f 724/724/724 725/725/725 726/726/726
f 727/727/727 728/728/728 729/729/729
f 730/730/730 731/731/731 732/732/732
f 733/733/733 734/734/734 735/735/735
f 736/736/736 737/737/737 738/738/738
f 739/739/739 740/740/740 741/741/741
f 742/742/742 743/743/743 744/744/744
f 745/745/745 746/746/746 747/747/747
f 748/748/748 749/749/749 750/750/750
f 751/751/751 752/752/752 753/753/753
f 754/754/754 755/755/755 756/756/756
f 757/757/757 758/758/758 759/759/759
f 760/760/760 761/761/761 762/762/762
f 763/763/763 764/764/764 765/765/765
f 766/766/766 767/767/767 768/768/768
f 769/769/769 770/770/770 771/771/771
f 772/772/772 773/773/773 774/774/774
f 775/775/775 776/776/776 777/777/777
f 778/778/778 779/779/779 780/780/780
f 781/781/781 782/782/782 783/783/783
f 784/784/784 785/785/785 786/786/786
f 787/787/787 788/788/788 789/789/789
f 790/790/790 791/791/791 792/792/792
f 793/793/793 794/794/794 795/795/795
f 796/796/796 797/797/797 798/798/798
f 799/799/799 800/800/800 801/801/801
f 802/802/802 803/803/803 804/804/804
f 805/805/805 806/806/806 807/807/807
f 808/808/808 809/809/809 810/810/810
f 811/811/811 812/812/812 813/813/813
f 814/814/814 815/815/815 816/816/816
f 817/817/817 818/818/818 819/819/819
f 820/820/820 821/821/821 822/822/822
f 823/823/823 824/824/824 825/825/825
f 826/826/826 827/827/827 828/828/828
f 829/829/829 830/830/830 831/831/831
f 832/832/832 833/833/833 834/834/834
f 835/835/835 836/836/836 837/837/837
f 838/838/838 839/839/839 840/840/840
f 841/841/841 842/842/842 843/843/843
f 844/844/844 845/845/845 846/846/846
f 847/847/847 848/848/848 849/849/849
f 850/850/850 851/851/851 852/852/852
f 853/853/853 854/854/854 855/855/855
f 856/856/856 857/857/857 858/858/858
f 859/859/859 860/860/860 861/861/861
f 862/862/862 863/863/863 864/864/864
f 865/865/865 866/866/866 867/867/867
f 868/868/868 869/869/869 870/870/870
f 871/871/871 872/872/872 873/873/873
f 874/874/874 875/875/875 876/876/876
f 877/877/877 878/878/878 879/879/879
f 880/880/880 881/881/881 882/882/882
f 883/883/883 884/884/884 885/885/885
f 886/886/886 887/887/887 888/888/888
f 889/889/889 890/890/890 891/891/891
f 892/892/892 893/893/893 894/894/894
f 895/895/895 896/896/896 897/897/897
f 898/898/898 899/899/899 900/900/900
f 901/901/901 902/902/902 903/903/903
f 904/904/904 905/905/905 906/906/906
f 907/907/907 908/908/908 909/909/909
f 910/910/910 911/911/911 912/912/912
f 913/913/913 914/914/914 915/915/915
f 916/916/916 917/917/917 918/918/918
f 919/919/919 920/920/920 921/921/921
f 922/922/922 923/923/923 924/924/924
f 925/925/925 926/926/926 927/927/927
f 928/928/928 929/929/929 930/930/930
f 931/931/931 932/932/932 933/933/933
f 934/934/934 935/935/935 936/936/936
