# OBJ file
v 655.189450 -1525.139400 352.168200
v 657.785160 -1518.791600 352.168200
v 678.884950 -1534.828600 352.168240
v 657.785160 -1518.791600 352.168200
v 681.480600 -1528.481000 352.168200
v 678.884950 -1534.828600 352.168240
v 675.539700 -1475.372100 410.535220
v 675.749450 -1474.859100 419.535900
v 699.235200 -1485.061300 410.535250
v 675.749450 -1474.859100 419.535900
v 699.444950 -1484.548500 419.535900
v 699.235200 -1485.061300 410.535250
v 677.204470 -1471.300800 422.268830
v 677.280800 -1471.114100 427.826050
v 700.899960 -1480.990100 422.268830
v 677.280800 -1471.114100 427.826050
v 700.976300 -1480.803500 427.826050
v 700.899960 -1480.990100 422.268830
v 676.916000 -1472.006200 428.825350
v 653.868700 -1528.369100 428.825350
v 700.611600 -1481.695400 428.825400
v 653.868700 -1528.369100 428.825350
v 677.564300 -1538.058300 428.825400
v 700.611600 -1481.695400 428.825400
v 676.144100 -1473.893900 420.726600
v 676.819340 -1472.242700 421.076870
v 699.839600 -1483.583300 420.726650
v 676.819340 -1472.242700 421.076870
v 700.514900 -1481.932000 421.076870
v 699.839600 -1483.583300 420.726650
v 653.507450 -1529.252700 427.826400
v 654.793700 -1526.107000 353.167200
v 677.203000 -1538.942000 427.826400
v 654.793700 -1526.107000 353.167200
v 678.489260 -1535.796400 353.167200
v 677.203000 -1538.942000 427.826400
v 701.523130 -1482.108200 427.825350
v 700.611600 -1481.695400 428.825400
v 678.507500 -1538.393800 427.825400
v 700.611600 -1481.695400 428.825400
v 677.564300 -1538.058300 428.825400
v 678.507500 -1538.393800 427.825400
v 652.960750 -1527.947600 427.825350
v 653.868700 -1528.369100 428.825350
v 675.976400 -1471.661900 427.825350
v 653.868700 -1528.369100 428.825350
v 676.916000 -1472.006200 428.825350
v 675.976400 -1471.661900 427.825350
v 675.749450 -1474.859100 419.535900
v 676.144100 -1473.893900 420.726600
v 699.444950 -1484.548500 419.535900
v 676.144100 -1473.893900 420.726600
v 699.839600 -1483.583300 420.726650
v 699.444950 -1484.548500 419.535900
v 677.280800 -1471.114100 427.826050
v 676.916000 -1472.006200 428.825350
v 700.976300 -1480.803500 427.826050
v 676.916000 -1472.006200 428.825350
v 700.611600 -1481.695400 428.825400
v 700.976300 -1480.803500 427.826050
v 653.868700 -1528.369100 428.825350
v 653.507450 -1529.252700 427.826400
v 677.564300 -1538.058300 428.825400
v 653.507450 -1529.252700 427.826400
v 677.203000 -1538.942000 427.826400
v 677.564300 -1538.058300 428.825400
v 675.142150 -1476.344200 409.388300
v 698.837700 -1486.033600 409.388340
v 695.379000 -1494.491800 408.013180
v 671.683500 -1484.802600 408.013180
v 675.142150 -1476.344200 409.388300
v 695.379000 -1494.491800 408.013180
v 671.683500 -1484.802600 408.013180
v 695.379000 -1494.491800 408.013180
v 691.712160 -1503.459200 405.885220
v 668.016660 -1493.769900 405.885220
v 671.683500 -1484.802600 408.013180
v 691.712160 -1503.459200 405.885220
v 668.016660 -1493.769900 405.885220
v 691.712160 -1503.459200 405.885220
v 688.377600 -1511.614000 402.549440
v 664.682100 -1501.924700 402.549440
v 668.016660 -1493.769900 405.885220
v 688.377600 -1511.614000 402.549440
v 664.682100 -1501.924700 402.549440
v 688.377600 -1511.614000 402.549440
v 685.541560 -1518.549800 397.401820
v 661.846070 -1508.860500 397.401800
v 664.682100 -1501.924700 402.549440
v 685.541560 -1518.549800 397.401820
v 661.846070 -1508.860500 397.401800
v 685.541560 -1518.549800 397.401820
v 683.563800 -1523.386400 389.409820
v 659.868200 -1513.697100 389.409800
v 661.846070 -1508.860500 397.401800
v 683.563800 -1523.386400 389.409820
v 659.868200 -1513.697100 389.409800
v 683.563800 -1523.386400 389.409820
v 682.492100 -1526.007200 378.575200
v 658.796630 -1516.318000 378.575200
v 659.868200 -1513.697100 389.409800
v 682.492100 -1526.007200 378.575200
v 658.796630 -1516.318000 378.575200
v 682.492100 -1526.007200 378.575200
v 682.024600 -1527.150500 365.845500
v 658.329100 -1517.461200 365.845500
v 658.796630 -1516.318000 378.575200
v 682.024600 -1527.150500 365.845500
v 658.329100 -1517.461200 365.845500
v 682.024600 -1527.150500 365.845500
v 681.871200 -1527.525800 353.167720
v 658.175660 -1517.836400 353.167700
v 658.329100 -1517.461200 365.845500
v 681.871200 -1527.525800 353.167720
v 700.976300 -1480.803500 427.826050
v 700.611600 -1481.695400 428.825400
v 701.523130 -1482.108200 427.825350
v 700.899960 -1480.990100 422.268830
v 700.976300 -1480.803500 427.826050
v 701.523130 -1482.108200 427.825350
v 701.444500 -1482.300500 422.098050
v 700.899960 -1480.990100 422.268830
v 701.523130 -1482.108200 427.825350
v 675.142150 -1476.344200 409.388300
v 674.231900 -1475.928200 410.405640
v 675.539700 -1475.372100 410.535220
v 675.142150 -1476.344200 409.388300
v 675.539700 -1475.372100 410.535220
v 698.837700 -1486.033600 409.388340
v 675.539700 -1475.372100 410.535220
v 699.235200 -1485.061300 410.535250
v 698.837700 -1486.033600 409.388340
v 698.837700 -1486.033600 409.388340
v 699.235200 -1485.061300 410.535250
v 699.778600 -1486.374500 410.405670
v 676.819340 -1472.242700 421.076870
v 675.897770 -1471.854200 422.098050
v 677.204470 -1471.300800 422.268830
v 700.514900 -1481.932000 421.076870
v 676.819340 -1472.242700 421.076870
v 677.204470 -1471.300800 422.268830
v 700.899960 -1480.990100 422.268830
v 700.514900 -1481.932000 421.076870
v 677.204470 -1471.300800 422.268830
v 700.514900 -1481.932000 421.076870
v 700.899960 -1480.990100 422.268830
v 701.444500 -1482.300500 422.098050
v 682.418150 -1528.830300 353.168200
v 681.871200 -1527.525800 353.167720
v 682.572300 -1528.453100 365.909820
v 681.871200 -1527.525800 353.167720
v 682.024600 -1527.150500 365.845500
v 682.572300 -1528.453100 365.909820
v 682.572300 -1528.453100 365.909820
v 682.024600 -1527.150500 365.845500
v 683.043950 -1527.299800 378.751000
v 682.024600 -1527.150500 365.845500
v 682.492100 -1526.007200 378.575200
v 683.043950 -1527.299800 378.751000
v 683.043950 -1527.299800 378.751000
v 682.492100 -1526.007200 378.575200
v 684.138800 -1524.622300 389.820500
v 682.492100 -1526.007200 378.575200
v 683.563800 -1523.386400 389.409820
v 684.138800 -1524.622300 389.820500
v 684.138800 -1524.622300 389.820500
v 683.563800 -1523.386400 389.409820
v 686.191300 -1519.602900 398.114300
v 683.563800 -1523.386400 389.409820
v 685.541560 -1518.549800 397.401820
v 686.191300 -1519.602900 398.114300
v 686.191300 -1519.602900 398.114300
v 685.541560 -1518.549800 397.401820
v 689.126500 -1512.424600 403.441930
v 685.541560 -1518.549800 397.401820
v 688.377600 -1511.614000 402.549440
v 689.126500 -1512.424600 403.441930
v 689.126500 -1512.424600 403.441930
v 688.377600 -1511.614000 402.549440
v 692.529600 -1504.102300 406.846280
v 688.377600 -1511.614000 402.549440
v 691.712160 -1503.459200 405.885220
v 692.529600 -1504.102300 406.846280
v 692.529600 -1504.102300 406.846280
v 691.712160 -1503.459200 405.885220
v 696.235800 -1495.038700 408.997040
v 691.712160 -1503.459200 405.885220
v 695.379000 -1494.491800 408.013180
v 696.235800 -1495.038700 408.997040
v 696.235800 -1495.038700 408.997040
v 695.379000 -1494.491800 408.013180
v 699.778600 -1486.374500 410.405670
v 695.379000 -1494.491800 408.013180
v 698.837700 -1486.033600 409.388340
v 699.778600 -1486.374500 410.405670
v 674.231900 -1475.928200 410.405640
v 675.142150 -1476.344200 409.388300
v 670.689000 -1484.592400 408.997040
v 675.142150 -1476.344200 409.388300
v 671.683500 -1484.802600 408.013180
v 670.689000 -1484.592400 408.997040
v 670.689000 -1484.592400 408.997040
v 671.683500 -1484.802600 408.013180
v 666.982850 -1493.656000 406.846280
v 671.683500 -1484.802600 408.013180
v 668.016660 -1493.769900 405.885220
v 666.982850 -1493.656000 406.846280
v 666.982850 -1493.656000 406.846280
v 668.016660 -1493.769900 405.885220
v 663.579830 -1501.978300 403.441960
v 668.016660 -1493.769900 405.885220
v 664.682100 -1501.924700 402.549440
v 663.579830 -1501.978300 403.441960
v 663.579830 -1501.978300 403.441960
v 664.682100 -1501.924700 402.549440
v 660.644530 -1509.156600 398.114300
v 664.682100 -1501.924700 402.549440
v 661.846070 -1508.860500 397.401800
v 660.644530 -1509.156600 398.114300
v 660.644530 -1509.156600 398.114300
v 661.846070 -1508.860500 397.401800
v 658.592040 -1514.176000 389.820470
v 661.846070 -1508.860500 397.401800
v 659.868200 -1513.697100 389.409800
v 658.592040 -1514.176000 389.820470
v 658.592040 -1514.176000 389.820470
v 659.868200 -1513.697100 389.409800
v 657.497250 -1516.853500 378.751000
v 659.868200 -1513.697100 389.409800
v 658.796630 -1516.318000 378.575200
v 657.497250 -1516.853500 378.751000
v 657.497250 -1516.853500 378.751000
v 658.796630 -1516.318000 378.575200
v 657.025600 -1518.007000 365.909820
v 658.796630 -1516.318000 378.575200
v 658.329100 -1517.461200 365.845500
v 657.025600 -1518.007000 365.909820
v 657.025600 -1518.007000 365.909820
v 658.329100 -1517.461200 365.845500
v 656.871400 -1518.384000 353.168200
v 658.329100 -1517.461200 365.845500
v 658.175660 -1517.836400 353.167700
v 656.871400 -1518.384000 353.168200
v 654.247000 -1524.802000 353.168200
v 654.793700 -1526.107000 353.167200
v 652.960750 -1527.947600 427.825350
v 654.793700 -1526.107000 353.167200
v 653.507450 -1529.252700 427.826400
v 652.960750 -1527.947600 427.825350
v 653.868700 -1528.369100 428.825350
v 652.960750 -1527.947600 427.825350
v 653.507450 -1529.252700 427.826400
v 656.871400 -1518.384000 353.168200
v 654.247000 -1524.802000 353.168200
v 657.025600 -1518.007000 365.909820
v 657.025600 -1518.007000 365.909820
v 654.247000 -1524.802000 353.168200
v 657.497250 -1516.853500 378.751000
v 654.247000 -1524.802000 353.168200
v 652.960750 -1527.947600 427.825350
v 657.497250 -1516.853500 378.751000
v 652.960750 -1527.947600 427.825350
v 658.592040 -1514.176000 389.820470
v 657.497250 -1516.853500 378.751000
v 660.644530 -1509.156600 398.114300
v 658.592040 -1514.176000 389.820470
v 652.960750 -1527.947600 427.825350
v 663.579830 -1501.978300 403.441960
v 660.644530 -1509.156600 398.114300
v 652.960750 -1527.947600 427.825350
v 666.982850 -1493.656000 406.846280
v 663.579830 -1501.978300 403.441960
v 652.960750 -1527.947600 427.825350
v 670.689000 -1484.592400 408.997040
v 666.982850 -1493.656000 406.846280
v 652.960750 -1527.947600 427.825350
v 674.231900 -1475.928200 410.405640
v 670.689000 -1484.592400 408.997040
v 652.960750 -1527.947600 427.825350
v 674.487240 -1475.303700 421.366460
v 674.231900 -1475.928200 410.405640
v 652.960750 -1527.947600 427.825350
v 675.897770 -1471.854200 422.098050
v 674.487240 -1475.303700 421.366460
v 652.960750 -1527.947600 427.825350
v 675.976400 -1471.661900 427.825350
v 675.897770 -1471.854200 422.098050
v 652.960750 -1527.947600 427.825350
v 677.564300 -1538.058300 428.825400
v 677.203000 -1538.942000 427.826400
v 678.507500 -1538.393800 427.825400
v 678.507500 -1538.393800 427.825400
v 677.203000 -1538.942000 427.826400
v 679.793760 -1535.248300 353.168240
v 677.203000 -1538.942000 427.826400
v 678.489260 -1535.796400 353.167200
v 679.793760 -1535.248300 353.168240
v 677.280800 -1471.114100 427.826050
v 675.976400 -1471.661900 427.825350
v 676.916000 -1472.006200 428.825350
v 675.976400 -1471.661900 427.825350
v 677.280800 -1471.114100 427.826050
v 675.897770 -1471.854200 422.098050
v 677.280800 -1471.114100 427.826050
v 677.204470 -1471.300800 422.268830
v 675.897770 -1471.854200 422.098050
v 699.839600 -1483.583300 420.726650
v 700.514900 -1481.932000 421.076870
v 701.444500 -1482.300500 422.098050
v 700.034000 -1485.750000 421.366460
v 699.839600 -1483.583300 420.726650
v 701.444500 -1482.300500 422.098050
v 699.444950 -1484.548500 419.535900
v 699.839600 -1483.583300 420.726650
v 700.034000 -1485.750000 421.366460
v 699.235200 -1485.061300 410.535250
v 699.444950 -1484.548500 419.535900
v 700.034000 -1485.750000 421.366460
v 699.778600 -1486.374500 410.405670
v 699.235200 -1485.061300 410.535250
v 700.034000 -1485.750000 421.366460
v 675.749450 -1474.859100 419.535900
v 675.539700 -1475.372100 410.535220
v 674.231900 -1475.928200 410.405640
v 674.487240 -1475.303700 421.366460
v 675.749450 -1474.859100 419.535900
v 674.231900 -1475.928200 410.405640
v 675.749450 -1474.859100 419.535900
v 674.487240 -1475.303700 421.366460
v 676.144100 -1473.893900 420.726600
v 676.819340 -1472.242700 421.076870
v 676.144100 -1473.893900 420.726600
v 674.487240 -1475.303700 421.366460
v 675.897770 -1471.854200 422.098050
v 676.819340 -1472.242700 421.076870
v 674.487240 -1475.303700 421.366460
v 699.778600 -1486.374500 410.405670
v 700.034000 -1485.750000 421.366460
v 696.235800 -1495.038700 408.997040
v 696.235800 -1495.038700 408.997040
v 700.034000 -1485.750000 421.366460
v 692.529600 -1504.102300 406.846280
v 701.444500 -1482.300500 422.098050
v 701.523130 -1482.108200 427.825350
v 700.034000 -1485.750000 421.366460
v 700.034000 -1485.750000 421.366460
v 701.523130 -1482.108200 427.825350
v 692.529600 -1504.102300 406.846280
v 701.523130 -1482.108200 427.825350
v 678.507500 -1538.393800 427.825400
v 692.529600 -1504.102300 406.846280
v 678.507500 -1538.393800 427.825400
v 689.126500 -1512.424600 403.441930
v 692.529600 -1504.102300 406.846280
v 686.191300 -1519.602900 398.114300
v 689.126500 -1512.424600 403.441930
v 678.507500 -1538.393800 427.825400
v 684.138800 -1524.622300 389.820500
v 686.191300 -1519.602900 398.114300
v 678.507500 -1538.393800 427.825400
v 683.043950 -1527.299800 378.751000
v 684.138800 -1524.622300 389.820500
v 678.507500 -1538.393800 427.825400
v 682.572300 -1528.453100 365.909820
v 683.043950 -1527.299800 378.751000
v 678.507500 -1538.393800 427.825400
v 682.418150 -1528.830300 353.168200
v 682.572300 -1528.453100 365.909820
v 678.507500 -1538.393800 427.825400
v 679.793760 -1535.248300 353.168240
v 682.418150 -1528.830300 353.168200
v 678.507500 -1538.393800 427.825400
v 657.785160 -1518.791600 352.168200
v 656.871400 -1518.384000 353.168200
v 658.175660 -1517.836400 353.167700
v 656.871400 -1518.384000 353.168200
v 657.785160 -1518.791600 352.168200
v 654.247000 -1524.802000 353.168200
v 657.785160 -1518.791600 352.168200
v 658.175660 -1517.836400 353.167700
v 681.480600 -1528.481000 352.168200
v 657.785160 -1518.791600 352.168200
v 655.189450 -1525.139400 352.168200
v 654.247000 -1524.802000 353.168200
v 658.175660 -1517.836400 353.167700
v 681.871200 -1527.525800 353.167720
v 681.480600 -1528.481000 352.168200
v 654.793700 -1526.107000 353.167200
v 654.247000 -1524.802000 353.168200
v 655.189450 -1525.139400 352.168200
v 682.418150 -1528.830300 353.168200
v 681.480600 -1528.481000 352.168200
v 681.871200 -1527.525800 353.167720
v 678.489260 -1535.796400 353.167200
v 654.793700 -1526.107000 353.167200
v 655.189450 -1525.139400 352.168200
v 678.884950 -1534.828600 352.168240
v 681.480600 -1528.481000 352.168200
v 682.418150 -1528.830300 353.168200
v 678.884950 -1534.828600 352.168240
v 678.489260 -1535.796400 353.167200
v 655.189450 -1525.139400 352.168200
v 679.793760 -1535.248300 353.168240
v 678.884950 -1534.828600 352.168240
v 682.418150 -1528.830300 353.168200
v 678.489260 -1535.796400 353.167200
v 678.884950 -1534.828600 352.168240
v 679.793760 -1535.248300 353.168240
vn -0.003921 0.003921 -0.999985
vn -0.003921 0.003921 -0.999985
vn -0.003921 0.003921 -0.999985
vn -0.003921 0.003921 -0.999985
vn -0.003921 0.003921 -0.999985
vn -0.003921 0.003921 -0.999985
vn 0.371244 0.926156 -0.066433
vn 0.371244 0.926156 -0.066433
vn 0.371244 0.926156 -0.066433
vn 0.371244 0.926156 -0.066433
vn 0.371244 0.926156 -0.066433
vn 0.371244 0.926156 -0.066433
vn 0.371721 0.927346 -0.043041
vn 0.371721 0.927346 -0.043041
vn 0.371721 0.927346 -0.043041
vn 0.371721 0.927346 -0.043041
vn 0.371721 0.927346 -0.043041
vn 0.371721 0.927346 -0.043041
vn -0.003921 0.003921 0.999985
vn -0.003921 0.003921 0.999985
vn -0.003921 0.003921 0.999985
vn -0.003921 0.003921 0.999985
vn -0.003921 0.003921 0.999985
vn -0.003921 0.003921 0.999985
vn 0.066425 0.183646 -0.980746
vn 0.066425 0.183646 -0.980746
vn 0.066425 0.183646 -0.980746
vn 0.066425 0.183646 -0.980746
vn 0.066425 0.183646 -0.980746
vn 0.066425 0.183646 -0.980746
vn -0.381043 -0.923146 -0.051068
vn -0.381043 -0.923146 -0.051068
vn -0.381043 -0.923146 -0.051068
vn -0.381043 -0.923146 -0.051068
vn -0.381043 -0.923146 -0.051068
vn -0.381043 -0.923146 -0.051068
vn 0.884136 0.145391 0.444033
vn 0.603003 0.264060 0.752768
vn 0.533489 -0.723173 0.438646
vn 0.603003 0.264060 0.752768
vn 0.249586 -0.614060 0.748757
vn 0.533489 -0.723173 0.438646
vn -0.889854 -0.137202 0.435127
vn -0.616474 -0.263081 0.742124
vn -0.534232 0.721408 0.440644
vn -0.616474 -0.263081 0.742124
vn -0.254258 0.614130 0.747126
vn -0.534232 0.721408 0.440644
vn -0.291472 0.897732 -0.330334
vn -0.401478 0.619757 -0.674327
vn 0.833132 0.441990 -0.332470
vn -0.401478 0.619757 -0.674327
vn 0.717239 0.160693 -0.678046
vn 0.833132 0.441990 -0.332470
vn -0.144387 0.885834 0.440966
vn -0.254258 0.614130 0.747126
vn 0.717636 0.537247 0.443130
vn -0.254258 0.614130 0.747126
vn 0.603003 0.264060 0.752768
vn 0.717636 0.537247 0.443130
vn -0.616474 -0.263081 0.742124
vn -0.726911 -0.530449 0.436147
vn 0.249586 -0.614060 0.748757
vn -0.726911 -0.530449 0.436147
vn 0.130408 -0.889147 0.438646
vn 0.249586 -0.614060 0.748757
vn 0.050777 0.144519 -0.988198
vn 0.050777 0.144519 -0.988198
vn 0.066608 0.168480 -0.983452
vn 0.066608 0.168480 -0.983452
vn 0.050777 0.144519 -0.988198
vn 0.066608 0.168480 -0.983452
vn 0.066608 0.168480 -0.983452
vn 0.066608 0.168480 -0.983452
vn 0.105486 0.269574 -0.957185
vn 0.105486 0.269574 -0.957185
vn 0.066608 0.168480 -0.983452
vn 0.105486 0.269574 -0.957185
vn 0.105486 0.269574 -0.957185
vn 0.105486 0.269574 -0.957185
vn 0.167760 0.433056 -0.885618
vn 0.167760 0.433056 -0.885618
vn 0.105486 0.269574 -0.957185
vn 0.167760 0.433056 -0.885618
vn 0.167760 0.433056 -0.885618
vn 0.167760 0.433056 -0.885618
vn 0.269888 0.661029 -0.700143
vn 0.269888 0.661029 -0.700143
vn 0.167760 0.433056 -0.885618
vn 0.269888 0.661029 -0.700143
vn 0.269888 0.661029 -0.700143
vn 0.269888 0.661029 -0.700143
vn 0.339463 0.846707 -0.409697
vn 0.339463 0.846707 -0.409697
vn 0.269888 0.661029 -0.700143
vn 0.339463 0.846707 -0.409697
vn 0.339463 0.846707 -0.409697
vn 0.339463 0.846707 -0.409697
vn 0.371653 0.911527 -0.176046
vn 0.371653 0.911527 -0.176046
vn 0.339463 0.846707 -0.409697
vn 0.371653 0.911527 -0.176046
vn 0.371653 0.911527 -0.176046
vn 0.371653 0.911527 -0.176046
vn 0.371244 0.926156 -0.066433
vn 0.371244 0.926156 -0.066433
vn 0.371653 0.911527 -0.176046
vn 0.371244 0.926156 -0.066433
vn 0.371244 0.926156 -0.066433
vn 0.371244 0.926156 -0.066433
vn 0.371835 0.927630 -0.035226
vn 0.371835 0.927630 -0.035226
vn 0.371244 0.926156 -0.066433
vn 0.371835 0.927630 -0.035226
vn 0.717636 0.537247 0.443130
vn 0.603003 0.264060 0.752768
vn 0.884136 0.145391 0.444033
vn 0.715658 0.559230 -0.418445
vn 0.717636 0.537247 0.443130
vn 0.884136 0.145391 0.444033
vn 0.864250 0.217049 -0.453830
vn 0.715658 0.559230 -0.418445
vn 0.884136 0.145391 0.444033
vn -0.230225 0.643849 -0.729695
vn -0.479610 0.744760 -0.464013
vn -0.129053 0.887729 -0.441909
vn -0.230225 0.643849 -0.729695
vn -0.129053 0.887729 -0.441909
vn 0.608321 0.302198 -0.733909
vn -0.129053 0.887729 -0.441909
vn 0.710756 0.545829 -0.443731
vn 0.608321 0.302198 -0.733909
vn 0.608321 0.302198 -0.733909
vn 0.710756 0.545829 -0.443731
vn 0.860825 0.200466 -0.467754
vn -0.221907 0.665723 -0.712440
vn -0.471381 0.759664 -0.448007
vn -0.128551 0.899855 -0.416816
vn 0.615677 0.325485 -0.717636
vn -0.221907 0.665723 -0.712440
vn -0.128551 0.899855 -0.416816
vn 0.715658 0.559230 -0.418445
vn 0.615677 0.325485 -0.717636
vn -0.128551 0.899855 -0.416816
vn 0.615677 0.325485 -0.717636
vn 0.715658 0.559230 -0.418445
vn 0.864250 0.217049 -0.453830
vn 0.867829 0.145292 -0.475146
vn 0.705518 0.524211 -0.476914
vn 0.920366 0.387729 -0.050914
vn 0.705518 0.524211 -0.476914
vn 0.920366 0.387729 -0.050914
vn 0.920366 0.387729 -0.050914
vn 0.920366 0.387729 -0.050914
vn 0.920366 0.387729 -0.050914
vn 0.915402 0.381090 -0.129649
vn 0.920366 0.387729 -0.050914
vn 0.915402 0.381090 -0.129649
vn 0.915402 0.381090 -0.129649
vn 0.915402 0.381090 -0.129649
vn 0.915402 0.381090 -0.129649
vn 0.900577 0.326410 -0.287084
vn 0.915402 0.381090 -0.129649
vn 0.900577 0.326410 -0.287084
vn 0.900577 0.326410 -0.287084
vn 0.900577 0.326410 -0.287084
vn 0.900577 0.326410 -0.287084
vn 0.846884 0.200889 -0.492374
vn 0.900577 0.326410 -0.287084
vn 0.846884 0.200889 -0.492374
vn 0.846884 0.200889 -0.492374
vn 0.846884 0.200889 -0.492374
vn 0.846884 0.200889 -0.492374
vn 0.776947 0.035138 -0.628585
vn 0.846884 0.200889 -0.492374
vn 0.776947 0.035138 -0.628585
vn 0.776947 0.035138 -0.628585
vn 0.776947 0.035138 -0.628585
vn 0.776947 0.035138 -0.628585
vn 0.728352 -0.074804 -0.681108
vn 0.776947 0.035138 -0.628585
vn 0.728352 -0.074804 -0.681108
vn 0.728352 -0.074804 -0.681108
vn 0.728352 -0.074804 -0.681108
vn 0.728352 -0.074804 -0.681108
vn 0.699673 -0.144625 -0.699673
vn 0.728352 -0.074804 -0.681108
vn 0.699673 -0.144625 -0.699673
vn 0.699673 -0.144625 -0.699673
vn 0.699673 -0.144625 -0.699673
vn 0.699673 -0.144625 -0.699673
vn 0.860825 0.200466 -0.467754
vn 0.699673 -0.144625 -0.699673
vn 0.608321 0.302198 -0.733909
vn 0.860825 0.200466 -0.467754
vn -0.479610 0.744760 -0.464013
vn -0.230225 0.643849 -0.729695
vn -0.603946 0.385746 -0.697460
vn -0.230225 0.643849 -0.729695
vn -0.603946 0.385746 -0.697460
vn -0.603946 0.385746 -0.697460
vn -0.603946 0.385746 -0.697460
vn -0.603946 0.385746 -0.697460
vn -0.580779 0.456048 -0.674327
vn -0.603946 0.385746 -0.697460
vn -0.580779 0.456048 -0.674327
vn -0.580779 0.456048 -0.674327
vn -0.580779 0.456048 -0.674327
vn -0.580779 0.456048 -0.674327
vn -0.532068 0.570905 -0.625277
vn -0.580779 0.456048 -0.674327
vn -0.532068 0.570905 -0.625277
vn -0.532068 0.570905 -0.625277
vn -0.532068 0.570905 -0.625277
vn -0.532068 0.570905 -0.625277
vn -0.471038 0.735754 -0.486610
vn -0.532068 0.570905 -0.625277
vn -0.471038 0.735754 -0.486610
vn -0.471038 0.735754 -0.486610
vn -0.471038 0.735754 -0.486610
vn -0.471038 0.735754 -0.486610
vn -0.417704 0.862735 -0.284976
vn -0.471038 0.735754 -0.486610
vn -0.417704 0.862735 -0.284976
vn -0.417704 0.862735 -0.284976
vn -0.417704 0.862735 -0.284976
vn -0.417704 0.862735 -0.284976
vn -0.394402 0.909858 -0.128864
vn -0.417704 0.862735 -0.284976
vn -0.394402 0.909858 -0.128864
vn -0.394402 0.909858 -0.128864
vn -0.394402 0.909858 -0.128864
vn -0.394402 0.909858 -0.128864
vn -0.387729 0.920366 -0.050914
vn -0.394402 0.909858 -0.128864
vn -0.387729 0.920366 -0.050914
vn -0.387729 0.920366 -0.050914
vn -0.387729 0.920366 -0.050914
vn -0.387729 0.920366 -0.050914
vn -0.526978 0.706541 -0.472328
vn -0.387729 0.920366 -0.050914
vn -0.144308 0.869748 -0.471926
vn -0.526978 0.706541 -0.472328
vn -0.867481 -0.136152 -0.478476
vn -0.709662 -0.513623 -0.482256
vn -0.889854 -0.137202 0.435127
vn -0.709662 -0.513623 -0.482256
vn -0.726911 -0.530449 0.436147
vn -0.889854 -0.137202 0.435127
vn -0.616474 -0.263081 0.742124
vn -0.889854 -0.137202 0.435127
vn -0.726911 -0.530449 0.436147
vn -0.925478 0.378782 -0.003905
vn -0.925478 0.378782 -0.003905
vn -0.925478 0.378782 -0.003905
vn -0.925478 0.378782 -0.003905
vn -0.925478 0.378782 -0.003905
vn -0.925478 0.378782 -0.003905
vn -0.925478 0.378782 -0.003905
vn -0.925478 0.378782 -0.003905
vn -0.925478 0.378782 -0.003905
vn -0.925478 0.378782 -0.003905
vn -0.925478 0.378782 -0.003905
vn -0.925478 0.378782 -0.003905
vn -0.925478 0.378782 -0.003905
vn -0.925478 0.378782 -0.003905
vn -0.925478 0.378782 -0.003905
vn -0.925478 0.378782 -0.003905
vn -0.925478 0.378782 -0.003905
vn -0.925478 0.378782 -0.003905
vn -0.925478 0.378782 -0.003905
vn -0.925478 0.378782 -0.003905
vn -0.925478 0.378782 -0.003905
vn -0.925478 0.378782 -0.003905
vn -0.925478 0.378782 -0.003905
vn -0.925478 0.378782 -0.003905
vn -0.925478 0.378782 -0.003905
vn -0.925478 0.378782 -0.003905
vn -0.925478 0.378782 -0.003905
vn -0.925478 0.378782 -0.003905
vn -0.925478 0.378782 -0.003905
vn -0.925478 0.378782 -0.003905
vn -0.925478 0.378782 -0.003905
vn -0.925478 0.378782 -0.003905
vn -0.925478 0.378782 -0.003905
vn -0.925478 0.378782 -0.003905
vn -0.925478 0.378782 -0.003905
vn -0.925478 0.378782 -0.003905
vn 0.249586 -0.614060 0.748757
vn 0.130408 -0.889147 0.438646
vn 0.533489 -0.723173 0.438646
vn 0.533489 -0.723173 0.438646
vn 0.130408 -0.889147 0.438646
vn 0.522236 -0.702859 -0.482970
vn 0.130408 -0.889147 0.438646
vn 0.138010 -0.863551 -0.485008
vn 0.522236 -0.702859 -0.482970
vn -0.144387 0.885834 0.440966
vn -0.534232 0.721408 0.440644
vn -0.254258 0.614130 0.747126
vn -0.534232 0.721408 0.440644
vn -0.144387 0.885834 0.440966
vn -0.471381 0.759664 -0.448007
vn -0.144387 0.885834 0.440966
vn -0.128551 0.899855 -0.416816
vn -0.471381 0.759664 -0.448007
vn 0.717239 0.160693 -0.678046
vn 0.615677 0.325485 -0.717636
vn 0.864250 0.217049 -0.453830
vn 0.920592 0.090100 -0.379989
vn 0.717239 0.160693 -0.678046
vn 0.864250 0.217049 -0.453830
vn 0.833132 0.441990 -0.332470
vn 0.717239 0.160693 -0.678046
vn 0.920592 0.090100 -0.379989
vn 0.710756 0.545829 -0.443731
vn 0.833132 0.441990 -0.332470
vn 0.920592 0.090100 -0.379989
vn 0.860825 0.200466 -0.467754
vn 0.710756 0.545829 -0.443731
vn 0.920592 0.090100 -0.379989
vn -0.291472 0.897732 -0.330334
vn -0.129053 0.887729 -0.441909
vn -0.479610 0.744760 -0.464013
vn -0.602447 0.703503 -0.377015
vn -0.291472 0.897732 -0.330334
vn -0.479610 0.744760 -0.464013
vn -0.291472 0.897732 -0.330334
vn -0.602447 0.703503 -0.377015
vn -0.401478 0.619757 -0.674327
vn -0.221907 0.665723 -0.712440
vn -0.401478 0.619757 -0.674327
vn -0.602447 0.703503 -0.377015
vn -0.471381 0.759664 -0.448007
vn -0.221907 0.665723 -0.712440
vn -0.602447 0.703503 -0.377015
vn 0.927103 -0.374786 -0.003945
vn 0.927103 -0.374786 -0.003945
vn 0.927103 -0.374786 -0.003945
vn 0.927103 -0.374786 -0.003945
vn 0.927103 -0.374786 -0.003945
vn 0.927103 -0.374786 -0.003945
vn 0.927103 -0.374786 -0.003945
vn 0.927103 -0.374786 -0.003945
vn 0.927103 -0.374786 -0.003945
vn 0.927103 -0.374786 -0.003945
vn 0.927103 -0.374786 -0.003945
vn 0.927103 -0.374786 -0.003945
vn 0.927103 -0.374786 -0.003945
vn 0.927103 -0.374786 -0.003945
vn 0.927103 -0.374786 -0.003945
vn 0.927103 -0.374786 -0.003945
vn 0.927103 -0.374786 -0.003945
vn 0.927103 -0.374786 -0.003945
vn 0.927103 -0.374786 -0.003945
vn 0.927103 -0.374786 -0.003945
vn 0.927103 -0.374786 -0.003945
vn 0.927103 -0.374786 -0.003945
vn 0.927103 -0.374786 -0.003945
vn 0.927103 -0.374786 -0.003945
vn 0.927103 -0.374786 -0.003945
vn 0.927103 -0.374786 -0.003945
vn 0.927103 -0.374786 -0.003945
vn 0.927103 -0.374786 -0.003945
vn 0.927103 -0.374786 -0.003945
vn 0.927103 -0.374786 -0.003945
vn 0.927103 -0.374786 -0.003945
vn 0.927103 -0.374786 -0.003945
vn 0.927103 -0.374786 -0.003945
vn 0.927103 -0.374786 -0.003945
vn 0.927103 -0.374786 -0.003945
vn 0.927103 -0.374786 -0.003945
vn -0.253329 0.588503 -0.767782
vn -0.526978 0.706541 -0.472328
vn -0.144308 0.869748 -0.471926
vn -0.526978 0.706541 -0.472328
vn -0.253329 0.588503 -0.767782
vn -0.867481 -0.136152 -0.478476
vn -0.253329 0.588503 -0.767782
vn -0.144308 0.869748 -0.471926
vn 0.589650 0.246013 -0.769279
vn -0.253329 0.588503 -0.767782
vn -0.596914 -0.230183 -0.768576
vn -0.867481 -0.136152 -0.478476
vn -0.144308 0.869748 -0.471926
vn 0.705518 0.524211 -0.476914
vn 0.589650 0.246013 -0.769279
vn -0.709662 -0.513623 -0.482256
vn -0.867481 -0.136152 -0.478476
vn -0.596914 -0.230183 -0.768576
vn 0.867829 0.145292 -0.475146
vn 0.589650 0.246013 -0.769279
vn 0.705518 0.524211 -0.476914
vn 0.138010 -0.863551 -0.485008
vn -0.709662 -0.513623 -0.482256
vn -0.596914 -0.230183 -0.768576
vn 0.254491 -0.583373 -0.771304
vn 0.589650 0.246013 -0.769279
vn 0.867829 0.145292 -0.475146
vn 0.254491 -0.583373 -0.771304
vn 0.138010 -0.863551 -0.485008
vn -0.596914 -0.230183 -0.768576
vn 0.522236 -0.702859 -0.482970
vn 0.254491 -0.583373 -0.771304
vn 0.867829 0.145292 -0.475146
vn 0.138010 -0.863551 -0.485008
vn 0.254491 -0.583373 -0.771304
vn 0.522236 -0.702859 -0.482970
vt 0.591797 1.385010
vt 0.625977 1.385010
vt 0.591797 1.512695
vt 0.625977 1.385010
vt 0.625977 1.512695
vt 0.591797 1.512695
vt 0.576172 1.385010
vt 0.621094 1.385010
vt 0.576172 1.512695
vt 0.621094 1.385010
vt 0.621094 1.512695
vt 0.576172 1.512695
vt 0.634766 1.385010
vt 0.662598 1.385010
vt 0.634766 1.512695
vt 0.662598 1.385010
vt 0.662598 1.512695
vt 0.634766 1.512695
vt 0.120972 1.385010
vt 0.425293 1.385010
vt 0.120972 1.512695
vt 0.425293 1.385010
vt 0.425293 1.512695
vt 0.120972 1.512695
vt 0.868652 1.385010
vt 0.877441 1.385010
vt 0.868652 1.512695
vt 0.877441 1.385010
vt 0.877441 1.512695
vt 0.868652 1.512695
vt 0.336914 1.385010
vt 0.709961 1.385010
vt 0.336914 1.512695
vt 0.709961 1.385010
vt 0.709961 1.512695
vt 0.336914 1.512695
vt 0.121155 1.517578
vt 0.120972 1.512695
vt 0.425049 1.517578
vt 0.120972 1.512695
vt 0.425293 1.512695
vt 0.425049 1.517578
vt 0.425049 1.379883
vt 0.425293 1.385010
vt 0.121155 1.379883
vt 0.425293 1.385010
vt 0.120972 1.385010
vt 0.121155 1.379883
vt 0.621094 1.385010
vt 0.627441 1.385010
vt 0.621094 1.512695
vt 0.627441 1.385010
vt 0.627441 1.512695
vt 0.621094 1.512695
vt 0.662598 1.385010
vt 0.667969 1.385010
vt 0.662598 1.512695
vt 0.667969 1.385010
vt 0.667969 1.512695
vt 0.662598 1.512695
vt 0.331787 1.385010
vt 0.336914 1.385010
vt 0.331787 1.512695
vt 0.336914 1.385010
vt 0.336914 1.512695
vt 0.331787 1.512695
vt 0.855469 1.385010
vt 0.855469 1.512695
vt 0.809570 1.512695
vt 0.809570 1.385010
vt 0.855469 1.385010
vt 0.809570 1.512695
vt 0.809570 1.385010
vt 0.809570 1.512695
vt 0.761230 1.512695
vt 0.761230 1.385010
vt 0.809570 1.385010
vt 0.761230 1.512695
vt 0.761230 1.385010
vt 0.761230 1.512695
vt 0.717285 1.512695
vt 0.717285 1.385010
vt 0.761230 1.385010
vt 0.717285 1.512695
vt 0.717285 1.385010
vt 0.717285 1.512695
vt 0.679688 1.512695
vt 0.679688 1.385010
vt 0.717285 1.385010
vt 0.679688 1.512695
vt 0.510742 1.385010
vt 0.510742 1.512695
vt 0.470703 1.512695
vt 0.470703 1.385010
vt 0.510742 1.385010
vt 0.470703 1.512695
vt 0.470703 1.385010
vt 0.470703 1.512695
vt 0.416748 1.512695
vt 0.416748 1.385010
vt 0.470703 1.385010
vt 0.416748 1.512695
vt 0.416748 1.385010
vt 0.416748 1.512695
vt 0.353027 1.512695
vt 0.353027 1.385010
vt 0.416748 1.385010
vt 0.353027 1.512695
vt 0.353027 1.385010
vt 0.353027 1.512695
vt 0.289551 1.512695
vt 0.289551 1.385010
vt 0.353027 1.385010
vt 0.289551 1.512695
vt 0.883301 0.663086
vt 0.878906 0.668213
vt 0.878418 0.663086
vt 0.882324 0.635254
vt 0.883301 0.663086
vt 0.878418 0.663086
vt 0.877441 0.634521
vt 0.882324 0.635254
vt 0.878418 0.663086
vt 0.570801 1.385010
vt 0.575684 1.379883
vt 0.576172 1.385010
vt 0.570801 1.385010
vt 0.576172 1.385010
vt 0.570801 1.512695
vt 0.576172 1.385010
vt 0.576172 1.512695
vt 0.570801 1.512695
vt 0.570801 1.512695
vt 0.576172 1.512695
vt 0.575684 1.517578
vt 0.628906 1.385010
vt 0.634277 1.379883
vt 0.634766 1.385010
vt 0.628906 1.512695
vt 0.628906 1.385010
vt 0.634766 1.385010
vt 0.634766 1.512695
vt 0.628906 1.512695
vt 0.634766 1.385010
vt 0.628906 1.512695
vt 0.634766 1.512695
vt 0.634277 1.517578
vt 0.625977 0.290039
vt 0.631348 0.290039
vt 0.628418 0.353516
vt 0.631348 0.290039
vt 0.633301 0.353516
vt 0.628418 0.353516
vt 0.628418 0.353516
vt 0.633301 0.353516
vt 0.634277 0.417969
vt 0.633301 0.353516
vt 0.639160 0.416992
vt 0.634277 0.417969
vt 0.634277 0.417969
vt 0.639160 0.416992
vt 0.648926 0.473145
vt 0.639160 0.416992
vt 0.653320 0.471191
vt 0.648926 0.473145
vt 0.648926 0.473145
vt 0.653320 0.471191
vt 0.675781 0.514648
vt 0.653320 0.471191
vt 0.679688 0.510986
vt 0.675781 0.514648
vt 0.675781 0.514648
vt 0.679688 0.510986
vt 0.714844 0.541260
vt 0.679688 0.510986
vt 0.717285 0.536865
vt 0.714844 0.541260
vt 0.714844 0.541260
vt 0.717285 0.536865
vt 0.759766 0.558350
vt 0.717285 0.536865
vt 0.761230 0.553467
vt 0.759766 0.558350
vt 0.759766 0.558350
vt 0.761230 0.553467
vt 0.808594 0.569092
vt 0.761230 0.553467
vt 0.809570 0.563965
vt 0.808594 0.569092
vt 0.808594 0.569092
vt 0.809570 0.563965
vt 0.855469 0.575928
vt 0.809570 0.563965
vt 0.855469 0.571045
vt 0.855469 0.575928
vt 0.144165 0.575928
vt 0.144409 0.571045
vt 0.191040 0.569092
vt 0.144409 0.571045
vt 0.190063 0.563965
vt 0.191040 0.569092
vt 0.191040 0.569092
vt 0.190063 0.563965
vt 0.239990 0.558350
vt 0.190063 0.563965
vt 0.238525 0.553467
vt 0.239990 0.558350
vt 0.239990 0.558350
vt 0.238525 0.553467
vt 0.284912 0.541260
vt 0.238525 0.553467
vt 0.282471 0.536865
vt 0.284912 0.541260
vt 0.284912 0.541260
vt 0.282471 0.536865
vt 0.323730 0.514648
vt 0.282471 0.536865
vt 0.320068 0.510986
vt 0.323730 0.514648
vt 0.323730 0.514648
vt 0.320068 0.510986
vt 0.350830 0.473145
vt 0.320068 0.510986
vt 0.346191 0.471191
vt 0.350830 0.473145
vt 0.350830 0.473145
vt 0.346191 0.471191
vt 0.365234 0.417969
vt 0.346191 0.471191
vt 0.360352 0.416992
vt 0.365234 0.417969
vt 0.365234 0.417969
vt 0.360352 0.416992
vt 0.371338 0.353516
vt 0.360352 0.416992
vt 0.366455 0.353516
vt 0.371338 0.353516
vt 0.371338 0.353516
vt 0.366455 0.353516
vt 0.373535 0.290039
vt 0.366455 0.353516
vt 0.368408 0.290039
vt 0.373535 0.290039
vt 0.408203 0.290039
vt 0.413086 0.290039
vt 0.425049 0.663086
vt 0.413086 0.290039
vt 0.430176 0.663086
vt 0.425049 0.663086
vt 0.425293 0.668213
vt 0.425049 0.663086
vt 0.430176 0.663086
vt 0.373535 0.290039
vt 0.408203 0.290039
vt 0.371338 0.353516
vt 0.371338 0.353516
vt 0.408203 0.290039
vt 0.365234 0.417969
vt 0.408203 0.290039
vt 0.425049 0.663086
vt 0.365234 0.417969
vt 0.425049 0.663086
vt 0.350830 0.473145
vt 0.365234 0.417969
vt 0.323730 0.514648
vt 0.350830 0.473145
vt 0.425049 0.663086
vt 0.284912 0.541260
vt 0.323730 0.514648
vt 0.425049 0.663086
vt 0.239990 0.558350
vt 0.284912 0.541260
vt 0.425049 0.663086
vt 0.191040 0.569092
vt 0.239990 0.558350
vt 0.425049 0.663086
vt 0.144165 0.575928
vt 0.191040 0.569092
vt 0.425049 0.663086
vt 0.140869 0.630859
vt 0.144165 0.575928
vt 0.425049 0.663086
vt 0.122253 0.634521
vt 0.140869 0.630859
vt 0.425049 0.663086
vt 0.121155 0.663086
vt 0.122253 0.634521
vt 0.425049 0.663086
vt 0.574219 0.668213
vt 0.569336 0.663086
vt 0.574707 0.663086
vt 0.574707 0.663086
vt 0.569336 0.663086
vt 0.591309 0.290039
vt 0.569336 0.663086
vt 0.586426 0.290039
vt 0.591309 0.290039
vt 0.116211 0.663086
vt 0.121155 0.663086
vt 0.120972 0.668213
vt 0.121155 0.663086
vt 0.116211 0.663086
vt 0.122253 0.634521
vt 0.116211 0.663086
vt 0.117188 0.635254
vt 0.122253 0.634521
vt 0.868652 0.627686
vt 0.877441 0.629395
vt 0.877441 0.634521
vt 0.858887 0.630859
vt 0.868652 0.627686
vt 0.877441 0.634521
vt 0.863281 0.621582
vt 0.868652 0.627686
vt 0.858887 0.630859
vt 0.860352 0.576660
vt 0.863281 0.621582
vt 0.858887 0.630859
vt 0.855469 0.575928
vt 0.860352 0.576660
vt 0.858887 0.630859
vt 0.136353 0.621582
vt 0.139160 0.576660
vt 0.144165 0.575928
vt 0.140869 0.630859
vt 0.136353 0.621582
vt 0.144165 0.575928
vt 0.136353 0.621582
vt 0.140869 0.630859
vt 0.131226 0.627686
vt 0.122253 0.629395
vt 0.131226 0.627686
vt 0.140869 0.630859
vt 0.122253 0.634521
vt 0.122253 0.629395
vt 0.140869 0.630859
vt 0.855469 0.575928
vt 0.858887 0.630859
vt 0.808594 0.569092
vt 0.808594 0.569092
vt 0.858887 0.630859
vt 0.759766 0.558350
vt 0.877441 0.634521
vt 0.878418 0.663086
vt 0.858887 0.630859
vt 0.858887 0.630859
vt 0.878418 0.663086
vt 0.759766 0.558350
vt 0.878418 0.663086
vt 0.574707 0.663086
vt 0.759766 0.558350
vt 0.574707 0.663086
vt 0.714844 0.541260
vt 0.759766 0.558350
vt 0.675781 0.514648
vt 0.714844 0.541260
vt 0.574707 0.663086
vt 0.648926 0.473145
vt 0.675781 0.514648
vt 0.574707 0.663086
vt 0.634277 0.417969
vt 0.648926 0.473145
vt 0.574707 0.663086
vt 0.628418 0.353516
vt 0.634277 0.417969
vt 0.574707 0.663086
vt 0.625977 0.290039
vt 0.628418 0.353516
vt 0.574707 0.663086
vt 0.591309 0.290039
vt 0.625977 0.290039
vt 0.574707 0.663086
vt 0.625977 1.385010
vt 0.625977 1.379883
vt 0.631348 1.385010
vt 0.625977 1.379883
vt 0.625977 1.385010
vt 0.591309 1.379883
vt 0.625977 1.385010
vt 0.631348 1.385010
vt 0.625977 1.512695
vt 0.625977 1.385010
vt 0.591797 1.385010
vt 0.591309 1.379883
vt 0.631348 1.385010
vt 0.631348 1.512695
vt 0.625977 1.512695
vt 0.586426 1.385010
vt 0.591309 1.379883
vt 0.591797 1.385010
vt 0.625977 1.517578
vt 0.625977 1.512695
vt 0.631348 1.512695
vt 0.586426 1.512695
vt 0.586426 1.385010
vt 0.591797 1.385010
vt 0.591797 1.512695
vt 0.625977 1.512695
vt 0.625977 1.517578
vt 0.591797 1.512695
vt 0.586426 1.512695
vt 0.591797 1.385010
vt 0.591309 1.517578
vt 0.591797 1.512695
vt 0.625977 1.517578
vt 0.586426 1.512695
vt 0.591797 1.512695
vt 0.591309 1.517578
f 1/1/1 2/2/2 3/3/3
f 4/4/4 5/5/5 6/6/6
f 7/7/7 8/8/8 9/9/9
f 10/10/10 11/11/11 12/12/12
f 13/13/13 14/14/14 15/15/15
f 16/16/16 17/17/17 18/18/18
f 19/19/19 20/20/20 21/21/21
f 22/22/22 23/23/23 24/24/24
f 25/25/25 26/26/26 27/27/27
f 28/28/28 29/29/29 30/30/30
f 31/31/31 32/32/32 33/33/33
f 34/34/34 35/35/35 36/36/36
f 37/37/37 38/38/38 39/39/39
f 40/40/40 41/41/41 42/42/42
f 43/43/43 44/44/44 45/45/45
f 46/46/46 47/47/47 48/48/48
f 49/49/49 50/50/50 51/51/51
f 52/52/52 53/53/53 54/54/54
f 55/55/55 56/56/56 57/57/57
f 58/58/58 59/59/59 60/60/60
f 61/61/61 62/62/62 63/63/63
f 64/64/64 65/65/65 66/66/66
f 67/67/67 68/68/68 69/69/69
f 70/70/70 71/71/71 72/72/72
f 73/73/73 74/74/74 75/75/75
f 76/76/76 77/77/77 78/78/78
f 79/79/79 80/80/80 81/81/81
f 82/82/82 83/83/83 84/84/84
f 85/85/85 86/86/86 87/87/87
f 88/88/88 89/89/89 90/90/90
f 91/91/91 92/92/92 93/93/93
f 94/94/94 95/95/95 96/96/96
f 97/97/97 98/98/98 99/99/99
f 100/100/100 101/101/101 102/102/102
f 103/103/103 104/104/104 105/105/105
f 106/106/106 107/107/107 108/108/108
f 109/109/109 110/110/110 111/111/111
f 112/112/112 113/113/113 114/114/114
f 115/115/115 116/116/116 117/117/117
f 118/118/118 119/119/119 120/120/120
f 121/121/121 122/122/122 123/123/123
f 124/124/124 125/125/125 126/126/126
f 127/127/127 128/128/128 129/129/129
f 130/130/130 131/131/131 132/132/132
f 133/133/133 134/134/134 135/135/135
f 136/136/136 137/137/137 138/138/138
f 139/139/139 140/140/140 141/141/141
f 142/142/142 143/143/143 144/144/144
f 145/145/145 146/146/146 147/147/147
f 148/148/148 149/149/149 150/150/150
f 151/151/151 152/152/152 153/153/153
f 154/154/154 155/155/155 156/156/156
f 157/157/157 158/158/158 159/159/159
f 160/160/160 161/161/161 162/162/162
f 163/163/163 164/164/164 165/165/165
f 166/166/166 167/167/167 168/168/168
f 169/169/169 170/170/170 171/171/171
f 172/172/172 173/173/173 174/174/174
f 175/175/175 176/176/176 177/177/177
f 178/178/178 179/179/179 180/180/180
f 181/181/181 182/182/182 183/183/183
f 184/184/184 185/185/185 186/186/186
f 187/187/187 188/188/188 189/189/189
f 190/190/190 191/191/191 192/192/192
f 193/193/193 194/194/194 195/195/195
f 196/196/196 197/197/197 198/198/198
f 199/199/199 200/200/200 201/201/201
f 202/202/202 203/203/203 204/204/204
f 205/205/205 206/206/206 207/207/207
f 208/208/208 209/209/209 210/210/210
f 211/211/211 212/212/212 213/213/213
f 214/214/214 215/215/215 216/216/216
f 217/217/217 218/218/218 219/219/219
f 220/220/220 221/221/221 222/222/222
f 223/223/223 224/224/224 225/225/225
f 226/226/226 227/227/227 228/228/228
f 229/229/229 230/230/230 231/231/231
f 232/232/232 233/233/233 234/234/234
f 235/235/235 236/236/236 237/237/237
f 238/238/238 239/239/239 240/240/240
f 241/241/241 242/242/242 243/243/243
f 244/244/244 245/245/245 246/246/246
f 247/247/247 248/248/248 249/249/249
f 250/250/250 251/251/251 252/252/252
f 253/253/253 254/254/254 255/255/255
f 256/256/256 257/257/257 258/258/258
f 259/259/259 260/260/260 261/261/261
f 262/262/262 263/263/263 264/264/264
f 265/265/265 266/266/266 267/267/267
f 268/268/268 269/269/269 270/270/270
f 271/271/271 272/272/272 273/273/273
f 274/274/274 275/275/275 276/276/276
f 277/277/277 278/278/278 279/279/279
f 280/280/280 281/281/281 282/282/282
f 283/283/283 284/284/284 285/285/285
f 286/286/286 287/287/287 288/288/288
f 289/289/289 290/290/290 291/291/291
f 292/292/292 293/293/293 294/294/294
f 295/295/295 296/296/296 297/297/297
f 298/298/298 299/299/299 300/300/300
f 301/301/301 302/302/302 303/303/303
f 304/304/304 305/305/305 306/306/306
f 307/307/307 308/308/308 309/309/309
f 310/310/310 311/311/311 312/312/312
f 313/313/313 314/314/314 315/315/315
f 316/316/316 317/317/317 318/318/318
f 319/319/319 320/320/320 321/321/321
f 322/322/322 323/323/323 324/324/324
f 325/325/325 326/326/326 327/327/327
f 328/328/328 329/329/329 330/330/330
f 331/331/331 332/332/332 333/333/333
f 334/334/334 335/335/335 336/336/336
f 337/337/337 338/338/338 339/339/339
f 340/340/340 341/341/341 342/342/342
f 343/343/343 344/344/344 345/345/345
f 346/346/346 347/347/347 348/348/348
f 349/349/349 350/350/350 351/351/351
f 352/352/352 353/353/353 354/354/354
f 355/355/355 356/356/356 357/357/357
f 358/358/358 359/359/359 360/360/360
f 361/361/361 362/362/362 363/363/363
f 364/364/364 365/365/365 366/366/366
f 367/367/367 368/368/368 369/369/369
f 370/370/370 371/371/371 372/372/372
f 373/373/373 374/374/374 375/375/375
f 376/376/376 377/377/377 378/378/378
f 379/379/379 380/380/380 381/381/381
f 382/382/382 383/383/383 384/384/384
f 385/385/385 386/386/386 387/387/387
f 388/388/388 389/389/389 390/390/390
f 391/391/391 392/392/392 393/393/393
f 394/394/394 395/395/395 396/396/396
f 397/397/397 398/398/398 399/399/399
f 400/400/400 401/401/401 402/402/402
f 403/403/403 404/404/404 405/405/405
f 406/406/406 407/407/407 408/408/408
