# OBJ file
v 544.673950 -1419.076416 871.451599
v 548.547974 -1425.839111 871.449158
v 545.678284 -1418.590942 868.666382
v 548.547974 -1425.839111 871.449158
v 549.084290 -1424.653809 868.653381
v 545.678284 -1418.590942 868.666382
v 544.673950 -1419.076416 871.451599
v 545.678284 -1418.590942 868.666382
v 542.435913 -1411.380005 871.442749
v 545.678284 -1418.590942 868.666382
v 543.374084 -1411.635620 868.655029
v 542.435913 -1411.380005 871.442749
v 652.924744 -1463.340942 871.451599
v 652.548340 -1462.290894 868.666382
v 645.422363 -1465.451782 871.449158
v 652.548340 -1462.290894 868.666382
v 645.870178 -1464.230225 868.653381
v 645.422363 -1465.451782 871.449158
v 652.924744 -1463.340942 871.451599
v 659.914246 -1459.417725 871.442749
v 652.548340 -1462.290894 868.666382
v 659.914246 -1459.417725 871.442749
v 659.065735 -1458.942749 868.655029
v 652.548340 -1462.290894 868.666382
v 548.639771 -1427.737305 871.379089
v 547.766663 -1427.225342 872.379150
v 542.518555 -1442.780151 871.379944
v 547.766663 -1427.225342 872.379150
v 541.592957 -1442.401733 872.380005
v 542.518555 -1442.780151 871.379944
v 552.449707 -1415.772583 840.292114
v 553.374451 -1416.155518 841.292175
v 541.595337 -1442.396851 840.291748
v 553.374451 -1416.155518 841.292175
v 542.520874 -1442.775513 841.291809
v 541.595337 -1442.396851 840.291748
v 638.781677 -1482.136963 840.291748
v 637.856079 -1481.758667 841.291809
v 649.691711 -1455.535522 840.292053
v 637.856079 -1481.758667 841.291809
v 648.763550 -1455.160767 841.292114
v 649.691711 -1455.535522 840.292053
v 637.854370 -1481.763672 871.379944
v 638.779968 -1482.142212 872.380005
v 644.026978 -1466.741821 871.379089
v 638.779968 -1482.142212 872.380005
v 645.008423 -1466.988281 872.379150
v 644.026978 -1466.741821 871.379089
v 553.374451 -1416.155518 841.292175
v 553.373413 -1416.155029 859.784119
v 542.520874 -1442.775513 841.291809
v 553.373413 -1416.155029 859.784119
v 550.652954 -1422.887329 864.424133
v 542.520874 -1442.775513 841.291809
v 550.652954 -1422.887329 864.424133
v 542.519897 -1442.777466 847.819214
v 542.520874 -1442.775513 841.291809
v 550.652954 -1422.887329 864.424133
v 549.212952 -1426.408813 868.352234
v 542.519897 -1442.777466 847.819214
v 549.212952 -1426.408813 868.352234
v 542.518921 -1442.779419 862.806091
v 542.519897 -1442.777466 847.819214
v 542.518921 -1442.779419 862.806091
v 549.212952 -1426.408813 868.352234
v 548.639771 -1427.737305 871.379089
v 542.518555 -1442.780151 871.379944
v 542.518921 -1442.779419 862.806091
v 548.639771 -1427.737305 871.379089
v 514.525269 -1431.333862 871.379944
v 525.415771 -1404.723022 871.379150
v 514.525269 -1431.333862 855.093445
v 525.415771 -1404.723022 871.379150
v 525.417664 -1404.718262 858.014648
v 514.525269 -1431.333862 855.093445
v 514.525330 -1431.333862 841.291809
v 514.525269 -1431.333862 855.093445
v 525.417664 -1404.718262 858.014648
v 525.415771 -1404.723022 841.292175
v 514.525330 -1431.333862 841.291809
v 525.417664 -1404.718262 858.014648
v 552.827881 -1414.844482 859.746826
v 552.830078 -1414.839722 841.292114
v 545.451050 -1411.667847 864.213806
v 552.830078 -1414.839722 841.292114
v 538.961182 -1409.098755 841.248779
v 545.451050 -1411.667847 864.213806
v 545.451050 -1411.667847 864.213806
v 538.961182 -1409.098755 841.248779
v 542.437378 -1410.432007 867.913208
v 538.961182 -1409.098755 841.248779
v 534.466125 -1407.172363 841.291870
v 542.437378 -1410.432007 867.913208
v 534.466125 -1407.172363 841.291870
v 534.458435 -1407.169312 858.417969
v 542.437378 -1410.432007 867.913208
v 534.466125 -1407.172363 841.291870
v 526.726440 -1404.160156 841.292114
v 534.458435 -1407.169312 858.417969
v 541.121155 -1410.051758 871.379211
v 542.437378 -1410.432007 867.913208
v 534.458435 -1407.169312 858.417969
v 526.726440 -1404.160156 841.292114
v 526.725952 -1404.159912 858.148193
v 534.458435 -1407.169312 858.417969
v 534.457031 -1407.168701 871.380005
v 541.121155 -1410.051758 871.379211
v 534.458435 -1407.169312 858.417969
v 534.457031 -1407.168701 871.380005
v 534.458435 -1407.169312 858.417969
v 526.725952 -1404.159912 858.148193
v 526.726440 -1404.160156 871.379211
v 534.457031 -1407.168701 871.380005
v 526.725952 -1404.159912 858.148193
v 552.449707 -1415.772583 840.292114
v 541.595337 -1442.396851 840.291748
v 538.325989 -1409.922729 840.291992
v 541.595337 -1442.396851 840.291748
v 527.809265 -1436.762207 840.291321
v 538.325989 -1409.922729 840.291992
v 538.325989 -1409.922729 840.291992
v 527.809265 -1436.762207 840.291321
v 534.086182 -1408.097412 840.291809
v 527.809265 -1436.762207 840.291321
v 523.088867 -1434.835571 840.290833
v 534.086182 -1408.097412 840.291809
v 534.086182 -1408.097412 840.291809
v 523.088867 -1434.835571 840.290833
v 515.450928 -1431.712402 840.291687
v 526.347717 -1405.085938 840.292114
v 534.086182 -1408.097412 840.291809
v 515.450928 -1431.712402 840.291687
v 637.854370 -1481.763672 871.379944
v 644.026978 -1466.741821 871.379089
v 637.854614 -1481.762939 862.806091
v 644.026978 -1466.741821 871.379089
v 644.548706 -1465.392212 868.352234
v 637.854614 -1481.762939 862.806091
v 637.855347 -1481.760742 847.819214
v 637.854614 -1481.762939 862.806091
v 644.548706 -1465.392212 868.352234
v 645.988708 -1461.870850 864.424133
v 637.855347 -1481.760742 847.819214
v 644.548706 -1465.392212 868.352234
v 645.988708 -1461.870850 864.424133
v 648.764709 -1455.161255 859.784119
v 637.855347 -1481.760742 847.819214
v 648.764709 -1455.161255 859.784119
v 648.763550 -1455.160767 841.292114
v 637.855347 -1481.760742 847.819214
v 648.763550 -1455.160767 841.292114
v 637.856079 -1481.758667 841.291809
v 637.855347 -1481.760742 847.819214
v 553.374451 -1416.155518 841.292175
v 552.449707 -1415.772583 840.292114
v 552.830078 -1414.839722 841.292114
v 553.374451 -1416.155518 841.292175
v 552.830078 -1414.839722 841.292114
v 553.373413 -1416.155029 859.784119
v 552.830078 -1414.839722 841.292114
v 552.827881 -1414.844482 859.746826
v 553.373413 -1416.155029 859.784119
v 553.054016 -1415.528076 860.988220
v 553.373413 -1416.155029 859.784119
v 552.827881 -1414.844482 859.746826
v 550.652954 -1422.887329 864.424133
v 553.373413 -1416.155029 859.784119
v 553.054016 -1415.528076 860.988220
v 550.437805 -1421.302246 865.126404
v 550.652954 -1422.887329 864.424133
v 553.054016 -1415.528076 860.988220
v 550.652954 -1422.887329 864.424133
v 550.437805 -1421.302246 865.126404
v 549.212952 -1426.408813 868.352234
v 550.437805 -1421.302246 865.126404
v 549.084290 -1424.653809 868.653381
v 549.212952 -1426.408813 868.352234
v 549.212952 -1426.408813 868.352234
v 549.084290 -1424.653809 868.653381
v 548.639771 -1427.737305 871.379089
v 549.084290 -1424.653809 868.653381
v 548.547974 -1425.839111 871.449158
v 548.639771 -1427.737305 871.379089
v 548.547974 -1425.839111 871.449158
v 547.766663 -1427.225342 872.379150
v 548.639771 -1427.737305 871.379089
v 644.026978 -1466.741821 871.379089
v 645.008423 -1466.988281 872.379150
v 645.422363 -1465.451782 871.449158
v 644.026978 -1466.741821 871.379089
v 645.422363 -1465.451782 871.449158
v 644.548706 -1465.392212 868.352234
v 645.422363 -1465.451782 871.449158
v 645.870178 -1464.230225 868.653381
v 644.548706 -1465.392212 868.352234
v 644.548706 -1465.392212 868.352234
v 645.870178 -1464.230225 868.653381
v 645.988708 -1461.870850 864.424133
v 645.870178 -1464.230225 868.653381
v 647.252747 -1460.890625 865.126404
v 645.988708 -1461.870850 864.424133
v 648.764709 -1455.161255 859.784119
v 645.988708 -1461.870850 864.424133
v 647.252747 -1460.890625 865.126404
v 649.431763 -1454.937622 860.988220
v 648.764709 -1455.161255 859.784119
v 647.252747 -1460.890625 865.126404
v 648.764709 -1455.161255 859.784119
v 649.431763 -1454.937622 860.988220
v 650.072205 -1454.608276 859.746765
v 648.764709 -1455.161255 859.784119
v 650.072205 -1454.608276 859.746765
v 648.763550 -1455.160767 841.292114
v 650.072205 -1454.608276 859.746765
v 650.073914 -1454.603394 841.292053
v 648.763550 -1455.160767 841.292114
v 648.763550 -1455.160767 841.292114
v 650.073914 -1454.603394 841.292053
v 649.691711 -1455.535522 840.292053
v 553.054016 -1415.528076 860.988220
v 552.827881 -1414.844482 859.746826
v 546.113037 -1412.693359 865.225586
v 552.827881 -1414.844482 859.746826
v 545.451050 -1411.667847 864.213806
v 546.113037 -1412.693359 865.225586
v 543.374084 -1411.635620 868.655029
v 546.113037 -1412.693359 865.225586
v 545.451050 -1411.667847 864.213806
v 542.437378 -1410.432007 867.913208
v 543.374084 -1411.635620 868.655029
v 545.451050 -1411.667847 864.213806
v 542.435913 -1411.380005 871.442749
v 543.374084 -1411.635620 868.655029
v 542.437378 -1410.432007 867.913208
v 541.121155 -1410.051758 871.379211
v 542.435913 -1411.380005 871.442749
v 542.437378 -1410.432007 867.913208
v 541.121155 -1410.051758 871.379211
v 540.939209 -1411.060181 872.379150
v 542.435913 -1411.380005 871.442749
v 534.078491 -1408.094238 872.380127
v 540.939209 -1411.060181 872.379150
v 541.121155 -1410.051758 871.379211
v 534.457031 -1407.168701 871.380005
v 534.078491 -1408.094238 872.380127
v 541.121155 -1410.051758 871.379211
v 526.347717 -1405.085815 872.379395
v 534.078491 -1408.094238 872.380127
v 534.457031 -1407.168701 871.380005
v 526.726440 -1404.160156 871.379211
v 526.347717 -1405.085815 872.379395
v 534.457031 -1407.168701 871.380005
v 542.435913 -1411.380005 871.442749
v 540.939209 -1411.060181 872.379150
v 544.673950 -1419.076416 871.451599
v 540.939209 -1411.060181 872.379150
v 543.543884 -1419.844360 872.379944
v 544.673950 -1419.076416 871.451599
v 544.673950 -1419.076416 871.451599
v 543.543884 -1419.844360 872.379944
v 548.547974 -1425.839111 871.449158
v 543.543884 -1419.844360 872.379944
v 547.766663 -1427.225342 872.379150
v 548.547974 -1425.839111 871.449158
v 552.830078 -1414.839722 841.292114
v 552.449707 -1415.772583 840.292114
v 538.961182 -1409.098755 841.248779
v 552.449707 -1415.772583 840.292114
v 538.325989 -1409.922729 840.291992
v 538.961182 -1409.098755 841.248779
v 538.961182 -1409.098755 841.248779
v 538.325989 -1409.922729 840.291992
v 534.466125 -1407.172363 841.291870
v 538.325989 -1409.922729 840.291992
v 534.086182 -1408.097412 840.291809
v 534.466125 -1407.172363 841.291870
v 534.466125 -1407.172363 841.291870
v 534.086182 -1408.097412 840.291809
v 526.726440 -1404.160156 841.292114
v 534.086182 -1408.097412 840.291809
v 526.347717 -1405.085938 840.292114
v 526.726440 -1404.160156 841.292114
v 676.181519 -1465.273315 841.292053
v 675.803101 -1466.199219 840.292053
v 668.548706 -1461.999756 841.291809
v 675.803101 -1466.199219 840.292053
v 668.171631 -1462.925903 840.291748
v 668.548706 -1461.999756 841.291809
v 668.548706 -1461.999756 841.291809
v 668.171631 -1462.925903 840.291748
v 663.991760 -1460.224609 841.248718
v 668.171631 -1462.925903 840.291748
v 663.867615 -1461.257690 840.291931
v 663.991760 -1460.224609 841.248718
v 663.991760 -1460.224609 841.248718
v 663.867615 -1461.257690 840.291931
v 650.073914 -1454.603394 841.292053
v 663.867615 -1461.257690 840.291931
v 649.691711 -1455.535522 840.292053
v 650.073914 -1454.603394 841.292053
v 645.422363 -1465.451782 871.449158
v 645.008423 -1466.988281 872.379150
v 652.924744 -1463.340942 871.451599
v 645.008423 -1466.988281 872.379150
v 653.192993 -1464.680664 872.379944
v 652.924744 -1463.340942 871.451599
v 652.924744 -1463.340942 871.451599
v 653.192993 -1464.680664 872.379944
v 659.914246 -1459.417725 871.442749
v 653.192993 -1464.680664 872.379944
v 661.206238 -1460.238281 872.379150
v 659.914246 -1459.417725 871.442749
v 665.847473 -1493.210571 871.379944
v 665.847473 -1493.210571 855.093445
v 676.722351 -1466.593384 871.379089
v 665.847473 -1493.210571 855.093445
v 676.724304 -1466.588623 858.014587
v 676.722351 -1466.593384 871.379089
v 676.724304 -1466.588623 858.014587
v 665.847473 -1493.210571 855.093445
v 665.847412 -1493.210571 841.291809
v 676.722351 -1466.593384 841.292114
v 676.724304 -1466.588623 858.014587
v 665.847412 -1493.210571 841.291809
v 657.236816 -1489.689575 872.382629
v 664.921875 -1492.832031 872.380188
v 675.803101 -1466.199219 872.379333
v 668.179321 -1462.929077 872.380066
v 657.236816 -1489.689575 872.382629
v 675.803101 -1466.199219 872.379333
v 657.236816 -1489.689575 872.382629
v 668.179321 -1462.929077 872.380066
v 656.774170 -1489.500122 872.380920
v 668.179321 -1462.929077 872.380066
v 661.206238 -1460.238281 872.379150
v 656.774170 -1489.500122 872.380920
v 661.206238 -1460.238281 872.379150
v 653.192993 -1464.680664 872.379944
v 656.774170 -1489.500122 872.380920
v 656.774170 -1489.500122 872.380920
v 653.192993 -1464.680664 872.379944
v 638.779968 -1482.142212 872.380005
v 653.192993 -1464.680664 872.379944
v 645.008423 -1466.988281 872.379150
v 638.779968 -1482.142212 872.380005
v 649.691711 -1455.535522 840.292053
v 663.867615 -1461.257690 840.291931
v 638.781677 -1482.136963 840.291748
v 663.867615 -1461.257690 840.291931
v 652.565918 -1487.776123 840.291321
v 638.781677 -1482.136963 840.291748
v 663.867615 -1461.257690 840.291931
v 668.171631 -1462.925903 840.291748
v 652.565918 -1487.776123 840.291321
v 668.171631 -1462.925903 840.291748
v 657.283875 -1489.708862 840.290833
v 652.565918 -1487.776123 840.291321
v 664.921814 -1492.832031 840.291687
v 657.283875 -1489.708862 840.290833
v 668.171631 -1462.925903 840.291748
v 675.803101 -1466.199219 840.292053
v 664.921814 -1492.832031 840.291687
v 668.171631 -1462.925903 840.291748
v 526.347717 -1405.085938 840.292114
v 515.450928 -1431.712402 840.291687
v 514.525330 -1431.333862 841.291809
v 525.415771 -1404.723022 841.292175
v 526.347717 -1405.085938 840.292114
v 514.525330 -1431.333862 841.291809
v 526.347717 -1405.085938 840.292114
v 525.415771 -1404.723022 841.292175
v 526.726440 -1404.160156 841.292114
v 526.726440 -1404.160156 841.292114
v 525.415771 -1404.723022 841.292175
v 526.725952 -1404.159912 858.148193
v 525.415771 -1404.723022 841.292175
v 525.417664 -1404.718262 858.014648
v 526.725952 -1404.159912 858.148193
v 526.725952 -1404.159912 858.148193
v 525.417664 -1404.718262 858.014648
v 526.726440 -1404.160156 871.379211
v 525.417664 -1404.718262 858.014648
v 525.415771 -1404.723022 871.379150
v 526.726440 -1404.160156 871.379211
v 526.726440 -1404.160156 871.379211
v 525.415771 -1404.723022 871.379150
v 526.347717 -1405.085815 872.379395
v 515.450928 -1431.712280 872.380188
v 526.347717 -1405.085815 872.379395
v 525.415771 -1404.723022 871.379150
v 514.525269 -1431.333862 871.379944
v 515.450928 -1431.712280 872.380188
v 525.415771 -1404.723022 871.379150
v 668.179321 -1462.929077 872.380066
v 675.803101 -1466.199219 872.379333
v 676.181519 -1465.273315 871.379150
v 668.557739 -1462.003418 871.379944
v 668.179321 -1462.929077 872.380066
v 676.181519 -1465.273315 871.379150
v 661.206238 -1460.238281 872.379150
v 668.179321 -1462.929077 872.380066
v 668.557739 -1462.003418 871.379944
v 661.782959 -1459.391113 871.379211
v 661.206238 -1460.238281 872.379150
v 668.557739 -1462.003418 871.379944
v 661.782959 -1459.391113 871.379211
v 659.914246 -1459.417725 871.442749
v 661.206238 -1460.238281 872.379150
v 659.065735 -1458.942749 868.655029
v 659.914246 -1459.417725 871.442749
v 661.782959 -1459.391113 871.379211
v 660.577393 -1458.740234 867.913147
v 659.065735 -1458.942749 868.655029
v 661.782959 -1459.391113 871.379211
v 656.370483 -1457.778442 865.225586
v 659.065735 -1458.942749 868.655029
v 660.577393 -1458.740234 867.913147
v 657.561279 -1457.510498 864.213745
v 656.370483 -1457.778442 865.225586
v 660.577393 -1458.740234 867.913147
v 656.370483 -1457.778442 865.225586
v 657.561279 -1457.510498 864.213745
v 649.431763 -1454.937622 860.988220
v 657.561279 -1457.510498 864.213745
v 650.072205 -1454.608276 859.746765
v 649.431763 -1454.937622 860.988220
v 675.803101 -1466.199219 872.379333
v 664.921875 -1492.832031 872.380188
v 665.847473 -1493.210571 871.379944
v 676.722351 -1466.593384 871.379089
v 675.803101 -1466.199219 872.379333
v 665.847473 -1493.210571 871.379944
v 675.803101 -1466.199219 872.379333
v 676.722351 -1466.593384 871.379089
v 676.181519 -1465.273315 871.379150
v 676.181519 -1465.273315 871.379150
v 676.722351 -1466.593384 871.379089
v 676.182007 -1465.273560 858.148132
v 676.722351 -1466.593384 871.379089
v 676.724304 -1466.588623 858.014587
v 676.182007 -1465.273560 858.148132
v 676.182007 -1465.273560 858.148132
v 676.724304 -1466.588623 858.014587
v 676.181519 -1465.273315 841.292053
v 676.724304 -1466.588623 858.014587
v 676.722351 -1466.593384 841.292114
v 676.181519 -1465.273315 841.292053
v 676.722351 -1466.593384 841.292114
v 675.803101 -1466.199219 840.292053
v 676.181519 -1465.273315 841.292053
v 664.921814 -1492.832031 840.291687
v 675.803101 -1466.199219 840.292053
v 676.722351 -1466.593384 841.292114
v 665.847412 -1493.210571 841.291809
v 664.921814 -1492.832031 840.291687
v 676.722351 -1466.593384 841.292114
v 526.347717 -1405.085815 872.379395
v 515.450928 -1431.712280 872.380188
v 523.135986 -1434.854736 872.382629
v 534.078491 -1408.094238 872.380127
v 526.347717 -1405.085815 872.379395
v 523.135986 -1434.854736 872.382629
v 534.078491 -1408.094238 872.380127
v 523.135986 -1434.854736 872.382629
v 543.543884 -1419.844360 872.379944
v 540.939209 -1411.060181 872.379150
v 534.078491 -1408.094238 872.380127
v 543.543884 -1419.844360 872.379944
v 523.135986 -1434.854736 872.382629
v 523.598633 -1435.043823 872.380920
v 543.543884 -1419.844360 872.379944
v 523.598633 -1435.043823 872.380920
v 541.592957 -1442.401733 872.380005
v 543.543884 -1419.844360 872.379944
v 541.592957 -1442.401733 872.380005
v 547.766663 -1427.225342 872.379150
v 543.543884 -1419.844360 872.379944
v 650.072205 -1454.608276 859.746765
v 657.561279 -1457.510498 864.213745
v 650.073914 -1454.603394 841.292053
v 657.561279 -1457.510498 864.213745
v 663.991760 -1460.224609 841.248718
v 650.073914 -1454.603394 841.292053
v 663.991760 -1460.224609 841.248718
v 657.561279 -1457.510498 864.213745
v 668.556335 -1462.002808 858.417908
v 668.548706 -1461.999756 841.291809
v 663.991760 -1460.224609 841.248718
v 668.556335 -1462.002808 858.417908
v 657.561279 -1457.510498 864.213745
v 660.577393 -1458.740234 867.913147
v 668.556335 -1462.002808 858.417908
v 668.548706 -1461.999756 841.291809
v 668.556335 -1462.002808 858.417908
v 676.181519 -1465.273315 841.292053
v 668.556335 -1462.002808 858.417908
v 660.577393 -1458.740234 867.913147
v 661.782959 -1459.391113 871.379211
v 668.556335 -1462.002808 858.417908
v 676.182007 -1465.273560 858.148132
v 676.181519 -1465.273315 841.292053
v 668.557739 -1462.003418 871.379944
v 668.556335 -1462.002808 858.417908
v 661.782959 -1459.391113 871.379211
v 676.182007 -1465.273560 858.148132
v 668.556335 -1462.002808 858.417908
v 668.557739 -1462.003418 871.379944
v 676.181519 -1465.273315 871.379150
v 676.182007 -1465.273560 858.148132
v 668.557739 -1462.003418 871.379944
v 553.054016 -1415.528076 860.988220
v 546.113037 -1412.693359 865.225586
v 548.208130 -1417.608154 865.520142
v 548.208130 -1417.608154 865.520142
v 546.113037 -1412.693359 865.225586
v 543.374084 -1411.635620 868.655029
v 548.208130 -1417.608154 865.520142
v 550.437805 -1421.302246 865.126404
v 553.054016 -1415.528076 860.988220
v 545.678284 -1418.590942 868.666382
v 548.208130 -1417.608154 865.520142
v 543.374084 -1411.635620 868.655029
v 549.084290 -1424.653809 868.653381
v 550.437805 -1421.302246 865.126404
v 548.208130 -1417.608154 865.520142
v 545.678284 -1418.590942 868.666382
v 549.084290 -1424.653809 868.653381
v 548.208130 -1417.608154 865.520142
v 649.431763 -1454.937622 860.988220
v 651.432007 -1459.817139 865.520142
v 656.370483 -1457.778442 865.225586
v 651.432007 -1459.817139 865.520142
v 649.431763 -1454.937622 860.988220
v 647.252747 -1460.890625 865.126404
v 659.065735 -1458.942749 868.655029
v 656.370483 -1457.778442 865.225586
v 651.432007 -1459.817139 865.520142
v 651.432007 -1459.817139 865.520142
v 647.252747 -1460.890625 865.126404
v 645.870178 -1464.230225 868.653381
v 652.548340 -1462.290894 868.666382
v 659.065735 -1458.942749 868.655029
v 651.432007 -1459.817139 865.520142
v 652.548340 -1462.290894 868.666382
v 651.432007 -1459.817139 865.520142
v 645.870178 -1464.230225 868.653381
vt 3.623047 -0.618164
vt 3.591797 -0.618164
vt 3.619141 -0.631836
vt 3.591797 -0.618164
vt 3.591797 -0.631836
vt 3.619141 -0.631836
vt 0.537598 -0.618164
vt 0.541504 -0.631836
vt 0.568848 -0.618164
vt 0.541504 -0.631836
vt 0.569336 -0.631836
vt 0.568848 -0.618164
vt 3.039062 -0.618164
vt 3.042969 -0.631836
vt 3.068359 -0.618164
vt 3.042969 -0.631836
vt 3.068359 -0.631836
vt 3.068359 -0.618164
vt 0.462158 -0.618164
vt 0.430664 -0.618164
vt 0.458008 -0.631836
vt 0.430664 -0.618164
vt 0.430176 -0.631836
vt 0.458008 -0.631836
vt 3.587891 0.495117
vt 3.593750 0.494141
vt 3.587891 0.576172
vt 3.593750 0.494141
vt 3.593750 0.576172
vt 3.587891 0.576172
vt -2.593750 0.432617
vt -2.587891 0.432617
vt -2.593750 0.576172
vt -2.587891 0.432617
vt -2.587891 0.576172
vt -2.593750 0.576172
vt -2.068359 0.576172
vt -2.072266 0.576172
vt -2.068359 0.432617
vt -2.072266 0.576172
vt -2.072266 0.432617
vt -2.068359 0.432617
vt 3.072266 0.576172
vt 3.068359 0.576172
vt 3.072266 0.495117
vt 3.068359 0.576172
vt 3.068359 0.494141
vt 3.072266 0.495117
vt 0.567383 -0.769531
vt 0.567383 -0.676758
vt 0.423828 -0.769531
vt 0.567383 -0.676758
vt 0.531250 -0.653320
vt 0.423828 -0.769531
vt 0.531250 -0.653320
vt 0.423828 -0.736328
vt 0.423828 -0.769531
vt 0.531250 -0.653320
vt 0.512207 -0.633789
vt 0.423828 -0.736328
vt 0.512207 -0.633789
vt 0.423828 -0.661133
vt 0.423828 -0.736328
vt 0.423828 -0.661133
vt 0.512207 -0.633789
vt 0.504883 -0.619141
vt 0.423828 -0.619141
vt 0.423828 -0.661133
vt 0.504883 -0.619141
vt 0.575684 -0.619141
vt 0.432129 -0.619141
vt 0.575684 -0.700195
vt 0.432129 -0.619141
vt 0.432129 -0.685547
vt 0.575684 -0.700195
vt 0.575684 -0.769531
vt 0.575684 -0.700195
vt 0.432129 -0.685547
vt 0.432129 -0.769531
vt 0.575684 -0.769531
vt 0.432129 -0.685547
vt 3.593750 -0.676758
vt 3.593750 -0.769531
vt 3.632812 -0.654297
vt 3.593750 -0.769531
vt 3.667969 -0.769531
vt 3.632812 -0.654297
vt 3.632812 -0.654297
vt 3.667969 -0.769531
vt 3.650391 -0.635742
vt 3.667969 -0.769531
vt 3.693359 -0.769531
vt 3.650391 -0.635742
vt 3.693359 -0.769531
vt 3.693359 -0.683594
vt 3.650391 -0.635742
vt 3.693359 -0.769531
vt 3.734375 -0.769531
vt 3.693359 -0.683594
vt 3.656250 -0.619141
vt 3.650391 -0.635742
vt 3.693359 -0.683594
vt 3.734375 -0.769531
vt 3.734375 -0.684570
vt 3.693359 -0.683594
vt 3.693359 -0.619141
vt 3.656250 -0.619141
vt 3.693359 -0.683594
vt 3.693359 -0.619141
vt 3.693359 -0.683594
vt 3.734375 -0.684570
vt 3.734375 -0.619141
vt 3.693359 -0.619141
vt 3.734375 -0.684570
vt -2.593750 0.432617
vt -2.593750 0.576172
vt -2.669922 0.432129
vt -2.593750 0.576172
vt -2.667969 0.576172
vt -2.669922 0.432129
vt -2.669922 0.432129
vt -2.667969 0.576172
vt -2.693359 0.431641
vt -2.667969 0.576172
vt -2.693359 0.576172
vt -2.693359 0.431641
vt -2.693359 0.431641
vt -2.693359 0.576172
vt -2.734375 0.576172
vt -2.734375 0.432617
vt -2.693359 0.431641
vt -2.734375 0.576172
vt 0.575684 -0.619141
vt 0.494629 -0.619141
vt 0.575684 -0.661133
vt 0.494629 -0.619141
vt 0.487549 -0.633789
vt 0.575684 -0.661133
vt 0.575684 -0.736328
vt 0.575684 -0.661133
vt 0.487549 -0.633789
vt 0.468506 -0.653320
vt 0.575684 -0.736328
vt 0.487549 -0.633789
vt 0.468506 -0.653320
vt 0.432129 -0.676758
vt 0.575684 -0.736328
vt 0.432129 -0.676758
vt 0.432129 -0.769531
vt 0.575684 -0.736328
vt 0.432129 -0.769531
vt 0.575684 -0.769531
vt 0.575684 -0.736328
vt 0.567383 -0.769531
vt 0.567383 -0.774414
vt 0.572754 -0.769531
vt 0.567383 -0.769531
vt 0.572754 -0.769531
vt 0.567383 -0.676758
vt 0.572754 -0.769531
vt 0.572754 -0.676758
vt 0.567383 -0.676758
vt 0.569824 -0.670898
vt 0.567383 -0.676758
vt 0.572754 -0.676758
vt 0.531250 -0.653320
vt 0.567383 -0.676758
vt 0.569824 -0.670898
vt 0.538086 -0.650391
vt 0.531250 -0.653320
vt 0.569824 -0.670898
vt 0.531250 -0.653320
vt 0.538086 -0.650391
vt 0.512207 -0.633789
vt 0.538086 -0.650391
vt 0.520020 -0.631836
vt 0.512207 -0.633789
vt 0.512207 -0.633789
vt 0.520020 -0.631836
vt 0.504883 -0.619141
vt 0.520020 -0.631836
vt 0.513672 -0.618164
vt 0.504883 -0.619141
vt 0.513672 -0.618164
vt 0.505859 -0.613281
vt 0.504883 -0.619141
vt 0.494629 -0.619141
vt 0.493896 -0.613281
vt 0.486084 -0.618164
vt 0.494629 -0.619141
vt 0.486084 -0.618164
vt 0.487549 -0.633789
vt 0.486084 -0.618164
vt 0.479492 -0.631836
vt 0.487549 -0.633789
vt 0.487549 -0.633789
vt 0.479492 -0.631836
vt 0.468506 -0.653320
vt 0.479492 -0.631836
vt 0.461426 -0.650391
vt 0.468506 -0.653320
vt 0.432129 -0.676758
vt 0.468506 -0.653320
vt 0.461426 -0.650391
vt 0.429932 -0.670898
vt 0.432129 -0.676758
vt 0.461426 -0.650391
vt 0.432129 -0.676758
vt 0.429932 -0.670898
vt 0.427002 -0.676758
vt 0.432129 -0.676758
vt 0.427002 -0.676758
vt 0.432129 -0.769531
vt 0.427002 -0.676758
vt 0.427002 -0.769531
vt 0.432129 -0.769531
vt 0.432129 -0.769531
vt 0.427002 -0.769531
vt 0.432129 -0.774414
vt 3.591797 -0.670898
vt 3.593750 -0.676758
vt 3.628906 -0.649414
vt 3.593750 -0.676758
vt 3.632812 -0.654297
vt 3.628906 -0.649414
vt 3.642578 -0.631836
vt 3.628906 -0.649414
vt 3.632812 -0.654297
vt 3.650391 -0.635742
vt 3.642578 -0.631836
vt 3.632812 -0.654297
vt 3.648438 -0.618164
vt 3.642578 -0.631836
vt 3.650391 -0.635742
vt 3.656250 -0.619141
vt 3.648438 -0.618164
vt 3.650391 -0.635742
vt 3.656250 -0.619141
vt 3.656250 -0.613281
vt 3.648438 -0.618164
vt 3.693359 -0.613281
vt 3.656250 -0.613281
vt 3.656250 -0.619141
vt 3.693359 -0.619141
vt 3.693359 -0.613281
vt 3.656250 -0.619141
vt 3.734375 -0.613281
vt 3.693359 -0.613281
vt 3.693359 -0.619141
vt 3.734375 -0.619141
vt 3.734375 -0.613281
vt 3.693359 -0.619141
vt 3.648438 0.431152
vt 3.656250 0.432617
vt 3.623047 0.462402
vt 3.656250 0.432617
vt 3.626953 0.468262
vt 3.623047 0.462402
vt 3.623047 0.462402
vt 3.626953 0.468262
vt 3.591797 0.486328
vt 3.626953 0.468262
vt 3.593750 0.494141
vt 3.591797 0.486328
vt -2.593750 0.427246
vt -2.593750 0.432617
vt -2.667969 0.427246
vt -2.593750 0.432617
vt -2.669922 0.432129
vt -2.667969 0.427246
vt -2.667969 0.427246
vt -2.669922 0.432129
vt -2.693359 0.426758
vt -2.669922 0.432129
vt -2.693359 0.431641
vt -2.693359 0.426758
vt -2.693359 0.426758
vt -2.693359 0.431641
vt -2.734375 0.427246
vt -2.693359 0.431641
vt -2.734375 0.432617
vt -2.734375 0.427246
vt -1.927734 0.427246
vt -1.927734 0.432617
vt -1.968750 0.426758
vt -1.927734 0.432617
vt -1.968750 0.431641
vt -1.968750 0.426758
vt -1.968750 0.426758
vt -1.968750 0.431641
vt -1.993164 0.427246
vt -1.968750 0.431641
vt -1.992188 0.432129
vt -1.993164 0.427246
vt -1.993164 0.427246
vt -1.992188 0.432129
vt -2.068359 0.427246
vt -1.992188 0.432129
vt -2.068359 0.432617
vt -2.068359 0.427246
vt 3.068359 0.486328
vt 3.068359 0.494141
vt 3.039062 0.462402
vt 3.068359 0.494141
vt 3.035156 0.468262
vt 3.039062 0.462402
vt 3.039062 0.462402
vt 3.035156 0.468262
vt 3.013672 0.431152
vt 3.035156 0.468262
vt 3.005859 0.432617
vt 3.013672 0.431152
vt 0.423828 -0.619141
vt 0.423828 -0.700195
vt 0.567383 -0.619141
vt 0.423828 -0.700195
vt 0.567383 -0.685547
vt 0.567383 -0.619141
vt 0.567383 -0.685547
vt 0.423828 -0.700195
vt 0.423828 -0.769531
vt 0.567383 -0.769531
vt 0.567383 -0.685547
vt 0.423828 -0.769531
vt 2.968750 0.576172
vt 2.927734 0.576172
vt 2.927734 0.432617
vt 2.968750 0.431641
vt 2.968750 0.576172
vt 2.927734 0.432617
vt 2.968750 0.576172
vt 2.968750 0.431641
vt 2.970703 0.576172
vt 2.968750 0.431641
vt 3.005859 0.432617
vt 2.970703 0.576172
vt 3.005859 0.432617
vt 3.035156 0.468262
vt 2.970703 0.576172
vt 2.970703 0.576172
vt 3.035156 0.468262
vt 3.068359 0.576172
vt 3.035156 0.468262
vt 3.068359 0.494141
vt 3.068359 0.576172
vt -2.068359 0.432617
vt -1.992188 0.432129
vt -2.068359 0.576172
vt -1.992188 0.432129
vt -1.994141 0.576172
vt -2.068359 0.576172
vt -1.992188 0.432129
vt -1.968750 0.431641
vt -1.994141 0.576172
vt -1.968750 0.431641
vt -1.968750 0.576172
vt -1.994141 0.576172
vt -1.927734 0.576172
vt -1.968750 0.576172
vt -1.968750 0.431641
vt -1.927734 0.432617
vt -1.927734 0.576172
vt -1.968750 0.431641
vt 0.432129 -0.774414
vt 0.575684 -0.774414
vt 0.575684 -0.769531
vt 0.432129 -0.769531
vt 0.432129 -0.774414
vt 0.575684 -0.769531
vt 0.432129 -0.774414
vt 0.432129 -0.769531
vt 0.427002 -0.769531
vt 0.427002 -0.769531
vt 0.432129 -0.769531
vt 0.427002 -0.684570
vt 0.432129 -0.769531
vt 0.432129 -0.685547
vt 0.427002 -0.684570
vt 0.427002 -0.684570
vt 0.432129 -0.685547
vt 0.427002 -0.619141
vt 0.432129 -0.685547
vt 0.432129 -0.619141
vt 0.427002 -0.619141
vt 0.427002 -0.619141
vt 0.432129 -0.619141
vt 0.432129 -0.613281
vt 0.575684 -0.613281
vt 0.432129 -0.613281
vt 0.432129 -0.619141
vt 0.575684 -0.619141
vt 0.575684 -0.613281
vt 0.432129 -0.619141
vt 2.968750 -0.613281
vt 2.927734 -0.613281
vt 2.927734 -0.619141
vt 2.968750 -0.619141
vt 2.968750 -0.613281
vt 2.927734 -0.619141
vt 3.005859 -0.613281
vt 2.968750 -0.613281
vt 2.968750 -0.619141
vt 3.003906 -0.619141
vt 3.005859 -0.613281
vt 2.968750 -0.619141
vt 3.003906 -0.619141
vt 3.013672 -0.618164
vt 3.005859 -0.613281
vt 3.017578 -0.631836
vt 3.013672 -0.618164
vt 3.003906 -0.619141
vt 3.011719 -0.635742
vt 3.017578 -0.631836
vt 3.003906 -0.619141
vt 3.033203 -0.649414
vt 3.017578 -0.631836
vt 3.011719 -0.635742
vt 3.027344 -0.654297
vt 3.033203 -0.649414
vt 3.011719 -0.635742
vt 3.033203 -0.649414
vt 3.027344 -0.654297
vt 3.070312 -0.670898
vt 3.027344 -0.654297
vt 3.068359 -0.676758
vt 3.070312 -0.670898
vt 0.567383 -0.613281
vt 0.423828 -0.613281
vt 0.423828 -0.619141
vt 0.567383 -0.619141
vt 0.567383 -0.613281
vt 0.423828 -0.619141
vt 0.567383 -0.613281
vt 0.567383 -0.619141
vt 0.572754 -0.619141
vt 0.572754 -0.619141
vt 0.567383 -0.619141
vt 0.572754 -0.684570
vt 0.567383 -0.619141
vt 0.567383 -0.685547
vt 0.572754 -0.684570
vt 0.572754 -0.684570
vt 0.567383 -0.685547
vt 0.572754 -0.769531
vt 0.567383 -0.685547
vt 0.567383 -0.769531
vt 0.572754 -0.769531
vt 0.567383 -0.769531
vt 0.567383 -0.774414
vt 0.572754 -0.769531
vt 0.423828 -0.774414
vt 0.567383 -0.774414
vt 0.567383 -0.769531
vt 0.423828 -0.769531
vt 0.423828 -0.774414
vt 0.567383 -0.769531
vt 3.734375 0.432617
vt 3.734375 0.576172
vt 3.693359 0.576172
vt 3.693359 0.431641
vt 3.734375 0.432617
vt 3.693359 0.576172
vt 3.693359 0.431641
vt 3.693359 0.576172
vt 3.626953 0.468262
vt 3.656250 0.432617
vt 3.693359 0.431641
vt 3.626953 0.468262
vt 3.693359 0.576172
vt 3.689453 0.576172
vt 3.626953 0.468262
vt 3.689453 0.576172
vt 3.593750 0.576172
vt 3.626953 0.468262
vt 3.593750 0.576172
vt 3.593750 0.494141
vt 3.626953 0.468262
vt 3.068359 -0.676758
vt 3.027344 -0.654297
vt 3.068359 -0.769531
vt 3.027344 -0.654297
vt 2.992188 -0.769531
vt 3.068359 -0.769531
vt 2.992188 -0.769531
vt 3.027344 -0.654297
vt 2.968750 -0.683594
vt 2.968750 -0.769531
vt 2.992188 -0.769531
vt 2.968750 -0.683594
vt 3.027344 -0.654297
vt 3.011719 -0.635742
vt 2.968750 -0.683594
vt 2.968750 -0.769531
vt 2.968750 -0.683594
vt 2.927734 -0.769531
vt 2.968750 -0.683594
vt 3.011719 -0.635742
vt 3.003906 -0.619141
vt 2.968750 -0.683594
vt 2.927734 -0.684570
vt 2.927734 -0.769531
vt 2.968750 -0.619141
vt 2.968750 -0.683594
vt 3.003906 -0.619141
vt 2.927734 -0.684570
vt 2.968750 -0.683594
vt 2.968750 -0.619141
vt 2.927734 -0.619141
vt 2.927734 -0.684570
vt 2.968750 -0.619141
vt 3.591797 0.430176
vt 3.628906 0.430176
vt 3.609375 0.449219
vt 3.609375 0.449219
vt 3.628906 0.430176
vt 3.642578 0.430664
vt 3.609375 0.449219
vt 3.591797 0.461914
vt 3.591797 0.430176
vt 3.619141 0.458496
vt 3.609375 0.449219
vt 3.642578 0.430664
vt 3.591797 0.479980
vt 3.591797 0.461914
vt 3.609375 0.449219
vt 3.619141 0.458496
vt 3.591797 0.479980
vt 3.609375 0.449219
vt 3.070312 0.430176
vt 3.052734 0.449219
vt 3.033203 0.430176
vt 3.052734 0.449219
vt 3.070312 0.430176
vt 3.068359 0.461914
vt 3.017578 0.430664
vt 3.033203 0.430176
vt 3.052734 0.449219
vt 3.052734 0.449219
vt 3.068359 0.461914
vt 3.068359 0.479980
vt 3.042969 0.458496
vt 3.017578 0.430664
vt 3.052734 0.449219
vt 3.042969 0.458496
vt 3.052734 0.449219
vt 3.068359 0.479980
f 1/1/1 2/2/2 3/3/3
f 4/4/4 5/5/5 6/6/6
f 7/7/7 8/8/8 9/9/9
f 10/10/10 11/11/11 12/12/12
f 13/13/13 14/14/14 15/15/15
f 16/16/16 17/17/17 18/18/18
f 19/19/19 20/20/20 21/21/21
f 22/22/22 23/23/23 24/24/24
f 25/25/25 26/26/26 27/27/27
f 28/28/28 29/29/29 30/30/30
f 31/31/31 32/32/32 33/33/33
f 34/34/34 35/35/35 36/36/36
f 37/37/37 38/38/38 39/39/39
f 40/40/40 41/41/41 42/42/42
f 43/43/43 44/44/44 45/45/45
f 46/46/46 47/47/47 48/48/48
f 49/49/49 50/50/50 51/51/51
f 52/52/52 53/53/53 54/54/54
f 55/55/55 56/56/56 57/57/57
f 58/58/58 59/59/59 60/60/60
f 61/61/61 62/62/62 63/63/63
f 64/64/64 65/65/65 66/66/66
f 67/67/67 68/68/68 69/69/69
f 70/70/70 71/71/71 72/72/72
f 73/73/73 74/74/74 75/75/75
f 76/76/76 77/77/77 78/78/78
f 79/79/79 80/80/80 81/81/81
f 82/82/82 83/83/83 84/84/84
f 85/85/85 86/86/86 87/87/87
f 88/88/88 89/89/89 90/90/90
f 91/91/91 92/92/92 93/93/93
f 94/94/94 95/95/95 96/96/96
f 97/97/97 98/98/98 99/99/99
f 100/100/100 101/101/101 102/102/102
f 103/103/103 104/104/104 105/105/105
f 106/106/106 107/107/107 108/108/108
f 109/109/109 110/110/110 111/111/111
f 112/112/112 113/113/113 114/114/114
f 115/115/115 116/116/116 117/117/117
f 118/118/118 119/119/119 120/120/120
f 121/121/121 122/122/122 123/123/123
f 124/124/124 125/125/125 126/126/126
f 127/127/127 128/128/128 129/129/129
f 130/130/130 131/131/131 132/132/132
f 133/133/133 134/134/134 135/135/135
f 136/136/136 137/137/137 138/138/138
f 139/139/139 140/140/140 141/141/141
f 142/142/142 143/143/143 144/144/144
f 145/145/145 146/146/146 147/147/147
f 148/148/148 149/149/149 150/150/150
f 151/151/151 152/152/152 153/153/153
f 154/154/154 155/155/155 156/156/156
f 157/157/157 158/158/158 159/159/159
f 160/160/160 161/161/161 162/162/162
f 163/163/163 164/164/164 165/165/165
f 166/166/166 167/167/167 168/168/168
f 169/169/169 170/170/170 171/171/171
f 172/172/172 173/173/173 174/174/174
f 175/175/175 176/176/176 177/177/177
f 178/178/178 179/179/179 180/180/180
f 181/181/181 182/182/182 183/183/183
f 184/184/184 185/185/185 186/186/186
f 187/187/187 188/188/188 189/189/189
f 190/190/190 191/191/191 192/192/192
f 193/193/193 194/194/194 195/195/195
f 196/196/196 197/197/197 198/198/198
f 199/199/199 200/200/200 201/201/201
f 202/202/202 203/203/203 204/204/204
f 205/205/205 206/206/206 207/207/207
f 208/208/208 209/209/209 210/210/210
f 211/211/211 212/212/212 213/213/213
f 214/214/214 215/215/215 216/216/216
f 217/217/217 218/218/218 219/219/219
f 220/220/220 221/221/221 222/222/222
f 223/223/223 224/224/224 225/225/225
f 226/226/226 227/227/227 228/228/228
f 229/229/229 230/230/230 231/231/231
f 232/232/232 233/233/233 234/234/234
f 235/235/235 236/236/236 237/237/237
f 238/238/238 239/239/239 240/240/240
f 241/241/241 242/242/242 243/243/243
f 244/244/244 245/245/245 246/246/246
f 247/247/247 248/248/248 249/249/249
f 250/250/250 251/251/251 252/252/252
f 253/253/253 254/254/254 255/255/255
f 256/256/256 257/257/257 258/258/258
f 259/259/259 260/260/260 261/261/261
f 262/262/262 263/263/263 264/264/264
f 265/265/265 266/266/266 267/267/267
f 268/268/268 269/269/269 270/270/270
f 271/271/271 272/272/272 273/273/273
f 274/274/274 275/275/275 276/276/276
f 277/277/277 278/278/278 279/279/279
f 280/280/280 281/281/281 282/282/282
f 283/283/283 284/284/284 285/285/285
f 286/286/286 287/287/287 288/288/288
f 289/289/289 290/290/290 291/291/291
f 292/292/292 293/293/293 294/294/294
f 295/295/295 296/296/296 297/297/297
f 298/298/298 299/299/299 300/300/300
f 301/301/301 302/302/302 303/303/303
f 304/304/304 305/305/305 306/306/306
f 307/307/307 308/308/308 309/309/309
f 310/310/310 311/311/311 312/312/312
f 313/313/313 314/314/314 315/315/315
f 316/316/316 317/317/317 318/318/318
f 319/319/319 320/320/320 321/321/321
f 322/322/322 323/323/323 324/324/324
f 325/325/325 326/326/326 327/327/327
f 328/328/328 329/329/329 330/330/330
f 331/331/331 332/332/332 333/333/333
f 334/334/334 335/335/335 336/336/336
f 337/337/337 338/338/338 339/339/339
f 340/340/340 341/341/341 342/342/342
f 343/343/343 344/344/344 345/345/345
f 346/346/346 347/347/347 348/348/348
f 349/349/349 350/350/350 351/351/351
f 352/352/352 353/353/353 354/354/354
f 355/355/355 356/356/356 357/357/357
f 358/358/358 359/359/359 360/360/360
f 361/361/361 362/362/362 363/363/363
f 364/364/364 365/365/365 366/366/366
f 367/367/367 368/368/368 369/369/369
f 370/370/370 371/371/371 372/372/372
f 373/373/373 374/374/374 375/375/375
f 376/376/376 377/377/377 378/378/378
f 379/379/379 380/380/380 381/381/381
f 382/382/382 383/383/383 384/384/384
f 385/385/385 386/386/386 387/387/387
f 388/388/388 389/389/389 390/390/390
f 391/391/391 392/392/392 393/393/393
f 394/394/394 395/395/395 396/396/396
f 397/397/397 398/398/398 399/399/399
f 400/400/400 401/401/401 402/402/402
f 403/403/403 404/404/404 405/405/405
f 406/406/406 407/407/407 408/408/408
f 409/409/409 410/410/410 411/411/411
f 412/412/412 413/413/413 414/414/414
f 415/415/415 416/416/416 417/417/417
f 418/418/418 419/419/419 420/420/420
f 421/421/421 422/422/422 423/423/423
f 424/424/424 425/425/425 426/426/426
f 427/427/427 428/428/428 429/429/429
f 430/430/430 431/431/431 432/432/432
f 433/433/433 434/434/434 435/435/435
f 436/436/436 437/437/437 438/438/438
f 439/439/439 440/440/440 441/441/441
f 442/442/442 443/443/443 444/444/444
f 445/445/445 446/446/446 447/447/447
f 448/448/448 449/449/449 450/450/450
f 451/451/451 452/452/452 453/453/453
f 454/454/454 455/455/455 456/456/456
f 457/457/457 458/458/458 459/459/459
f 460/460/460 461/461/461 462/462/462
f 463/463/463 464/464/464 465/465/465
f 466/466/466 467/467/467 468/468/468
f 469/469/469 470/470/470 471/471/471
f 472/472/472 473/473/473 474/474/474
f 475/475/475 476/476/476 477/477/477
f 478/478/478 479/479/479 480/480/480
f 481/481/481 482/482/482 483/483/483
f 484/484/484 485/485/485 486/486/486
f 487/487/487 488/488/488 489/489/489
f 490/490/490 491/491/491 492/492/492
f 493/493/493 494/494/494 495/495/495
f 496/496/496 497/497/497 498/498/498
f 499/499/499 500/500/500 501/501/501
f 502/502/502 503/503/503 504/504/504
f 505/505/505 506/506/506 507/507/507
f 508/508/508 509/509/509 510/510/510
f 511/511/511 512/512/512 513/513/513
f 514/514/514 515/515/515 516/516/516
f 517/517/517 518/518/518 519/519/519
f 520/520/520 521/521/521 522/522/522
f 523/523/523 524/524/524 525/525/525
f 526/526/526 527/527/527 528/528/528
f 529/529/529 530/530/530 531/531/531
f 532/532/532 533/533/533 534/534/534
f 535/535/535 536/536/536 537/537/537
f 538/538/538 539/539/539 540/540/540
f 541/541/541 542/542/542 543/543/543
f 544/544/544 545/545/545 546/546/546
