# OBJ file
v 553.496770 -1440.602500 898.493800
v 631.306200 -1472.419400 898.493840
v 632.703740 -1469.001800 897.887200
v 554.894300 -1437.184900 897.887100
v 553.496770 -1440.602500 898.493800
v 632.703740 -1469.001800 897.887200
v 554.894300 -1437.184900 897.887100
v 632.703740 -1469.001800 897.887200
v 632.890500 -1468.545000 897.806150
v 555.081050 -1436.728100 897.806000
v 554.894300 -1437.184900 897.887100
v 632.890500 -1468.545000 897.806150
v 555.025300 -1436.864400 894.629800
v 632.834800 -1468.681300 894.629940
v 632.647950 -1469.138200 894.550400
v 554.838500 -1437.321300 894.550400
v 555.025300 -1436.864400 894.629800
v 632.647950 -1469.138200 894.550400
v 554.838500 -1437.321300 894.550400
v 632.647950 -1469.138200 894.550400
v 631.222660 -1472.623800 893.944400
v 553.413200 -1440.806900 893.944400
v 554.838500 -1437.321300 894.550400
v 631.222660 -1472.623800 893.944400
v 555.081050 -1436.728100 897.806000
v 632.890500 -1468.545000 897.806150
v 632.881700 -1468.566500 897.306640
v 555.072270 -1436.749600 897.306640
v 555.081050 -1436.728100 897.806000
v 632.881700 -1468.566500 897.306640
v 555.072270 -1436.749600 897.306640
v 632.881700 -1468.566500 897.306640
v 632.843570 -1468.659800 895.129330
v 555.034060 -1436.842900 895.129330
v 555.072270 -1436.749600 897.306640
v 632.843570 -1468.659800 895.129330
v 555.034060 -1436.842900 895.129330
v 632.843570 -1468.659800 895.129330
v 632.834800 -1468.681300 894.629940
v 555.025300 -1436.864400 894.629800
v 555.034060 -1436.842900 895.129330
v 632.834800 -1468.681300 894.629940
vn 0.058950 0.153269 0.986425
vn 0.058950 0.153269 0.986425
vn 0.058950 0.153269 0.986425
vn 0.058950 0.153269 0.986425
vn 0.058950 0.153269 0.986425
vn 0.058950 0.153269 0.986425
vn 0.058950 0.153269 0.986425
vn 0.058950 0.153269 0.986425
vn 0.286694 0.726552 0.624442
vn 0.286694 0.726552 0.624442
vn 0.058950 0.153269 0.986425
vn 0.286694 0.726552 0.624442
vn 0.277185 0.691011 -0.667587
vn 0.277185 0.691011 -0.667587
vn 0.058496 0.152090 -0.986634
vn 0.058496 0.152090 -0.986634
vn 0.277185 0.691011 -0.667587
vn 0.058496 0.152090 -0.986634
vn 0.058496 0.152090 -0.986634
vn 0.058496 0.152090 -0.986634
vn 0.058496 0.152090 -0.986634
vn 0.058496 0.152090 -0.986634
vn 0.058496 0.152090 -0.986634
vn 0.058496 0.152090 -0.986634
vn 0.286694 0.726552 0.624442
vn 0.286694 0.726552 0.624442
vn 0.371585 0.927006 -0.050848
vn 0.371585 0.927006 -0.050848
vn 0.286694 0.726552 0.624442
vn 0.371585 0.927006 -0.050848
vn 0.371585 0.927006 -0.050848
vn 0.371585 0.927006 -0.050848
vn 0.371585 0.927006 -0.050848
vn 0.371585 0.927006 -0.050848
vn 0.371585 0.927006 -0.050848
vn 0.371585 0.927006 -0.050848
vn 0.371585 0.927006 -0.050848
vn 0.371585 0.927006 -0.050848
vn 0.277185 0.691011 -0.667587
vn 0.277185 0.691011 -0.667587
vn 0.371585 0.927006 -0.050848
vn 0.277185 0.691011 -0.667587
vt 0.410156 0.525879
vt -0.009987 0.525879
vt -0.009987 0.507568
vt 0.410156 0.507568
vt 0.410156 0.525879
vt -0.009987 0.507568
vt 0.410156 0.507568
vt -0.009987 0.507568
vt -0.009987 0.505127
vt 0.410156 0.505127
vt 0.410156 0.507568
vt -0.009987 0.505127
vt 0.589355 0.505859
vt 1.009766 0.505859
vt 1.009766 0.508301
vt 0.589355 0.508301
vt 0.589355 0.505859
vt 1.009766 0.508301
vt 0.589355 0.508301
vt 1.009766 0.508301
vt 1.009766 0.527100
vt 0.589355 0.527100
vt 0.589355 0.508301
vt 1.009766 0.527100
vt 0.589355 0.379883
vt 1.009766 0.379883
vt 1.009766 0.382324
vt 0.589355 0.382324
vt 0.589355 0.379883
vt 1.009766 0.382324
vt 0.589355 0.382324
vt 1.009766 0.382324
vt 1.009766 0.393555
vt 0.589355 0.393555
vt 0.589355 0.382324
vt 1.009766 0.393555
vt 0.589355 0.393555
vt 1.009766 0.393555
vt 1.009766 0.395996
vt 0.589355 0.395996
vt 0.589355 0.393555
vt 1.009766 0.395996
f 1/1/1 2/2/2 3/3/3
f 4/4/4 5/5/5 6/6/6
f 7/7/7 8/8/8 9/9/9
f 10/10/10 11/11/11 12/12/12
f 13/13/13 14/14/14 15/15/15
f 16/16/16 17/17/17 18/18/18
f 19/19/19 20/20/20 21/21/21
f 22/22/22 23/23/23 24/24/24
f 25/25/25 26/26/26 27/27/27
f 28/28/28 29/29/29 30/30/30
f 31/31/31 32/32/32 33/33/33
f 34/34/34 35/35/35 36/36/36
f 37/37/37 38/38/38 39/39/39
f 40/40/40 41/41/41 42/42/42
