# OBJ file
v -327.410060 -1804.752900 695.191000
v -333.445160 -1802.285300 695.191000
v -358.136230 -1879.895000 695.247200
v -333.445160 -1802.285300 695.191000
v -364.171330 -1877.427400 695.247250
v -358.136230 -1879.895000 695.247200
v -358.325470 -1880.358000 694.747560
v -364.360570 -1877.890100 694.747560
v -358.325470 -1880.358200 523.874300
v -364.360570 -1877.890100 694.747560
v -364.360570 -1877.890100 523.874300
v -358.325470 -1880.358200 523.874300
v -358.136230 -1879.895300 523.374300
v -364.171330 -1877.427500 523.374300
v -327.410060 -1804.752900 523.374300
v -364.171330 -1877.427500 523.374300
v -333.445160 -1802.285000 523.374300
v -327.410060 -1804.752900 523.374300
v -327.220800 -1804.290200 523.874300
v -333.255920 -1801.822500 523.874300
v -327.220830 -1804.290300 694.690700
v -333.255920 -1801.822500 523.874300
v -333.255920 -1801.822300 694.690600
v -327.220830 -1804.290300 694.690700
v -334.179840 -1802.748300 694.691470
v -336.807400 -1809.004800 687.910800
v -364.370760 -1876.581700 694.746700
v -336.807400 -1809.004800 687.910800
v -361.861970 -1870.277000 687.956670
v -364.370760 -1876.581700 694.746700
v -364.638520 -1877.236300 694.039860
v -362.129700 -1870.931600 687.249800
v -364.638520 -1877.236300 524.581360
v -362.129700 -1870.931600 687.249800
v -362.129700 -1870.931400 531.366700
v -364.638520 -1877.236300 524.581360
v -364.370880 -1876.581900 523.874270
v -361.862060 -1870.277000 530.659600
v -334.179930 -1802.748700 523.874270
v -361.862060 -1870.277000 530.659600
v -336.807500 -1809.004900 530.659600
v -334.179930 -1802.748700 523.874270
v -333.912350 -1802.094200 524.581360
v -336.539860 -1808.350600 531.366700
v -333.912350 -1802.094100 693.984130
v -336.539860 -1808.350600 531.366700
v -336.539860 -1808.350500 687.203500
v -333.912350 -1802.094100 693.984130
v -336.590060 -1809.669900 687.209840
v -335.689670 -1810.601800 686.688400
v -361.241000 -1869.955000 687.254940
v -335.689670 -1810.601800 686.688400
v -359.945560 -1869.920800 686.732800
v -361.241000 -1869.955000 687.254940
v -361.445000 -1870.454000 686.716250
v -360.149570 -1870.419600 686.194100
v -361.445000 -1870.453900 531.899960
v -360.149570 -1870.419600 686.194100
v -360.149570 -1870.419800 532.421800
v -361.445000 -1870.453900 531.899960
v -361.241000 -1869.954800 531.360960
v -359.945600 -1869.920800 531.882750
v -336.590100 -1809.669900 531.360960
v -359.945600 -1869.920800 531.882750
v -335.689670 -1810.601800 531.882750
v -336.590100 -1809.669900 531.360960
v -336.386050 -1809.171000 531.899960
v -335.485660 -1810.103100 532.421800
v -336.386050 -1809.171000 686.670530
v -335.485660 -1810.103100 532.421800
v -335.485660 -1810.103000 686.149050
v -336.386050 -1809.171000 686.670530
v -335.600460 -1811.577400 685.987700
v -337.035130 -1814.971200 682.305800
v -359.198270 -1869.287000 686.030800
v -337.035130 -1814.971200 682.305800
v -357.843900 -1865.860400 682.343930
v -359.198270 -1869.287000 686.030800
v -359.466000 -1869.941700 685.324040
v -358.111630 -1866.514900 681.637100
v -359.466000 -1869.941500 533.291200
v -358.111630 -1866.514900 681.637100
v -358.111630 -1866.514800 536.975650
v -359.466000 -1869.941500 533.291200
v -359.198360 -1869.287100 532.584100
v -357.844000 -1865.860400 536.268550
v -335.600560 -1811.577600 532.584100
v -357.844000 -1865.860400 536.268550
v -337.035220 -1814.971400 536.268550
v -335.600560 -1811.577600 532.584100
v -335.332920 -1810.923100 533.291200
v -336.767580 -1814.317000 536.975650
v -335.332920 -1810.923200 685.280330
v -336.767580 -1814.317000 536.975650
v -336.767580 -1814.317000 681.598500
v -335.332920 -1810.923200 685.280330
v -336.688700 -1815.429600 681.806100
v -332.683930 -1817.067000 681.806100
v -357.275800 -1865.776200 681.843750
v -332.683930 -1817.067000 681.806100
v -353.271030 -1867.413800 681.843750
v -357.275800 -1865.776200 681.843750
v -357.465060 -1866.239000 681.344100
v -353.460270 -1867.876700 681.344100
v -357.465060 -1866.239100 537.268500
v -353.460270 -1867.876700 681.344100
v -353.460270 -1867.876800 537.268500
v -357.465060 -1866.239100 537.268500
v -357.275800 -1865.776400 536.768500
v -353.271030 -1867.414000 536.768500
v -336.688700 -1815.429600 536.768500
v -353.271030 -1867.414000 536.768500
v -332.683930 -1817.067300 536.768500
v -336.688700 -1815.429600 536.768500
v -336.499450 -1814.966800 537.268500
v -332.494700 -1816.604400 537.268500
v -336.499450 -1814.966800 681.305700
v -332.494700 -1816.604400 537.268500
v -332.494700 -1816.604400 681.305700
v -336.499450 -1814.966800 681.305700
v -327.410060 -1804.752900 695.191000
v -327.220830 -1804.290300 694.690700
v -333.445160 -1802.285300 695.191000
v -327.220830 -1804.290300 694.690700
v -333.255920 -1801.822300 694.690600
v -333.445160 -1802.285300 695.191000
v -333.445160 -1802.285300 695.191000
v -334.179840 -1802.748300 694.691470
v -364.171330 -1877.427400 695.247250
v -334.179840 -1802.748300 694.691470
v -364.370760 -1876.581700 694.746700
v -364.171330 -1877.427400 695.247250
v -364.171330 -1877.427400 695.247250
v -364.360570 -1877.890100 694.747560
v -358.136230 -1879.895000 695.247200
v -364.360570 -1877.890100 694.747560
v -358.325470 -1880.358000 694.747560
v -358.136230 -1879.895000 695.247200
v -364.360570 -1877.890100 694.747560
v -364.638520 -1877.236300 694.039860
v -364.360570 -1877.890100 523.874300
v -364.638520 -1877.236300 694.039860
v -364.638520 -1877.236300 524.581360
v -364.360570 -1877.890100 523.874300
v -364.360570 -1877.890100 523.874300
v -364.171330 -1877.427500 523.374300
v -358.325470 -1880.358200 523.874300
v -364.171330 -1877.427500 523.374300
v -358.136230 -1879.895300 523.374300
v -358.325470 -1880.358200 523.874300
v -364.171330 -1877.427500 523.374300
v -364.370880 -1876.581900 523.874270
v -333.445160 -1802.285000 523.374300
v -364.370880 -1876.581900 523.874270
v -334.179930 -1802.748700 523.874270
v -333.445160 -1802.285000 523.374300
v -333.445160 -1802.285000 523.374300
v -333.255920 -1801.822500 523.874300
v -327.410060 -1804.752900 523.374300
v -333.255920 -1801.822500 523.874300
v -327.220800 -1804.290200 523.874300
v -327.410060 -1804.752900 523.374300
v -333.255920 -1801.822500 523.874300
v -333.912350 -1802.094200 524.581360
v -333.255920 -1801.822300 694.690600
v -333.912350 -1802.094200 524.581360
v -333.912350 -1802.094100 693.984130
v -333.255920 -1801.822300 694.690600
v -336.590060 -1809.669900 687.209840
v -336.386050 -1809.171000 686.670530
v -335.689670 -1810.601800 686.688400
v -336.386050 -1809.171000 686.670530
v -335.485660 -1810.103000 686.149050
v -335.689670 -1810.601800 686.688400
v -359.945560 -1869.920800 686.732800
v -360.149570 -1870.419600 686.194100
v -361.241000 -1869.955000 687.254940
v -360.149570 -1870.419600 686.194100
v -361.445000 -1870.454000 686.716250
v -361.241000 -1869.955000 687.254940
v -360.149570 -1870.419800 532.421800
v -359.945600 -1869.920800 531.882750
v -361.445000 -1870.453900 531.899960
v -359.945600 -1869.920800 531.882750
v -361.241000 -1869.954800 531.360960
v -361.445000 -1870.453900 531.899960
v -335.689670 -1810.601800 531.882750
v -335.485660 -1810.103100 532.421800
v -336.590100 -1809.669900 531.360960
v -335.485660 -1810.103100 532.421800
v -336.386050 -1809.171000 531.899960
v -336.590100 -1809.669900 531.360960
v -336.688700 -1815.429600 681.806100
v -336.499450 -1814.966800 681.305700
v -332.683930 -1817.067000 681.806100
v -336.499450 -1814.966800 681.305700
v -332.494700 -1816.604400 681.305700
v -332.683930 -1817.067000 681.806100
v -353.271030 -1867.413800 681.843750
v -353.460270 -1867.876700 681.344100
v -357.275800 -1865.776200 681.843750
v -353.460270 -1867.876700 681.344100
v -357.465060 -1866.239000 681.344100
v -357.275800 -1865.776200 681.843750
v -353.460270 -1867.876800 537.268500
v -353.271030 -1867.414000 536.768500
v -357.465060 -1866.239100 537.268500
v -353.271030 -1867.414000 536.768500
v -357.275800 -1865.776400 536.768500
v -357.465060 -1866.239100 537.268500
v -332.683930 -1817.067300 536.768500
v -332.494700 -1816.604400 537.268500
v -336.688700 -1815.429600 536.768500
v -332.494700 -1816.604400 537.268500
v -336.499450 -1814.966800 537.268500
v -336.688700 -1815.429600 536.768500
v -333.255920 -1801.822300 694.690600
v -333.912350 -1802.094100 693.984130
v -333.445160 -1802.285300 695.191000
v -333.912350 -1802.094100 693.984130
v -334.179840 -1802.748300 694.691470
v -333.445160 -1802.285300 695.191000
v -334.179840 -1802.748300 694.691470
v -333.912350 -1802.094100 693.984130
v -336.807400 -1809.004800 687.910800
v -333.912350 -1802.094100 693.984130
v -336.539860 -1808.350500 687.203500
v -336.807400 -1809.004800 687.910800
v -336.539860 -1808.350500 687.203500
v -336.386050 -1809.171000 686.670530
v -336.807400 -1809.004800 687.910800
v -336.386050 -1809.171000 531.899960
v -336.386050 -1809.171000 686.670530
v -336.539860 -1808.350500 687.203500
v -336.386050 -1809.171000 686.670530
v -336.590060 -1809.669900 687.209840
v -336.807400 -1809.004800 687.910800
v -336.539860 -1808.350600 531.366700
v -336.386050 -1809.171000 531.899960
v -336.539860 -1808.350500 687.203500
v -336.807400 -1809.004800 687.910800
v -336.590060 -1809.669900 687.209840
v -361.861970 -1870.277000 687.956670
v -336.590100 -1809.669900 531.360960
v -336.386050 -1809.171000 531.899960
v -336.539860 -1808.350600 531.366700
v -336.590060 -1809.669900 687.209840
v -361.241000 -1869.955000 687.254940
v -361.861970 -1870.277000 687.956670
v -336.807500 -1809.004900 530.659600
v -336.590100 -1809.669900 531.360960
v -336.539860 -1808.350600 531.366700
v -361.241000 -1869.954800 531.360960
v -336.590100 -1809.669900 531.360960
v -336.807500 -1809.004900 530.659600
v -336.807500 -1809.004900 530.659600
v -336.539860 -1808.350600 531.366700
v -334.179930 -1802.748700 523.874270
v -336.539860 -1808.350600 531.366700
v -333.912350 -1802.094200 524.581360
v -334.179930 -1802.748700 523.874270
v -334.179930 -1802.748700 523.874270
v -333.912350 -1802.094200 524.581360
v -333.255920 -1801.822500 523.874300
v -333.445160 -1802.285000 523.374300
v -334.179930 -1802.748700 523.874270
v -333.255920 -1801.822500 523.874300
v -361.862060 -1870.277000 530.659600
v -361.241000 -1869.954800 531.360960
v -336.807500 -1809.004900 530.659600
v -361.445000 -1870.453900 531.899960
v -361.241000 -1869.954800 531.360960
v -361.862060 -1870.277000 530.659600
v -362.129700 -1870.931400 531.366700
v -361.445000 -1870.453900 531.899960
v -361.862060 -1870.277000 530.659600
v -361.445000 -1870.454000 686.716250
v -361.445000 -1870.453900 531.899960
v -362.129700 -1870.931400 531.366700
v -362.129700 -1870.931400 531.366700
v -361.862060 -1870.277000 530.659600
v -364.638520 -1877.236300 524.581360
v -361.862060 -1870.277000 530.659600
v -364.370880 -1876.581900 523.874270
v -364.638520 -1877.236300 524.581360
v -364.638520 -1877.236300 524.581360
v -364.370880 -1876.581900 523.874270
v -364.171330 -1877.427500 523.374300
v -364.360570 -1877.890100 523.874300
v -364.638520 -1877.236300 524.581360
v -364.171330 -1877.427500 523.374300
v -362.129700 -1870.931600 687.249800
v -361.445000 -1870.454000 686.716250
v -362.129700 -1870.931400 531.366700
v -361.241000 -1869.955000 687.254940
v -361.445000 -1870.454000 686.716250
v -362.129700 -1870.931600 687.249800
v -361.861970 -1870.277000 687.956670
v -361.241000 -1869.955000 687.254940
v -362.129700 -1870.931600 687.249800
v -361.861970 -1870.277000 687.956670
v -362.129700 -1870.931600 687.249800
v -364.370760 -1876.581700 694.746700
v -362.129700 -1870.931600 687.249800
v -364.638520 -1877.236300 694.039860
v -364.370760 -1876.581700 694.746700
v -364.370760 -1876.581700 694.746700
v -364.638520 -1877.236300 694.039860
v -364.360570 -1877.890100 694.747560
v -364.171330 -1877.427400 695.247250
v -364.370760 -1876.581700 694.746700
v -364.360570 -1877.890100 694.747560
v -335.689670 -1810.601800 686.688400
v -335.600460 -1811.577400 685.987700
v -359.945560 -1869.920800 686.732800
v -335.332920 -1810.923200 685.280330
v -335.600460 -1811.577400 685.987700
v -335.689670 -1810.601800 686.688400
v -335.485660 -1810.103000 686.149050
v -335.332920 -1810.923200 685.280330
v -335.689670 -1810.601800 686.688400
v -335.600460 -1811.577400 685.987700
v -359.198270 -1869.287000 686.030800
v -359.945560 -1869.920800 686.732800
v -335.600460 -1811.577400 685.987700
v -335.332920 -1810.923200 685.280330
v -337.035130 -1814.971200 682.305800
v -359.945560 -1869.920800 686.732800
v -359.198270 -1869.287000 686.030800
v -360.149570 -1870.419600 686.194100
v -335.332920 -1810.923100 533.291200
v -335.332920 -1810.923200 685.280330
v -335.485660 -1810.103000 686.149050
v -335.485660 -1810.103100 532.421800
v -335.332920 -1810.923100 533.291200
v -335.485660 -1810.103000 686.149050
v -335.332920 -1810.923200 685.280330
v -336.767580 -1814.317000 681.598500
v -337.035130 -1814.971200 682.305800
v -335.600560 -1811.577600 532.584100
v -335.332920 -1810.923100 533.291200
v -335.485660 -1810.103100 532.421800
v -335.689670 -1810.601800 531.882750
v -335.600560 -1811.577600 532.584100
v -335.485660 -1810.103100 532.421800
v -336.767580 -1814.317000 536.975650
v -335.332920 -1810.923100 533.291200
v -335.600560 -1811.577600 532.584100
v -359.198360 -1869.287100 532.584100
v -335.600560 -1811.577600 532.584100
v -335.689670 -1810.601800 531.882750
v -359.945600 -1869.920800 531.882750
v -359.198360 -1869.287100 532.584100
v -335.689670 -1810.601800 531.882750
v -337.035220 -1814.971400 536.268550
v -336.767580 -1814.317000 536.975650
v -335.600560 -1811.577600 532.584100
v -359.466000 -1869.941500 533.291200
v -359.198360 -1869.287100 532.584100
v -359.945600 -1869.920800 531.882750
v -360.149570 -1870.419800 532.421800
v -359.466000 -1869.941500 533.291200
v -359.945600 -1869.920800 531.882750
v -357.844000 -1865.860400 536.268550
v -359.198360 -1869.287100 532.584100
v -359.466000 -1869.941500 533.291200
v -359.466000 -1869.941700 685.324040
v -359.466000 -1869.941500 533.291200
v -360.149570 -1870.419800 532.421800
v -360.149570 -1870.419600 686.194100
v -359.466000 -1869.941700 685.324040
v -360.149570 -1870.419800 532.421800
v -359.198270 -1869.287000 686.030800
v -359.466000 -1869.941700 685.324040
v -360.149570 -1870.419600 686.194100
v -358.111630 -1866.514800 536.975650
v -357.844000 -1865.860400 536.268550
v -359.466000 -1869.941500 533.291200
v -358.111630 -1866.514900 681.637100
v -359.466000 -1869.941700 685.324040
v -359.198270 -1869.287000 686.030800
v -357.843900 -1865.860400 682.343930
v -358.111630 -1866.514900 681.637100
v -359.198270 -1869.287000 686.030800
v -358.111630 -1866.514800 536.975650
v -357.465060 -1866.239100 537.268500
v -357.844000 -1865.860400 536.268550
v -357.465060 -1866.239000 681.344100
v -357.465060 -1866.239100 537.268500
v -358.111630 -1866.514800 536.975650
v -358.111630 -1866.514900 681.637100
v -357.465060 -1866.239000 681.344100
v -358.111630 -1866.514800 536.975650
v -357.465060 -1866.239100 537.268500
v -357.275800 -1865.776400 536.768500
v -357.844000 -1865.860400 536.268550
v -357.844000 -1865.860400 536.268550
v -357.275800 -1865.776400 536.768500
v -337.035220 -1814.971400 536.268550
v -357.275800 -1865.776200 681.843750
v -357.465060 -1866.239000 681.344100
v -358.111630 -1866.514900 681.637100
v -357.843900 -1865.860400 682.343930
v -357.275800 -1865.776200 681.843750
v -358.111630 -1866.514900 681.637100
v -357.275800 -1865.776400 536.768500
v -336.688700 -1815.429600 536.768500
v -337.035220 -1814.971400 536.268550
v -336.688700 -1815.429600 681.806100
v -357.275800 -1865.776200 681.843750
v -357.843900 -1865.860400 682.343930
v -337.035220 -1814.971400 536.268550
v -336.688700 -1815.429600 536.768500
v -336.767580 -1814.317000 536.975650
v -337.035130 -1814.971200 682.305800
v -336.688700 -1815.429600 681.806100
v -357.843900 -1865.860400 682.343930
v -336.688700 -1815.429600 536.768500
v -336.499450 -1814.966800 537.268500
v -336.767580 -1814.317000 536.975650
v -336.499450 -1814.966800 681.305700
v -336.688700 -1815.429600 681.806100
v -337.035130 -1814.971200 682.305800
v -336.767580 -1814.317000 536.975650
v -336.499450 -1814.966800 537.268500
v -336.767580 -1814.317000 681.598500
v -336.767580 -1814.317000 681.598500
v -336.499450 -1814.966800 681.305700
v -337.035130 -1814.971200 682.305800
v -336.499450 -1814.966800 537.268500
v -336.499450 -1814.966800 681.305700
v -336.767580 -1814.317000 681.598500
vn -0.003952 0.003952 0.999984
vn -0.003952 0.003952 0.999984
vn -0.003952 0.003952 0.999984
vn -0.003952 0.003952 0.999984
vn -0.003952 0.003952 0.999984
vn -0.003952 0.003952 0.999984
vn -0.381538 -0.924345 -0.003933
vn -0.381538 -0.924345 -0.003933
vn -0.381538 -0.924345 -0.003933
vn -0.381538 -0.924345 -0.003933
vn -0.381538 -0.924345 -0.003933
vn -0.381538 -0.924345 -0.003933
vn -0.003921 0.003921 -0.999985
vn -0.003921 0.003921 -0.999985
vn -0.003921 0.003921 -0.999985
vn -0.003921 0.003921 -0.999985
vn -0.003921 0.003921 -0.999985
vn -0.003921 0.003921 -0.999985
vn 0.372063 0.928199 -0.003916
vn 0.372063 0.928199 -0.003916
vn 0.372063 0.928199 -0.003916
vn 0.372063 0.928199 -0.003916
vn 0.372063 0.928199 -0.003916
vn 0.372063 0.928199 -0.003916
vn -0.925478 0.378782 0.003905
vn -0.925478 0.378782 0.003905
vn -0.925478 0.378782 0.003905
vn -0.925478 0.378782 0.003905
vn -0.925478 0.378782 0.003905
vn -0.925478 0.378782 0.003905
vn -0.928199 0.372063 -0.003916
vn -0.928199 0.372063 -0.003916
vn -0.928199 0.372063 -0.003916
vn -0.928199 0.372063 -0.003916
vn -0.928199 0.372063 -0.003916
vn -0.928199 0.372063 -0.003916
vn -0.925421 0.378759 -0.011714
vn -0.925421 0.378759 -0.011714
vn -0.925421 0.378759 -0.011714
vn -0.925421 0.378759 -0.011714
vn -0.925421 0.378759 -0.011714
vn -0.925421 0.378759 -0.011714
vn -0.922724 0.385442 -0.003893
vn -0.922724 0.385442 -0.003893
vn -0.922724 0.385442 -0.003893
vn -0.922724 0.385442 -0.003893
vn -0.922724 0.385442 -0.003893
vn -0.922724 0.385442 -0.003893
vn -0.377129 0.151629 -0.913664
vn -0.377129 0.151629 -0.913664
vn -0.377129 0.151629 -0.913664
vn -0.377129 0.151629 -0.913664
vn -0.377129 0.151629 -0.913664
vn -0.377129 0.151629 -0.913664
vn -0.027440 0.999616 -0.003920
vn -0.027440 0.999616 -0.003920
vn -0.027440 0.999616 -0.003920
vn -0.027440 0.999616 -0.003920
vn -0.027440 0.999616 -0.003920
vn -0.027440 0.999616 -0.003920
vn -0.379826 0.152713 0.912366
vn -0.379826 0.152713 0.912366
vn -0.379826 0.152713 0.912366
vn -0.379826 0.152713 0.912366
vn -0.379826 0.152713 0.912366
vn -0.379826 0.152713 0.912366
vn -0.722551 -0.691306 -0.003906
vn -0.722551 -0.691306 -0.003906
vn -0.722551 -0.691306 -0.003906
vn -0.722551 -0.691306 -0.003906
vn -0.722551 -0.691306 -0.003906
vn -0.722551 -0.691306 -0.003906
vn -0.925421 0.378759 0.011714
vn -0.925421 0.378759 0.011714
vn -0.925421 0.378759 0.011714
vn -0.925421 0.378759 0.011714
vn -0.925421 0.378759 0.011714
vn -0.925421 0.378759 0.011714
vn -0.929272 0.369376 -0.003888
vn -0.929272 0.369376 -0.003888
vn -0.929272 0.369376 -0.003888
vn -0.929272 0.369376 -0.003888
vn -0.929272 0.369376 -0.003888
vn -0.929272 0.369376 -0.003888
vn -0.925308 0.378713 -0.019521
vn -0.925308 0.378713 -0.019521
vn -0.925308 0.378713 -0.019521
vn -0.925308 0.378713 -0.019521
vn -0.925308 0.378713 -0.019521
vn -0.925308 0.378713 -0.019521
vn -0.918733 0.394860 -0.003909
vn -0.918733 0.394860 -0.003909
vn -0.918733 0.394860 -0.003909
vn -0.918733 0.394860 -0.003909
vn -0.918733 0.394860 -0.003909
vn -0.918733 0.394860 -0.003909
vn -0.003921 0.003921 -0.999985
vn -0.003921 0.003921 -0.999985
vn -0.003921 0.003921 -0.999985
vn -0.003921 0.003921 -0.999985
vn -0.003921 0.003921 -0.999985
vn -0.003921 0.003921 -0.999985
vn 0.372063 0.928199 -0.003916
vn 0.372063 0.928199 -0.003916
vn 0.372063 0.928199 -0.003916
vn 0.372063 0.928199 -0.003916
vn 0.372063 0.928199 -0.003916
vn 0.372063 0.928199 -0.003916
vn -0.003921 0.003921 0.999985
vn -0.003921 0.003921 0.999985
vn -0.003921 0.003921 0.999985
vn -0.003921 0.003921 0.999985
vn -0.003921 0.003921 0.999985
vn -0.003921 0.003921 0.999985
vn -0.381538 -0.924345 -0.003933
vn -0.381538 -0.924345 -0.003933
vn -0.381538 -0.924345 -0.003933
vn -0.381538 -0.924345 -0.003933
vn -0.381538 -0.924345 -0.003933
vn -0.381538 -0.924345 -0.003933
vn 0.263978 0.657975 0.705255
vn 0.263978 0.657975 0.705255
vn -0.348885 0.678171 0.646810
vn 0.263978 0.657975 0.705255
vn -0.292445 0.822745 0.487408
vn -0.348885 0.678171 0.646810
vn -0.348885 0.678171 0.646810
vn -0.788126 0.435234 0.435234
vn -0.726015 -0.231540 0.647527
vn -0.788126 0.435234 0.435234
vn -0.865961 0.246858 0.434940
vn -0.726015 -0.231540 0.647527
vn -0.726015 -0.231540 0.647527
vn -0.785762 -0.379199 0.488658
vn -0.272689 -0.652082 0.707410
vn -0.785762 -0.379199 0.488658
vn -0.272689 -0.652082 0.707410
vn -0.272689 -0.652082 0.707410
vn -0.785762 -0.379199 0.488658
vn -0.993045 -0.066203 0.097357
vn -0.782753 -0.377747 -0.494575
vn -0.993045 -0.066203 0.097357
vn -0.992263 -0.066151 -0.105063
vn -0.782753 -0.377747 -0.494575
vn -0.782753 -0.377747 -0.494575
vn -0.722331 -0.230365 -0.652050
vn -0.271168 -0.648447 -0.711326
vn -0.722331 -0.230365 -0.652050
vn -0.271168 -0.648447 -0.711326
vn -0.271168 -0.648447 -0.711326
vn -0.722331 -0.230365 -0.652050
vn -0.862998 0.246013 -0.441261
vn -0.353952 0.672897 -0.649560
vn -0.862998 0.246013 -0.441261
vn -0.785426 0.433743 -0.441558
vn -0.353952 0.672897 -0.649560
vn -0.353952 0.672897 -0.649560
vn -0.291331 0.819611 -0.493320
vn 0.262515 0.654329 -0.709183
vn -0.291331 0.819611 -0.493320
vn 0.262515 0.654329 -0.709183
vn 0.262515 0.654329 -0.709183
vn -0.291331 0.819611 -0.493320
vn -0.658976 0.744760 -0.105280
vn -0.292445 0.822745 0.487408
vn -0.658976 0.744760 -0.105280
vn -0.659497 0.745349 0.097559
vn -0.292445 0.822745 0.487408
vn -0.854199 0.035104 -0.518760
vn -0.941270 -0.167944 -0.292926
vn -0.876908 -0.035076 -0.479376
vn -0.941270 -0.167944 -0.292926
vn -0.918396 -0.136782 -0.371267
vn -0.876908 -0.035076 -0.479376
vn -0.601612 0.640425 -0.477408
vn -0.556817 0.743720 -0.369913
vn -0.635117 0.572774 -0.518224
vn -0.556817 0.743720 -0.369913
vn -0.549229 0.782943 -0.292143
vn -0.635117 0.572774 -0.518224
vn -0.558411 0.745849 0.363162
vn -0.603835 0.642793 0.471381
vn -0.550466 0.784708 0.284993
vn -0.603835 0.642793 0.471381
vn -0.637678 0.575084 0.512490
vn -0.550466 0.784708 0.284993
vn -0.880176 -0.035207 0.473339
vn -0.921045 -0.137177 0.364499
vn -0.857650 0.035246 0.513024
vn -0.921045 -0.137177 0.364499
vn -0.943402 -0.168325 0.285761
vn -0.857650 0.035246 0.513024
vn -0.690170 -0.159870 -0.705767
vn -0.804503 -0.427760 -0.412063
vn -0.271168 -0.648447 -0.711326
vn -0.804503 -0.427760 -0.412063
vn -0.271168 -0.648447 -0.711326
vn -0.271168 -0.648447 -0.711326
vn 0.262515 0.654329 -0.709183
vn 0.262515 0.654329 -0.709183
vn -0.378782 0.597460 -0.706799
vn 0.262515 0.654329 -0.709183
vn -0.269574 0.871233 -0.410222
vn -0.378782 0.597460 -0.706799
vn 0.263978 0.657975 0.705255
vn 0.263978 0.657975 0.705255
vn -0.270434 0.874013 0.403692
vn 0.263978 0.657975 0.705255
vn -0.380879 0.600767 0.702859
vn -0.270434 0.874013 0.403692
vn -0.272689 -0.652082 0.707410
vn -0.272689 -0.652082 0.707410
vn -0.693979 -0.160752 0.701821
vn -0.272689 -0.652082 0.707410
vn -0.807093 -0.429137 0.405515
vn -0.693979 -0.160752 0.701821
vn -0.292445 0.822745 0.487408
vn -0.659497 0.745349 0.097559
vn -0.348885 0.678171 0.646810
vn -0.659497 0.745349 0.097559
vn -0.788126 0.435234 0.435234
vn -0.348885 0.678171 0.646810
vn -0.788126 0.435234 0.435234
vn -0.659497 0.745349 0.097559
vn -0.931471 0.253329 -0.261124
vn -0.659497 0.745349 0.097559
vn -0.985316 0.120730 -0.120730
vn -0.931471 0.253329 -0.261124
vn -0.985316 0.120730 -0.120730
vn -0.941270 -0.167944 -0.292926
vn -0.931471 0.253329 -0.261124
vn -0.943402 -0.168325 0.285761
vn -0.941270 -0.167944 -0.292926
vn -0.985316 0.120730 -0.120730
vn -0.941270 -0.167944 -0.292926
vn -0.854199 0.035104 -0.518760
vn -0.931471 0.253329 -0.261124
vn -0.986214 0.120840 0.113044
vn -0.943402 -0.168325 0.285761
vn -0.985316 0.120730 -0.120730
vn -0.931471 0.253329 -0.261124
vn -0.854199 0.035104 -0.518760
vn -0.841006 0.473310 -0.262081
vn -0.857650 0.035246 0.513024
vn -0.943402 -0.168325 0.285761
vn -0.986214 0.120840 0.113044
vn -0.854199 0.035104 -0.518760
vn -0.635117 0.572774 -0.518224
vn -0.841006 0.473310 -0.262081
vn -0.933345 0.253838 0.253839
vn -0.857650 0.035246 0.513024
vn -0.986214 0.120840 0.113044
vn -0.637678 0.575084 0.512490
vn -0.857650 0.035246 0.513024
vn -0.933345 0.253838 0.253839
vn -0.933345 0.253838 0.253839
vn -0.986214 0.120840 0.113044
vn -0.785426 0.433743 -0.441558
vn -0.986214 0.120840 0.113044
vn -0.658976 0.744760 -0.105280
vn -0.785426 0.433743 -0.441558
vn -0.785426 0.433743 -0.441558
vn -0.658976 0.744760 -0.105280
vn -0.291331 0.819611 -0.493320
vn -0.353952 0.672897 -0.649560
vn -0.785426 0.433743 -0.441558
vn -0.291331 0.819611 -0.493320
vn -0.842710 0.474269 0.254773
vn -0.637678 0.575084 0.512490
vn -0.933345 0.253838 0.253839
vn -0.550466 0.784708 0.284993
vn -0.637678 0.575084 0.512490
vn -0.842710 0.474269 0.254773
vn -0.786773 0.606715 0.113515
vn -0.550466 0.784708 0.284993
vn -0.842710 0.474269 0.254773
vn -0.549229 0.782943 -0.292143
vn -0.550466 0.784708 0.284993
vn -0.786773 0.606715 0.113515
vn -0.786773 0.606715 0.113515
vn -0.842710 0.474269 0.254773
vn -0.992263 -0.066151 -0.105063
vn -0.842710 0.474269 0.254773
vn -0.862998 0.246013 -0.441261
vn -0.992263 -0.066151 -0.105063
vn -0.992263 -0.066151 -0.105063
vn -0.862998 0.246013 -0.441261
vn -0.722331 -0.230365 -0.652050
vn -0.782753 -0.377747 -0.494575
vn -0.992263 -0.066151 -0.105063
vn -0.722331 -0.230365 -0.652050
vn -0.786050 0.606158 -0.121232
vn -0.549229 0.782943 -0.292143
vn -0.786773 0.606715 0.113515
vn -0.635117 0.572774 -0.518224
vn -0.549229 0.782943 -0.292143
vn -0.786050 0.606158 -0.121232
vn -0.841006 0.473310 -0.262081
vn -0.635117 0.572774 -0.518224
vn -0.786050 0.606158 -0.121232
vn -0.841006 0.473310 -0.262081
vn -0.786050 0.606158 -0.121232
vn -0.865961 0.246858 0.434940
vn -0.786050 0.606158 -0.121232
vn -0.993045 -0.066203 0.097357
vn -0.865961 0.246858 0.434940
vn -0.865961 0.246858 0.434940
vn -0.993045 -0.066203 0.097357
vn -0.785762 -0.379199 0.488658
vn -0.726015 -0.231540 0.647527
vn -0.865961 0.246858 0.434940
vn -0.785762 -0.379199 0.488658
vn -0.876908 -0.035076 -0.479376
vn -0.900019 0.292214 -0.323383
vn -0.601612 0.640425 -0.477408
vn -0.995039 0.066336 -0.074140
vn -0.900019 0.292214 -0.323383
vn -0.876908 -0.035076 -0.479376
vn -0.918396 -0.136782 -0.371267
vn -0.995039 0.066336 -0.074140
vn -0.876908 -0.035076 -0.479376
vn -0.900019 0.292214 -0.323383
vn -0.845575 0.424736 -0.323423
vn -0.601612 0.640425 -0.477408
vn -0.900019 0.292214 -0.323383
vn -0.995039 0.066336 -0.074140
vn -0.902158 0.191367 -0.386639
vn -0.601612 0.640425 -0.477408
vn -0.845575 0.424736 -0.323423
vn -0.556817 0.743720 -0.369913
vn -0.995585 0.066372 0.066372
vn -0.995039 0.066336 -0.074140
vn -0.918396 -0.136782 -0.371267
vn -0.921045 -0.137177 0.364499
vn -0.995585 0.066372 0.066372
vn -0.918396 -0.136782 -0.371267
vn -0.995039 0.066336 -0.074140
vn -0.985795 -0.011689 -0.167546
vn -0.902158 0.191367 -0.386639
vn -0.902268 0.292944 0.316380
vn -0.995585 0.066372 0.066372
vn -0.921045 -0.137177 0.364499
vn -0.880176 -0.035207 0.473339
vn -0.902268 0.292944 0.316380
vn -0.921045 -0.137177 0.364499
vn -0.987054 -0.011704 0.159958
vn -0.995585 0.066372 0.066372
vn -0.902268 0.292944 0.316380
vn -0.847689 0.425797 0.316418
vn -0.902268 0.292944 0.316380
vn -0.880176 -0.035207 0.473339
vn -0.603835 0.642793 0.471381
vn -0.847689 0.425797 0.316418
vn -0.880176 -0.035207 0.473339
vn -0.904867 0.191941 0.379966
vn -0.987054 -0.011704 0.159958
vn -0.902268 0.292944 0.316380
vn -0.754534 0.652887 0.066462
vn -0.847689 0.425797 0.316418
vn -0.603835 0.642793 0.471381
vn -0.558411 0.745849 0.363162
vn -0.754534 0.652887 0.066462
vn -0.603835 0.642793 0.471381
vn -0.776663 0.503465 0.378574
vn -0.847689 0.425797 0.316418
vn -0.754534 0.652887 0.066462
vn -0.754119 0.652528 -0.074240
vn -0.754534 0.652887 0.066462
vn -0.558411 0.745849 0.363162
vn -0.556817 0.743720 -0.369913
vn -0.754119 0.652528 -0.074240
vn -0.558411 0.745849 0.363162
vn -0.845575 0.424736 -0.323423
vn -0.754119 0.652528 -0.074240
vn -0.556817 0.743720 -0.369913
vn -0.693979 0.701820 0.160752
vn -0.776663 0.503465 0.378574
vn -0.754534 0.652887 0.066462
vn -0.693085 0.700916 -0.168376
vn -0.754119 0.652528 -0.074240
vn -0.845575 0.424736 -0.323423
vn -0.774354 0.501968 -0.385232
vn -0.693085 0.700916 -0.168376
vn -0.845575 0.424736 -0.323423
vn -0.693979 0.701820 0.160752
vn -0.270434 0.874013 0.403692
vn -0.776663 0.503465 0.378574
vn -0.269574 0.871233 -0.410222
vn -0.270434 0.874013 0.403692
vn -0.693979 0.701820 0.160752
vn -0.693085 0.700916 -0.168376
vn -0.269574 0.871233 -0.410222
vn -0.693979 0.701820 0.160752
vn -0.270434 0.874013 0.403692
vn -0.380879 0.600767 0.702859
vn -0.776663 0.503465 0.378574
vn -0.776663 0.503465 0.378574
vn -0.380879 0.600767 0.702859
vn -0.904867 0.191941 0.379966
vn -0.378782 0.597460 -0.706799
vn -0.269574 0.871233 -0.410222
vn -0.693085 0.700916 -0.168376
vn -0.774354 0.501968 -0.385232
vn -0.378782 0.597460 -0.706799
vn -0.693085 0.700916 -0.168376
vn -0.380879 0.600767 0.702859
vn -0.693979 -0.160752 0.701821
vn -0.904867 0.191941 0.379966
vn -0.690170 -0.159870 -0.705767
vn -0.378782 0.597460 -0.706799
vn -0.774354 0.501968 -0.385232
vn -0.904867 0.191941 0.379966
vn -0.693979 -0.160752 0.701821
vn -0.987054 -0.011704 0.159958
vn -0.902158 0.191367 -0.386639
vn -0.690170 -0.159870 -0.705767
vn -0.774354 0.501968 -0.385232
vn -0.693979 -0.160752 0.701821
vn -0.807093 -0.429137 0.405515
vn -0.987054 -0.011704 0.159958
vn -0.804503 -0.427760 -0.412063
vn -0.690170 -0.159870 -0.705767
vn -0.902158 0.191367 -0.386639
vn -0.987054 -0.011704 0.159958
vn -0.807093 -0.429137 0.405515
vn -0.985795 -0.011689 -0.167546
vn -0.985795 -0.011689 -0.167546
vn -0.804503 -0.427760 -0.412063
vn -0.902158 0.191367 -0.386639
vn -0.807093 -0.429137 0.405515
vn -0.804503 -0.427760 -0.412063
vn -0.985795 -0.011689 -0.167546
vt 0.387451 0.517822
vt 0.387451 0.485352
vt 0.793457 0.517822
vt 0.387451 0.485352
vt 0.793457 0.485352
vt 0.793457 0.517822
vt -0.199585 0.517822
vt -0.199585 0.485352
vt 0.654297 0.517822
vt -0.199585 0.485352
vt 0.654297 0.485352
vt 0.654297 0.517822
vt 0.206421 0.517822
vt 0.206421 0.485352
vt 0.612305 0.517822
vt 0.206421 0.485352
vt 0.612305 0.485352
vt 0.612305 0.517822
vt 0.345215 0.517822
vt 0.345215 0.485352
vt 1.199219 0.517822
vt 0.345215 0.485352
vt 1.199219 0.485352
vt 1.199219 0.517822
vt 0.390869 1.199341
vt 0.424805 1.165405
vt 0.789551 1.199585
vt 0.424805 1.165405
vt 0.755859 1.165649
vt 0.789551 1.199585
vt 0.793457 1.196045
vt 0.759277 1.162109
vt 0.793457 0.349121
vt 0.759277 1.162109
vt 0.759277 0.382812
vt 0.793457 0.349121
vt 0.789551 0.345703
vt 0.755859 0.379395
vt 0.390869 0.345703
vt 0.755859 0.379395
vt 0.424805 0.379395
vt 0.390869 0.345703
vt 0.387451 0.349121
vt 0.421387 0.382812
vt 0.387451 1.195801
vt 0.421387 0.382812
vt 0.421387 1.161865
vt 0.387451 1.195801
vt 0.572266 0.484863
vt 0.569336 0.490723
vt 0.246582 0.484863
vt 0.569336 0.490723
vt 0.249146 0.490723
vt 0.246582 0.484863
vt 1.159180 0.484863
vt 1.156250 0.490723
vt 0.385254 0.484863
vt 1.156250 0.490723
vt 0.387939 0.490723
vt 0.385254 0.484863
vt 0.752930 0.484863
vt 0.750488 0.490723
vt 0.427490 0.484863
vt 0.750488 0.490723
vt 0.430176 0.490723
vt 0.427490 0.484863
vt 0.614258 0.484863
vt 0.611816 0.490723
vt -0.159180 0.484863
vt 0.611816 0.490723
vt -0.156616 0.490723
vt -0.159180 0.484863
vt 0.434570 1.155884
vt 0.452881 1.137451
vt 0.746094 1.156006
vt 0.452881 1.137451
vt 0.727539 1.137573
vt 0.746094 1.156006
vt 0.749512 1.152466
vt 0.731445 1.134033
vt 0.749512 0.392578
vt 0.731445 1.134033
vt 0.731445 0.411133
vt 0.749512 0.392578
vt 0.746094 0.389160
vt 0.727539 0.407715
vt 0.434570 0.389160
vt 0.727539 0.407715
vt 0.452881 0.407715
vt 0.434570 0.389160
vt 0.430908 0.392578
vt 0.449463 0.411133
vt 0.430908 1.152344
vt 0.449463 0.411133
vt 0.449463 1.133911
vt 0.430908 1.152344
vt 0.545410 0.495117
vt 0.545410 0.516846
vt 0.273438 0.495117
vt 0.545410 0.516846
vt 0.273438 0.516846
vt 0.273438 0.495117
vt 1.131836 0.495117
vt 1.131836 0.516846
vt 0.412109 0.495117
vt 1.131836 0.516846
vt 0.412109 0.516846
vt 0.412109 0.495117
vt 0.726074 0.495117
vt 0.726074 0.516846
vt 0.454346 0.495117
vt 0.726074 0.516846
vt 0.454346 0.516846
vt 0.454346 0.495117
vt 0.587402 0.495117
vt 0.587402 0.516846
vt -0.132446 0.495117
vt 0.587402 0.516846
vt -0.132446 0.516846
vt -0.132446 0.495117
vt 1.201172 0.517822
vt 1.199219 0.517822
vt 1.201172 0.485352
vt 1.199219 0.517822
vt 1.199219 0.485352
vt 1.201172 0.485352
vt 0.387451 0.485352
vt 0.390869 0.482910
vt 0.793457 0.485352
vt 0.390869 0.482910
vt 0.789551 0.482910
vt 0.793457 0.485352
vt 0.793457 0.485352
vt 0.795898 0.485352
vt 0.793457 0.517822
vt 0.795898 0.485352
vt 0.795898 0.517822
vt 0.793457 0.517822
vt -0.199585 0.485352
vt -0.196045 0.482910
vt 0.654297 0.485352
vt -0.196045 0.482910
vt 0.650879 0.482910
vt 0.654297 0.485352
vt 0.654297 0.485352
vt 0.656738 0.485352
vt 0.654297 0.517822
vt 0.656738 0.485352
vt 0.656738 0.517822
vt 0.654297 0.517822
vt 0.206421 0.485352
vt 0.209961 0.482910
vt 0.612305 0.485352
vt 0.209961 0.482910
vt 0.608887 0.482910
vt 0.612305 0.485352
vt 0.612305 0.485352
vt 0.614746 0.485352
vt 0.612305 0.517822
vt 0.614746 0.485352
vt 0.614746 0.517822
vt 0.612305 0.517822
vt 0.345215 0.485352
vt 0.348633 0.482910
vt 1.199219 0.485352
vt 0.348633 0.482910
vt 1.195312 0.482910
vt 1.199219 0.485352
vt -0.161987 0.484863
vt -0.159180 0.484863
vt -0.159302 0.490723
vt -0.159180 0.484863
vt -0.156616 0.490723
vt -0.159302 0.490723
vt 0.249146 0.490723
vt 0.246460 0.490723
vt 0.246582 0.484863
vt 0.246460 0.490723
vt 0.243896 0.484863
vt 0.246582 0.484863
vt 0.387939 0.490723
vt 0.385254 0.490723
vt 0.385254 0.484863
vt 0.385254 0.490723
vt 0.382568 0.484863
vt 0.385254 0.484863
vt 0.614258 0.490723
vt 0.611816 0.490723
vt 0.617188 0.484863
vt 0.611816 0.490723
vt 0.614258 0.484863
vt 0.617188 0.484863
vt -0.134888 0.495117
vt -0.132446 0.495117
vt -0.134888 0.516846
vt -0.132446 0.495117
vt -0.132446 0.516846
vt -0.134888 0.516846
vt 0.273438 0.516846
vt 0.270752 0.516846
vt 0.273438 0.495117
vt 0.270752 0.516846
vt 0.270752 0.495117
vt 0.273438 0.495117
vt 0.412109 0.516846
vt 0.409668 0.516846
vt 0.412109 0.495117
vt 0.409668 0.516846
vt 0.409668 0.495117
vt 0.412109 0.495117
vt 0.454346 0.516846
vt 0.451904 0.516846
vt 0.454346 0.495117
vt 0.451904 0.516846
vt 0.451904 0.495117
vt 0.454346 0.495117
vt 0.385010 1.199341
vt 0.387451 1.195801
vt 0.387451 1.201782
vt 0.387451 1.195801
vt 0.390869 1.199341
vt 0.387451 1.201782
vt 0.390869 1.199341
vt 0.387451 1.195801
vt 0.424805 1.165405
vt 0.387451 1.195801
vt 0.421387 1.161865
vt 0.424805 1.165405
vt 0.421387 1.161865
vt 0.424805 1.159180
vt 0.424805 1.165405
vt 0.424805 0.385742
vt 0.424805 1.159180
vt 0.421387 1.161865
vt 0.424805 1.159180
vt 0.427490 1.161987
vt 0.424805 1.165405
vt 0.421387 0.382812
vt 0.424805 0.385742
vt 0.421387 1.161865
vt 0.424805 1.165405
vt 0.427490 1.161987
vt 0.755859 1.165649
vt 0.427490 0.382812
vt 0.424805 0.385742
vt 0.421387 0.382812
vt 0.427490 1.161987
vt 0.752930 1.162109
vt 0.755859 1.165649
vt 0.424805 0.379395
vt 0.427490 0.382812
vt 0.421387 0.382812
vt 0.752930 0.382812
vt 0.427490 0.382812
vt 0.424805 0.379395
vt 0.424805 0.379395
vt 0.421387 0.382812
vt 0.390869 0.345703
vt 0.421387 0.382812
vt 0.387451 0.349121
vt 0.390869 0.345703
vt 0.390869 0.345703
vt 0.387451 0.349121
vt 0.385010 0.345703
vt 0.387451 0.343262
vt 0.390869 0.345703
vt 0.385010 0.345703
vt 0.755859 0.379395
vt 0.752930 0.382812
vt 0.424805 0.379395
vt 0.755859 0.385742
vt 0.752930 0.382812
vt 0.755859 0.379395
vt 0.759277 0.382812
vt 0.755859 0.385742
vt 0.755859 0.379395
vt 0.755859 1.159424
vt 0.755859 0.385742
vt 0.759277 0.382812
vt 0.759277 0.382812
vt 0.755859 0.379395
vt 0.793457 0.349121
vt 0.755859 0.379395
vt 0.789551 0.345703
vt 0.793457 0.349121
vt 0.793457 0.349121
vt 0.789551 0.345703
vt 0.793457 0.343262
vt 0.795898 0.345703
vt 0.793457 0.349121
vt 0.793457 0.343262
vt 0.759277 1.162109
vt 0.755859 1.159424
vt 0.759277 0.382812
vt 0.752930 1.162109
vt 0.755859 1.159424
vt 0.759277 1.162109
vt 0.755859 1.165649
vt 0.752930 1.162109
vt 0.759277 1.162109
vt 0.755859 1.165649
vt 0.759277 1.162109
vt 0.789551 1.199585
vt 0.759277 1.162109
vt 0.793457 1.196045
vt 0.789551 1.199585
vt 0.789551 1.199585
vt 0.793457 1.196045
vt 0.795898 1.199585
vt 0.793457 1.202148
vt 0.789551 1.199585
vt 0.795898 1.199585
vt 0.430176 1.159302
vt 0.434570 1.155884
vt 0.750488 1.159546
vt 0.430908 1.152344
vt 0.434570 1.155884
vt 0.430176 1.159302
vt 0.427490 1.156616
vt 0.430908 1.152344
vt 0.430176 1.159302
vt 0.434570 1.155884
vt 0.746094 1.156006
vt 0.750488 1.159546
vt 0.434570 1.155884
vt 0.430908 1.152344
vt 0.452881 1.137451
vt 0.750488 1.159546
vt 0.746094 1.156006
vt 0.753418 1.156860
vt 0.430908 0.392578
vt 0.430908 1.152344
vt 0.427490 1.156616
vt 0.427490 0.388184
vt 0.430908 0.392578
vt 0.427490 1.156616
vt 0.430908 1.152344
vt 0.449463 1.133911
vt 0.452881 1.137451
vt 0.434570 0.389160
vt 0.430908 0.392578
vt 0.427490 0.388184
vt 0.430176 0.385742
vt 0.434570 0.389160
vt 0.427490 0.388184
vt 0.449463 0.411133
vt 0.430908 0.392578
vt 0.434570 0.389160
vt 0.746094 0.389160
vt 0.434570 0.389160
vt 0.430176 0.385742
vt 0.750488 0.385742
vt 0.746094 0.389160
vt 0.430176 0.385742
vt 0.452881 0.407715
vt 0.449463 0.411133
vt 0.434570 0.389160
vt 0.749512 0.392578
vt 0.746094 0.389160
vt 0.750488 0.385742
vt 0.753418 0.388184
vt 0.749512 0.392578
vt 0.750488 0.385742
vt 0.727539 0.407715
vt 0.746094 0.389160
vt 0.749512 0.392578
vt 0.749512 1.152466
vt 0.749512 0.392578
vt 0.753418 0.388184
vt 0.753418 1.156860
vt 0.749512 1.152466
vt 0.753418 0.388184
vt 0.746094 1.156006
vt 0.749512 1.152466
vt 0.753418 1.156860
vt 0.731445 0.411133
vt 0.727539 0.407715
vt 0.749512 0.392578
vt 0.731445 1.134033
vt 0.749512 1.152466
vt 0.746094 1.156006
vt 0.727539 1.137573
vt 0.731445 1.134033
vt 0.746094 1.156006
vt 0.731445 0.411133
vt 0.729004 0.412598
vt 0.727539 0.407715
vt 0.729004 1.132568
vt 0.729004 0.412598
vt 0.731445 0.411133
vt 0.731445 1.134033
vt 0.729004 1.132568
vt 0.731445 0.411133
vt 0.729004 0.412598
vt 0.726074 0.410156
vt 0.727539 0.407715
vt 0.727539 0.407715
vt 0.726074 0.410156
vt 0.452881 0.407715
vt 0.726074 1.135132
vt 0.729004 1.132568
vt 0.731445 1.134033
vt 0.727539 1.137573
vt 0.726074 1.135132
vt 0.731445 1.134033
vt 0.726074 0.410156
vt 0.454346 0.410156
vt 0.452881 0.407715
vt 0.454346 1.134888
vt 0.726074 1.135132
vt 0.727539 1.137573
vt 0.452881 0.407715
vt 0.454346 0.410156
vt 0.449463 0.411133
vt 0.452881 1.137451
vt 0.454346 1.134888
vt 0.727539 1.137573
vt 0.454346 0.410156
vt 0.451904 0.412598
vt 0.449463 0.411133
vt 0.451904 1.132446
vt 0.454346 1.134888
vt 0.452881 1.137451
vt 0.449463 0.411133
vt 0.451904 0.412598
vt 0.449463 1.133911
vt 0.449463 1.133911
vt 0.451904 1.132446
vt 0.452881 1.137451
vt 0.451904 0.412598
vt 0.451904 1.132446
vt 0.449463 1.133911
f 1/1/1 2/2/2 3/3/3
f 4/4/4 5/5/5 6/6/6
f 7/7/7 8/8/8 9/9/9
f 10/10/10 11/11/11 12/12/12
f 13/13/13 14/14/14 15/15/15
f 16/16/16 17/17/17 18/18/18
f 19/19/19 20/20/20 21/21/21
f 22/22/22 23/23/23 24/24/24
f 25/25/25 26/26/26 27/27/27
f 28/28/28 29/29/29 30/30/30
f 31/31/31 32/32/32 33/33/33
f 34/34/34 35/35/35 36/36/36
f 37/37/37 38/38/38 39/39/39
f 40/40/40 41/41/41 42/42/42
f 43/43/43 44/44/44 45/45/45
f 46/46/46 47/47/47 48/48/48
f 49/49/49 50/50/50 51/51/51
f 52/52/52 53/53/53 54/54/54
f 55/55/55 56/56/56 57/57/57
f 58/58/58 59/59/59 60/60/60
f 61/61/61 62/62/62 63/63/63
f 64/64/64 65/65/65 66/66/66
f 67/67/67 68/68/68 69/69/69
f 70/70/70 71/71/71 72/72/72
f 73/73/73 74/74/74 75/75/75
f 76/76/76 77/77/77 78/78/78
f 79/79/79 80/80/80 81/81/81
f 82/82/82 83/83/83 84/84/84
f 85/85/85 86/86/86 87/87/87
f 88/88/88 89/89/89 90/90/90
f 91/91/91 92/92/92 93/93/93
f 94/94/94 95/95/95 96/96/96
f 97/97/97 98/98/98 99/99/99
f 100/100/100 101/101/101 102/102/102
f 103/103/103 104/104/104 105/105/105
f 106/106/106 107/107/107 108/108/108
f 109/109/109 110/110/110 111/111/111
f 112/112/112 113/113/113 114/114/114
f 115/115/115 116/116/116 117/117/117
f 118/118/118 119/119/119 120/120/120
f 121/121/121 122/122/122 123/123/123
f 124/124/124 125/125/125 126/126/126
f 127/127/127 128/128/128 129/129/129
f 130/130/130 131/131/131 132/132/132
f 133/133/133 134/134/134 135/135/135
f 136/136/136 137/137/137 138/138/138
f 139/139/139 140/140/140 141/141/141
f 142/142/142 143/143/143 144/144/144
f 145/145/145 146/146/146 147/147/147
f 148/148/148 149/149/149 150/150/150
f 151/151/151 152/152/152 153/153/153
f 154/154/154 155/155/155 156/156/156
f 157/157/157 158/158/158 159/159/159
f 160/160/160 161/161/161 162/162/162
f 163/163/163 164/164/164 165/165/165
f 166/166/166 167/167/167 168/168/168
f 169/169/169 170/170/170 171/171/171
f 172/172/172 173/173/173 174/174/174
f 175/175/175 176/176/176 177/177/177
f 178/178/178 179/179/179 180/180/180
f 181/181/181 182/182/182 183/183/183
f 184/184/184 185/185/185 186/186/186
f 187/187/187 188/188/188 189/189/189
f 190/190/190 191/191/191 192/192/192
f 193/193/193 194/194/194 195/195/195
f 196/196/196 197/197/197 198/198/198
f 199/199/199 200/200/200 201/201/201
f 202/202/202 203/203/203 204/204/204
f 205/205/205 206/206/206 207/207/207
f 208/208/208 209/209/209 210/210/210
f 211/211/211 212/212/212 213/213/213
f 214/214/214 215/215/215 216/216/216
f 217/217/217 218/218/218 219/219/219
f 220/220/220 221/221/221 222/222/222
f 223/223/223 224/224/224 225/225/225
f 226/226/226 227/227/227 228/228/228
f 229/229/229 230/230/230 231/231/231
f 232/232/232 233/233/233 234/234/234
f 235/235/235 236/236/236 237/237/237
f 238/238/238 239/239/239 240/240/240
f 241/241/241 242/242/242 243/243/243
f 244/244/244 245/245/245 246/246/246
f 247/247/247 248/248/248 249/249/249
f 250/250/250 251/251/251 252/252/252
f 253/253/253 254/254/254 255/255/255
f 256/256/256 257/257/257 258/258/258
f 259/259/259 260/260/260 261/261/261
f 262/262/262 263/263/263 264/264/264
f 265/265/265 266/266/266 267/267/267
f 268/268/268 269/269/269 270/270/270
f 271/271/271 272/272/272 273/273/273
f 274/274/274 275/275/275 276/276/276
f 277/277/277 278/278/278 279/279/279
f 280/280/280 281/281/281 282/282/282
f 283/283/283 284/284/284 285/285/285
f 286/286/286 287/287/287 288/288/288
f 289/289/289 290/290/290 291/291/291
f 292/292/292 293/293/293 294/294/294
f 295/295/295 296/296/296 297/297/297
f 298/298/298 299/299/299 300/300/300
f 301/301/301 302/302/302 303/303/303
f 304/304/304 305/305/305 306/306/306
f 307/307/307 308/308/308 309/309/309
f 310/310/310 311/311/311 312/312/312
f 313/313/313 314/314/314 315/315/315
f 316/316/316 317/317/317 318/318/318
f 319/319/319 320/320/320 321/321/321
f 322/322/322 323/323/323 324/324/324
f 325/325/325 326/326/326 327/327/327
f 328/328/328 329/329/329 330/330/330
f 331/331/331 332/332/332 333/333/333
f 334/334/334 335/335/335 336/336/336
f 337/337/337 338/338/338 339/339/339
f 340/340/340 341/341/341 342/342/342
f 343/343/343 344/344/344 345/345/345
f 346/346/346 347/347/347 348/348/348
f 349/349/349 350/350/350 351/351/351
f 352/352/352 353/353/353 354/354/354
f 355/355/355 356/356/356 357/357/357
f 358/358/358 359/359/359 360/360/360
f 361/361/361 362/362/362 363/363/363
f 364/364/364 365/365/365 366/366/366
f 367/367/367 368/368/368 369/369/369
f 370/370/370 371/371/371 372/372/372
f 373/373/373 374/374/374 375/375/375
f 376/376/376 377/377/377 378/378/378
f 379/379/379 380/380/380 381/381/381
f 382/382/382 383/383/383 384/384/384
f 385/385/385 386/386/386 387/387/387
f 388/388/388 389/389/389 390/390/390
f 391/391/391 392/392/392 393/393/393
f 394/394/394 395/395/395 396/396/396
f 397/397/397 398/398/398 399/399/399
f 400/400/400 401/401/401 402/402/402
f 403/403/403 404/404/404 405/405/405
f 406/406/406 407/407/407 408/408/408
f 409/409/409 410/410/410 411/411/411
f 412/412/412 413/413/413 414/414/414
f 415/415/415 416/416/416 417/417/417
f 418/418/418 419/419/419 420/420/420
f 421/421/421 422/422/422 423/423/423
f 424/424/424 425/425/425 426/426/426
f 427/427/427 428/428/428 429/429/429
f 430/430/430 431/431/431 432/432/432
