# OBJ file
v -117.907310 -1607.526000 526.152160
v -159.991640 -1710.445200 526.152300
v -117.907310 -1607.526000 708.232400
v -159.991640 -1710.445200 526.152300
v -159.991640 -1710.445200 708.232500
v -117.907310 -1607.526000 708.232400
v -122.738980 -1605.550400 520.932250
v -233.352830 -1560.319700 520.932250
v -164.823300 -1708.469400 520.932300
v -233.352830 -1560.319700 520.932250
v -275.437160 -1663.238800 520.932250
v -164.823300 -1708.469400 520.932300
v -166.799000 -1713.301300 526.152300
v -277.412800 -1668.070300 526.152300
v -166.799000 -1713.301300 708.232500
v -277.412800 -1668.070300 526.152300
v -277.412800 -1668.070300 708.232400
v -166.799000 -1713.301300 708.232500
v -164.823300 -1708.469200 713.452450
v -275.437100 -1663.238600 713.452450
v -122.738980 -1605.550300 713.452450
v -275.437100 -1663.238600 713.452450
v -233.352830 -1560.319500 713.452400
v -122.738980 -1605.550300 713.452450
v -120.763280 -1600.718900 708.232360
v -231.377120 -1555.487900 708.232360
v -120.763280 -1600.718800 526.152200
v -231.377120 -1555.487900 708.232360
v -231.377140 -1555.487900 526.152300
v -120.763280 -1600.718800 526.152200
v -159.991640 -1710.445200 708.232500
v -164.823300 -1708.469200 713.452450
v -117.907310 -1607.526000 708.232400
v -164.823300 -1708.469200 713.452450
v -122.738980 -1605.550300 713.452450
v -117.907310 -1607.526000 708.232400
v -117.907310 -1607.526000 526.152160
v -122.738980 -1605.550400 520.932250
v -159.991640 -1710.445200 526.152300
v -122.738980 -1605.550400 520.932250
v -164.823300 -1708.469400 520.932300
v -159.991640 -1710.445200 526.152300
v -275.437160 -1663.238800 520.932250
v -277.412800 -1668.070300 526.152300
v -164.823300 -1708.469400 520.932300
v -277.412800 -1668.070300 526.152300
v -166.799000 -1713.301300 526.152300
v -164.823300 -1708.469400 520.932300
v -233.352830 -1560.319500 713.452400
v -231.377120 -1555.487900 708.232360
v -122.738980 -1605.550300 713.452450
v -231.377120 -1555.487900 708.232360
v -120.763280 -1600.718900 708.232360
v -122.738980 -1605.550300 713.452450
v -117.907310 -1607.526000 708.232400
v -122.738980 -1605.550300 713.452450
v -120.763280 -1600.718900 708.232360
v -117.907310 -1607.526000 708.232400
v -120.763280 -1600.718900 708.232360
v -117.907310 -1607.526000 526.152160
v -120.763280 -1600.718900 708.232360
v -120.763280 -1600.718800 526.152200
v -117.907310 -1607.526000 526.152160
v -117.907310 -1607.526000 526.152160
v -120.763280 -1600.718800 526.152200
v -122.738980 -1605.550400 520.932250
v -122.738980 -1605.550400 520.932250
v -120.763280 -1600.718800 526.152200
v -233.352830 -1560.319700 520.932250
v -120.763280 -1600.718800 526.152200
v -231.377140 -1555.487900 526.152300
v -233.352830 -1560.319700 520.932250
v -164.823300 -1708.469400 520.932300
v -166.799000 -1713.301300 526.152300
v -159.991640 -1710.445200 526.152300
v -159.991640 -1710.445200 526.152300
v -166.799000 -1713.301300 526.152300
v -159.991640 -1710.445200 708.232500
v -166.799000 -1713.301300 526.152300
v -166.799000 -1713.301300 708.232500
v -159.991640 -1710.445200 708.232500
v -166.799000 -1713.301300 708.232500
v -164.823300 -1708.469200 713.452450
v -159.991640 -1710.445200 708.232500
v -275.437100 -1663.238600 713.452450
v -164.823300 -1708.469200 713.452450
v -166.799000 -1713.301300 708.232500
v -277.412800 -1668.070300 708.232400
v -275.437100 -1663.238600 713.452450
v -166.799000 -1713.301300 708.232500
vn -0.925478 0.378782 -0.003905
vn -0.925478 0.378782 -0.003905
vn -0.925478 0.378782 -0.003905
vn -0.925478 0.378782 -0.003905
vn -0.925478 0.378782 -0.003905
vn -0.925478 0.378782 -0.003905
vn -0.003921 0.003921 0.999985
vn -0.003921 0.003921 0.999985
vn -0.003921 0.003921 0.999985
vn -0.003921 0.003921 0.999985
vn -0.003921 0.003921 0.999985
vn -0.003921 0.003921 0.999985
vn 0.372063 0.928199 -0.003916
vn 0.372063 0.928199 -0.003916
vn 0.372063 0.928199 -0.003916
vn 0.372063 0.928199 -0.003916
vn 0.372063 0.928199 -0.003916
vn 0.372063 0.928199 -0.003916
vn -0.003921 0.003921 -0.999985
vn -0.003921 0.003921 -0.999985
vn -0.003921 0.003921 -0.999985
vn -0.003921 0.003921 -0.999985
vn -0.003921 0.003921 -0.999985
vn -0.003921 0.003921 -0.999985
vn -0.381538 -0.924345 -0.003933
vn -0.381538 -0.924345 -0.003933
vn -0.381538 -0.924345 -0.003933
vn -0.381538 -0.924345 -0.003933
vn -0.381538 -0.924345 -0.003933
vn -0.381538 -0.924345 -0.003933
vn -0.525985 0.713002 -0.463646
vn -0.252487 0.602084 -0.757460
vn -0.875738 -0.136226 -0.463168
vn -0.252487 0.602084 -0.757460
vn -0.603250 -0.245192 -0.758927
vn -0.875738 -0.136226 -0.463168
vn -0.878886 -0.136716 0.457021
vn -0.606827 -0.246646 0.755597
vn -0.527880 0.715570 0.457496
vn -0.606827 -0.246646 0.755597
vn -0.253978 0.605640 0.754119
vn -0.527880 0.715570 0.457496
vn 0.263978 0.657975 0.705255
vn 0.263978 0.657975 0.705255
vn -0.253978 0.605640 0.754119
vn 0.263978 0.657975 0.705255
vn -0.144369 0.877922 0.456520
vn -0.253978 0.605640 0.754119
vn -0.271168 -0.648447 -0.711326
vn -0.271168 -0.648447 -0.711326
vn -0.603250 -0.245192 -0.758927
vn -0.271168 -0.648447 -0.711326
vn -0.715921 -0.520314 -0.465544
vn -0.603250 -0.245192 -0.758927
vn -0.875738 -0.136226 -0.463168
vn -0.603250 -0.245192 -0.758927
vn -0.715921 -0.520314 -0.465544
vn -0.875738 -0.136226 -0.463168
vn -0.715921 -0.520314 -0.465544
vn -0.878886 -0.136716 0.457021
vn -0.715921 -0.520314 -0.465544
vn -0.718520 -0.522204 0.459382
vn -0.878886 -0.136716 0.457021
vn -0.878886 -0.136716 0.457021
vn -0.718520 -0.522204 0.459382
vn -0.606827 -0.246646 0.755597
vn -0.606827 -0.246646 0.755597
vn -0.718520 -0.522204 0.459382
vn -0.272689 -0.652082 0.707410
vn -0.718520 -0.522204 0.459382
vn -0.272689 -0.652082 0.707410
vn -0.272689 -0.652082 0.707410
vn -0.253978 0.605640 0.754119
vn -0.144369 0.877922 0.456520
vn -0.527880 0.715570 0.457496
vn -0.527880 0.715570 0.457496
vn -0.144369 0.877922 0.456520
vn -0.525985 0.713002 -0.463646
vn -0.144369 0.877922 0.456520
vn -0.143853 0.874785 -0.462664
vn -0.525985 0.713002 -0.463646
vn -0.143853 0.874785 -0.462664
vn -0.252487 0.602084 -0.757460
vn -0.525985 0.713002 -0.463646
vn 0.262515 0.654329 -0.709183
vn -0.252487 0.602084 -0.757460
vn -0.143853 0.874785 -0.462664
vn 0.262515 0.654329 -0.709183
vn 0.262515 0.654329 -0.709183
vn -0.143853 0.874785 -0.462664
vt 0.503906 0.076172
vt 1.059570 0.076172
vt 0.503906 0.986198
vt 1.059570 0.076172
vt 1.059570 0.986198
vt 0.503906 0.986198
vt 0.495850 1.686035
vt 0.495850 2.283203
vt -0.060059 1.686035
vt 0.495850 2.283203
vt -0.060059 2.283203
vt -0.060059 1.686035
vt 0.923828 1.686035
vt 0.923828 2.283203
vt 0.013802 1.686035
vt 0.923828 2.283203
vt 0.013802 2.283203
vt 0.013802 1.686035
vt 1.059570 1.686035
vt 1.059570 2.283203
vt 0.503906 1.686035
vt 1.059570 2.283203
vt 0.503906 2.283203
vt 0.503906 1.686035
vt 0.985840 1.686035
vt 0.985840 2.283203
vt 0.075745 1.686035
vt 0.985840 2.283203
vt 0.075745 2.283203
vt 0.075745 1.686035
vt 1.059570 1.659668
vt 1.059570 1.686035
vt 0.503906 1.659668
vt 1.059570 1.686035
vt 0.503906 1.686035
vt 0.503906 1.659668
vt 0.495850 1.659668
vt 0.495850 1.686035
vt -0.060059 1.659668
vt 0.495850 1.686035
vt -0.060059 1.686035
vt -0.060059 1.659668
vt -0.060059 2.283203
vt -0.086121 2.283203
vt -0.060059 1.686035
vt -0.086121 2.283203
vt -0.086121 1.686035
vt -0.060059 1.686035
vt 0.503906 2.283203
vt 0.477783 2.283203
vt 0.503906 1.686035
vt 0.477783 2.283203
vt 0.477783 1.686035
vt 0.503906 1.686035
vt 0.985840 1.659668
vt 1.011719 1.686035
vt 0.985840 1.686035
vt 0.985840 1.659668
vt 0.985840 1.686035
vt 0.075745 1.659668
vt 0.985840 1.686035
vt 0.075745 1.686035
vt 0.075745 1.659668
vt 0.075745 1.659668
vt 0.075745 1.686035
vt 0.049683 1.686035
vt 0.049683 1.686035
vt 0.075745 1.686035
vt 0.049683 2.283203
vt 0.075745 1.686035
vt 0.075745 2.283203
vt 0.049683 2.283203
vt 0.950195 1.686035
vt 0.923828 1.686035
vt 0.923828 1.659668
vt 0.923828 1.659668
vt 0.923828 1.686035
vt 0.013802 1.659668
vt 0.923828 1.686035
vt 0.013802 1.686035
vt 0.013802 1.659668
vt 0.013802 1.686035
vt -0.012291 1.686035
vt 0.013802 1.659668
vt -0.012291 2.283203
vt -0.012291 1.686035
vt 0.013802 1.686035
vt 0.013802 2.283203
vt -0.012291 2.283203
vt 0.013802 1.686035
f 1/1/1 2/2/2 3/3/3
f 4/4/4 5/5/5 6/6/6
f 7/7/7 8/8/8 9/9/9
f 10/10/10 11/11/11 12/12/12
f 13/13/13 14/14/14 15/15/15
f 16/16/16 17/17/17 18/18/18
f 19/19/19 20/20/20 21/21/21
f 22/22/22 23/23/23 24/24/24
f 25/25/25 26/26/26 27/27/27
f 28/28/28 29/29/29 30/30/30
f 31/31/31 32/32/32 33/33/33
f 34/34/34 35/35/35 36/36/36
f 37/37/37 38/38/38 39/39/39
f 40/40/40 41/41/41 42/42/42
f 43/43/43 44/44/44 45/45/45
f 46/46/46 47/47/47 48/48/48
f 49/49/49 50/50/50 51/51/51
f 52/52/52 53/53/53 54/54/54
f 55/55/55 56/56/56 57/57/57
f 58/58/58 59/59/59 60/60/60
f 61/61/61 62/62/62 63/63/63
f 64/64/64 65/65/65 66/66/66
f 67/67/67 68/68/68 69/69/69
f 70/70/70 71/71/71 72/72/72
f 73/73/73 74/74/74 75/75/75
f 76/76/76 77/77/77 78/78/78
f 79/79/79 80/80/80 81/81/81
f 82/82/82 83/83/83 84/84/84
f 85/85/85 86/86/86 87/87/87
f 88/88/88 89/89/89 90/90/90
