# OBJ file
v -296.921143 -1665.740601 724.639282
v -296.931427 -1665.765747 724.590576
v -296.974457 -1665.871094 724.435913
v -296.931427 -1665.765747 724.590576
v -296.947632 -1665.805420 724.524719
v -296.974457 -1665.871094 724.435913
v -247.056244 -1543.793945 724.342224
v -247.092514 -1543.882446 724.435913
v -247.013229 -1543.688721 724.258301
v -247.092514 -1543.882446 724.435913
v -247.119324 -1543.948120 724.524719
v -247.013229 -1543.688721 724.258301
v -296.783386 -1665.408447 691.107300
v -296.236298 -1666.712646 691.107239
v -297.090363 -1666.154419 724.204163
v -296.236298 -1666.712646 691.107239
v -296.328156 -1666.932739 724.102661
v -297.090363 -1666.154419 724.204163
v -274.213684 -1649.120850 690.107300
v -273.333130 -1648.395142 691.107239
v -259.714813 -1655.049561 690.107300
v -273.333130 -1648.395142 691.107239
v -259.334442 -1654.119263 691.107239
v -259.714813 -1655.049561 690.107300
v -265.654877 -1629.664307 694.497375
v -266.325714 -1628.662598 695.442505
v -251.656235 -1635.388428 694.497375
v -266.325714 -1628.662598 695.442505
v -251.401443 -1634.765137 695.442505
v -251.656235 -1635.388428 694.497375
v -246.976593 -1543.599121 724.204163
v -245.887573 -1543.577881 724.102661
v -247.280273 -1544.346558 691.107300
v -245.887573 -1543.577881 724.102661
v -245.976196 -1543.799316 691.107239
v -247.280273 -1544.346558 691.107300
v -228.090134 -1577.709961 690.107300
v -228.470551 -1578.640137 691.107239
v -242.589035 -1571.781250 690.107300
v -228.470551 -1578.640137 691.107239
v -242.469223 -1572.916016 691.107239
v -242.589035 -1571.781250 690.107300
v -236.116135 -1597.384521 694.497375
v -236.371033 -1598.007690 695.442505
v -250.114807 -1591.660278 694.497375
v -236.371033 -1598.007690 695.442505
v -251.295288 -1591.904907 695.442505
v -250.114807 -1591.660278 694.497375
v -279.925385 -1626.819336 709.093811
v -282.393524 -1632.835693 724.141418
v -273.073456 -1627.712646 702.053955
v -282.393524 -1632.835693 724.141418
v -276.188629 -1635.325684 724.157532
v -273.073456 -1627.712646 702.053955
v -273.073456 -1627.712646 702.053955
v -276.188629 -1635.325684 724.157532
v -266.325714 -1628.662598 695.442505
v -276.188629 -1635.325684 724.157532
v -270.083160 -1637.846069 724.149658
v -266.325714 -1628.662598 695.442505
v -266.325714 -1628.662598 695.442505
v -270.083160 -1637.846069 724.149658
v -251.401443 -1634.765137 695.442505
v -270.083160 -1637.846069 724.149658
v -255.158936 -1643.948730 724.149658
v -251.401443 -1634.765137 695.442505
v -296.328156 -1666.932739 724.102661
v -296.236298 -1666.712646 691.107239
v -290.143158 -1669.461670 724.102661
v -296.236298 -1666.712646 691.107239
v -290.049835 -1669.242065 691.107239
v -290.143158 -1669.461670 724.102661
v -290.143158 -1669.461670 724.102661
v -290.049835 -1669.242065 691.107239
v -284.039825 -1671.957275 724.102661
v -290.049835 -1669.242065 691.107239
v -283.956146 -1671.733887 691.107239
v -284.039825 -1671.957275 724.102661
v -284.039825 -1671.957275 724.102661
v -283.956146 -1671.733887 691.107239
v -269.115570 -1678.060059 724.102600
v -283.956146 -1671.733887 691.107239
v -269.031891 -1677.836670 691.107239
v -269.115570 -1678.060059 724.102600
v -282.882507 -1634.045776 725.094971
v -295.952545 -1666.013672 725.102417
v -276.699127 -1636.574097 725.094971
v -295.952545 -1666.013672 725.102417
v -289.767609 -1668.542847 725.102417
v -276.699127 -1636.574097 725.094971
v -276.699127 -1636.574097 725.094971
v -289.767609 -1668.542847 725.102417
v -270.585571 -1639.074219 725.094971
v -289.767609 -1668.542847 725.102417
v -283.663727 -1671.038696 725.102417
v -270.585571 -1639.074219 725.094971
v -270.585571 -1639.074219 725.094971
v -283.663727 -1671.038696 725.102417
v -255.661285 -1645.176758 725.094971
v -283.663727 -1671.038696 725.102417
v -268.739471 -1677.141357 725.102356
v -255.661285 -1645.176758 725.094971
v -265.654877 -1629.664307 694.497375
v -251.656235 -1635.388428 694.497375
v -257.669250 -1650.093994 694.497375
v -271.667938 -1644.369873 694.497375
v -265.654877 -1629.664307 694.497375
v -257.669250 -1650.093994 694.497375
v -271.667938 -1644.369873 694.497375
v -257.669250 -1650.093994 694.497375
v -258.294922 -1651.608521 694.170471
v -272.293610 -1645.884399 694.170471
v -271.667938 -1644.369873 694.497375
v -258.294922 -1651.608521 694.170471
v -272.293610 -1645.884399 694.170471
v -258.294922 -1651.608521 694.170471
v -258.985565 -1653.273315 693.146301
v -272.984222 -1647.549194 693.146301
v -272.293610 -1645.884399 694.170471
v -258.985565 -1653.273315 693.146301
v -272.984222 -1647.549194 693.146301
v -258.985565 -1653.273315 693.146301
v -259.333099 -1654.115967 691.806213
v -273.331787 -1648.391846 691.806213
v -272.984222 -1647.549194 693.146301
v -259.333099 -1654.115967 691.806213
v -273.331787 -1648.391846 691.806213
v -259.333099 -1654.115967 691.806213
v -259.334442 -1654.119263 691.107239
v -273.333130 -1648.395142 691.107239
v -273.331787 -1648.391846 691.806213
v -259.334442 -1654.119263 691.107239
v -247.280273 -1544.346558 691.107300
v -251.219193 -1553.979126 691.107300
v -246.976593 -1543.599121 724.204163
v -251.219193 -1553.979126 691.107300
v -251.751434 -1555.280762 698.376343
v -246.976593 -1543.599121 724.204163
v -247.013229 -1543.688721 724.258301
v -246.976593 -1543.599121 724.204163
v -251.751434 -1555.280762 698.376343
v -252.374008 -1556.803345 701.934021
v -247.013229 -1543.688721 724.258301
v -251.751434 -1555.280762 698.376343
v -247.056244 -1543.793945 724.342224
v -247.013229 -1543.688721 724.258301
v -252.374008 -1556.803345 701.934021
v -253.373566 -1559.247803 704.796570
v -247.056244 -1543.793945 724.342224
v -252.374008 -1556.803345 701.934021
v -247.092514 -1543.882446 724.435913
v -247.056244 -1543.793945 724.342224
v -253.373566 -1559.247803 704.796570
v -254.467422 -1561.922852 707.001038
v -247.092514 -1543.882446 724.435913
v -253.373566 -1559.247803 704.796570
v -247.119324 -1543.948120 724.524719
v -247.092514 -1543.882446 724.435913
v -254.467422 -1561.922852 707.001038
v -255.722809 -1564.992920 708.425842
v -247.119324 -1543.948120 724.524719
v -254.467422 -1561.922852 707.001038
v -247.135544 -1543.987793 724.590576
v -247.119324 -1543.948120 724.524719
v -255.722809 -1564.992920 708.425842
v -256.998688 -1568.113159 709.053589
v -247.135544 -1543.987793 724.590576
v -255.722809 -1564.992920 708.425842
v -247.145844 -1544.012939 724.639282
v -247.135544 -1543.987793 724.590576
v -256.998688 -1568.113159 709.053589
v -258.320740 -1571.346313 709.199219
v -247.145844 -1544.012939 724.639282
v -256.998688 -1568.113159 709.053589
v -258.320740 -1571.346313 709.199219
v -262.720825 -1582.106689 709.735901
v -247.145844 -1544.012939 724.639282
v -262.720825 -1582.106689 709.735901
v -260.391144 -1576.400635 724.094910
v -247.145844 -1544.012939 724.639282
v -250.434326 -1554.701904 690.107300
v -246.357376 -1544.731567 690.107300
v -246.204071 -1562.014648 690.107239
v -246.357376 -1544.731567 690.107300
v -240.170898 -1547.261230 690.107300
v -246.204071 -1562.014648 690.107239
v -242.589035 -1571.781250 690.107300
v -246.204071 -1562.014648 690.107239
v -240.170898 -1547.261230 690.107300
v -228.090134 -1577.709961 690.107300
v -242.589035 -1571.781250 690.107300
v -240.170898 -1547.261230 690.107300
v -234.077499 -1549.752930 690.107300
v -228.090134 -1577.709961 690.107300
v -240.170898 -1547.261230 690.107300
v -219.153244 -1555.855713 690.107239
v -228.090134 -1577.709961 690.107300
v -234.077499 -1549.752930 690.107300
v -242.469223 -1572.916016 691.107239
v -228.470551 -1578.640137 691.107239
v -242.470551 -1572.919312 691.806213
v -228.470551 -1578.640137 691.107239
v -228.471878 -1578.643433 691.806213
v -242.470551 -1572.919312 691.806213
v -242.470551 -1572.919312 691.806213
v -228.471878 -1578.643433 691.806213
v -242.813049 -1573.764160 693.146301
v -228.471878 -1578.643433 691.806213
v -228.814407 -1579.488281 693.146301
v -242.813049 -1573.764160 693.146301
v -242.813049 -1573.764160 693.146301
v -228.814407 -1579.488281 693.146301
v -243.486694 -1575.435791 694.170471
v -228.814407 -1579.488281 693.146301
v -229.488022 -1581.160034 694.170471
v -243.486694 -1575.435791 694.170471
v -243.486694 -1575.435791 694.170471
v -229.488022 -1581.160034 694.170471
v -244.101456 -1576.954834 694.497375
v -229.488022 -1581.160034 694.170471
v -230.102798 -1582.678955 694.497375
v -244.101456 -1576.954834 694.497375
v -244.101456 -1576.954834 694.497375
v -230.102798 -1582.678955 694.497375
v -250.114807 -1591.660278 694.497375
v -230.102798 -1582.678955 694.497375
v -236.116135 -1597.384521 694.497375
v -250.114807 -1591.660278 694.497375
v -236.371033 -1598.007690 695.442505
v -232.617355 -1588.822388 724.149658
v -247.541641 -1582.719849 724.149658
v -251.295288 -1591.904907 695.442505
v -236.371033 -1598.007690 695.442505
v -247.541641 -1582.719849 724.149658
v -251.295288 -1591.904907 695.442505
v -247.541641 -1582.719849 724.149658
v -253.663834 -1580.240234 724.157532
v -256.775330 -1587.854858 702.053955
v -251.295288 -1591.904907 695.442505
v -253.663834 -1580.240234 724.157532
v -256.775330 -1587.854858 702.053955
v -253.663834 -1580.240234 724.157532
v -259.835541 -1577.669189 724.141418
v -262.290070 -1583.691406 709.093811
v -256.775330 -1587.854858 702.053955
v -259.835541 -1577.669189 724.141418
v -218.674957 -1554.705322 724.102600
v -218.771805 -1554.923462 691.107239
v -233.696075 -1548.820801 691.107239
v -233.599243 -1548.602661 724.102661
v -218.674957 -1554.705322 724.102600
v -233.696075 -1548.820801 691.107239
v -233.599243 -1548.602661 724.102661
v -233.696075 -1548.820801 691.107239
v -239.789749 -1546.328979 691.107239
v -239.702560 -1546.106934 724.102661
v -233.599243 -1548.602661 724.102661
v -239.789749 -1546.328979 691.107239
v -239.702560 -1546.106934 724.102661
v -239.789749 -1546.328979 691.107239
v -245.976196 -1543.799316 691.107239
v -245.887573 -1543.577881 724.102661
v -239.702560 -1546.106934 724.102661
v -245.976196 -1543.799316 691.107239
v -232.115494 -1587.594482 725.094971
v -219.050323 -1555.624390 725.102356
v -233.974594 -1549.521729 725.102417
v -247.039764 -1581.491821 725.094971
v -232.115494 -1587.594482 725.094971
v -233.974594 -1549.521729 725.102417
v -247.039764 -1581.491821 725.094971
v -233.974594 -1549.521729 725.102417
v -240.078491 -1547.025879 725.102417
v -253.153320 -1578.991821 725.094971
v -247.039764 -1581.491821 725.094971
v -240.078491 -1547.025879 725.102417
v -253.153320 -1578.991821 725.094971
v -240.078491 -1547.025879 725.102417
v -246.263412 -1544.496826 725.102417
v -259.336700 -1576.463379 725.094971
v -253.153320 -1578.991821 725.094971
v -246.263412 -1544.496826 725.102417
v -291.492981 -1654.588013 691.100647
v -291.778076 -1655.809814 690.107300
v -292.844543 -1655.775879 691.107300
v -291.214355 -1653.858032 697.181458
v -291.492981 -1654.588013 691.100647
v -292.844543 -1655.775879 691.107300
v -292.312286 -1654.474121 698.376343
v -291.214355 -1653.858032 697.181458
v -292.844543 -1655.775879 691.107300
v -290.602631 -1652.311279 700.645569
v -291.214355 -1653.858032 697.181458
v -292.312286 -1654.474121 698.376343
v -291.689728 -1652.951660 701.934021
v -290.602631 -1652.311279 700.645569
v -292.312286 -1654.474121 698.376343
v -289.615509 -1649.870483 703.477722
v -290.602631 -1652.311279 700.645569
v -291.689728 -1652.951660 701.934021
v -290.690155 -1650.507202 704.796570
v -289.615509 -1649.870483 703.477722
v -291.689728 -1652.951660 701.934021
v -288.553162 -1647.232666 705.691833
v -289.615509 -1649.870483 703.477722
v -290.690155 -1650.507202 704.796570
v -289.596344 -1647.832153 707.001038
v -288.553162 -1647.232666 705.691833
v -290.690155 -1650.507202 704.796570
v -287.313782 -1644.173706 707.172485
v -288.553162 -1647.232666 705.691833
v -289.596344 -1647.832153 707.001038
v -288.340912 -1644.762085 708.425842
v -287.313782 -1644.173706 707.172485
v -289.596344 -1647.832153 707.001038
v -286.074799 -1641.120117 707.846680
v -287.313782 -1644.173706 707.172485
v -288.340912 -1644.762085 708.425842
v -287.065033 -1641.641846 709.053589
v -286.074799 -1641.120117 707.846680
v -288.340912 -1644.762085 708.425842
v -284.791199 -1637.947388 708.035034
v -286.074799 -1641.120117 707.846680
v -287.065033 -1641.641846 709.053589
v -285.742950 -1638.408691 709.199219
v -284.791199 -1637.947388 708.035034
v -287.065033 -1641.641846 709.053589
v -280.429291 -1627.289307 708.031555
v -284.791199 -1637.947388 708.035034
v -285.742950 -1638.408691 709.199219
v -281.343079 -1627.648315 709.735901
v -280.429291 -1627.289307 708.031555
v -285.742950 -1638.408691 709.199219
v -281.343079 -1627.648315 709.735901
v -279.925385 -1626.819336 709.093811
v -280.429291 -1627.289307 708.031555
v -282.393524 -1632.835693 724.141418
v -279.925385 -1626.819336 709.093811
v -281.343079 -1627.648315 709.735901
v -283.678894 -1633.351685 724.094910
v -282.393524 -1632.835693 724.141418
v -281.343079 -1627.648315 709.735901
v -273.333130 -1648.395142 691.107239
v -274.213684 -1649.120850 690.107300
v -275.183685 -1648.399780 691.102600
v -273.331787 -1648.391846 691.806213
v -273.333130 -1648.395142 691.107239
v -275.183685 -1648.399780 691.102600
v -275.131561 -1648.412720 692.082397
v -273.331787 -1648.391846 691.806213
v -275.183685 -1648.399780 691.102600
v -272.984222 -1647.549194 693.146301
v -273.331787 -1648.391846 691.806213
v -275.131561 -1648.412720 692.082397
v -274.726501 -1647.410522 693.671204
v -272.984222 -1647.549194 693.146301
v -275.131561 -1648.412720 692.082397
v -267.307037 -1629.196289 695.205261
v -266.325714 -1628.662598 695.442505
v -265.654877 -1629.664307 694.497375
v -267.307037 -1629.196289 695.205261
v -265.654877 -1629.664307 694.497375
v -273.247345 -1643.723999 695.205261
v -265.654877 -1629.664307 694.497375
v -271.667938 -1644.369873 694.497375
v -273.247345 -1643.723999 695.205261
v -273.247345 -1643.723999 695.205261
v -271.667938 -1644.369873 694.497375
v -273.960266 -1645.533203 694.841370
v -271.667938 -1644.369873 694.497375
v -272.293610 -1645.884399 694.170471
v -273.960266 -1645.533203 694.841370
v -273.960266 -1645.533203 694.841370
v -272.293610 -1645.884399 694.170471
v -274.726501 -1647.410522 693.671204
v -272.293610 -1645.884399 694.170471
v -272.984222 -1647.549194 693.146301
v -274.726501 -1647.410522 693.671204
v -243.786316 -1571.616089 691.102600
v -242.589035 -1571.781250 690.107300
v -242.469223 -1572.916016 691.107239
v -243.786316 -1571.616089 691.102600
v -242.469223 -1572.916016 691.107239
v -243.739975 -1571.643311 692.082397
v -242.469223 -1572.916016 691.107239
v -242.470551 -1572.919312 691.806213
v -243.739975 -1571.643311 692.082397
v -243.739975 -1571.643311 692.082397
v -242.470551 -1572.919312 691.806213
v -244.153244 -1572.642334 693.671204
v -242.470551 -1572.919312 691.806213
v -242.813049 -1573.764160 693.146301
v -244.153244 -1572.642334 693.671204
v -275.183685 -1648.399780 691.102600
v -274.213684 -1649.120850 690.107300
v -283.200714 -1652.493042 691.096069
v -274.213684 -1649.120850 690.107300
v -283.636139 -1653.556396 690.107239
v -283.200714 -1652.493042 691.096069
v -283.200714 -1652.493042 691.096069
v -283.636139 -1653.556396 690.107239
v -291.492981 -1654.588013 691.100647
v -283.636139 -1653.556396 690.107239
v -291.778076 -1655.809814 690.107300
v -291.492981 -1654.588013 691.100647
v -266.325714 -1628.662598 695.442505
v -267.307037 -1629.196289 695.205261
v -273.073456 -1627.712646 702.053955
v -267.307037 -1629.196289 695.205261
v -273.319855 -1628.315308 701.116760
v -273.073456 -1627.712646 702.053955
v -273.073456 -1627.712646 702.053955
v -273.319855 -1628.315308 701.116760
v -279.925385 -1626.819336 709.093811
v -273.319855 -1628.315308 701.116760
v -280.429291 -1627.289307 708.031555
v -279.925385 -1626.819336 709.093811
v -295.952545 -1666.013672 725.102417
v -296.328156 -1666.932739 724.102661
v -289.767609 -1668.542847 725.102417
v -296.328156 -1666.932739 724.102661
v -290.143158 -1669.461670 724.102661
v -289.767609 -1668.542847 725.102417
v -283.663727 -1671.038696 725.102417
v -289.767609 -1668.542847 725.102417
v -290.143158 -1669.461670 724.102661
v -284.039825 -1671.957275 724.102661
v -283.663727 -1671.038696 725.102417
v -290.143158 -1669.461670 724.102661
v -283.663727 -1671.038696 725.102417
v -284.039825 -1671.957275 724.102661
v -268.739471 -1677.141357 725.102356
v -284.039825 -1671.957275 724.102661
v -269.115570 -1678.060059 724.102600
v -268.739471 -1677.141357 725.102356
v -262.290070 -1583.691406 709.093811
v -262.320221 -1583.002808 708.031555
v -256.775330 -1587.854858 702.053955
v -262.320221 -1583.002808 708.031555
v -256.528778 -1587.252075 701.116760
v -256.775330 -1587.854858 702.053955
v -256.775330 -1587.854858 702.053955
v -256.528778 -1587.252075 701.116760
v -251.295288 -1591.904907 695.442505
v -256.528778 -1587.252075 701.116760
v -251.621445 -1590.836548 695.205261
v -251.295288 -1591.904907 695.442505
v -251.087143 -1555.773682 691.100647
v -250.434326 -1554.701904 690.107300
v -246.638550 -1563.078491 691.096069
v -250.434326 -1554.701904 690.107300
v -246.204071 -1562.014648 690.107239
v -246.638550 -1563.078491 691.096069
v -246.638550 -1563.078491 691.096069
v -246.204071 -1562.014648 690.107239
v -243.786316 -1571.616089 691.102600
v -246.204071 -1562.014648 690.107239
v -242.589035 -1571.781250 690.107300
v -243.786316 -1571.616089 691.102600
v -244.153244 -1572.642334 693.671204
v -242.813049 -1573.764160 693.146301
v -244.921921 -1574.518555 694.841370
v -242.813049 -1573.764160 693.146301
v -243.486694 -1575.435791 694.170471
v -244.921921 -1574.518555 694.841370
v -244.921921 -1574.518555 694.841370
v -243.486694 -1575.435791 694.170471
v -245.680878 -1576.308960 695.205261
v -243.486694 -1575.435791 694.170471
v -244.101456 -1576.954834 694.497375
v -245.680878 -1576.308960 695.205261
v -245.680878 -1576.308960 695.205261
v -244.101456 -1576.954834 694.497375
v -251.621445 -1590.836548 695.205261
v -244.101456 -1576.954834 694.497375
v -250.114807 -1591.660278 694.497375
v -251.621445 -1590.836548 695.205261
v -251.621445 -1590.836548 695.205261
v -250.114807 -1591.660278 694.497375
v -251.295288 -1591.904907 695.442505
v -218.771805 -1554.923462 691.107239
v -219.153244 -1555.855713 690.107239
v -233.696075 -1548.820801 691.107239
v -219.153244 -1555.855713 690.107239
v -234.077499 -1549.752930 690.107300
v -233.696075 -1548.820801 691.107239
v -239.789749 -1546.328979 691.107239
v -233.696075 -1548.820801 691.107239
v -234.077499 -1549.752930 690.107300
v -240.170898 -1547.261230 690.107300
v -239.789749 -1546.328979 691.107239
v -234.077499 -1549.752930 690.107300
v -245.976196 -1543.799316 691.107239
v -239.789749 -1546.328979 691.107239
v -240.170898 -1547.261230 690.107300
v -246.357376 -1544.731567 690.107300
v -245.976196 -1543.799316 691.107239
v -240.170898 -1547.261230 690.107300
v -245.976196 -1543.799316 691.107239
v -246.357376 -1544.731567 690.107300
v -247.280273 -1544.346558 691.107300
v -251.219193 -1553.979126 691.107300
v -247.280273 -1544.346558 691.107300
v -246.357376 -1544.731567 690.107300
v -250.434326 -1554.701904 690.107300
v -251.219193 -1553.979126 691.107300
v -246.357376 -1544.731567 690.107300
v -232.617355 -1588.822388 724.149658
v -232.115494 -1587.594482 725.094971
v -247.541641 -1582.719849 724.149658
v -232.115494 -1587.594482 725.094971
v -247.039764 -1581.491821 725.094971
v -247.541641 -1582.719849 724.149658
v -253.663834 -1580.240234 724.157532
v -247.541641 -1582.719849 724.149658
v -247.039764 -1581.491821 725.094971
v -253.153320 -1578.991821 725.094971
v -253.663834 -1580.240234 724.157532
v -247.039764 -1581.491821 725.094971
v -259.835541 -1577.669189 724.141418
v -253.663834 -1580.240234 724.157532
v -253.153320 -1578.991821 725.094971
v -259.336700 -1576.463379 725.094971
v -259.835541 -1577.669189 724.141418
v -253.153320 -1578.991821 725.094971
v -260.391144 -1576.400635 724.094910
v -259.835541 -1577.669189 724.141418
v -259.336700 -1576.463379 725.094971
v -260.391144 -1576.400635 724.094910
v -259.336700 -1576.463379 725.094971
v -247.145844 -1544.012939 724.639282
v -259.336700 -1576.463379 725.094971
v -246.263412 -1544.496826 725.102417
v -247.145844 -1544.012939 724.639282
v -247.145844 -1544.012939 724.639282
v -246.263412 -1544.496826 725.102417
v -247.013229 -1543.688721 724.258301
v -247.135544 -1543.987793 724.590576
v -247.145844 -1544.012939 724.639282
v -247.013229 -1543.688721 724.258301
v -247.119324 -1543.948120 724.524719
v -247.135544 -1543.987793 724.590576
v -247.013229 -1543.688721 724.258301
v -246.263412 -1544.496826 725.102417
v -245.887573 -1543.577881 724.102661
v -247.013229 -1543.688721 724.258301
v -245.887573 -1543.577881 724.102661
v -246.976593 -1543.599121 724.204163
v -247.013229 -1543.688721 724.258301
v -219.050323 -1555.624390 725.102356
v -218.674957 -1554.705322 724.102600
v -233.974594 -1549.521729 725.102417
v -218.674957 -1554.705322 724.102600
v -233.599243 -1548.602661 724.102661
v -233.974594 -1549.521729 725.102417
v -240.078491 -1547.025879 725.102417
v -233.974594 -1549.521729 725.102417
v -233.599243 -1548.602661 724.102661
v -239.702560 -1546.106934 724.102661
v -240.078491 -1547.025879 725.102417
v -233.599243 -1548.602661 724.102661
v -240.078491 -1547.025879 725.102417
v -239.702560 -1546.106934 724.102661
v -246.263412 -1544.496826 725.102417
v -239.702560 -1546.106934 724.102661
v -245.887573 -1543.577881 724.102661
v -246.263412 -1544.496826 725.102417
v -296.921143 -1665.740601 724.639282
v -283.678894 -1633.351685 724.094910
v -281.343079 -1627.648315 709.735901
v -285.742950 -1638.408691 709.199219
v -296.921143 -1665.740601 724.639282
v -281.343079 -1627.648315 709.735901
v -296.931427 -1665.765747 724.590576
v -296.921143 -1665.740601 724.639282
v -285.742950 -1638.408691 709.199219
v -287.065033 -1641.641846 709.053589
v -296.931427 -1665.765747 724.590576
v -285.742950 -1638.408691 709.199219
v -296.947632 -1665.805420 724.524719
v -296.931427 -1665.765747 724.590576
v -287.065033 -1641.641846 709.053589
v -288.340912 -1644.762085 708.425842
v -296.947632 -1665.805420 724.524719
v -287.065033 -1641.641846 709.053589
v -296.974457 -1665.871094 724.435913
v -296.947632 -1665.805420 724.524719
v -288.340912 -1644.762085 708.425842
v -289.596344 -1647.832153 707.001038
v -296.974457 -1665.871094 724.435913
v -288.340912 -1644.762085 708.425842
v -297.010681 -1665.959717 724.342224
v -296.974457 -1665.871094 724.435913
v -289.596344 -1647.832153 707.001038
v -290.690155 -1650.507202 704.796570
v -297.010681 -1665.959717 724.342224
v -289.596344 -1647.832153 707.001038
v -297.053711 -1666.064819 724.258301
v -297.010681 -1665.959717 724.342224
v -290.690155 -1650.507202 704.796570
v -291.689728 -1652.951660 701.934021
v -297.053711 -1666.064819 724.258301
v -290.690155 -1650.507202 704.796570
v -297.090363 -1666.154419 724.204163
v -297.053711 -1666.064819 724.258301
v -291.689728 -1652.951660 701.934021
v -292.312286 -1654.474121 698.376343
v -297.090363 -1666.154419 724.204163
v -291.689728 -1652.951660 701.934021
v -297.090363 -1666.154419 724.204163
v -292.312286 -1654.474121 698.376343
v -292.844543 -1655.775879 691.107300
v -296.783386 -1665.408447 691.107300
v -297.090363 -1666.154419 724.204163
v -292.844543 -1655.775879 691.107300
v -291.778076 -1655.809814 690.107300
v -283.636139 -1653.556396 690.107239
v -295.855011 -1665.780396 690.107300
v -283.636139 -1653.556396 690.107239
v -289.668549 -1668.309937 690.107300
v -295.855011 -1665.780396 690.107300
v -289.668549 -1668.309937 690.107300
v -283.636139 -1653.556396 690.107239
v -274.213684 -1649.120850 690.107300
v -283.575134 -1670.801514 690.107300
v -289.668549 -1668.309937 690.107300
v -274.213684 -1649.120850 690.107300
v -268.650879 -1676.904175 690.107239
v -283.575134 -1670.801514 690.107300
v -274.213684 -1649.120850 690.107300
v -259.714813 -1655.049561 690.107300
v -268.650879 -1676.904175 690.107239
v -274.213684 -1649.120850 690.107300
v -246.835144 -1563.564331 694.568420
v -246.638550 -1563.078491 691.096069
v -243.786316 -1571.616089 691.102600
v -243.739975 -1571.643311 692.082397
v -246.835144 -1563.564331 694.568420
v -243.786316 -1571.616089 691.102600
v -247.245941 -1564.572998 696.619446
v -246.835144 -1563.564331 694.568420
v -243.739975 -1571.643311 692.082397
v -247.840302 -1566.030762 698.339172
v -247.245941 -1564.572998 696.619446
v -243.739975 -1571.643311 692.082397
v -244.153244 -1572.642334 693.671204
v -247.840302 -1566.030762 698.339172
v -243.739975 -1571.643311 692.082397
v -253.052841 -1560.454956 703.477722
v -252.047119 -1558.021973 700.645569
v -247.245941 -1564.572998 696.619446
v -247.840302 -1566.030762 698.339172
v -253.052841 -1560.454956 703.477722
v -247.245941 -1564.572998 696.619446
v -253.052841 -1560.454956 703.477722
v -247.840302 -1566.030762 698.339172
v -248.437988 -1567.492432 699.646545
v -248.437988 -1567.492432 699.646545
v -247.840302 -1566.030762 698.339172
v -244.153244 -1572.642334 693.671204
v -254.143173 -1563.081421 705.691833
v -253.052841 -1560.454956 703.477722
v -248.437988 -1567.492432 699.646545
v -249.382828 -1569.802979 700.714417
v -248.437988 -1567.492432 699.646545
v -244.153244 -1572.642334 693.671204
v -244.921921 -1574.518555 694.841370
v -249.382828 -1569.802979 700.714417
v -244.153244 -1572.642334 693.671204
v -250.210495 -1571.800659 701.121887
v -249.382828 -1569.802979 700.714417
v -244.921921 -1574.518555 694.841370
v -251.141098 -1574.076172 701.116760
v -250.210495 -1571.800659 701.121887
v -244.921921 -1574.518555 694.841370
v -245.680878 -1576.308960 695.205261
v -251.141098 -1574.076172 701.116760
v -244.921921 -1574.518555 694.841370
v -245.680878 -1576.308960 695.205261
v -251.621445 -1590.836548 695.205261
v -251.141098 -1574.076172 701.116760
v -251.621445 -1590.836548 695.205261
v -256.528778 -1587.252075 701.116760
v -251.141098 -1574.076172 701.116760
v -250.434326 -1554.701904 690.107300
v -251.087143 -1555.773682 691.100647
v -251.219193 -1553.979126 691.107300
v -251.219193 -1553.979126 691.107300
v -251.087143 -1555.773682 691.100647
v -251.751434 -1555.280762 698.376343
v -251.087143 -1555.773682 691.100647
v -251.399750 -1556.489624 697.181458
v -251.751434 -1555.280762 698.376343
v -251.751434 -1555.280762 698.376343
v -251.399750 -1556.489624 697.181458
v -252.374008 -1556.803345 701.934021
v -251.399750 -1556.489624 697.181458
v -252.047119 -1558.021973 700.645569
v -252.374008 -1556.803345 701.934021
v -252.374008 -1556.803345 701.934021
v -252.047119 -1558.021973 700.645569
v -253.373566 -1559.247803 704.796570
v -252.047119 -1558.021973 700.645569
v -253.052841 -1560.454956 703.477722
v -253.373566 -1559.247803 704.796570
v -253.373566 -1559.247803 704.796570
v -253.052841 -1560.454956 703.477722
v -254.467422 -1561.922852 707.001038
v -253.052841 -1560.454956 703.477722
v -254.143173 -1563.081421 705.691833
v -254.467422 -1561.922852 707.001038
v -254.467422 -1561.922852 707.001038
v -254.143173 -1563.081421 705.691833
v -255.722809 -1564.992920 708.425842
v -254.143173 -1563.081421 705.691833
v -255.402084 -1566.132324 707.172485
v -255.722809 -1564.992920 708.425842
v -255.722809 -1564.992920 708.425842
v -255.402084 -1566.132324 707.172485
v -256.998688 -1568.113159 709.053589
v -255.402084 -1566.132324 707.172485
v -256.657562 -1569.179077 707.846680
v -256.998688 -1568.113159 709.053589
v -256.998688 -1568.113159 709.053589
v -256.657562 -1569.179077 707.846680
v -258.320740 -1571.346313 709.199219
v -256.657562 -1569.179077 707.846680
v -257.964813 -1572.342285 708.035034
v -258.320740 -1571.346313 709.199219
v -258.320740 -1571.346313 709.199219
v -257.964813 -1572.342285 708.035034
v -262.720825 -1582.106689 709.735901
v -257.964813 -1572.342285 708.035034
v -262.320221 -1583.002808 708.031555
v -262.720825 -1582.106689 709.735901
v -262.320221 -1583.002808 708.031555
v -262.290070 -1583.691406 709.093811
v -262.720825 -1582.106689 709.735901
v -262.720825 -1582.106689 709.735901
v -262.290070 -1583.691406 709.093811
v -260.391144 -1576.400635 724.094910
v -262.290070 -1583.691406 709.093811
v -259.835541 -1577.669189 724.141418
v -260.391144 -1576.400635 724.094910
v -296.783386 -1665.408447 691.107300
v -292.844543 -1655.775879 691.107300
v -291.778076 -1655.809814 690.107300
v -295.855011 -1665.780396 690.107300
v -296.783386 -1665.408447 691.107300
v -291.778076 -1655.809814 690.107300
v -296.783386 -1665.408447 691.107300
v -295.855011 -1665.780396 690.107300
v -296.236298 -1666.712646 691.107239
v -290.049835 -1669.242065 691.107239
v -296.236298 -1666.712646 691.107239
v -295.855011 -1665.780396 690.107300
v -289.668549 -1668.309937 690.107300
v -290.049835 -1669.242065 691.107239
v -295.855011 -1665.780396 690.107300
v -283.956146 -1671.733887 691.107239
v -290.049835 -1669.242065 691.107239
v -289.668549 -1668.309937 690.107300
v -283.575134 -1670.801514 690.107300
v -283.956146 -1671.733887 691.107239
v -289.668549 -1668.309937 690.107300
v -283.956146 -1671.733887 691.107239
v -283.575134 -1670.801514 690.107300
v -269.031891 -1677.836670 691.107239
v -283.575134 -1670.801514 690.107300
v -268.650879 -1676.904175 690.107239
v -269.031891 -1677.836670 691.107239
v -270.585571 -1639.074219 725.094971
v -255.661285 -1645.176758 725.094971
v -255.158936 -1643.948730 724.149658
v -270.083160 -1637.846069 724.149658
v -270.585571 -1639.074219 725.094971
v -255.158936 -1643.948730 724.149658
v -270.585571 -1639.074219 725.094971
v -270.083160 -1637.846069 724.149658
v -276.699127 -1636.574097 725.094971
v -270.083160 -1637.846069 724.149658
v -276.188629 -1635.325684 724.157532
v -276.699127 -1636.574097 725.094971
v -276.699127 -1636.574097 725.094971
v -276.188629 -1635.325684 724.157532
v -282.882507 -1634.045776 725.094971
v -276.188629 -1635.325684 724.157532
v -282.393524 -1632.835693 724.141418
v -282.882507 -1634.045776 725.094971
v -282.882507 -1634.045776 725.094971
v -282.393524 -1632.835693 724.141418
v -283.678894 -1633.351685 724.094910
v -295.952545 -1666.013672 725.102417
v -282.882507 -1634.045776 725.094971
v -283.678894 -1633.351685 724.094910
v -296.921143 -1665.740601 724.639282
v -295.952545 -1666.013672 725.102417
v -283.678894 -1633.351685 724.094910
v -295.952545 -1666.013672 725.102417
v -296.921143 -1665.740601 724.639282
v -296.974457 -1665.871094 724.435913
v -296.328156 -1666.932739 724.102661
v -295.952545 -1666.013672 725.102417
v -296.974457 -1665.871094 724.435913
v -297.090363 -1666.154419 724.204163
v -296.328156 -1666.932739 724.102661
v -296.974457 -1665.871094 724.435913
v -297.053711 -1666.064819 724.258301
v -297.090363 -1666.154419 724.204163
v -296.974457 -1665.871094 724.435913
v -297.010681 -1665.959717 724.342224
v -297.053711 -1666.064819 724.258301
v -296.974457 -1665.871094 724.435913
v -280.429291 -1627.289307 708.031555
v -273.319855 -1628.315308 701.116760
v -278.707581 -1641.491333 701.116760
v -284.791199 -1637.947388 708.035034
v -280.429291 -1627.289307 708.031555
v -278.707581 -1641.491333 701.116760
v -284.791199 -1637.947388 708.035034
v -278.707581 -1641.491333 701.116760
v -286.074799 -1641.120117 707.846680
v -278.707581 -1641.491333 701.116760
v -279.638000 -1643.766968 701.121887
v -286.074799 -1641.120117 707.846680
v -286.074799 -1641.120117 707.846680
v -279.638000 -1643.766968 701.121887
v -287.313782 -1644.173706 707.172485
v -279.638000 -1643.766968 701.121887
v -280.447144 -1645.772217 700.714417
v -287.313782 -1644.173706 707.172485
v -287.313782 -1644.173706 707.172485
v -280.447144 -1645.772217 700.714417
v -281.391998 -1648.083008 699.646545
v -288.553162 -1647.232666 705.691833
v -287.313782 -1644.173706 707.172485
v -281.391998 -1648.083008 699.646545
v -283.200714 -1652.493042 691.096069
v -291.492981 -1654.588013 691.100647
v -283.000549 -1652.008545 694.568420
v -291.492981 -1654.588013 691.100647
v -291.214355 -1653.858032 697.181458
v -283.000549 -1652.008545 694.568420
v -283.000549 -1652.008545 694.568420
v -291.214355 -1653.858032 697.181458
v -290.602631 -1652.311279 700.645569
v -282.586914 -1651.000977 696.619446
v -283.000549 -1652.008545 694.568420
v -290.602631 -1652.311279 700.645569
v -278.707581 -1641.491333 701.116760
v -273.319855 -1628.315308 701.116760
v -267.307037 -1629.196289 695.205261
v -273.247345 -1643.723999 695.205261
v -278.707581 -1641.491333 701.116760
v -267.307037 -1629.196289 695.205261
v -278.707581 -1641.491333 701.116760
v -273.247345 -1643.723999 695.205261
v -280.447144 -1645.772217 700.714417
v -279.638000 -1643.766968 701.121887
v -278.707581 -1641.491333 701.116760
v -280.447144 -1645.772217 700.714417
v -273.247345 -1643.723999 695.205261
v -273.960266 -1645.533203 694.841370
v -280.447144 -1645.772217 700.714417
v -280.447144 -1645.772217 700.714417
v -273.960266 -1645.533203 694.841370
v -281.989655 -1649.544434 698.339172
v -281.391998 -1648.083008 699.646545
v -280.447144 -1645.772217 700.714417
v -281.989655 -1649.544434 698.339172
v -273.960266 -1645.533203 694.841370
v -274.726501 -1647.410522 693.671204
v -281.989655 -1649.544434 698.339172
v -288.553162 -1647.232666 705.691833
v -281.391998 -1648.083008 699.646545
v -289.615509 -1649.870483 703.477722
v -281.391998 -1648.083008 699.646545
v -281.989655 -1649.544434 698.339172
v -289.615509 -1649.870483 703.477722
v -282.586914 -1651.000977 696.619446
v -290.602631 -1652.311279 700.645569
v -289.615509 -1649.870483 703.477722
v -281.989655 -1649.544434 698.339172
v -282.586914 -1651.000977 696.619446
v -289.615509 -1649.870483 703.477722
v -282.586914 -1651.000977 696.619446
v -281.989655 -1649.544434 698.339172
v -283.000549 -1652.008545 694.568420
v -281.989655 -1649.544434 698.339172
v -274.726501 -1647.410522 693.671204
v -283.000549 -1652.008545 694.568420
v -274.726501 -1647.410522 693.671204
v -275.131561 -1648.412720 692.082397
v -283.000549 -1652.008545 694.568420
v -275.131561 -1648.412720 692.082397
v -275.183685 -1648.399780 691.102600
v -283.000549 -1652.008545 694.568420
v -275.183685 -1648.399780 691.102600
v -283.200714 -1652.493042 691.096069
v -283.000549 -1652.008545 694.568420
v -251.141098 -1574.076172 701.116760
v -256.528778 -1587.252075 701.116760
v -262.320221 -1583.002808 708.031555
v -257.964813 -1572.342285 708.035034
v -251.141098 -1574.076172 701.116760
v -262.320221 -1583.002808 708.031555
v -257.964813 -1572.342285 708.035034
v -256.657562 -1569.179077 707.846680
v -251.141098 -1574.076172 701.116760
v -256.657562 -1569.179077 707.846680
v -250.210495 -1571.800659 701.121887
v -251.141098 -1574.076172 701.116760
v -256.657562 -1569.179077 707.846680
v -255.402084 -1566.132324 707.172485
v -250.210495 -1571.800659 701.121887
v -255.402084 -1566.132324 707.172485
v -249.382828 -1569.802979 700.714417
v -250.210495 -1571.800659 701.121887
v -248.437988 -1567.492432 699.646545
v -249.382828 -1569.802979 700.714417
v -255.402084 -1566.132324 707.172485
v -254.143173 -1563.081421 705.691833
v -248.437988 -1567.492432 699.646545
v -255.402084 -1566.132324 707.172485
v -246.638550 -1563.078491 691.096069
v -246.835144 -1563.564331 694.568420
v -251.087143 -1555.773682 691.100647
v -246.835144 -1563.564331 694.568420
v -251.399750 -1556.489624 697.181458
v -251.087143 -1555.773682 691.100647
v -252.047119 -1558.021973 700.645569
v -251.399750 -1556.489624 697.181458
v -246.835144 -1563.564331 694.568420
v -247.245941 -1564.572998 696.619446
v -252.047119 -1558.021973 700.645569
v -246.835144 -1563.564331 694.568420
vt 0.507812 0.424316
vt 0.507812 0.424316
vt 0.508301 0.424316
vt 0.507812 0.424316
vt 0.507812 0.424316
vt 0.508301 0.424316
vt -0.150757 0.424316
vt -0.150269 0.424316
vt -0.151367 0.424316
vt -0.150269 0.424316
vt -0.149902 0.424316
vt -0.151367 0.424316
vt 0.423828 0.388184
vt 0.428955 0.388184
vt 0.423828 0.553711
vt 0.428955 0.388184
vt 0.428955 0.553223
vt 0.423828 0.553711
vt 0.611816 0.498047
vt 0.616699 0.500488
vt 0.611816 0.576172
vt 0.616699 0.500488
vt 0.616699 0.576172
vt 0.611816 0.576172
vt 0.499512 0.405273
vt 0.504395 0.410156
vt 0.423828 0.405273
vt 0.504395 0.410156
vt 0.423828 0.410156
vt 0.423828 0.405273
vt 0.575684 0.553711
vt 0.570801 0.553223
vt 0.575684 0.388184
vt 0.570801 0.553223
vt 0.570801 0.388184
vt 0.575684 0.388184
vt 1.029297 0.576172
vt 1.024414 0.576172
vt 1.029297 0.498047
vt 1.024414 0.576172
vt 1.024414 0.500488
vt 1.029297 0.498047
vt 0.575684 0.405273
vt 0.575684 0.410156
vt 0.500000 0.405273
vt 0.575684 0.410156
vt 0.495361 0.410156
vt 0.500000 0.405273
vt 0.570801 0.478027
vt 0.570801 0.553223
vt 0.537598 0.442871
vt 0.570801 0.553223
vt 0.537598 0.553467
vt 0.537598 0.442871
vt 0.537598 0.442871
vt 0.537598 0.553467
vt 0.504395 0.410156
vt 0.537598 0.553467
vt 0.504395 0.553467
vt 0.504395 0.410156
vt 0.504395 0.410156
vt 0.504395 0.553467
vt 0.423828 0.410156
vt 0.504395 0.553467
vt 0.423828 0.553467
vt 0.423828 0.410156
vt 0.428955 0.553223
vt 0.428955 0.388184
vt 0.462158 0.553223
vt 0.428955 0.388184
vt 0.462402 0.388184
vt 0.462158 0.553223
vt 0.462158 0.553223
vt 0.462402 0.388184
vt 0.495117 0.553223
vt 0.462402 0.388184
vt 0.495117 0.388184
vt 0.495117 0.553223
vt 0.495117 0.553223
vt 0.495117 0.388184
vt 0.575684 0.553223
vt 0.495117 0.388184
vt 0.575684 0.388184
vt 0.575684 0.553223
vt 0.334473 0.429199
vt 0.507324 0.429199
vt 0.334473 0.462402
vt 0.507324 0.429199
vt 0.507324 0.462402
vt 0.334473 0.462402
vt 0.334473 0.462402
vt 0.507324 0.462402
vt 0.334473 0.495605
vt 0.507324 0.462402
vt 0.507324 0.495605
vt 0.334473 0.495605
vt 0.334473 0.495605
vt 0.507324 0.495605
vt 0.334473 0.576172
vt 0.507324 0.495605
vt 0.507324 0.576172
vt 0.334473 0.576172
vt 0.717773 0.500488
vt 0.717773 0.576172
vt 0.638672 0.576172
vt 0.638672 0.500488
vt 0.717773 0.500488
vt 0.638672 0.576172
vt 0.638672 0.500488
vt 0.638672 0.576172
vt 0.630371 0.576172
vt 0.630371 0.500488
vt 0.638672 0.500488
vt 0.630371 0.576172
vt 0.630371 0.500488
vt 0.630371 0.576172
vt 0.621094 0.576172
vt 0.621094 0.500488
vt 0.630371 0.500488
vt 0.621094 0.576172
vt 0.499512 0.398438
vt 0.423828 0.398438
vt 0.423828 0.391602
vt 0.499512 0.391602
vt 0.499512 0.398438
vt 0.423828 0.391602
vt 0.499512 0.391602
vt 0.423828 0.391602
vt 0.423828 0.388184
vt 0.499512 0.388184
vt 0.499512 0.391602
vt 0.423828 0.388184
vt -0.147827 0.388184
vt -0.095764 0.388184
vt -0.151855 0.553711
vt -0.095764 0.388184
vt -0.088745 0.424805
vt -0.151855 0.553711
vt -0.151367 0.553955
vt -0.151855 0.553711
vt -0.088745 0.424805
vt -0.080505 0.442383
vt -0.151367 0.553955
vt -0.088745 0.424805
vt -0.150757 0.554443
vt -0.151367 0.553955
vt -0.080505 0.442383
vt -0.067322 0.456543
vt -0.150757 0.554443
vt -0.080505 0.442383
vt -0.150269 0.554688
vt -0.150757 0.554443
vt -0.067322 0.456543
vt -0.052887 0.467773
vt -0.150269 0.554688
vt -0.067322 0.456543
vt -0.149902 0.555176
vt -0.150269 0.554688
vt -0.052887 0.467773
vt -0.036285 0.475098
vt -0.149902 0.555176
vt -0.052887 0.467773
vt -0.149658 0.555664
vt -0.149902 0.555176
vt -0.036285 0.475098
vt -0.019440 0.478027
vt -0.149658 0.555664
vt -0.036285 0.475098
vt -0.149536 0.555908
vt -0.149658 0.555664
vt -0.019440 0.478027
vt -0.001984 0.478516
vt -0.149536 0.555908
vt -0.019440 0.478027
vt -0.001984 0.478516
vt 0.056122 0.481445
vt -0.149536 0.555908
vt 0.056122 0.481445
vt 0.025314 0.552979
vt -0.149536 0.555908
vt 1.093750 0.429199
vt 1.147461 0.429199
vt 1.067383 0.462891
vt 1.147461 0.429199
vt 1.147461 0.462891
vt 1.067383 0.462891
vt 1.029297 0.498047
vt 1.067383 0.462891
vt 1.147461 0.462891
vt 1.029297 0.576172
vt 1.029297 0.498047
vt 1.147461 0.462891
vt 1.147461 0.495605
vt 1.029297 0.576172
vt 1.147461 0.462891
vt 1.147461 0.576172
vt 1.029297 0.576172
vt 1.147461 0.495605
vt 0.500000 0.388184
vt 0.575684 0.388184
vt 0.500000 0.391602
vt 0.575684 0.388184
vt 0.575684 0.391602
vt 0.500000 0.391602
vt 0.500000 0.391602
vt 0.575684 0.391602
vt 0.500000 0.398438
vt 0.575684 0.391602
vt 0.575684 0.398438
vt 0.500000 0.398438
vt 1.019531 0.500488
vt 1.019531 0.576172
vt 1.010742 0.500488
vt 1.019531 0.576172
vt 1.010742 0.576172
vt 1.010742 0.500488
vt 1.010742 0.500488
vt 1.010742 0.576172
vt 1.002930 0.500488
vt 1.010742 0.576172
vt 1.002930 0.576172
vt 1.002930 0.500488
vt 1.002930 0.500488
vt 1.002930 0.576172
vt 0.923340 0.500488
vt 1.002930 0.576172
vt 0.923340 0.576172
vt 0.923340 0.500488
vt 0.575684 0.410156
vt 0.575684 0.553467
vt 0.495361 0.553467
vt 0.495361 0.410156
vt 0.575684 0.410156
vt 0.495361 0.553467
vt 0.495361 0.410156
vt 0.495361 0.553467
vt 0.462158 0.553467
vt 0.462158 0.442871
vt 0.495361 0.410156
vt 0.462158 0.553467
vt 0.462158 0.442871
vt 0.462158 0.553467
vt 0.428711 0.553223
vt 0.428955 0.478027
vt 0.462158 0.442871
vt 0.428711 0.553223
vt 0.423828 0.553223
vt 0.423828 0.388184
vt 0.504395 0.388184
vt 0.504395 0.553223
vt 0.423828 0.553223
vt 0.504395 0.388184
vt 0.504395 0.553223
vt 0.504395 0.388184
vt 0.537109 0.388184
vt 0.537598 0.553223
vt 0.504395 0.553223
vt 0.537109 0.388184
vt 0.537598 0.553223
vt 0.537109 0.388184
vt 0.570801 0.388184
vt 0.570801 0.553223
vt 0.537598 0.553223
vt 0.570801 0.388184
vt 0.023605 0.576172
vt -0.149048 0.576172
vt -0.149048 0.495605
vt 0.023605 0.495605
vt 0.023605 0.576172
vt -0.149048 0.495605
vt 0.023605 0.495605
vt -0.149048 0.495605
vt -0.149048 0.462402
vt 0.023605 0.462402
vt 0.023605 0.495605
vt -0.149048 0.462402
vt 0.023605 0.462402
vt -0.149048 0.462402
vt -0.149048 0.429199
vt 0.023605 0.429199
vt 0.023605 0.462402
vt -0.149048 0.429199
vt 0.445801 0.388184
vt 0.452148 0.383301
vt 0.453857 0.388184
vt 0.441895 0.418457
vt 0.445801 0.388184
vt 0.453857 0.388184
vt 0.447021 0.424805
vt 0.441895 0.418457
vt 0.453857 0.388184
vt 0.433594 0.436035
vt 0.441895 0.418457
vt 0.447021 0.424805
vt 0.438721 0.442383
vt 0.433594 0.436035
vt 0.447021 0.424805
vt 0.420410 0.450195
vt 0.433594 0.436035
vt 0.438721 0.442383
vt 0.425537 0.456543
vt 0.420410 0.450195
vt 0.438721 0.442383
vt 0.406250 0.461426
vt 0.420410 0.450195
vt 0.425537 0.456543
vt 0.411133 0.467773
vt 0.406250 0.461426
vt 0.425537 0.456543
vt 0.389893 0.468750
vt 0.406250 0.461426
vt 0.411133 0.467773
vt 0.394531 0.475098
vt 0.389893 0.468750
vt 0.411133 0.467773
vt 0.373291 0.472168
vt 0.389893 0.468750
vt 0.394531 0.475098
vt 0.377686 0.478027
vt 0.373291 0.472168
vt 0.394531 0.475098
vt 0.356201 0.473145
vt 0.373291 0.472168
vt 0.377686 0.478027
vt 0.360107 0.478516
vt 0.356201 0.473145
vt 0.377686 0.478027
vt 0.298584 0.472656
vt 0.356201 0.473145
vt 0.360107 0.478516
vt 0.302002 0.481445
vt 0.298584 0.472656
vt 0.360107 0.478516
vt 0.302002 0.481445
vt 0.295410 0.478027
vt 0.298584 0.472656
vt 0.328125 0.553223
vt 0.295410 0.478027
vt 0.302002 0.481445
vt 0.332764 0.552979
vt 0.328125 0.553223
vt 0.302002 0.481445
vt 0.499512 0.388184
vt 0.501953 0.383301
vt 0.507812 0.388184
vt 0.499512 0.391602
vt 0.499512 0.388184
vt 0.507812 0.388184
vt 0.507812 0.393066
vt 0.499512 0.391602
vt 0.507812 0.388184
vt 0.499512 0.398438
vt 0.499512 0.391602
vt 0.507812 0.393066
vt 0.507812 0.400879
vt 0.499512 0.398438
vt 0.507812 0.393066
vt 0.716797 0.492188
vt 0.721191 0.495605
vt 0.717773 0.500488
vt 0.716797 0.492188
vt 0.717773 0.500488
vt 0.638672 0.492188
vt 0.717773 0.500488
vt 0.638672 0.500488
vt 0.638672 0.492188
vt 0.638672 0.492188
vt 0.638672 0.500488
vt 0.628906 0.492188
vt 0.638672 0.500488
vt 0.630371 0.500488
vt 0.628906 0.492188
vt 0.628906 0.492188
vt 0.630371 0.500488
vt 0.618652 0.492188
vt 0.630371 0.500488
vt 0.621094 0.500488
vt 0.618652 0.492188
vt 0.491699 0.388184
vt 0.497559 0.383301
vt 0.500000 0.388184
vt 0.491699 0.388184
vt 0.500000 0.388184
vt 0.491943 0.393066
vt 0.500000 0.388184
vt 0.500000 0.391602
vt 0.491943 0.393066
vt 0.491943 0.393066
vt 0.500000 0.391602
vt 0.491943 0.400879
vt 0.500000 0.391602
vt 0.500000 0.398438
vt 0.491943 0.400879
vt 0.613281 0.492188
vt 0.611816 0.498047
vt 0.579102 0.462891
vt 0.611816 0.498047
vt 0.573242 0.462891
vt 0.579102 0.462891
vt 0.579102 0.462891
vt 0.573242 0.462891
vt 0.553711 0.428223
vt 0.573242 0.462891
vt 0.547363 0.429199
vt 0.553711 0.428223
vt 0.504395 0.410156
vt 0.507812 0.408691
vt 0.537598 0.442871
vt 0.507812 0.408691
vt 0.537598 0.438477
vt 0.537598 0.442871
vt 0.537598 0.442871
vt 0.537598 0.438477
vt 0.570801 0.478027
vt 0.537598 0.438477
vt 0.572266 0.472656
vt 0.570801 0.478027
vt 0.428955 0.558105
vt 0.428955 0.553223
vt 0.462158 0.558105
vt 0.428955 0.553223
vt 0.462158 0.553223
vt 0.462158 0.558105
vt 0.495361 0.558105
vt 0.462158 0.558105
vt 0.462158 0.553223
vt 0.495117 0.553223
vt 0.495361 0.558105
vt 0.462158 0.553223
vt 0.495361 0.558105
vt 0.495117 0.553223
vt 0.575684 0.558105
vt 0.495117 0.553223
vt 0.575684 0.553223
vt 0.575684 0.558105
vt 0.428955 0.478027
vt 0.427490 0.472656
vt 0.462158 0.442871
vt 0.427490 0.472656
vt 0.462158 0.438477
vt 0.462158 0.442871
vt 0.462158 0.442871
vt 0.462158 0.438477
vt 0.495361 0.410156
vt 0.462158 0.438477
vt 0.491699 0.408691
vt 0.495361 0.410156
vt 1.086914 0.428223
vt 1.093750 0.429199
vt 1.061523 0.462891
vt 1.093750 0.429199
vt 1.067383 0.462891
vt 1.061523 0.462891
vt 1.061523 0.462891
vt 1.067383 0.462891
vt 1.027344 0.492188
vt 1.067383 0.462891
vt 1.029297 0.498047
vt 1.027344 0.492188
vt 1.022461 0.492188
vt 1.019531 0.500488
vt 1.011719 0.492188
vt 1.019531 0.500488
vt 1.010742 0.500488
vt 1.011719 0.492188
vt 1.011719 0.492188
vt 1.010742 0.500488
vt 1.002930 0.492188
vt 1.010742 0.500488
vt 1.002930 0.500488
vt 1.002930 0.492188
vt 1.002930 0.492188
vt 1.002930 0.500488
vt 0.924316 0.492188
vt 1.002930 0.500488
vt 0.923340 0.500488
vt 0.924316 0.492188
vt 0.924316 0.492188
vt 0.923340 0.500488
vt 0.919922 0.495605
vt 1.152344 0.576172
vt 1.147461 0.576172
vt 1.152344 0.495605
vt 1.147461 0.576172
vt 1.147461 0.495605
vt 1.152344 0.495605
vt 1.152344 0.462891
vt 1.152344 0.495605
vt 1.147461 0.495605
vt 1.147461 0.462891
vt 1.152344 0.462891
vt 1.147461 0.495605
vt 1.152344 0.429199
vt 1.152344 0.462891
vt 1.147461 0.462891
vt 1.147461 0.429199
vt 1.152344 0.429199
vt 1.147461 0.462891
vt 1.152344 0.429199
vt 1.147461 0.429199
vt 1.147461 0.424316
vt 1.095703 0.424316
vt 1.147461 0.424316
vt 1.147461 0.429199
vt 1.093750 0.429199
vt 1.095703 0.424316
vt 1.147461 0.429199
vt 0.030243 0.576172
vt 0.023605 0.576172
vt 0.030243 0.495605
vt 0.023605 0.576172
vt 0.023605 0.495605
vt 0.030243 0.495605
vt 0.030350 0.462402
vt 0.030243 0.495605
vt 0.023605 0.495605
vt 0.023605 0.462402
vt 0.030350 0.462402
vt 0.023605 0.495605
vt 0.030136 0.429199
vt 0.030350 0.462402
vt 0.023605 0.462402
vt 0.023605 0.429199
vt 0.030136 0.429199
vt 0.023605 0.462402
vt 0.025314 0.424316
vt 0.030136 0.429199
vt 0.023605 0.429199
vt 0.025314 0.424316
vt 0.023605 0.429199
vt -0.149536 0.424316
vt 0.023605 0.429199
vt -0.149048 0.429199
vt -0.149536 0.424316
vt -0.149536 0.424316
vt -0.149048 0.429199
vt -0.151367 0.424316
vt -0.149658 0.424316
vt -0.149536 0.424316
vt -0.151367 0.424316
vt -0.149902 0.424316
vt -0.149658 0.424316
vt -0.151367 0.424316
vt -0.149048 0.429199
vt -0.153931 0.429199
vt -0.151367 0.424316
vt -0.153931 0.429199
vt -0.151855 0.424316
vt -0.151367 0.424316
vt 0.423828 0.558105
vt 0.423828 0.553223
vt 0.504395 0.558105
vt 0.423828 0.553223
vt 0.504395 0.553223
vt 0.504395 0.558105
vt 0.537598 0.558105
vt 0.504395 0.558105
vt 0.504395 0.553223
vt 0.537598 0.553223
vt 0.537598 0.558105
vt 0.504395 0.553223
vt 0.537598 0.558105
vt 0.537598 0.553223
vt 0.570801 0.558105
vt 0.537598 0.553223
vt 0.570801 0.553223
vt 0.570801 0.558105
vt 0.507812 0.555908
vt 0.332764 0.552979
vt 0.302002 0.481445
vt 0.360107 0.478516
vt 0.507812 0.555908
vt 0.302002 0.481445
vt 0.507812 0.555664
vt 0.507812 0.555908
vt 0.360107 0.478516
vt 0.377686 0.478027
vt 0.507812 0.555664
vt 0.360107 0.478516
vt 0.507812 0.555176
vt 0.507812 0.555664
vt 0.377686 0.478027
vt 0.394531 0.475098
vt 0.507812 0.555176
vt 0.377686 0.478027
vt 0.508301 0.554688
vt 0.507812 0.555176
vt 0.394531 0.475098
vt 0.411133 0.467773
vt 0.508301 0.554688
vt 0.394531 0.475098
vt 0.508789 0.554443
vt 0.508301 0.554688
vt 0.411133 0.467773
vt 0.425537 0.456543
vt 0.508789 0.554443
vt 0.411133 0.467773
vt 0.509277 0.553955
vt 0.508789 0.554443
vt 0.425537 0.456543
vt 0.438721 0.442383
vt 0.509277 0.553955
vt 0.425537 0.456543
vt 0.509766 0.553711
vt 0.509277 0.553955
vt 0.438721 0.442383
vt 0.447021 0.424805
vt 0.509766 0.553711
vt 0.438721 0.442383
vt 0.509766 0.553711
vt 0.447021 0.424805
vt 0.453857 0.388184
vt 0.505859 0.388184
vt 0.509766 0.553711
vt 0.453857 0.388184
vt 0.547363 0.429199
vt 0.573242 0.462891
vt 0.493896 0.429199
vt 0.573242 0.462891
vt 0.493896 0.462891
vt 0.493896 0.429199
vt 0.493896 0.462891
vt 0.573242 0.462891
vt 0.611816 0.498047
vt 0.493896 0.495605
vt 0.493896 0.462891
vt 0.611816 0.498047
vt 0.493896 0.576172
vt 0.493896 0.495605
vt 0.611816 0.498047
vt 0.611816 0.576172
vt 0.493896 0.576172
vt 0.611816 0.498047
vt -0.059723 0.405762
vt -0.062347 0.388184
vt -0.028229 0.388184
vt -0.028198 0.393066
vt -0.059723 0.405762
vt -0.028229 0.388184
vt -0.054260 0.416016
vt -0.059723 0.405762
vt -0.028198 0.393066
vt -0.046417 0.424316
vt -0.054260 0.416016
vt -0.028198 0.393066
vt -0.022797 0.400879
vt -0.046417 0.424316
vt -0.028198 0.393066
vt -0.062347 0.450195
vt -0.075500 0.436035
vt -0.054260 0.416016
vt -0.046417 0.424316
vt -0.062347 0.450195
vt -0.054260 0.416016
vt -0.062347 0.450195
vt -0.046417 0.424316
vt -0.038513 0.431152
vt -0.038513 0.431152
vt -0.046417 0.424316
vt -0.022797 0.400879
vt -0.048126 0.461426
vt -0.062347 0.450195
vt -0.038513 0.431152
vt -0.026031 0.436523
vt -0.038513 0.431152
vt -0.022797 0.400879
vt -0.012657 0.406738
vt -0.026031 0.436523
vt -0.022797 0.400879
vt -0.015228 0.438477
vt -0.026031 0.436523
vt -0.012657 0.406738
vt -0.002935 0.438477
vt -0.015228 0.438477
vt -0.012657 0.406738
vt -0.002935 0.408691
vt -0.002935 0.438477
vt -0.012657 0.406738
vt -0.002935 0.408691
vt 0.075500 0.408691
vt -0.002935 0.438477
vt 0.075500 0.408691
vt 0.068176 0.438477
vt -0.002935 0.438477
vt -0.093933 0.383301
vt -0.087708 0.388184
vt -0.095764 0.388184
vt -0.095764 0.388184
vt -0.087708 0.388184
vt -0.088745 0.424805
vt -0.087708 0.388184
vt -0.083801 0.418457
vt -0.088745 0.424805
vt -0.088745 0.424805
vt -0.083801 0.418457
vt -0.080505 0.442383
vt -0.083801 0.418457
vt -0.075500 0.436035
vt -0.080505 0.442383
vt -0.080505 0.442383
vt -0.075500 0.436035
vt -0.067322 0.456543
vt -0.075500 0.436035
vt -0.062347 0.450195
vt -0.067322 0.456543
vt -0.067322 0.456543
vt -0.062347 0.450195
vt -0.052887 0.467773
vt -0.062347 0.450195
vt -0.048126 0.461426
vt -0.052887 0.467773
vt -0.052887 0.467773
vt -0.048126 0.461426
vt -0.036285 0.475098
vt -0.048126 0.461426
vt -0.031616 0.468750
vt -0.036285 0.475098
vt -0.036285 0.475098
vt -0.031616 0.468750
vt -0.019440 0.478027
vt -0.031616 0.468750
vt -0.015160 0.472168
vt -0.019440 0.478027
vt -0.019440 0.478027
vt -0.015160 0.472168
vt -0.001984 0.478516
vt -0.015160 0.472168
vt 0.001951 0.473145
vt -0.001984 0.478516
vt -0.001984 0.478516
vt 0.001951 0.473145
vt 0.056122 0.481445
vt 0.001951 0.473145
vt 0.059509 0.472656
vt 0.056122 0.481445
vt 0.059509 0.472656
vt 0.062622 0.478027
vt 0.056122 0.481445
vt 0.056122 0.481445
vt 0.062622 0.478027
vt 0.025314 0.552979
vt 0.062622 0.478027
vt 0.030136 0.553223
vt 0.025314 0.552979
vt 0.493652 0.424316
vt 0.545898 0.424316
vt 0.547363 0.429199
vt 0.493896 0.429199
vt 0.493652 0.424316
vt 0.547363 0.429199
vt 0.493652 0.424316
vt 0.493896 0.429199
vt 0.488770 0.429199
vt 0.488770 0.462891
vt 0.488770 0.429199
vt 0.493896 0.429199
vt 0.493896 0.462891
vt 0.488770 0.462891
vt 0.493896 0.429199
vt 0.488770 0.495605
vt 0.488770 0.462891
vt 0.493896 0.462891
vt 0.493896 0.495605
vt 0.488770 0.495605
vt 0.493896 0.462891
vt 0.488770 0.495605
vt 0.493896 0.495605
vt 0.488770 0.576172
vt 0.493896 0.495605
vt 0.493896 0.576172
vt 0.488770 0.576172
vt 0.334473 0.495605
vt 0.334473 0.576172
vt 0.327881 0.576172
vt 0.327881 0.495605
vt 0.334473 0.495605
vt 0.327881 0.576172
vt 0.334473 0.495605
vt 0.327881 0.495605
vt 0.334473 0.462402
vt 0.327881 0.495605
vt 0.327881 0.462402
vt 0.334473 0.462402
vt 0.334473 0.462402
vt 0.327881 0.462402
vt 0.334473 0.429199
vt 0.327881 0.462402
vt 0.328125 0.429199
vt 0.334473 0.429199
vt 0.334473 0.429199
vt 0.328125 0.429199
vt 0.332764 0.424316
vt 0.507324 0.429199
vt 0.334473 0.429199
vt 0.332764 0.424316
vt 0.507812 0.424316
vt 0.507324 0.429199
vt 0.332764 0.424316
vt 0.507324 0.429199
vt 0.507812 0.424316
vt 0.508301 0.424316
vt 0.512207 0.429199
vt 0.507324 0.429199
vt 0.508301 0.424316
vt 0.509766 0.424316
vt 0.512207 0.429199
vt 0.508301 0.424316
vt 0.509277 0.424316
vt 0.509766 0.424316
vt 0.508301 0.424316
vt 0.508789 0.424316
vt 0.509277 0.424316
vt 0.508301 0.424316
vt 0.701172 0.427734
vt 0.709473 0.462402
vt 0.638672 0.462402
vt 0.643555 0.427734
vt 0.701172 0.427734
vt 0.638672 0.462402
vt 0.643555 0.427734
vt 0.638672 0.462402
vt 0.626465 0.427734
vt 0.638672 0.462402
vt 0.626465 0.462402
vt 0.626465 0.427734
vt 0.626465 0.427734
vt 0.626465 0.462402
vt 0.609863 0.427734
vt 0.626465 0.462402
vt 0.615234 0.462891
vt 0.609863 0.427734
vt 0.609863 0.427734
vt 0.615234 0.462891
vt 0.603027 0.462891
vt 0.593262 0.427734
vt 0.609863 0.427734
vt 0.603027 0.462891
vt 0.537109 0.388184
vt 0.571777 0.388184
vt 0.537109 0.405762
vt 0.571777 0.388184
vt 0.571777 0.418457
vt 0.537109 0.405762
vt 0.537109 0.405762
vt 0.571777 0.418457
vt 0.571777 0.436035
vt 0.537109 0.416016
vt 0.537109 0.405762
vt 0.571777 0.436035
vt 0.361084 0.438477
vt 0.290039 0.438477
vt 0.282715 0.408691
vt 0.361084 0.408691
vt 0.361084 0.438477
vt 0.282715 0.408691
vt 0.361084 0.438477
vt 0.361084 0.408691
vt 0.384277 0.436523
vt 0.373291 0.438477
vt 0.361084 0.438477
vt 0.384277 0.436523
vt 0.361084 0.408691
vt 0.370850 0.406738
vt 0.384277 0.436523
vt 0.384277 0.436523
vt 0.370850 0.406738
vt 0.404541 0.424316
vt 0.396729 0.431152
vt 0.384277 0.436523
vt 0.404541 0.424316
vt 0.370850 0.406738
vt 0.380859 0.400879
vt 0.404541 0.424316
vt 0.406250 0.461426
vt 0.396729 0.431152
vt 0.420410 0.450195
vt 0.396729 0.431152
vt 0.404541 0.424316
vt 0.420410 0.450195
vt 0.412354 0.416016
vt 0.433594 0.436035
vt 0.420410 0.450195
vt 0.404541 0.424316
vt 0.412354 0.416016
vt 0.420410 0.450195
vt 0.412354 0.416016
vt 0.404541 0.424316
vt 0.417969 0.405762
vt 0.404541 0.424316
vt 0.380859 0.400879
vt 0.417969 0.405762
vt 0.380859 0.400879
vt 0.386475 0.393066
vt 0.417969 0.405762
vt 0.386475 0.393066
vt 0.386475 0.388184
vt 0.417969 0.405762
vt 0.386475 0.388184
vt 0.420410 0.388184
vt 0.417969 0.405762
vt 1.002930 0.462402
vt 0.931641 0.462402
vt 0.940430 0.427734
vt 0.998047 0.427734
vt 1.002930 0.462402
vt 0.940430 0.427734
vt 0.998047 0.427734
vt 1.014648 0.427734
vt 1.002930 0.462402
vt 1.014648 0.427734
vt 1.014648 0.462402
vt 1.002930 0.462402
vt 1.014648 0.427734
vt 1.031250 0.427734
vt 1.014648 0.462402
vt 1.031250 0.427734
vt 1.025391 0.462891
vt 1.014648 0.462402
vt 1.038086 0.462891
vt 1.025391 0.462891
vt 1.031250 0.427734
vt 1.047852 0.427734
vt 1.038086 0.462891
vt 1.031250 0.427734
vt 0.462402 0.388184
vt 0.462402 0.405762
vt 0.427979 0.388184
vt 0.462402 0.405762
vt 0.427734 0.418457
vt 0.427979 0.388184
vt 0.427734 0.436035
vt 0.427734 0.418457
vt 0.462402 0.405762
vt 0.462402 0.416016
vt 0.427734 0.436035
vt 0.462402 0.405762
f 1/1/1 2/2/2 3/3/3
f 4/4/4 5/5/5 6/6/6
f 7/7/7 8/8/8 9/9/9
f 10/10/10 11/11/11 12/12/12
f 13/13/13 14/14/14 15/15/15
f 16/16/16 17/17/17 18/18/18
f 19/19/19 20/20/20 21/21/21
f 22/22/22 23/23/23 24/24/24
f 25/25/25 26/26/26 27/27/27
f 28/28/28 29/29/29 30/30/30
f 31/31/31 32/32/32 33/33/33
f 34/34/34 35/35/35 36/36/36
f 37/37/37 38/38/38 39/39/39
f 40/40/40 41/41/41 42/42/42
f 43/43/43 44/44/44 45/45/45
f 46/46/46 47/47/47 48/48/48
f 49/49/49 50/50/50 51/51/51
f 52/52/52 53/53/53 54/54/54
f 55/55/55 56/56/56 57/57/57
f 58/58/58 59/59/59 60/60/60
f 61/61/61 62/62/62 63/63/63
f 64/64/64 65/65/65 66/66/66
f 67/67/67 68/68/68 69/69/69
f 70/70/70 71/71/71 72/72/72
f 73/73/73 74/74/74 75/75/75
f 76/76/76 77/77/77 78/78/78
f 79/79/79 80/80/80 81/81/81
f 82/82/82 83/83/83 84/84/84
f 85/85/85 86/86/86 87/87/87
f 88/88/88 89/89/89 90/90/90
f 91/91/91 92/92/92 93/93/93
f 94/94/94 95/95/95 96/96/96
f 97/97/97 98/98/98 99/99/99
f 100/100/100 101/101/101 102/102/102
f 103/103/103 104/104/104 105/105/105
f 106/106/106 107/107/107 108/108/108
f 109/109/109 110/110/110 111/111/111
f 112/112/112 113/113/113 114/114/114
f 115/115/115 116/116/116 117/117/117
f 118/118/118 119/119/119 120/120/120
f 121/121/121 122/122/122 123/123/123
f 124/124/124 125/125/125 126/126/126
f 127/127/127 128/128/128 129/129/129
f 130/130/130 131/131/131 132/132/132
f 133/133/133 134/134/134 135/135/135
f 136/136/136 137/137/137 138/138/138
f 139/139/139 140/140/140 141/141/141
f 142/142/142 143/143/143 144/144/144
f 145/145/145 146/146/146 147/147/147
f 148/148/148 149/149/149 150/150/150
f 151/151/151 152/152/152 153/153/153
f 154/154/154 155/155/155 156/156/156
f 157/157/157 158/158/158 159/159/159
f 160/160/160 161/161/161 162/162/162
f 163/163/163 164/164/164 165/165/165
f 166/166/166 167/167/167 168/168/168
f 169/169/169 170/170/170 171/171/171
f 172/172/172 173/173/173 174/174/174
f 175/175/175 176/176/176 177/177/177
f 178/178/178 179/179/179 180/180/180
f 181/181/181 182/182/182 183/183/183
f 184/184/184 185/185/185 186/186/186
f 187/187/187 188/188/188 189/189/189
f 190/190/190 191/191/191 192/192/192
f 193/193/193 194/194/194 195/195/195
f 196/196/196 197/197/197 198/198/198
f 199/199/199 200/200/200 201/201/201
f 202/202/202 203/203/203 204/204/204
f 205/205/205 206/206/206 207/207/207
f 208/208/208 209/209/209 210/210/210
f 211/211/211 212/212/212 213/213/213
f 214/214/214 215/215/215 216/216/216
f 217/217/217 218/218/218 219/219/219
f 220/220/220 221/221/221 222/222/222
f 223/223/223 224/224/224 225/225/225
f 226/226/226 227/227/227 228/228/228
f 229/229/229 230/230/230 231/231/231
f 232/232/232 233/233/233 234/234/234
f 235/235/235 236/236/236 237/237/237
f 238/238/238 239/239/239 240/240/240
f 241/241/241 242/242/242 243/243/243
f 244/244/244 245/245/245 246/246/246
f 247/247/247 248/248/248 249/249/249
f 250/250/250 251/251/251 252/252/252
f 253/253/253 254/254/254 255/255/255
f 256/256/256 257/257/257 258/258/258
f 259/259/259 260/260/260 261/261/261
f 262/262/262 263/263/263 264/264/264
f 265/265/265 266/266/266 267/267/267
f 268/268/268 269/269/269 270/270/270
f 271/271/271 272/272/272 273/273/273
f 274/274/274 275/275/275 276/276/276
f 277/277/277 278/278/278 279/279/279
f 280/280/280 281/281/281 282/282/282
f 283/283/283 284/284/284 285/285/285
f 286/286/286 287/287/287 288/288/288
f 289/289/289 290/290/290 291/291/291
f 292/292/292 293/293/293 294/294/294
f 295/295/295 296/296/296 297/297/297
f 298/298/298 299/299/299 300/300/300
f 301/301/301 302/302/302 303/303/303
f 304/304/304 305/305/305 306/306/306
f 307/307/307 308/308/308 309/309/309
f 310/310/310 311/311/311 312/312/312
f 313/313/313 314/314/314 315/315/315
f 316/316/316 317/317/317 318/318/318
f 319/319/319 320/320/320 321/321/321
f 322/322/322 323/323/323 324/324/324
f 325/325/325 326/326/326 327/327/327
f 328/328/328 329/329/329 330/330/330
f 331/331/331 332/332/332 333/333/333
f 334/334/334 335/335/335 336/336/336
f 337/337/337 338/338/338 339/339/339
f 340/340/340 341/341/341 342/342/342
f 343/343/343 344/344/344 345/345/345
f 346/346/346 347/347/347 348/348/348
f 349/349/349 350/350/350 351/351/351
f 352/352/352 353/353/353 354/354/354
f 355/355/355 356/356/356 357/357/357
f 358/358/358 359/359/359 360/360/360
f 361/361/361 362/362/362 363/363/363
f 364/364/364 365/365/365 366/366/366
f 367/367/367 368/368/368 369/369/369
f 370/370/370 371/371/371 372/372/372
f 373/373/373 374/374/374 375/375/375
f 376/376/376 377/377/377 378/378/378
f 379/379/379 380/380/380 381/381/381
f 382/382/382 383/383/383 384/384/384
f 385/385/385 386/386/386 387/387/387
f 388/388/388 389/389/389 390/390/390
f 391/391/391 392/392/392 393/393/393
f 394/394/394 395/395/395 396/396/396
f 397/397/397 398/398/398 399/399/399
f 400/400/400 401/401/401 402/402/402
f 403/403/403 404/404/404 405/405/405
f 406/406/406 407/407/407 408/408/408
f 409/409/409 410/410/410 411/411/411
f 412/412/412 413/413/413 414/414/414
f 415/415/415 416/416/416 417/417/417
f 418/418/418 419/419/419 420/420/420
f 421/421/421 422/422/422 423/423/423
f 424/424/424 425/425/425 426/426/426
f 427/427/427 428/428/428 429/429/429
f 430/430/430 431/431/431 432/432/432
f 433/433/433 434/434/434 435/435/435
f 436/436/436 437/437/437 438/438/438
f 439/439/439 440/440/440 441/441/441
f 442/442/442 443/443/443 444/444/444
f 445/445/445 446/446/446 447/447/447
f 448/448/448 449/449/449 450/450/450
f 451/451/451 452/452/452 453/453/453
f 454/454/454 455/455/455 456/456/456
f 457/457/457 458/458/458 459/459/459
f 460/460/460 461/461/461 462/462/462
f 463/463/463 464/464/464 465/465/465
f 466/466/466 467/467/467 468/468/468
f 469/469/469 470/470/470 471/471/471
f 472/472/472 473/473/473 474/474/474
f 475/475/475 476/476/476 477/477/477
f 478/478/478 479/479/479 480/480/480
f 481/481/481 482/482/482 483/483/483
f 484/484/484 485/485/485 486/486/486
f 487/487/487 488/488/488 489/489/489
f 490/490/490 491/491/491 492/492/492
f 493/493/493 494/494/494 495/495/495
f 496/496/496 497/497/497 498/498/498
f 499/499/499 500/500/500 501/501/501
f 502/502/502 503/503/503 504/504/504
f 505/505/505 506/506/506 507/507/507
f 508/508/508 509/509/509 510/510/510
f 511/511/511 512/512/512 513/513/513
f 514/514/514 515/515/515 516/516/516
f 517/517/517 518/518/518 519/519/519
f 520/520/520 521/521/521 522/522/522
f 523/523/523 524/524/524 525/525/525
f 526/526/526 527/527/527 528/528/528
f 529/529/529 530/530/530 531/531/531
f 532/532/532 533/533/533 534/534/534
f 535/535/535 536/536/536 537/537/537
f 538/538/538 539/539/539 540/540/540
f 541/541/541 542/542/542 543/543/543
f 544/544/544 545/545/545 546/546/546
f 547/547/547 548/548/548 549/549/549
f 550/550/550 551/551/551 552/552/552
f 553/553/553 554/554/554 555/555/555
f 556/556/556 557/557/557 558/558/558
f 559/559/559 560/560/560 561/561/561
f 562/562/562 563/563/563 564/564/564
f 565/565/565 566/566/566 567/567/567
f 568/568/568 569/569/569 570/570/570
f 571/571/571 572/572/572 573/573/573
f 574/574/574 575/575/575 576/576/576
f 577/577/577 578/578/578 579/579/579
f 580/580/580 581/581/581 582/582/582
f 583/583/583 584/584/584 585/585/585
f 586/586/586 587/587/587 588/588/588
f 589/589/589 590/590/590 591/591/591
f 592/592/592 593/593/593 594/594/594
f 595/595/595 596/596/596 597/597/597
f 598/598/598 599/599/599 600/600/600
f 601/601/601 602/602/602 603/603/603
f 604/604/604 605/605/605 606/606/606
f 607/607/607 608/608/608 609/609/609
f 610/610/610 611/611/611 612/612/612
f 613/613/613 614/614/614 615/615/615
f 616/616/616 617/617/617 618/618/618
f 619/619/619 620/620/620 621/621/621
f 622/622/622 623/623/623 624/624/624
f 625/625/625 626/626/626 627/627/627
f 628/628/628 629/629/629 630/630/630
f 631/631/631 632/632/632 633/633/633
f 634/634/634 635/635/635 636/636/636
f 637/637/637 638/638/638 639/639/639
f 640/640/640 641/641/641 642/642/642
f 643/643/643 644/644/644 645/645/645
f 646/646/646 647/647/647 648/648/648
f 649/649/649 650/650/650 651/651/651
f 652/652/652 653/653/653 654/654/654
f 655/655/655 656/656/656 657/657/657
f 658/658/658 659/659/659 660/660/660
f 661/661/661 662/662/662 663/663/663
f 664/664/664 665/665/665 666/666/666
f 667/667/667 668/668/668 669/669/669
f 670/670/670 671/671/671 672/672/672
f 673/673/673 674/674/674 675/675/675
f 676/676/676 677/677/677 678/678/678
f 679/679/679 680/680/680 681/681/681
f 682/682/682 683/683/683 684/684/684
f 685/685/685 686/686/686 687/687/687
f 688/688/688 689/689/689 690/690/690
f 691/691/691 692/692/692 693/693/693
f 694/694/694 695/695/695 696/696/696
f 697/697/697 698/698/698 699/699/699
f 700/700/700 701/701/701 702/702/702
f 703/703/703 704/704/704 705/705/705
f 706/706/706 707/707/707 708/708/708
f 709/709/709 710/710/710 711/711/711
f 712/712/712 713/713/713 714/714/714
f 715/715/715 716/716/716 717/717/717
f 718/718/718 719/719/719 720/720/720
f 721/721/721 722/722/722 723/723/723
f 724/724/724 725/725/725 726/726/726
f 727/727/727 728/728/728 729/729/729
f 730/730/730 731/731/731 732/732/732
f 733/733/733 734/734/734 735/735/735
f 736/736/736 737/737/737 738/738/738
f 739/739/739 740/740/740 741/741/741
f 742/742/742 743/743/743 744/744/744
f 745/745/745 746/746/746 747/747/747
f 748/748/748 749/749/749 750/750/750
f 751/751/751 752/752/752 753/753/753
f 754/754/754 755/755/755 756/756/756
f 757/757/757 758/758/758 759/759/759
f 760/760/760 761/761/761 762/762/762
f 763/763/763 764/764/764 765/765/765
f 766/766/766 767/767/767 768/768/768
f 769/769/769 770/770/770 771/771/771
f 772/772/772 773/773/773 774/774/774
f 775/775/775 776/776/776 777/777/777
f 778/778/778 779/779/779 780/780/780
f 781/781/781 782/782/782 783/783/783
f 784/784/784 785/785/785 786/786/786
f 787/787/787 788/788/788 789/789/789
f 790/790/790 791/791/791 792/792/792
f 793/793/793 794/794/794 795/795/795
f 796/796/796 797/797/797 798/798/798
f 799/799/799 800/800/800 801/801/801
f 802/802/802 803/803/803 804/804/804
f 805/805/805 806/806/806 807/807/807
f 808/808/808 809/809/809 810/810/810
f 811/811/811 812/812/812 813/813/813
f 814/814/814 815/815/815 816/816/816
f 817/817/817 818/818/818 819/819/819
f 820/820/820 821/821/821 822/822/822
f 823/823/823 824/824/824 825/825/825
f 826/826/826 827/827/827 828/828/828
f 829/829/829 830/830/830 831/831/831
f 832/832/832 833/833/833 834/834/834
f 835/835/835 836/836/836 837/837/837
f 838/838/838 839/839/839 840/840/840
f 841/841/841 842/842/842 843/843/843
f 844/844/844 845/845/845 846/846/846
f 847/847/847 848/848/848 849/849/849
f 850/850/850 851/851/851 852/852/852
f 853/853/853 854/854/854 855/855/855
f 856/856/856 857/857/857 858/858/858
f 859/859/859 860/860/860 861/861/861
f 862/862/862 863/863/863 864/864/864
f 865/865/865 866/866/866 867/867/867
f 868/868/868 869/869/869 870/870/870
f 871/871/871 872/872/872 873/873/873
f 874/874/874 875/875/875 876/876/876
f 877/877/877 878/878/878 879/879/879
f 880/880/880 881/881/881 882/882/882
f 883/883/883 884/884/884 885/885/885
f 886/886/886 887/887/887 888/888/888
f 889/889/889 890/890/890 891/891/891
f 892/892/892 893/893/893 894/894/894
f 895/895/895 896/896/896 897/897/897
f 898/898/898 899/899/899 900/900/900
f 901/901/901 902/902/902 903/903/903
f 904/904/904 905/905/905 906/906/906
f 907/907/907 908/908/908 909/909/909
f 910/910/910 911/911/911 912/912/912
f 913/913/913 914/914/914 915/915/915
f 916/916/916 917/917/917 918/918/918
f 919/919/919 920/920/920 921/921/921
f 922/922/922 923/923/923 924/924/924
f 925/925/925 926/926/926 927/927/927
f 928/928/928 929/929/929 930/930/930
f 931/931/931 932/932/932 933/933/933
f 934/934/934 935/935/935 936/936/936
