# OBJ file
v -192.201035 -1409.642944 724.639343
v -192.211319 -1409.668091 724.590637
v -192.254333 -1409.773315 724.435974
v -192.211319 -1409.668091 724.590637
v -192.227524 -1409.707764 724.524780
v -192.254333 -1409.773315 724.435974
v -142.336121 -1287.696289 724.342285
v -142.372391 -1287.784912 724.435974
v -142.293106 -1287.591064 724.258362
v -142.372391 -1287.784912 724.435974
v -142.399185 -1287.850464 724.524780
v -142.293106 -1287.591064 724.258362
v -192.063278 -1409.310913 691.107361
v -191.516205 -1410.614990 691.107300
v -192.370255 -1410.056885 724.204224
v -191.516205 -1410.614990 691.107300
v -191.608063 -1410.834961 724.102722
v -192.370255 -1410.056885 724.204224
v -169.493607 -1393.023193 690.107361
v -168.613007 -1392.297485 691.107300
v -154.994705 -1398.951904 690.107361
v -168.613007 -1392.297485 691.107300
v -154.614334 -1398.021606 691.107300
v -154.994705 -1398.951904 690.107361
v -160.934769 -1373.566650 694.497437
v -161.605606 -1372.564819 695.442566
v -146.936096 -1379.290894 694.497437
v -161.605606 -1372.564819 695.442566
v -146.681320 -1378.667480 695.442566
v -146.936096 -1379.290894 694.497437
v -142.256454 -1287.501465 724.204224
v -141.167435 -1287.480225 724.102722
v -142.560135 -1288.248901 691.107361
v -141.167435 -1287.480225 724.102722
v -141.256073 -1287.701660 691.107300
v -142.560135 -1288.248901 691.107361
v -123.370018 -1321.612305 690.107361
v -123.750427 -1322.542603 691.107300
v -137.868896 -1315.683594 690.107361
v -123.750427 -1322.542603 691.107300
v -137.749100 -1316.818481 691.107300
v -137.868896 -1315.683594 690.107361
v -131.395981 -1341.286865 694.497437
v -131.650909 -1341.909912 695.442566
v -145.394669 -1335.562744 694.497437
v -131.650909 -1341.909912 695.442566
v -146.575180 -1335.807373 695.442566
v -145.394669 -1335.562744 694.497437
v -175.205276 -1370.721680 709.093872
v -177.673447 -1376.738159 724.141479
v -168.353348 -1371.614990 702.054016
v -177.673447 -1376.738159 724.141479
v -171.468536 -1379.228027 724.157593
v -168.353348 -1371.614990 702.054016
v -168.353348 -1371.614990 702.054016
v -171.468536 -1379.228027 724.157593
v -161.605606 -1372.564819 695.442566
v -171.468536 -1379.228027 724.157593
v -165.363068 -1381.748535 724.149719
v -161.605606 -1372.564819 695.442566
v -161.605606 -1372.564819 695.442566
v -165.363068 -1381.748535 724.149719
v -146.681320 -1378.667480 695.442566
v -165.363068 -1381.748535 724.149719
v -150.438797 -1387.851074 724.149719
v -146.681320 -1378.667480 695.442566
v -191.608063 -1410.834961 724.102722
v -191.516205 -1410.614990 691.107300
v -185.423050 -1413.364136 724.102722
v -191.516205 -1410.614990 691.107300
v -185.329712 -1413.144653 691.107300
v -185.423050 -1413.364136 724.102722
v -185.423050 -1413.364136 724.102722
v -185.329712 -1413.144653 691.107300
v -179.319748 -1415.859741 724.102722
v -185.329712 -1413.144653 691.107300
v -179.236053 -1415.636475 691.107300
v -179.319748 -1415.859741 724.102722
v -179.319748 -1415.859741 724.102722
v -179.236053 -1415.636475 691.107300
v -164.395493 -1421.962402 724.102661
v -179.236053 -1415.636475 691.107300
v -164.311783 -1421.739014 691.107300
v -164.395493 -1421.962402 724.102661
v -178.162384 -1377.947998 725.095032
v -191.232422 -1409.916016 725.102478
v -171.978989 -1380.476562 725.095032
v -191.232422 -1409.916016 725.102478
v -185.047485 -1412.445190 725.102478
v -171.978989 -1380.476562 725.095032
v -171.978989 -1380.476562 725.095032
v -185.047485 -1412.445190 725.102478
v -165.865448 -1382.976440 725.095032
v -185.047485 -1412.445190 725.102478
v -178.943588 -1414.941040 725.102478
v -165.865448 -1382.976440 725.095032
v -165.865448 -1382.976440 725.095032
v -178.943588 -1414.941040 725.102478
v -150.941177 -1389.079102 725.095032
v -178.943588 -1414.941040 725.102478
v -164.019333 -1421.043823 725.102417
v -150.941177 -1389.079102 725.095032
v -160.934769 -1373.566650 694.497437
v -146.936096 -1379.290894 694.497437
v -152.949173 -1393.996460 694.497437
v -166.947830 -1388.272217 694.497437
v -160.934769 -1373.566650 694.497437
v -152.949173 -1393.996460 694.497437
v -166.947830 -1388.272217 694.497437
v -152.949173 -1393.996460 694.497437
v -153.574814 -1395.510986 694.170532
v -167.573502 -1389.786743 694.170532
v -166.947830 -1388.272217 694.497437
v -153.574814 -1395.510986 694.170532
v -167.573502 -1389.786743 694.170532
v -153.574814 -1395.510986 694.170532
v -154.265457 -1397.175659 693.146362
v -168.264114 -1391.451294 693.146362
v -167.573502 -1389.786743 694.170532
v -154.265457 -1397.175659 693.146362
v -168.264114 -1391.451294 693.146362
v -154.265457 -1397.175659 693.146362
v -154.612991 -1398.018311 691.806274
v -168.611649 -1392.294189 691.806274
v -168.264114 -1391.451294 693.146362
v -154.612991 -1398.018311 691.806274
v -168.611649 -1392.294189 691.806274
v -154.612991 -1398.018311 691.806274
v -154.614334 -1398.021606 691.107300
v -168.613007 -1392.297485 691.107300
v -168.611649 -1392.294189 691.806274
v -154.614334 -1398.021606 691.107300
v -142.560135 -1288.248901 691.107361
v -146.499069 -1297.881470 691.107361
v -142.256454 -1287.501465 724.204224
v -146.499069 -1297.881470 691.107361
v -147.031311 -1299.183228 698.376404
v -142.256454 -1287.501465 724.204224
v -142.293106 -1287.591064 724.258362
v -142.256454 -1287.501465 724.204224
v -147.031311 -1299.183228 698.376404
v -147.653885 -1300.705688 701.934082
v -142.293106 -1287.591064 724.258362
v -147.031311 -1299.183228 698.376404
v -142.336121 -1287.696289 724.342285
v -142.293106 -1287.591064 724.258362
v -147.653885 -1300.705688 701.934082
v -148.653458 -1303.150146 704.796631
v -142.336121 -1287.696289 724.342285
v -147.653885 -1300.705688 701.934082
v -142.372391 -1287.784912 724.435974
v -142.336121 -1287.696289 724.342285
v -148.653458 -1303.150146 704.796631
v -149.747299 -1305.825195 707.001099
v -142.372391 -1287.784912 724.435974
v -148.653458 -1303.150146 704.796631
v -142.399185 -1287.850464 724.524780
v -142.372391 -1287.784912 724.435974
v -149.747299 -1305.825195 707.001099
v -151.002701 -1308.895386 708.425903
v -142.399185 -1287.850464 724.524780
v -149.747299 -1305.825195 707.001099
v -142.415421 -1287.890137 724.590637
v -142.399185 -1287.850464 724.524780
v -151.002701 -1308.895386 708.425903
v -152.278549 -1312.015503 709.053650
v -142.415421 -1287.890137 724.590637
v -151.002701 -1308.895386 708.425903
v -142.425720 -1287.915283 724.639343
v -142.415421 -1287.890137 724.590637
v -152.278549 -1312.015503 709.053650
v -153.600632 -1315.248779 709.199280
v -142.425720 -1287.915283 724.639343
v -152.278549 -1312.015503 709.053650
v -153.600632 -1315.248779 709.199280
v -158.000717 -1326.009155 709.735962
v -142.425720 -1287.915283 724.639343
v -158.000717 -1326.009155 709.735962
v -155.671036 -1320.302979 724.094971
v -142.425720 -1287.915283 724.639343
v -145.714188 -1298.604248 690.107361
v -141.637253 -1288.633911 690.107361
v -141.483932 -1305.916992 690.107300
v -141.637253 -1288.633911 690.107361
v -135.450775 -1291.163696 690.107361
v -141.483932 -1305.916992 690.107300
v -137.868896 -1315.683594 690.107361
v -141.483932 -1305.916992 690.107300
v -135.450775 -1291.163696 690.107361
v -123.370018 -1321.612305 690.107361
v -137.868896 -1315.683594 690.107361
v -135.450775 -1291.163696 690.107361
v -114.433121 -1299.758057 690.107300
v -123.370018 -1321.612305 690.107361
v -135.450775 -1291.163696 690.107361
v -129.357376 -1293.655273 690.107361
v -114.433121 -1299.758057 690.107300
v -135.450775 -1291.163696 690.107361
v -137.749100 -1316.818481 691.107300
v -123.750427 -1322.542603 691.107300
v -137.750427 -1316.821655 691.806274
v -123.750427 -1322.542603 691.107300
v -123.751747 -1322.545776 691.806274
v -137.750427 -1316.821655 691.806274
v -137.750427 -1316.821655 691.806274
v -123.751747 -1322.545776 691.806274
v -138.092941 -1317.666504 693.146362
v -123.751747 -1322.545776 691.806274
v -124.094276 -1323.390747 693.146362
v -138.092941 -1317.666504 693.146362
v -138.092941 -1317.666504 693.146362
v -124.094276 -1323.390747 693.146362
v -138.766586 -1319.338257 694.170532
v -124.094276 -1323.390747 693.146362
v -124.767899 -1325.062378 694.170532
v -138.766586 -1319.338257 694.170532
v -138.766586 -1319.338257 694.170532
v -124.767899 -1325.062378 694.170532
v -139.381332 -1320.857178 694.497437
v -124.767899 -1325.062378 694.170532
v -125.382668 -1326.581421 694.497437
v -139.381332 -1320.857178 694.497437
v -139.381332 -1320.857178 694.497437
v -125.382668 -1326.581421 694.497437
v -145.394669 -1335.562744 694.497437
v -125.382668 -1326.581421 694.497437
v -131.395981 -1341.286865 694.497437
v -145.394669 -1335.562744 694.497437
v -131.650909 -1341.909912 695.442566
v -127.897247 -1332.724854 724.149719
v -142.821518 -1326.622192 724.149719
v -146.575180 -1335.807373 695.442566
v -131.650909 -1341.909912 695.442566
v -142.821518 -1326.622192 724.149719
v -146.575180 -1335.807373 695.442566
v -142.821518 -1326.622192 724.149719
v -148.943726 -1324.142700 724.157593
v -152.055237 -1331.757202 702.054016
v -146.575180 -1335.807373 695.442566
v -148.943726 -1324.142700 724.157593
v -152.055237 -1331.757202 702.054016
v -148.943726 -1324.142700 724.157593
v -155.115433 -1321.571655 724.141479
v -157.569977 -1327.593750 709.093872
v -152.055237 -1331.757202 702.054016
v -155.115433 -1321.571655 724.141479
v -113.954826 -1298.607666 724.102661
v -114.051682 -1298.825806 691.107300
v -128.975952 -1292.723145 691.107300
v -128.879105 -1292.505005 724.102722
v -113.954826 -1298.607666 724.102661
v -128.975952 -1292.723145 691.107300
v -128.879105 -1292.505005 724.102722
v -128.975952 -1292.723145 691.107300
v -135.069626 -1290.231323 691.107300
v -134.982437 -1290.009399 724.102722
v -128.879105 -1292.505005 724.102722
v -135.069626 -1290.231323 691.107300
v -134.982437 -1290.009399 724.102722
v -135.069626 -1290.231323 691.107300
v -141.256073 -1287.701660 691.107300
v -141.167435 -1287.480225 724.102722
v -134.982437 -1290.009399 724.102722
v -141.256073 -1287.701660 691.107300
v -127.395370 -1331.496826 725.095032
v -114.330200 -1299.526978 725.102417
v -129.254471 -1293.424194 725.102478
v -142.319626 -1325.394165 725.095032
v -127.395370 -1331.496826 725.095032
v -129.254471 -1293.424194 725.102478
v -142.319626 -1325.394165 725.095032
v -129.254471 -1293.424194 725.102478
v -135.358368 -1290.928223 725.102478
v -148.433212 -1322.894287 725.095032
v -142.319626 -1325.394165 725.095032
v -135.358368 -1290.928223 725.102478
v -148.433212 -1322.894287 725.095032
v -135.358368 -1290.928223 725.102478
v -141.543289 -1288.399170 725.102478
v -154.616562 -1320.365723 725.095032
v -148.433212 -1322.894287 725.095032
v -141.543289 -1288.399170 725.102478
v -186.772873 -1398.490356 691.100708
v -187.057968 -1399.712280 690.107361
v -188.124451 -1399.678101 691.107361
v -186.494232 -1397.760376 697.181519
v -186.772873 -1398.490356 691.100708
v -188.124451 -1399.678101 691.107361
v -187.592178 -1398.376465 698.376404
v -186.494232 -1397.760376 697.181519
v -188.124451 -1399.678101 691.107361
v -185.882523 -1396.213501 700.645630
v -186.494232 -1397.760376 697.181519
v -187.592178 -1398.376465 698.376404
v -186.969620 -1396.854004 701.934082
v -185.882523 -1396.213501 700.645630
v -187.592178 -1398.376465 698.376404
v -184.895386 -1393.772949 703.477783
v -185.882523 -1396.213501 700.645630
v -186.969620 -1396.854004 701.934082
v -185.970047 -1394.409546 704.796631
v -184.895386 -1393.772949 703.477783
v -186.969620 -1396.854004 701.934082
v -183.833023 -1391.135132 705.691895
v -184.895386 -1393.772949 703.477783
v -185.970047 -1394.409546 704.796631
v -184.876205 -1391.734497 707.001099
v -183.833023 -1391.135132 705.691895
v -185.970047 -1394.409546 704.796631
v -182.593658 -1388.076050 707.172546
v -183.833023 -1391.135132 705.691895
v -184.876205 -1391.734497 707.001099
v -183.620804 -1388.664307 708.425903
v -182.593658 -1388.076050 707.172546
v -184.876205 -1391.734497 707.001099
v -181.354660 -1385.022583 707.846741
v -182.593658 -1388.076050 707.172546
v -183.620804 -1388.664307 708.425903
v -182.344940 -1385.544189 709.053650
v -181.354660 -1385.022583 707.846741
v -183.620804 -1388.664307 708.425903
v -180.071091 -1381.849731 708.035095
v -181.354660 -1385.022583 707.846741
v -182.344940 -1385.544189 709.053650
v -181.022842 -1382.310913 709.199280
v -180.071091 -1381.849731 708.035095
v -182.344940 -1385.544189 709.053650
v -175.709183 -1371.191772 708.031616
v -180.071091 -1381.849731 708.035095
v -181.022842 -1382.310913 709.199280
v -176.622955 -1371.550537 709.735962
v -175.709183 -1371.191772 708.031616
v -181.022842 -1382.310913 709.199280
v -176.622955 -1371.550537 709.735962
v -175.205276 -1370.721680 709.093872
v -175.709183 -1371.191772 708.031616
v -177.673447 -1376.738159 724.141479
v -175.205276 -1370.721680 709.093872
v -176.622955 -1371.550537 709.735962
v -178.958786 -1377.254150 724.094971
v -177.673447 -1376.738159 724.141479
v -176.622955 -1371.550537 709.735962
v -168.613007 -1392.297485 691.107300
v -169.493607 -1393.023193 690.107361
v -170.463577 -1392.302124 691.102661
v -168.611649 -1392.294189 691.806274
v -168.613007 -1392.297485 691.107300
v -170.463577 -1392.302124 691.102661
v -170.411453 -1392.315186 692.082458
v -168.611649 -1392.294189 691.806274
v -170.463577 -1392.302124 691.102661
v -168.264114 -1391.451294 693.146362
v -168.611649 -1392.294189 691.806274
v -170.411453 -1392.315186 692.082458
v -170.006393 -1391.312988 693.671265
v -168.264114 -1391.451294 693.146362
v -170.411453 -1392.315186 692.082458
v -162.586929 -1373.098755 695.205322
v -161.605606 -1372.564819 695.442566
v -160.934769 -1373.566650 694.497437
v -162.586929 -1373.098755 695.205322
v -160.934769 -1373.566650 694.497437
v -168.527267 -1387.626343 695.205322
v -160.934769 -1373.566650 694.497437
v -166.947830 -1388.272217 694.497437
v -168.527267 -1387.626343 695.205322
v -168.527267 -1387.626343 695.205322
v -166.947830 -1388.272217 694.497437
v -169.240128 -1389.435547 694.841431
v -166.947830 -1388.272217 694.497437
v -167.573502 -1389.786743 694.170532
v -169.240128 -1389.435547 694.841431
v -169.240128 -1389.435547 694.841431
v -167.573502 -1389.786743 694.170532
v -170.006393 -1391.312988 693.671265
v -167.573502 -1389.786743 694.170532
v -168.264114 -1391.451294 693.146362
v -170.006393 -1391.312988 693.671265
v -139.066177 -1315.518555 691.102661
v -137.868896 -1315.683594 690.107361
v -137.749100 -1316.818481 691.107300
v -139.066177 -1315.518555 691.102661
v -137.749100 -1316.818481 691.107300
v -139.019882 -1315.545654 692.082458
v -137.749100 -1316.818481 691.107300
v -137.750427 -1316.821655 691.806274
v -139.019882 -1315.545654 692.082458
v -139.019882 -1315.545654 692.082458
v -137.750427 -1316.821655 691.806274
v -139.433121 -1316.544678 693.671265
v -137.750427 -1316.821655 691.806274
v -138.092941 -1317.666504 693.146362
v -139.433121 -1316.544678 693.671265
v -170.463577 -1392.302124 691.102661
v -169.493607 -1393.023193 690.107361
v -178.480576 -1396.395264 691.096130
v -169.493607 -1393.023193 690.107361
v -178.916061 -1397.458862 690.107300
v -178.480576 -1396.395264 691.096130
v -178.480576 -1396.395264 691.096130
v -178.916061 -1397.458862 690.107300
v -186.772873 -1398.490356 691.100708
v -178.916061 -1397.458862 690.107300
v -187.057968 -1399.712280 690.107361
v -186.772873 -1398.490356 691.100708
v -161.605606 -1372.564819 695.442566
v -162.586929 -1373.098755 695.205322
v -168.353348 -1371.614990 702.054016
v -162.586929 -1373.098755 695.205322
v -168.599762 -1372.217773 701.116821
v -168.353348 -1371.614990 702.054016
v -168.353348 -1371.614990 702.054016
v -168.599762 -1372.217773 701.116821
v -175.205276 -1370.721680 709.093872
v -168.599762 -1372.217773 701.116821
v -175.709183 -1371.191772 708.031616
v -175.205276 -1370.721680 709.093872
v -191.232422 -1409.916016 725.102478
v -191.608063 -1410.834961 724.102722
v -185.047485 -1412.445190 725.102478
v -191.608063 -1410.834961 724.102722
v -185.423050 -1413.364136 724.102722
v -185.047485 -1412.445190 725.102478
v -178.943588 -1414.941040 725.102478
v -185.047485 -1412.445190 725.102478
v -185.423050 -1413.364136 724.102722
v -179.319748 -1415.859741 724.102722
v -178.943588 -1414.941040 725.102478
v -185.423050 -1413.364136 724.102722
v -178.943588 -1414.941040 725.102478
v -179.319748 -1415.859741 724.102722
v -164.019333 -1421.043823 725.102417
v -179.319748 -1415.859741 724.102722
v -164.395493 -1421.962402 724.102661
v -164.019333 -1421.043823 725.102417
v -157.569977 -1327.593750 709.093872
v -157.600098 -1326.905273 708.031616
v -152.055237 -1331.757202 702.054016
v -157.600098 -1326.905273 708.031616
v -151.808685 -1331.154419 701.116821
v -152.055237 -1331.757202 702.054016
v -152.055237 -1331.757202 702.054016
v -151.808685 -1331.154419 701.116821
v -146.575180 -1335.807373 695.442566
v -151.808685 -1331.154419 701.116821
v -146.901321 -1334.738892 695.205322
v -146.575180 -1335.807373 695.442566
v -146.367020 -1299.676025 691.100708
v -145.714188 -1298.604248 690.107361
v -141.918442 -1306.980957 691.096130
v -145.714188 -1298.604248 690.107361
v -141.483932 -1305.916992 690.107300
v -141.918442 -1306.980957 691.096130
v -141.918442 -1306.980957 691.096130
v -141.483932 -1305.916992 690.107300
v -139.066177 -1315.518555 691.102661
v -141.483932 -1305.916992 690.107300
v -137.868896 -1315.683594 690.107361
v -139.066177 -1315.518555 691.102661
v -139.433121 -1316.544678 693.671265
v -138.092941 -1317.666504 693.146362
v -140.201767 -1318.421021 694.841431
v -138.092941 -1317.666504 693.146362
v -138.766586 -1319.338257 694.170532
v -140.201767 -1318.421021 694.841431
v -140.201767 -1318.421021 694.841431
v -138.766586 -1319.338257 694.170532
v -140.960754 -1320.211304 695.205322
v -138.766586 -1319.338257 694.170532
v -139.381332 -1320.857178 694.497437
v -140.960754 -1320.211304 695.205322
v -140.960754 -1320.211304 695.205322
v -139.381332 -1320.857178 694.497437
v -146.901321 -1334.738892 695.205322
v -139.381332 -1320.857178 694.497437
v -145.394669 -1335.562744 694.497437
v -146.901321 -1334.738892 695.205322
v -146.901321 -1334.738892 695.205322
v -145.394669 -1335.562744 694.497437
v -146.575180 -1335.807373 695.442566
v -114.051682 -1298.825806 691.107300
v -114.433121 -1299.758057 690.107300
v -128.975952 -1292.723145 691.107300
v -114.433121 -1299.758057 690.107300
v -129.357376 -1293.655273 690.107361
v -128.975952 -1292.723145 691.107300
v -135.069626 -1290.231323 691.107300
v -128.975952 -1292.723145 691.107300
v -129.357376 -1293.655273 690.107361
v -135.450775 -1291.163696 690.107361
v -135.069626 -1290.231323 691.107300
v -129.357376 -1293.655273 690.107361
v -141.256073 -1287.701660 691.107300
v -135.069626 -1290.231323 691.107300
v -135.450775 -1291.163696 690.107361
v -141.637253 -1288.633911 690.107361
v -141.256073 -1287.701660 691.107300
v -135.450775 -1291.163696 690.107361
v -141.256073 -1287.701660 691.107300
v -141.637253 -1288.633911 690.107361
v -142.560135 -1288.248901 691.107361
v -146.499069 -1297.881470 691.107361
v -142.560135 -1288.248901 691.107361
v -141.637253 -1288.633911 690.107361
v -145.714188 -1298.604248 690.107361
v -146.499069 -1297.881470 691.107361
v -141.637253 -1288.633911 690.107361
v -127.897247 -1332.724854 724.149719
v -127.395370 -1331.496826 725.095032
v -142.821518 -1326.622192 724.149719
v -127.395370 -1331.496826 725.095032
v -142.319626 -1325.394165 725.095032
v -142.821518 -1326.622192 724.149719
v -148.943726 -1324.142700 724.157593
v -142.821518 -1326.622192 724.149719
v -142.319626 -1325.394165 725.095032
v -148.433212 -1322.894287 725.095032
v -148.943726 -1324.142700 724.157593
v -142.319626 -1325.394165 725.095032
v -155.115433 -1321.571655 724.141479
v -148.943726 -1324.142700 724.157593
v -148.433212 -1322.894287 725.095032
v -154.616562 -1320.365723 725.095032
v -155.115433 -1321.571655 724.141479
v -148.433212 -1322.894287 725.095032
v -155.671036 -1320.302979 724.094971
v -155.115433 -1321.571655 724.141479
v -154.616562 -1320.365723 725.095032
v -155.671036 -1320.302979 724.094971
v -154.616562 -1320.365723 725.095032
v -142.425720 -1287.915283 724.639343
v -154.616562 -1320.365723 725.095032
v -141.543289 -1288.399170 725.102478
v -142.425720 -1287.915283 724.639343
v -142.425720 -1287.915283 724.639343
v -141.543289 -1288.399170 725.102478
v -142.293106 -1287.591064 724.258362
v -142.415421 -1287.890137 724.590637
v -142.425720 -1287.915283 724.639343
v -142.293106 -1287.591064 724.258362
v -142.399185 -1287.850464 724.524780
v -142.415421 -1287.890137 724.590637
v -142.293106 -1287.591064 724.258362
v -141.543289 -1288.399170 725.102478
v -141.167435 -1287.480225 724.102722
v -142.293106 -1287.591064 724.258362
v -141.167435 -1287.480225 724.102722
v -142.256454 -1287.501465 724.204224
v -142.293106 -1287.591064 724.258362
v -114.330200 -1299.526978 725.102417
v -113.954826 -1298.607666 724.102661
v -129.254471 -1293.424194 725.102478
v -113.954826 -1298.607666 724.102661
v -128.879105 -1292.505005 724.102722
v -129.254471 -1293.424194 725.102478
v -135.358368 -1290.928223 725.102478
v -129.254471 -1293.424194 725.102478
v -128.879105 -1292.505005 724.102722
v -134.982437 -1290.009399 724.102722
v -135.358368 -1290.928223 725.102478
v -128.879105 -1292.505005 724.102722
v -135.358368 -1290.928223 725.102478
v -134.982437 -1290.009399 724.102722
v -141.543289 -1288.399170 725.102478
v -134.982437 -1290.009399 724.102722
v -141.167435 -1287.480225 724.102722
v -141.543289 -1288.399170 725.102478
v -192.201035 -1409.642944 724.639343
v -178.958786 -1377.254150 724.094971
v -176.622955 -1371.550537 709.735962
v -181.022842 -1382.310913 709.199280
v -192.201035 -1409.642944 724.639343
v -176.622955 -1371.550537 709.735962
v -192.211319 -1409.668091 724.590637
v -192.201035 -1409.642944 724.639343
v -181.022842 -1382.310913 709.199280
v -182.344940 -1385.544189 709.053650
v -192.211319 -1409.668091 724.590637
v -181.022842 -1382.310913 709.199280
v -192.227524 -1409.707764 724.524780
v -192.211319 -1409.668091 724.590637
v -182.344940 -1385.544189 709.053650
v -183.620804 -1388.664307 708.425903
v -192.227524 -1409.707764 724.524780
v -182.344940 -1385.544189 709.053650
v -192.254333 -1409.773315 724.435974
v -192.227524 -1409.707764 724.524780
v -183.620804 -1388.664307 708.425903
v -184.876205 -1391.734497 707.001099
v -192.254333 -1409.773315 724.435974
v -183.620804 -1388.664307 708.425903
v -192.290573 -1409.862061 724.342285
v -192.254333 -1409.773315 724.435974
v -184.876205 -1391.734497 707.001099
v -185.970047 -1394.409546 704.796631
v -192.290573 -1409.862061 724.342285
v -184.876205 -1391.734497 707.001099
v -192.333603 -1409.967285 724.258362
v -192.290573 -1409.862061 724.342285
v -185.970047 -1394.409546 704.796631
v -186.969620 -1396.854004 701.934082
v -192.333603 -1409.967285 724.258362
v -185.970047 -1394.409546 704.796631
v -192.370255 -1410.056885 724.204224
v -192.333603 -1409.967285 724.258362
v -186.969620 -1396.854004 701.934082
v -187.592178 -1398.376465 698.376404
v -192.370255 -1410.056885 724.204224
v -186.969620 -1396.854004 701.934082
v -192.370255 -1410.056885 724.204224
v -187.592178 -1398.376465 698.376404
v -188.124451 -1399.678101 691.107361
v -192.063278 -1409.310913 691.107361
v -192.370255 -1410.056885 724.204224
v -188.124451 -1399.678101 691.107361
v -187.057968 -1399.712280 690.107361
v -178.916061 -1397.458862 690.107300
v -191.134918 -1409.682617 690.107361
v -178.916061 -1397.458862 690.107300
v -184.948441 -1412.212280 690.107361
v -191.134918 -1409.682617 690.107361
v -184.948441 -1412.212280 690.107361
v -178.916061 -1397.458862 690.107300
v -169.493607 -1393.023193 690.107361
v -178.855026 -1414.703979 690.107361
v -184.948441 -1412.212280 690.107361
v -169.493607 -1393.023193 690.107361
v -163.930771 -1420.806641 690.107300
v -178.855026 -1414.703979 690.107361
v -169.493607 -1393.023193 690.107361
v -154.994705 -1398.951904 690.107361
v -163.930771 -1420.806641 690.107300
v -169.493607 -1393.023193 690.107361
v -142.115005 -1307.466797 694.568481
v -141.918442 -1306.980957 691.096130
v -139.066177 -1315.518555 691.102661
v -139.019882 -1315.545654 692.082458
v -142.115005 -1307.466797 694.568481
v -139.066177 -1315.518555 691.102661
v -142.525818 -1308.475342 696.619507
v -142.115005 -1307.466797 694.568481
v -139.019882 -1315.545654 692.082458
v -143.120193 -1309.933105 698.339233
v -142.525818 -1308.475342 696.619507
v -139.019882 -1315.545654 692.082458
v -139.433121 -1316.544678 693.671265
v -143.120193 -1309.933105 698.339233
v -139.019882 -1315.545654 692.082458
v -148.332718 -1304.357300 703.477783
v -147.327011 -1301.924316 700.645630
v -142.525818 -1308.475342 696.619507
v -143.120193 -1309.933105 698.339233
v -148.332718 -1304.357300 703.477783
v -142.525818 -1308.475342 696.619507
v -148.332718 -1304.357300 703.477783
v -143.120193 -1309.933105 698.339233
v -143.717865 -1311.394775 699.646606
v -143.717865 -1311.394775 699.646606
v -143.120193 -1309.933105 698.339233
v -139.433121 -1316.544678 693.671265
v -149.423050 -1306.983887 705.691895
v -148.332718 -1304.357300 703.477783
v -143.717865 -1311.394775 699.646606
v -144.662704 -1313.705444 700.714478
v -143.717865 -1311.394775 699.646606
v -139.433121 -1316.544678 693.671265
v -140.201767 -1318.421021 694.841431
v -144.662704 -1313.705444 700.714478
v -139.433121 -1316.544678 693.671265
v -145.490387 -1315.703125 701.121948
v -144.662704 -1313.705444 700.714478
v -140.201767 -1318.421021 694.841431
v -146.420975 -1317.978638 701.116821
v -145.490387 -1315.703125 701.121948
v -140.201767 -1318.421021 694.841431
v -140.960754 -1320.211304 695.205322
v -146.420975 -1317.978638 701.116821
v -140.201767 -1318.421021 694.841431
v -140.960754 -1320.211304 695.205322
v -146.901321 -1334.738892 695.205322
v -146.420975 -1317.978638 701.116821
v -146.901321 -1334.738892 695.205322
v -151.808685 -1331.154419 701.116821
v -146.420975 -1317.978638 701.116821
v -145.714188 -1298.604248 690.107361
v -146.367020 -1299.676025 691.100708
v -146.499069 -1297.881470 691.107361
v -146.499069 -1297.881470 691.107361
v -146.367020 -1299.676025 691.100708
v -147.031311 -1299.183228 698.376404
v -146.367020 -1299.676025 691.100708
v -146.679626 -1300.392090 697.181519
v -147.031311 -1299.183228 698.376404
v -147.031311 -1299.183228 698.376404
v -146.679626 -1300.392090 697.181519
v -147.653885 -1300.705688 701.934082
v -146.679626 -1300.392090 697.181519
v -147.327011 -1301.924316 700.645630
v -147.653885 -1300.705688 701.934082
v -147.653885 -1300.705688 701.934082
v -147.327011 -1301.924316 700.645630
v -148.653458 -1303.150146 704.796631
v -147.327011 -1301.924316 700.645630
v -148.332718 -1304.357300 703.477783
v -148.653458 -1303.150146 704.796631
v -148.653458 -1303.150146 704.796631
v -148.332718 -1304.357300 703.477783
v -149.747299 -1305.825195 707.001099
v -148.332718 -1304.357300 703.477783
v -149.423050 -1306.983887 705.691895
v -149.747299 -1305.825195 707.001099
v -149.747299 -1305.825195 707.001099
v -149.423050 -1306.983887 705.691895
v -151.002701 -1308.895386 708.425903
v -149.423050 -1306.983887 705.691895
v -150.681961 -1310.034668 707.172546
v -151.002701 -1308.895386 708.425903
v -151.002701 -1308.895386 708.425903
v -150.681961 -1310.034668 707.172546
v -152.278549 -1312.015503 709.053650
v -150.681961 -1310.034668 707.172546
v -151.937439 -1313.081421 707.846741
v -152.278549 -1312.015503 709.053650
v -152.278549 -1312.015503 709.053650
v -151.937439 -1313.081421 707.846741
v -153.600632 -1315.248779 709.199280
v -151.937439 -1313.081421 707.846741
v -153.244690 -1316.244629 708.035095
v -153.600632 -1315.248779 709.199280
v -153.600632 -1315.248779 709.199280
v -153.244690 -1316.244629 708.035095
v -158.000717 -1326.009155 709.735962
v -153.244690 -1316.244629 708.035095
v -157.600098 -1326.905273 708.031616
v -158.000717 -1326.009155 709.735962
v -157.600098 -1326.905273 708.031616
v -157.569977 -1327.593750 709.093872
v -158.000717 -1326.009155 709.735962
v -158.000717 -1326.009155 709.735962
v -157.569977 -1327.593750 709.093872
v -155.671036 -1320.302979 724.094971
v -157.569977 -1327.593750 709.093872
v -155.115433 -1321.571655 724.141479
v -155.671036 -1320.302979 724.094971
v -192.063278 -1409.310913 691.107361
v -188.124451 -1399.678101 691.107361
v -187.057968 -1399.712280 690.107361
v -191.134918 -1409.682617 690.107361
v -192.063278 -1409.310913 691.107361
v -187.057968 -1399.712280 690.107361
v -192.063278 -1409.310913 691.107361
v -191.134918 -1409.682617 690.107361
v -191.516205 -1410.614990 691.107300
v -185.329712 -1413.144653 691.107300
v -191.516205 -1410.614990 691.107300
v -191.134918 -1409.682617 690.107361
v -184.948441 -1412.212280 690.107361
v -185.329712 -1413.144653 691.107300
v -191.134918 -1409.682617 690.107361
v -179.236053 -1415.636475 691.107300
v -185.329712 -1413.144653 691.107300
v -184.948441 -1412.212280 690.107361
v -178.855026 -1414.703979 690.107361
v -179.236053 -1415.636475 691.107300
v -184.948441 -1412.212280 690.107361
v -179.236053 -1415.636475 691.107300
v -178.855026 -1414.703979 690.107361
v -164.311783 -1421.739014 691.107300
v -178.855026 -1414.703979 690.107361
v -163.930771 -1420.806641 690.107300
v -164.311783 -1421.739014 691.107300
v -165.865448 -1382.976440 725.095032
v -150.941177 -1389.079102 725.095032
v -150.438797 -1387.851074 724.149719
v -165.363068 -1381.748535 724.149719
v -165.865448 -1382.976440 725.095032
v -150.438797 -1387.851074 724.149719
v -165.865448 -1382.976440 725.095032
v -165.363068 -1381.748535 724.149719
v -171.978989 -1380.476562 725.095032
v -165.363068 -1381.748535 724.149719
v -171.468536 -1379.228027 724.157593
v -171.978989 -1380.476562 725.095032
v -171.978989 -1380.476562 725.095032
v -171.468536 -1379.228027 724.157593
v -178.162384 -1377.947998 725.095032
v -171.468536 -1379.228027 724.157593
v -177.673447 -1376.738159 724.141479
v -178.162384 -1377.947998 725.095032
v -178.162384 -1377.947998 725.095032
v -177.673447 -1376.738159 724.141479
v -178.958786 -1377.254150 724.094971
v -191.232422 -1409.916016 725.102478
v -178.162384 -1377.947998 725.095032
v -178.958786 -1377.254150 724.094971
v -192.201035 -1409.642944 724.639343
v -191.232422 -1409.916016 725.102478
v -178.958786 -1377.254150 724.094971
v -191.232422 -1409.916016 725.102478
v -192.201035 -1409.642944 724.639343
v -192.254333 -1409.773315 724.435974
v -191.608063 -1410.834961 724.102722
v -191.232422 -1409.916016 725.102478
v -192.254333 -1409.773315 724.435974
v -192.370255 -1410.056885 724.204224
v -191.608063 -1410.834961 724.102722
v -192.254333 -1409.773315 724.435974
v -192.333603 -1409.967285 724.258362
v -192.370255 -1410.056885 724.204224
v -192.254333 -1409.773315 724.435974
v -192.290573 -1409.862061 724.342285
v -192.333603 -1409.967285 724.258362
v -192.254333 -1409.773315 724.435974
v -175.709183 -1371.191772 708.031616
v -168.599762 -1372.217773 701.116821
v -173.987473 -1385.393677 701.116821
v -180.071091 -1381.849731 708.035095
v -175.709183 -1371.191772 708.031616
v -173.987473 -1385.393677 701.116821
v -180.071091 -1381.849731 708.035095
v -173.987473 -1385.393677 701.116821
v -181.354660 -1385.022583 707.846741
v -173.987473 -1385.393677 701.116821
v -174.917892 -1387.669312 701.121948
v -181.354660 -1385.022583 707.846741
v -181.354660 -1385.022583 707.846741
v -174.917892 -1387.669312 701.121948
v -182.593658 -1388.076050 707.172546
v -174.917892 -1387.669312 701.121948
v -175.727066 -1389.674683 700.714478
v -182.593658 -1388.076050 707.172546
v -182.593658 -1388.076050 707.172546
v -175.727066 -1389.674683 700.714478
v -176.671890 -1391.985229 699.646606
v -183.833023 -1391.135132 705.691895
v -182.593658 -1388.076050 707.172546
v -176.671890 -1391.985229 699.646606
v -178.480576 -1396.395264 691.096130
v -186.772873 -1398.490356 691.100708
v -178.280472 -1395.910889 694.568481
v -186.772873 -1398.490356 691.100708
v -186.494232 -1397.760376 697.181519
v -178.280472 -1395.910889 694.568481
v -178.280472 -1395.910889 694.568481
v -186.494232 -1397.760376 697.181519
v -185.882523 -1396.213501 700.645630
v -177.866806 -1394.903320 696.619507
v -178.280472 -1395.910889 694.568481
v -185.882523 -1396.213501 700.645630
v -173.987473 -1385.393677 701.116821
v -168.599762 -1372.217773 701.116821
v -162.586929 -1373.098755 695.205322
v -168.527267 -1387.626343 695.205322
v -173.987473 -1385.393677 701.116821
v -162.586929 -1373.098755 695.205322
v -173.987473 -1385.393677 701.116821
v -168.527267 -1387.626343 695.205322
v -175.727066 -1389.674683 700.714478
v -174.917892 -1387.669312 701.121948
v -173.987473 -1385.393677 701.116821
v -175.727066 -1389.674683 700.714478
v -168.527267 -1387.626343 695.205322
v -169.240128 -1389.435547 694.841431
v -175.727066 -1389.674683 700.714478
v -175.727066 -1389.674683 700.714478
v -169.240128 -1389.435547 694.841431
v -177.269547 -1393.446899 698.339233
v -176.671890 -1391.985229 699.646606
v -175.727066 -1389.674683 700.714478
v -177.269547 -1393.446899 698.339233
v -169.240128 -1389.435547 694.841431
v -170.006393 -1391.312988 693.671265
v -177.269547 -1393.446899 698.339233
v -183.833023 -1391.135132 705.691895
v -176.671890 -1391.985229 699.646606
v -184.895386 -1393.772949 703.477783
v -176.671890 -1391.985229 699.646606
v -177.269547 -1393.446899 698.339233
v -184.895386 -1393.772949 703.477783
v -177.866806 -1394.903320 696.619507
v -185.882523 -1396.213501 700.645630
v -184.895386 -1393.772949 703.477783
v -177.269547 -1393.446899 698.339233
v -177.866806 -1394.903320 696.619507
v -184.895386 -1393.772949 703.477783
v -177.866806 -1394.903320 696.619507
v -177.269547 -1393.446899 698.339233
v -178.280472 -1395.910889 694.568481
v -177.269547 -1393.446899 698.339233
v -170.006393 -1391.312988 693.671265
v -178.280472 -1395.910889 694.568481
v -170.006393 -1391.312988 693.671265
v -170.411453 -1392.315186 692.082458
v -178.280472 -1395.910889 694.568481
v -170.411453 -1392.315186 692.082458
v -170.463577 -1392.302124 691.102661
v -178.280472 -1395.910889 694.568481
v -170.463577 -1392.302124 691.102661
v -178.480576 -1396.395264 691.096130
v -178.280472 -1395.910889 694.568481
v -146.420975 -1317.978638 701.116821
v -151.808685 -1331.154419 701.116821
v -157.600098 -1326.905273 708.031616
v -153.244690 -1316.244629 708.035095
v -146.420975 -1317.978638 701.116821
v -157.600098 -1326.905273 708.031616
v -153.244690 -1316.244629 708.035095
v -151.937439 -1313.081421 707.846741
v -146.420975 -1317.978638 701.116821
v -151.937439 -1313.081421 707.846741
v -145.490387 -1315.703125 701.121948
v -146.420975 -1317.978638 701.116821
v -151.937439 -1313.081421 707.846741
v -150.681961 -1310.034668 707.172546
v -145.490387 -1315.703125 701.121948
v -150.681961 -1310.034668 707.172546
v -144.662704 -1313.705444 700.714478
v -145.490387 -1315.703125 701.121948
v -143.717865 -1311.394775 699.646606
v -144.662704 -1313.705444 700.714478
v -150.681961 -1310.034668 707.172546
v -149.423050 -1306.983887 705.691895
v -143.717865 -1311.394775 699.646606
v -150.681961 -1310.034668 707.172546
v -141.918442 -1306.980957 691.096130
v -142.115005 -1307.466797 694.568481
v -146.367020 -1299.676025 691.100708
v -142.115005 -1307.466797 694.568481
v -146.679626 -1300.392090 697.181519
v -146.367020 -1299.676025 691.100708
v -147.327011 -1301.924316 700.645630
v -146.679626 -1300.392090 697.181519
v -142.115005 -1307.466797 694.568481
v -142.525818 -1308.475342 696.619507
v -147.327011 -1301.924316 700.645630
v -142.115005 -1307.466797 694.568481
vt 0.507812 0.424316
vt 0.507812 0.424316
vt 0.508301 0.424316
vt 0.507812 0.424316
vt 0.507812 0.424316
vt 0.508301 0.424316
vt -0.150757 0.424316
vt -0.150269 0.424316
vt -0.151367 0.424316
vt -0.150269 0.424316
vt -0.149902 0.424316
vt -0.151367 0.424316
vt 0.423828 0.388184
vt 0.428955 0.388184
vt 0.423828 0.553711
vt 0.428955 0.388184
vt 0.428955 0.553223
vt 0.423828 0.553711
vt 0.611816 0.498047
vt 0.616699 0.500488
vt 0.611816 0.576172
vt 0.616699 0.500488
vt 0.616699 0.576172
vt 0.611816 0.576172
vt 0.499512 0.405273
vt 0.504395 0.410156
vt 0.423828 0.405273
vt 0.504395 0.410156
vt 0.423828 0.410156
vt 0.423828 0.405273
vt 0.575684 0.553711
vt 0.570801 0.553223
vt 0.575684 0.388184
vt 0.570801 0.553223
vt 0.570801 0.388184
vt 0.575684 0.388184
vt 1.029297 0.576172
vt 1.024414 0.576172
vt 1.029297 0.498047
vt 1.024414 0.576172
vt 1.024414 0.500488
vt 1.029297 0.498047
vt 0.575684 0.405273
vt 0.575684 0.410156
vt 0.500000 0.405273
vt 0.575684 0.410156
vt 0.495361 0.410156
vt 0.500000 0.405273
vt 0.570801 0.478027
vt 0.570801 0.553223
vt 0.537598 0.442871
vt 0.570801 0.553223
vt 0.537598 0.553467
vt 0.537598 0.442871
vt 0.537598 0.442871
vt 0.537598 0.553467
vt 0.504395 0.410156
vt 0.537598 0.553467
vt 0.504395 0.553467
vt 0.504395 0.410156
vt 0.504395 0.410156
vt 0.504395 0.553467
vt 0.423828 0.410156
vt 0.504395 0.553467
vt 0.423828 0.553467
vt 0.423828 0.410156
vt 0.428955 0.553223
vt 0.428955 0.388184
vt 0.462158 0.553223
vt 0.428955 0.388184
vt 0.462402 0.388184
vt 0.462158 0.553223
vt 0.462158 0.553223
vt 0.462402 0.388184
vt 0.495117 0.553223
vt 0.462402 0.388184
vt 0.495117 0.388184
vt 0.495117 0.553223
vt 0.495117 0.553223
vt 0.495117 0.388184
vt 0.575684 0.553223
vt 0.495117 0.388184
vt 0.575684 0.388184
vt 0.575684 0.553223
vt 0.334473 0.429199
vt 0.507324 0.429199
vt 0.334473 0.462402
vt 0.507324 0.429199
vt 0.507324 0.462402
vt 0.334473 0.462402
vt 0.334473 0.462402
vt 0.507324 0.462402
vt 0.334473 0.495605
vt 0.507324 0.462402
vt 0.507324 0.495605
vt 0.334473 0.495605
vt 0.334473 0.495605
vt 0.507324 0.495605
vt 0.334473 0.576172
vt 0.507324 0.495605
vt 0.507324 0.576172
vt 0.334473 0.576172
vt 0.717773 0.500488
vt 0.717773 0.576172
vt 0.638672 0.576172
vt 0.638672 0.500488
vt 0.717773 0.500488
vt 0.638672 0.576172
vt 0.638672 0.500488
vt 0.638672 0.576172
vt 0.630371 0.576172
vt 0.630371 0.500488
vt 0.638672 0.500488
vt 0.630371 0.576172
vt 0.630371 0.500488
vt 0.630371 0.576172
vt 0.621094 0.576172
vt 0.621094 0.500488
vt 0.630371 0.500488
vt 0.621094 0.576172
vt 0.499512 0.398438
vt 0.423828 0.398438
vt 0.423828 0.391602
vt 0.499512 0.391602
vt 0.499512 0.398438
vt 0.423828 0.391602
vt 0.499512 0.391602
vt 0.423828 0.391602
vt 0.423828 0.388184
vt 0.499512 0.388184
vt 0.499512 0.391602
vt 0.423828 0.388184
vt -0.147827 0.388184
vt -0.095764 0.388184
vt -0.151855 0.553711
vt -0.095764 0.388184
vt -0.088745 0.424805
vt -0.151855 0.553711
vt -0.151367 0.553955
vt -0.151855 0.553711
vt -0.088745 0.424805
vt -0.080505 0.442383
vt -0.151367 0.553955
vt -0.088745 0.424805
vt -0.150757 0.554443
vt -0.151367 0.553955
vt -0.080505 0.442383
vt -0.067322 0.456543
vt -0.150757 0.554443
vt -0.080505 0.442383
vt -0.150269 0.554688
vt -0.150757 0.554443
vt -0.067322 0.456543
vt -0.052887 0.467773
vt -0.150269 0.554688
vt -0.067322 0.456543
vt -0.149902 0.555176
vt -0.150269 0.554688
vt -0.052887 0.467773
vt -0.036285 0.475098
vt -0.149902 0.555176
vt -0.052887 0.467773
vt -0.149658 0.555664
vt -0.149902 0.555176
vt -0.036285 0.475098
vt -0.019440 0.478027
vt -0.149658 0.555664
vt -0.036285 0.475098
vt -0.149536 0.555908
vt -0.149658 0.555664
vt -0.019440 0.478027
vt -0.001984 0.478516
vt -0.149536 0.555908
vt -0.019440 0.478027
vt -0.001984 0.478516
vt 0.056122 0.481445
vt -0.149536 0.555908
vt 0.056122 0.481445
vt 0.025314 0.552979
vt -0.149536 0.555908
vt 1.093750 0.429199
vt 1.147461 0.429199
vt 1.067383 0.462891
vt 1.147461 0.429199
vt 1.147461 0.462891
vt 1.067383 0.462891
vt 1.029297 0.498047
vt 1.067383 0.462891
vt 1.147461 0.462891
vt 1.029297 0.576172
vt 1.029297 0.498047
vt 1.147461 0.462891
vt 1.147461 0.576172
vt 1.029297 0.576172
vt 1.147461 0.462891
vt 1.147461 0.495605
vt 1.147461 0.576172
vt 1.147461 0.462891
vt 0.500000 0.388184
vt 0.575684 0.388184
vt 0.500000 0.391602
vt 0.575684 0.388184
vt 0.575684 0.391602
vt 0.500000 0.391602
vt 0.500000 0.391602
vt 0.575684 0.391602
vt 0.500000 0.398438
vt 0.575684 0.391602
vt 0.575684 0.398438
vt 0.500000 0.398438
vt 1.019531 0.500488
vt 1.019531 0.576172
vt 1.010742 0.500488
vt 1.019531 0.576172
vt 1.010742 0.576172
vt 1.010742 0.500488
vt 1.010742 0.500488
vt 1.010742 0.576172
vt 1.002930 0.500488
vt 1.010742 0.576172
vt 1.002930 0.576172
vt 1.002930 0.500488
vt 1.002930 0.500488
vt 1.002930 0.576172
vt 0.923340 0.500488
vt 1.002930 0.576172
vt 0.923340 0.576172
vt 0.923340 0.500488
vt 0.575684 0.410156
vt 0.575684 0.553467
vt 0.495361 0.553467
vt 0.495361 0.410156
vt 0.575684 0.410156
vt 0.495361 0.553467
vt 0.495361 0.410156
vt 0.495361 0.553467
vt 0.462158 0.553467
vt 0.462158 0.442871
vt 0.495361 0.410156
vt 0.462158 0.553467
vt 0.462158 0.442871
vt 0.462158 0.553467
vt 0.428711 0.553223
vt 0.428955 0.478027
vt 0.462158 0.442871
vt 0.428711 0.553223
vt 0.423828 0.553223
vt 0.423828 0.388184
vt 0.504395 0.388184
vt 0.504395 0.553223
vt 0.423828 0.553223
vt 0.504395 0.388184
vt 0.504395 0.553223
vt 0.504395 0.388184
vt 0.537109 0.388184
vt 0.537598 0.553223
vt 0.504395 0.553223
vt 0.537109 0.388184
vt 0.537598 0.553223
vt 0.537109 0.388184
vt 0.570801 0.388184
vt 0.570801 0.553223
vt 0.537598 0.553223
vt 0.570801 0.388184
vt 0.023605 0.576172
vt -0.149048 0.576172
vt -0.149048 0.495605
vt 0.023605 0.495605
vt 0.023605 0.576172
vt -0.149048 0.495605
vt 0.023605 0.495605
vt -0.149048 0.495605
vt -0.149048 0.462402
vt 0.023605 0.462402
vt 0.023605 0.495605
vt -0.149048 0.462402
vt 0.023605 0.462402
vt -0.149048 0.462402
vt -0.149048 0.429199
vt 0.023605 0.429199
vt 0.023605 0.462402
vt -0.149048 0.429199
vt 0.445801 0.388184
vt 0.452148 0.383301
vt 0.453857 0.388184
vt 0.441895 0.418457
vt 0.445801 0.388184
vt 0.453857 0.388184
vt 0.447021 0.424805
vt 0.441895 0.418457
vt 0.453857 0.388184
vt 0.433594 0.436035
vt 0.441895 0.418457
vt 0.447021 0.424805
vt 0.438721 0.442383
vt 0.433594 0.436035
vt 0.447021 0.424805
vt 0.420410 0.450195
vt 0.433594 0.436035
vt 0.438721 0.442383
vt 0.425537 0.456543
vt 0.420410 0.450195
vt 0.438721 0.442383
vt 0.406250 0.461426
vt 0.420410 0.450195
vt 0.425537 0.456543
vt 0.411133 0.467773
vt 0.406250 0.461426
vt 0.425537 0.456543
vt 0.389893 0.468750
vt 0.406250 0.461426
vt 0.411133 0.467773
vt 0.394531 0.475098
vt 0.389893 0.468750
vt 0.411133 0.467773
vt 0.373291 0.472168
vt 0.389893 0.468750
vt 0.394531 0.475098
vt 0.377686 0.478027
vt 0.373291 0.472168
vt 0.394531 0.475098
vt 0.356201 0.473145
vt 0.373291 0.472168
vt 0.377686 0.478027
vt 0.360107 0.478516
vt 0.356201 0.473145
vt 0.377686 0.478027
vt 0.298584 0.472656
vt 0.356201 0.473145
vt 0.360107 0.478516
vt 0.302002 0.481445
vt 0.298584 0.472656
vt 0.360107 0.478516
vt 0.302002 0.481445
vt 0.295410 0.478027
vt 0.298584 0.472656
vt 0.328125 0.553223
vt 0.295410 0.478027
vt 0.302002 0.481445
vt 0.332764 0.552979
vt 0.328125 0.553223
vt 0.302002 0.481445
vt 0.499512 0.388184
vt 0.501953 0.383301
vt 0.507812 0.388184
vt 0.499512 0.391602
vt 0.499512 0.388184
vt 0.507812 0.388184
vt 0.507812 0.393066
vt 0.499512 0.391602
vt 0.507812 0.388184
vt 0.499512 0.398438
vt 0.499512 0.391602
vt 0.507812 0.393066
vt 0.507812 0.400879
vt 0.499512 0.398438
vt 0.507812 0.393066
vt 0.716797 0.492188
vt 0.721191 0.495605
vt 0.717773 0.500488
vt 0.716797 0.492188
vt 0.717773 0.500488
vt 0.638672 0.492188
vt 0.717773 0.500488
vt 0.638672 0.500488
vt 0.638672 0.492188
vt 0.638672 0.492188
vt 0.638672 0.500488
vt 0.628906 0.492188
vt 0.638672 0.500488
vt 0.630371 0.500488
vt 0.628906 0.492188
vt 0.628906 0.492188
vt 0.630371 0.500488
vt 0.618652 0.492188
vt 0.630371 0.500488
vt 0.621094 0.500488
vt 0.618652 0.492188
vt 0.491699 0.388184
vt 0.497559 0.383301
vt 0.500000 0.388184
vt 0.491699 0.388184
vt 0.500000 0.388184
vt 0.491943 0.393066
vt 0.500000 0.388184
vt 0.500000 0.391602
vt 0.491943 0.393066
vt 0.491943 0.393066
vt 0.500000 0.391602
vt 0.491943 0.400879
vt 0.500000 0.391602
vt 0.500000 0.398438
vt 0.491943 0.400879
vt 0.613281 0.492188
vt 0.611816 0.498047
vt 0.579102 0.462891
vt 0.611816 0.498047
vt 0.573242 0.462891
vt 0.579102 0.462891
vt 0.579102 0.462891
vt 0.573242 0.462891
vt 0.553711 0.428223
vt 0.573242 0.462891
vt 0.547363 0.429199
vt 0.553711 0.428223
vt 0.504395 0.410156
vt 0.507812 0.408691
vt 0.537598 0.442871
vt 0.507812 0.408691
vt 0.537598 0.438477
vt 0.537598 0.442871
vt 0.537598 0.442871
vt 0.537598 0.438477
vt 0.570801 0.478027
vt 0.537598 0.438477
vt 0.572266 0.472656
vt 0.570801 0.478027
vt 0.428955 0.558105
vt 0.428955 0.553223
vt 0.462158 0.558105
vt 0.428955 0.553223
vt 0.462158 0.553223
vt 0.462158 0.558105
vt 0.495361 0.558105
vt 0.462158 0.558105
vt 0.462158 0.553223
vt 0.495117 0.553223
vt 0.495361 0.558105
vt 0.462158 0.553223
vt 0.495361 0.558105
vt 0.495117 0.553223
vt 0.575684 0.558105
vt 0.495117 0.553223
vt 0.575684 0.553223
vt 0.575684 0.558105
vt 0.428955 0.478027
vt 0.427490 0.472656
vt 0.462158 0.442871
vt 0.427490 0.472656
vt 0.462158 0.438477
vt 0.462158 0.442871
vt 0.462158 0.442871
vt 0.462158 0.438477
vt 0.495361 0.410156
vt 0.462158 0.438477
vt 0.491699 0.408691
vt 0.495361 0.410156
vt 1.086914 0.428223
vt 1.093750 0.429199
vt 1.061523 0.462891
vt 1.093750 0.429199
vt 1.067383 0.462891
vt 1.061523 0.462891
vt 1.061523 0.462891
vt 1.067383 0.462891
vt 1.027344 0.492188
vt 1.067383 0.462891
vt 1.029297 0.498047
vt 1.027344 0.492188
vt 1.022461 0.492188
vt 1.019531 0.500488
vt 1.011719 0.492188
vt 1.019531 0.500488
vt 1.010742 0.500488
vt 1.011719 0.492188
vt 1.011719 0.492188
vt 1.010742 0.500488
vt 1.002930 0.492188
vt 1.010742 0.500488
vt 1.002930 0.500488
vt 1.002930 0.492188
vt 1.002930 0.492188
vt 1.002930 0.500488
vt 0.924316 0.492188
vt 1.002930 0.500488
vt 0.923340 0.500488
vt 0.924316 0.492188
vt 0.924316 0.492188
vt 0.923340 0.500488
vt 0.919922 0.495605
vt 1.152344 0.576172
vt 1.147461 0.576172
vt 1.152344 0.495605
vt 1.147461 0.576172
vt 1.147461 0.495605
vt 1.152344 0.495605
vt 1.152344 0.462891
vt 1.152344 0.495605
vt 1.147461 0.495605
vt 1.147461 0.462891
vt 1.152344 0.462891
vt 1.147461 0.495605
vt 1.152344 0.429199
vt 1.152344 0.462891
vt 1.147461 0.462891
vt 1.147461 0.429199
vt 1.152344 0.429199
vt 1.147461 0.462891
vt 1.152344 0.429199
vt 1.147461 0.429199
vt 1.147461 0.424316
vt 1.095703 0.424316
vt 1.147461 0.424316
vt 1.147461 0.429199
vt 1.093750 0.429199
vt 1.095703 0.424316
vt 1.147461 0.429199
vt 0.030243 0.576172
vt 0.023605 0.576172
vt 0.030243 0.495605
vt 0.023605 0.576172
vt 0.023605 0.495605
vt 0.030243 0.495605
vt 0.030350 0.462402
vt 0.030243 0.495605
vt 0.023605 0.495605
vt 0.023605 0.462402
vt 0.030350 0.462402
vt 0.023605 0.495605
vt 0.030136 0.429199
vt 0.030350 0.462402
vt 0.023605 0.462402
vt 0.023605 0.429199
vt 0.030136 0.429199
vt 0.023605 0.462402
vt 0.025314 0.424316
vt 0.030136 0.429199
vt 0.023605 0.429199
vt 0.025314 0.424316
vt 0.023605 0.429199
vt -0.149536 0.424316
vt 0.023605 0.429199
vt -0.149048 0.429199
vt -0.149536 0.424316
vt -0.149536 0.424316
vt -0.149048 0.429199
vt -0.151367 0.424316
vt -0.149658 0.424316
vt -0.149536 0.424316
vt -0.151367 0.424316
vt -0.149902 0.424316
vt -0.149658 0.424316
vt -0.151367 0.424316
vt -0.149048 0.429199
vt -0.153931 0.429199
vt -0.151367 0.424316
vt -0.153931 0.429199
vt -0.151855 0.424316
vt -0.151367 0.424316
vt 0.423828 0.558105
vt 0.423828 0.553223
vt 0.504395 0.558105
vt 0.423828 0.553223
vt 0.504395 0.553223
vt 0.504395 0.558105
vt 0.537598 0.558105
vt 0.504395 0.558105
vt 0.504395 0.553223
vt 0.537598 0.553223
vt 0.537598 0.558105
vt 0.504395 0.553223
vt 0.537598 0.558105
vt 0.537598 0.553223
vt 0.570801 0.558105
vt 0.537598 0.553223
vt 0.570801 0.553223
vt 0.570801 0.558105
vt 0.507812 0.555908
vt 0.332764 0.552979
vt 0.302002 0.481445
vt 0.360107 0.478516
vt 0.507812 0.555908
vt 0.302002 0.481445
vt 0.507812 0.555664
vt 0.507812 0.555908
vt 0.360107 0.478516
vt 0.377686 0.478027
vt 0.507812 0.555664
vt 0.360107 0.478516
vt 0.507812 0.555176
vt 0.507812 0.555664
vt 0.377686 0.478027
vt 0.394531 0.475098
vt 0.507812 0.555176
vt 0.377686 0.478027
vt 0.508301 0.554688
vt 0.507812 0.555176
vt 0.394531 0.475098
vt 0.411133 0.467773
vt 0.508301 0.554688
vt 0.394531 0.475098
vt 0.508789 0.554443
vt 0.508301 0.554688
vt 0.411133 0.467773
vt 0.425537 0.456543
vt 0.508789 0.554443
vt 0.411133 0.467773
vt 0.509277 0.553955
vt 0.508789 0.554443
vt 0.425537 0.456543
vt 0.438721 0.442383
vt 0.509277 0.553955
vt 0.425537 0.456543
vt 0.509766 0.553711
vt 0.509277 0.553955
vt 0.438721 0.442383
vt 0.447021 0.424805
vt 0.509766 0.553711
vt 0.438721 0.442383
vt 0.509766 0.553711
vt 0.447021 0.424805
vt 0.453857 0.388184
vt 0.505859 0.388184
vt 0.509766 0.553711
vt 0.453857 0.388184
vt 0.547363 0.429199
vt 0.573242 0.462891
vt 0.493896 0.429199
vt 0.573242 0.462891
vt 0.493896 0.462891
vt 0.493896 0.429199
vt 0.493896 0.462891
vt 0.573242 0.462891
vt 0.611816 0.498047
vt 0.493896 0.495605
vt 0.493896 0.462891
vt 0.611816 0.498047
vt 0.493896 0.576172
vt 0.493896 0.495605
vt 0.611816 0.498047
vt 0.611816 0.576172
vt 0.493896 0.576172
vt 0.611816 0.498047
vt -0.059723 0.405762
vt -0.062347 0.388184
vt -0.028229 0.388184
vt -0.028198 0.393066
vt -0.059723 0.405762
vt -0.028229 0.388184
vt -0.054260 0.416016
vt -0.059723 0.405762
vt -0.028198 0.393066
vt -0.046417 0.424316
vt -0.054260 0.416016
vt -0.028198 0.393066
vt -0.022797 0.400879
vt -0.046417 0.424316
vt -0.028198 0.393066
vt -0.062347 0.450195
vt -0.075500 0.436035
vt -0.054260 0.416016
vt -0.046417 0.424316
vt -0.062347 0.450195
vt -0.054260 0.416016
vt -0.062347 0.450195
vt -0.046417 0.424316
vt -0.038513 0.431152
vt -0.038513 0.431152
vt -0.046417 0.424316
vt -0.022797 0.400879
vt -0.048126 0.461426
vt -0.062347 0.450195
vt -0.038513 0.431152
vt -0.026031 0.436523
vt -0.038513 0.431152
vt -0.022797 0.400879
vt -0.012657 0.406738
vt -0.026031 0.436523
vt -0.022797 0.400879
vt -0.015228 0.438477
vt -0.026031 0.436523
vt -0.012657 0.406738
vt -0.002935 0.438477
vt -0.015228 0.438477
vt -0.012657 0.406738
vt -0.002935 0.408691
vt -0.002935 0.438477
vt -0.012657 0.406738
vt -0.002935 0.408691
vt 0.075500 0.408691
vt -0.002935 0.438477
vt 0.075500 0.408691
vt 0.068176 0.438477
vt -0.002935 0.438477
vt -0.093933 0.383301
vt -0.087708 0.388184
vt -0.095764 0.388184
vt -0.095764 0.388184
vt -0.087708 0.388184
vt -0.088745 0.424805
vt -0.087708 0.388184
vt -0.083801 0.418457
vt -0.088745 0.424805
vt -0.088745 0.424805
vt -0.083801 0.418457
vt -0.080505 0.442383
vt -0.083801 0.418457
vt -0.075500 0.436035
vt -0.080505 0.442383
vt -0.080505 0.442383
vt -0.075500 0.436035
vt -0.067322 0.456543
vt -0.075500 0.436035
vt -0.062347 0.450195
vt -0.067322 0.456543
vt -0.067322 0.456543
vt -0.062347 0.450195
vt -0.052887 0.467773
vt -0.062347 0.450195
vt -0.048126 0.461426
vt -0.052887 0.467773
vt -0.052887 0.467773
vt -0.048126 0.461426
vt -0.036285 0.475098
vt -0.048126 0.461426
vt -0.031616 0.468750
vt -0.036285 0.475098
vt -0.036285 0.475098
vt -0.031616 0.468750
vt -0.019440 0.478027
vt -0.031616 0.468750
vt -0.015160 0.472168
vt -0.019440 0.478027
vt -0.019440 0.478027
vt -0.015160 0.472168
vt -0.001984 0.478516
vt -0.015160 0.472168
vt 0.001951 0.473145
vt -0.001984 0.478516
vt -0.001984 0.478516
vt 0.001951 0.473145
vt 0.056122 0.481445
vt 0.001951 0.473145
vt 0.059509 0.472656
vt 0.056122 0.481445
vt 0.059509 0.472656
vt 0.062622 0.478027
vt 0.056122 0.481445
vt 0.056122 0.481445
vt 0.062622 0.478027
vt 0.025314 0.552979
vt 0.062622 0.478027
vt 0.030136 0.553223
vt 0.025314 0.552979
vt 0.493652 0.424316
vt 0.545898 0.424316
vt 0.547363 0.429199
vt 0.493896 0.429199
vt 0.493652 0.424316
vt 0.547363 0.429199
vt 0.493652 0.424316
vt 0.493896 0.429199
vt 0.488770 0.429199
vt 0.488770 0.462891
vt 0.488770 0.429199
vt 0.493896 0.429199
vt 0.493896 0.462891
vt 0.488770 0.462891
vt 0.493896 0.429199
vt 0.488770 0.495605
vt 0.488770 0.462891
vt 0.493896 0.462891
vt 0.493896 0.495605
vt 0.488770 0.495605
vt 0.493896 0.462891
vt 0.488770 0.495605
vt 0.493896 0.495605
vt 0.488770 0.576172
vt 0.493896 0.495605
vt 0.493896 0.576172
vt 0.488770 0.576172
vt 0.334473 0.495605
vt 0.334473 0.576172
vt 0.327881 0.576172
vt 0.327881 0.495605
vt 0.334473 0.495605
vt 0.327881 0.576172
vt 0.334473 0.495605
vt 0.327881 0.495605
vt 0.334473 0.462402
vt 0.327881 0.495605
vt 0.327881 0.462402
vt 0.334473 0.462402
vt 0.334473 0.462402
vt 0.327881 0.462402
vt 0.334473 0.429199
vt 0.327881 0.462402
vt 0.328125 0.429199
vt 0.334473 0.429199
vt 0.334473 0.429199
vt 0.328125 0.429199
vt 0.332764 0.424316
vt 0.507324 0.429199
vt 0.334473 0.429199
vt 0.332764 0.424316
vt 0.507812 0.424316
vt 0.507324 0.429199
vt 0.332764 0.424316
vt 0.507324 0.429199
vt 0.507812 0.424316
vt 0.508301 0.424316
vt 0.512207 0.429199
vt 0.507324 0.429199
vt 0.508301 0.424316
vt 0.509766 0.424316
vt 0.512207 0.429199
vt 0.508301 0.424316
vt 0.509277 0.424316
vt 0.509766 0.424316
vt 0.508301 0.424316
vt 0.508789 0.424316
vt 0.509277 0.424316
vt 0.508301 0.424316
vt 0.701172 0.427734
vt 0.709473 0.462402
vt 0.638672 0.462402
vt 0.643555 0.427734
vt 0.701172 0.427734
vt 0.638672 0.462402
vt 0.643555 0.427734
vt 0.638672 0.462402
vt 0.626465 0.427734
vt 0.638672 0.462402
vt 0.626465 0.462402
vt 0.626465 0.427734
vt 0.626465 0.427734
vt 0.626465 0.462402
vt 0.609863 0.427734
vt 0.626465 0.462402
vt 0.615234 0.462891
vt 0.609863 0.427734
vt 0.609863 0.427734
vt 0.615234 0.462891
vt 0.603027 0.462891
vt 0.593262 0.427734
vt 0.609863 0.427734
vt 0.603027 0.462891
vt 0.537109 0.388184
vt 0.571777 0.388184
vt 0.537109 0.405762
vt 0.571777 0.388184
vt 0.571777 0.418457
vt 0.537109 0.405762
vt 0.537109 0.405762
vt 0.571777 0.418457
vt 0.571777 0.436035
vt 0.537109 0.416016
vt 0.537109 0.405762
vt 0.571777 0.436035
vt 0.361084 0.438477
vt 0.290039 0.438477
vt 0.282715 0.408691
vt 0.361084 0.408691
vt 0.361084 0.438477
vt 0.282715 0.408691
vt 0.361084 0.438477
vt 0.361084 0.408691
vt 0.384277 0.436523
vt 0.373291 0.438477
vt 0.361084 0.438477
vt 0.384277 0.436523
vt 0.361084 0.408691
vt 0.370850 0.406738
vt 0.384277 0.436523
vt 0.384277 0.436523
vt 0.370850 0.406738
vt 0.404541 0.424316
vt 0.396729 0.431152
vt 0.384277 0.436523
vt 0.404541 0.424316
vt 0.370850 0.406738
vt 0.380859 0.400879
vt 0.404541 0.424316
vt 0.406250 0.461426
vt 0.396729 0.431152
vt 0.420410 0.450195
vt 0.396729 0.431152
vt 0.404541 0.424316
vt 0.420410 0.450195
vt 0.412354 0.416016
vt 0.433594 0.436035
vt 0.420410 0.450195
vt 0.404541 0.424316
vt 0.412354 0.416016
vt 0.420410 0.450195
vt 0.412354 0.416016
vt 0.404541 0.424316
vt 0.417969 0.405762
vt 0.404541 0.424316
vt 0.380859 0.400879
vt 0.417969 0.405762
vt 0.380859 0.400879
vt 0.386475 0.393066
vt 0.417969 0.405762
vt 0.386475 0.393066
vt 0.386475 0.388184
vt 0.417969 0.405762
vt 0.386475 0.388184
vt 0.420410 0.388184
vt 0.417969 0.405762
vt 1.002930 0.462402
vt 0.931641 0.462402
vt 0.940430 0.427734
vt 0.998047 0.427734
vt 1.002930 0.462402
vt 0.940430 0.427734
vt 0.998047 0.427734
vt 1.014648 0.427734
vt 1.002930 0.462402
vt 1.014648 0.427734
vt 1.014648 0.462402
vt 1.002930 0.462402
vt 1.014648 0.427734
vt 1.031250 0.427734
vt 1.014648 0.462402
vt 1.031250 0.427734
vt 1.025391 0.462891
vt 1.014648 0.462402
vt 1.038086 0.462891
vt 1.025391 0.462891
vt 1.031250 0.427734
vt 1.047852 0.427734
vt 1.038086 0.462891
vt 1.031250 0.427734
vt 0.462402 0.388184
vt 0.462402 0.405762
vt 0.427979 0.388184
vt 0.462402 0.405762
vt 0.427734 0.418457
vt 0.427979 0.388184
vt 0.427734 0.436035
vt 0.427734 0.418457
vt 0.462402 0.405762
vt 0.462402 0.416016
vt 0.427734 0.436035
vt 0.462402 0.405762
f 1/1/1 2/2/2 3/3/3
f 4/4/4 5/5/5 6/6/6
f 7/7/7 8/8/8 9/9/9
f 10/10/10 11/11/11 12/12/12
f 13/13/13 14/14/14 15/15/15
f 16/16/16 17/17/17 18/18/18
f 19/19/19 20/20/20 21/21/21
f 22/22/22 23/23/23 24/24/24
f 25/25/25 26/26/26 27/27/27
f 28/28/28 29/29/29 30/30/30
f 31/31/31 32/32/32 33/33/33
f 34/34/34 35/35/35 36/36/36
f 37/37/37 38/38/38 39/39/39
f 40/40/40 41/41/41 42/42/42
f 43/43/43 44/44/44 45/45/45
f 46/46/46 47/47/47 48/48/48
f 49/49/49 50/50/50 51/51/51
f 52/52/52 53/53/53 54/54/54
f 55/55/55 56/56/56 57/57/57
f 58/58/58 59/59/59 60/60/60
f 61/61/61 62/62/62 63/63/63
f 64/64/64 65/65/65 66/66/66
f 67/67/67 68/68/68 69/69/69
f 70/70/70 71/71/71 72/72/72
f 73/73/73 74/74/74 75/75/75
f 76/76/76 77/77/77 78/78/78
f 79/79/79 80/80/80 81/81/81
f 82/82/82 83/83/83 84/84/84
f 85/85/85 86/86/86 87/87/87
f 88/88/88 89/89/89 90/90/90
f 91/91/91 92/92/92 93/93/93
f 94/94/94 95/95/95 96/96/96
f 97/97/97 98/98/98 99/99/99
f 100/100/100 101/101/101 102/102/102
f 103/103/103 104/104/104 105/105/105
f 106/106/106 107/107/107 108/108/108
f 109/109/109 110/110/110 111/111/111
f 112/112/112 113/113/113 114/114/114
f 115/115/115 116/116/116 117/117/117
f 118/118/118 119/119/119 120/120/120
f 121/121/121 122/122/122 123/123/123
f 124/124/124 125/125/125 126/126/126
f 127/127/127 128/128/128 129/129/129
f 130/130/130 131/131/131 132/132/132
f 133/133/133 134/134/134 135/135/135
f 136/136/136 137/137/137 138/138/138
f 139/139/139 140/140/140 141/141/141
f 142/142/142 143/143/143 144/144/144
f 145/145/145 146/146/146 147/147/147
f 148/148/148 149/149/149 150/150/150
f 151/151/151 152/152/152 153/153/153
f 154/154/154 155/155/155 156/156/156
f 157/157/157 158/158/158 159/159/159
f 160/160/160 161/161/161 162/162/162
f 163/163/163 164/164/164 165/165/165
f 166/166/166 167/167/167 168/168/168
f 169/169/169 170/170/170 171/171/171
f 172/172/172 173/173/173 174/174/174
f 175/175/175 176/176/176 177/177/177
f 178/178/178 179/179/179 180/180/180
f 181/181/181 182/182/182 183/183/183
f 184/184/184 185/185/185 186/186/186
f 187/187/187 188/188/188 189/189/189
f 190/190/190 191/191/191 192/192/192
f 193/193/193 194/194/194 195/195/195
f 196/196/196 197/197/197 198/198/198
f 199/199/199 200/200/200 201/201/201
f 202/202/202 203/203/203 204/204/204
f 205/205/205 206/206/206 207/207/207
f 208/208/208 209/209/209 210/210/210
f 211/211/211 212/212/212 213/213/213
f 214/214/214 215/215/215 216/216/216
f 217/217/217 218/218/218 219/219/219
f 220/220/220 221/221/221 222/222/222
f 223/223/223 224/224/224 225/225/225
f 226/226/226 227/227/227 228/228/228
f 229/229/229 230/230/230 231/231/231
f 232/232/232 233/233/233 234/234/234
f 235/235/235 236/236/236 237/237/237
f 238/238/238 239/239/239 240/240/240
f 241/241/241 242/242/242 243/243/243
f 244/244/244 245/245/245 246/246/246
f 247/247/247 248/248/248 249/249/249
f 250/250/250 251/251/251 252/252/252
f 253/253/253 254/254/254 255/255/255
f 256/256/256 257/257/257 258/258/258
f 259/259/259 260/260/260 261/261/261
f 262/262/262 263/263/263 264/264/264
f 265/265/265 266/266/266 267/267/267
f 268/268/268 269/269/269 270/270/270
f 271/271/271 272/272/272 273/273/273
f 274/274/274 275/275/275 276/276/276
f 277/277/277 278/278/278 279/279/279
f 280/280/280 281/281/281 282/282/282
f 283/283/283 284/284/284 285/285/285
f 286/286/286 287/287/287 288/288/288
f 289/289/289 290/290/290 291/291/291
f 292/292/292 293/293/293 294/294/294
f 295/295/295 296/296/296 297/297/297
f 298/298/298 299/299/299 300/300/300
f 301/301/301 302/302/302 303/303/303
f 304/304/304 305/305/305 306/306/306
f 307/307/307 308/308/308 309/309/309
f 310/310/310 311/311/311 312/312/312
f 313/313/313 314/314/314 315/315/315
f 316/316/316 317/317/317 318/318/318
f 319/319/319 320/320/320 321/321/321
f 322/322/322 323/323/323 324/324/324
f 325/325/325 326/326/326 327/327/327
f 328/328/328 329/329/329 330/330/330
f 331/331/331 332/332/332 333/333/333
f 334/334/334 335/335/335 336/336/336
f 337/337/337 338/338/338 339/339/339
f 340/340/340 341/341/341 342/342/342
f 343/343/343 344/344/344 345/345/345
f 346/346/346 347/347/347 348/348/348
f 349/349/349 350/350/350 351/351/351
f 352/352/352 353/353/353 354/354/354
f 355/355/355 356/356/356 357/357/357
f 358/358/358 359/359/359 360/360/360
f 361/361/361 362/362/362 363/363/363
f 364/364/364 365/365/365 366/366/366
f 367/367/367 368/368/368 369/369/369
f 370/370/370 371/371/371 372/372/372
f 373/373/373 374/374/374 375/375/375
f 376/376/376 377/377/377 378/378/378
f 379/379/379 380/380/380 381/381/381
f 382/382/382 383/383/383 384/384/384
f 385/385/385 386/386/386 387/387/387
f 388/388/388 389/389/389 390/390/390
f 391/391/391 392/392/392 393/393/393
f 394/394/394 395/395/395 396/396/396
f 397/397/397 398/398/398 399/399/399
f 400/400/400 401/401/401 402/402/402
f 403/403/403 404/404/404 405/405/405
f 406/406/406 407/407/407 408/408/408
f 409/409/409 410/410/410 411/411/411
f 412/412/412 413/413/413 414/414/414
f 415/415/415 416/416/416 417/417/417
f 418/418/418 419/419/419 420/420/420
f 421/421/421 422/422/422 423/423/423
f 424/424/424 425/425/425 426/426/426
f 427/427/427 428/428/428 429/429/429
f 430/430/430 431/431/431 432/432/432
f 433/433/433 434/434/434 435/435/435
f 436/436/436 437/437/437 438/438/438
f 439/439/439 440/440/440 441/441/441
f 442/442/442 443/443/443 444/444/444
f 445/445/445 446/446/446 447/447/447
f 448/448/448 449/449/449 450/450/450
f 451/451/451 452/452/452 453/453/453
f 454/454/454 455/455/455 456/456/456
f 457/457/457 458/458/458 459/459/459
f 460/460/460 461/461/461 462/462/462
f 463/463/463 464/464/464 465/465/465
f 466/466/466 467/467/467 468/468/468
f 469/469/469 470/470/470 471/471/471
f 472/472/472 473/473/473 474/474/474
f 475/475/475 476/476/476 477/477/477
f 478/478/478 479/479/479 480/480/480
f 481/481/481 482/482/482 483/483/483
f 484/484/484 485/485/485 486/486/486
f 487/487/487 488/488/488 489/489/489
f 490/490/490 491/491/491 492/492/492
f 493/493/493 494/494/494 495/495/495
f 496/496/496 497/497/497 498/498/498
f 499/499/499 500/500/500 501/501/501
f 502/502/502 503/503/503 504/504/504
f 505/505/505 506/506/506 507/507/507
f 508/508/508 509/509/509 510/510/510
f 511/511/511 512/512/512 513/513/513
f 514/514/514 515/515/515 516/516/516
f 517/517/517 518/518/518 519/519/519
f 520/520/520 521/521/521 522/522/522
f 523/523/523 524/524/524 525/525/525
f 526/526/526 527/527/527 528/528/528
f 529/529/529 530/530/530 531/531/531
f 532/532/532 533/533/533 534/534/534
f 535/535/535 536/536/536 537/537/537
f 538/538/538 539/539/539 540/540/540
f 541/541/541 542/542/542 543/543/543
f 544/544/544 545/545/545 546/546/546
f 547/547/547 548/548/548 549/549/549
f 550/550/550 551/551/551 552/552/552
f 553/553/553 554/554/554 555/555/555
f 556/556/556 557/557/557 558/558/558
f 559/559/559 560/560/560 561/561/561
f 562/562/562 563/563/563 564/564/564
f 565/565/565 566/566/566 567/567/567
f 568/568/568 569/569/569 570/570/570
f 571/571/571 572/572/572 573/573/573
f 574/574/574 575/575/575 576/576/576
f 577/577/577 578/578/578 579/579/579
f 580/580/580 581/581/581 582/582/582
f 583/583/583 584/584/584 585/585/585
f 586/586/586 587/587/587 588/588/588
f 589/589/589 590/590/590 591/591/591
f 592/592/592 593/593/593 594/594/594
f 595/595/595 596/596/596 597/597/597
f 598/598/598 599/599/599 600/600/600
f 601/601/601 602/602/602 603/603/603
f 604/604/604 605/605/605 606/606/606
f 607/607/607 608/608/608 609/609/609
f 610/610/610 611/611/611 612/612/612
f 613/613/613 614/614/614 615/615/615
f 616/616/616 617/617/617 618/618/618
f 619/619/619 620/620/620 621/621/621
f 622/622/622 623/623/623 624/624/624
f 625/625/625 626/626/626 627/627/627
f 628/628/628 629/629/629 630/630/630
f 631/631/631 632/632/632 633/633/633
f 634/634/634 635/635/635 636/636/636
f 637/637/637 638/638/638 639/639/639
f 640/640/640 641/641/641 642/642/642
f 643/643/643 644/644/644 645/645/645
f 646/646/646 647/647/647 648/648/648
f 649/649/649 650/650/650 651/651/651
f 652/652/652 653/653/653 654/654/654
f 655/655/655 656/656/656 657/657/657
f 658/658/658 659/659/659 660/660/660
f 661/661/661 662/662/662 663/663/663
f 664/664/664 665/665/665 666/666/666
f 667/667/667 668/668/668 669/669/669
f 670/670/670 671/671/671 672/672/672
f 673/673/673 674/674/674 675/675/675
f 676/676/676 677/677/677 678/678/678
f 679/679/679 680/680/680 681/681/681
f 682/682/682 683/683/683 684/684/684
f 685/685/685 686/686/686 687/687/687
f 688/688/688 689/689/689 690/690/690
f 691/691/691 692/692/692 693/693/693
f 694/694/694 695/695/695 696/696/696
f 697/697/697 698/698/698 699/699/699
f 700/700/700 701/701/701 702/702/702
f 703/703/703 704/704/704 705/705/705
f 706/706/706 707/707/707 708/708/708
f 709/709/709 710/710/710 711/711/711
f 712/712/712 713/713/713 714/714/714
f 715/715/715 716/716/716 717/717/717
f 718/718/718 719/719/719 720/720/720
f 721/721/721 722/722/722 723/723/723
f 724/724/724 725/725/725 726/726/726
f 727/727/727 728/728/728 729/729/729
f 730/730/730 731/731/731 732/732/732
f 733/733/733 734/734/734 735/735/735
f 736/736/736 737/737/737 738/738/738
f 739/739/739 740/740/740 741/741/741
f 742/742/742 743/743/743 744/744/744
f 745/745/745 746/746/746 747/747/747
f 748/748/748 749/749/749 750/750/750
f 751/751/751 752/752/752 753/753/753
f 754/754/754 755/755/755 756/756/756
f 757/757/757 758/758/758 759/759/759
f 760/760/760 761/761/761 762/762/762
f 763/763/763 764/764/764 765/765/765
f 766/766/766 767/767/767 768/768/768
f 769/769/769 770/770/770 771/771/771
f 772/772/772 773/773/773 774/774/774
f 775/775/775 776/776/776 777/777/777
f 778/778/778 779/779/779 780/780/780
f 781/781/781 782/782/782 783/783/783
f 784/784/784 785/785/785 786/786/786
f 787/787/787 788/788/788 789/789/789
f 790/790/790 791/791/791 792/792/792
f 793/793/793 794/794/794 795/795/795
f 796/796/796 797/797/797 798/798/798
f 799/799/799 800/800/800 801/801/801
f 802/802/802 803/803/803 804/804/804
f 805/805/805 806/806/806 807/807/807
f 808/808/808 809/809/809 810/810/810
f 811/811/811 812/812/812 813/813/813
f 814/814/814 815/815/815 816/816/816
f 817/817/817 818/818/818 819/819/819
f 820/820/820 821/821/821 822/822/822
f 823/823/823 824/824/824 825/825/825
f 826/826/826 827/827/827 828/828/828
f 829/829/829 830/830/830 831/831/831
f 832/832/832 833/833/833 834/834/834
f 835/835/835 836/836/836 837/837/837
f 838/838/838 839/839/839 840/840/840
f 841/841/841 842/842/842 843/843/843
f 844/844/844 845/845/845 846/846/846
f 847/847/847 848/848/848 849/849/849
f 850/850/850 851/851/851 852/852/852
f 853/853/853 854/854/854 855/855/855
f 856/856/856 857/857/857 858/858/858
f 859/859/859 860/860/860 861/861/861
f 862/862/862 863/863/863 864/864/864
f 865/865/865 866/866/866 867/867/867
f 868/868/868 869/869/869 870/870/870
f 871/871/871 872/872/872 873/873/873
f 874/874/874 875/875/875 876/876/876
f 877/877/877 878/878/878 879/879/879
f 880/880/880 881/881/881 882/882/882
f 883/883/883 884/884/884 885/885/885
f 886/886/886 887/887/887 888/888/888
f 889/889/889 890/890/890 891/891/891
f 892/892/892 893/893/893 894/894/894
f 895/895/895 896/896/896 897/897/897
f 898/898/898 899/899/899 900/900/900
f 901/901/901 902/902/902 903/903/903
f 904/904/904 905/905/905 906/906/906
f 907/907/907 908/908/908 909/909/909
f 910/910/910 911/911/911 912/912/912
f 913/913/913 914/914/914 915/915/915
f 916/916/916 917/917/917 918/918/918
f 919/919/919 920/920/920 921/921/921
f 922/922/922 923/923/923 924/924/924
f 925/925/925 926/926/926 927/927/927
f 928/928/928 929/929/929 930/930/930
f 931/931/931 932/932/932 933/933/933
f 934/934/934 935/935/935 936/936/936
