# OBJ file
v 59.676530 -1398.391500 842.166300
v -43.242540 -1356.307100 842.166300
v 59.676544 -1398.391500 1024.246500
v -43.242540 -1356.307100 842.166300
v -43.242523 -1356.307100 1024.246500
v 59.676544 -1398.391500 1024.246500
v 61.652237 -1393.559800 836.946300
v 120.963380 -1248.511800 836.946200
v -41.266838 -1351.475500 836.946300
v 120.963380 -1248.511800 836.946200
v 18.044308 -1206.427500 836.946200
v -41.266838 -1351.475500 836.946300
v -46.098495 -1349.499900 842.166260
v 13.212639 -1204.451800 842.166260
v -46.098473 -1349.499800 1024.246500
v 13.212639 -1204.451800 842.166260
v 13.212650 -1204.451800 1024.246500
v -46.098473 -1349.499800 1024.246500
v -41.266823 -1351.475300 1029.466400
v 18.044320 -1206.427400 1029.466600
v 61.652260 -1393.559700 1029.466400
v 18.044320 -1206.427400 1029.466600
v 120.963390 -1248.511800 1029.466600
v 61.652260 -1393.559700 1029.466400
v 66.483920 -1395.535500 1024.246500
v 125.795060 -1250.487500 1024.246500
v 66.483900 -1395.535500 842.166260
v 125.795060 -1250.487500 1024.246500
v 125.795040 -1250.487500 842.166260
v 66.483900 -1395.535500 842.166260
v 18.044308 -1206.427500 836.946200
v 13.212639 -1204.451800 842.166260
v -41.266838 -1351.475500 836.946300
v 13.212639 -1204.451800 842.166260
v -46.098495 -1349.499900 842.166260
v -41.266838 -1351.475500 836.946300
v 61.652237 -1393.559800 836.946300
v 66.483900 -1395.535500 842.166260
v 120.963380 -1248.511800 836.946200
v 66.483900 -1395.535500 842.166260
v 125.795040 -1250.487500 842.166260
v 120.963380 -1248.511800 836.946200
v 13.212650 -1204.451800 1024.246500
v 18.044320 -1206.427400 1029.466600
v -46.098473 -1349.499800 1024.246500
v 18.044320 -1206.427400 1029.466600
v -41.266823 -1351.475300 1029.466400
v -46.098473 -1349.499800 1024.246500
v 120.963390 -1248.511800 1029.466600
v 125.795060 -1250.487500 1024.246500
v 61.652260 -1393.559700 1029.466400
v 125.795060 -1250.487500 1024.246500
v 66.483920 -1395.535500 1024.246500
v 61.652260 -1393.559700 1029.466400
v 59.676530 -1398.391500 842.166300
v 66.483900 -1395.535500 842.166260
v 61.652237 -1393.559800 836.946300
v 66.483920 -1395.535500 1024.246500
v 66.483900 -1395.535500 842.166260
v 59.676530 -1398.391500 842.166300
v 59.676530 -1398.391500 842.166300
v 61.652237 -1393.559800 836.946300
v -43.242540 -1356.307100 842.166300
v 59.676544 -1398.391500 1024.246500
v 66.483920 -1395.535500 1024.246500
v 59.676530 -1398.391500 842.166300
v 61.652237 -1393.559800 836.946300
v -41.266838 -1351.475500 836.946300
v -43.242540 -1356.307100 842.166300
v 59.676544 -1398.391500 1024.246500
v 61.652260 -1393.559700 1029.466400
v 66.483920 -1395.535500 1024.246500
v -41.266838 -1351.475500 836.946300
v -46.098495 -1349.499900 842.166260
v -43.242540 -1356.307100 842.166300
v -41.266823 -1351.475300 1029.466400
v 61.652260 -1393.559700 1029.466400
v 59.676544 -1398.391500 1024.246500
v -43.242540 -1356.307100 842.166300
v -46.098495 -1349.499900 842.166260
v -43.242523 -1356.307100 1024.246500
v -43.242523 -1356.307100 1024.246500
v -41.266823 -1351.475300 1029.466400
v 59.676544 -1398.391500 1024.246500
v -46.098495 -1349.499900 842.166260
v -46.098473 -1349.499800 1024.246500
v -43.242523 -1356.307100 1024.246500
v -46.098473 -1349.499800 1024.246500
v -41.266823 -1351.475300 1029.466400
v -43.242523 -1356.307100 1024.246500
vn 0.372063 0.928199 -0.003916
vn 0.372063 0.928199 -0.003916
vn 0.372063 0.928199 -0.003916
vn 0.372063 0.928199 -0.003916
vn 0.372063 0.928199 -0.003916
vn 0.372063 0.928199 -0.003916
vn -0.003921 0.003921 0.999985
vn -0.003921 0.003921 0.999985
vn -0.003921 0.003921 0.999985
vn -0.003921 0.003921 0.999985
vn -0.003921 0.003921 0.999985
vn -0.003921 0.003921 0.999985
vn 0.927103 -0.374786 -0.003945
vn 0.927103 -0.374786 -0.003945
vn 0.927103 -0.374786 -0.003945
vn 0.927103 -0.374786 -0.003945
vn 0.927103 -0.374786 -0.003945
vn 0.927103 -0.374786 -0.003945
vn -0.003921 0.003921 -0.999985
vn -0.003921 0.003921 -0.999985
vn -0.003921 0.003921 -0.999985
vn -0.003921 0.003921 -0.999985
vn -0.003921 0.003921 -0.999985
vn -0.003921 0.003921 -0.999985
vn -0.925478 0.378782 -0.003905
vn -0.925478 0.378782 -0.003905
vn -0.925478 0.378782 -0.003905
vn -0.925478 0.378782 -0.003905
vn -0.925478 0.378782 -0.003905
vn -0.925478 0.378782 -0.003905
vn 0.653472 -0.265349 0.708918
vn 0.653472 -0.265349 0.708918
vn 0.600656 0.255181 0.757691
vn 0.653472 -0.265349 0.708918
vn 0.876115 0.145364 0.459666
vn 0.600656 0.255181 0.757691
vn -0.253978 0.605640 0.754119
vn -0.527880 0.715570 0.457496
vn -0.656590 0.271286 0.703771
vn -0.527880 0.715570 0.457496
vn -0.656590 0.271286 0.703771
vn -0.656590 0.271286 0.703771
vn 0.649813 -0.263863 -0.712825
vn 0.649813 -0.263863 -0.712825
vn 0.872941 0.144838 -0.465829
vn 0.649813 -0.263863 -0.712825
vn 0.597096 0.253668 -0.761005
vn 0.872941 0.144838 -0.465829
vn -0.652967 0.269789 -0.707707
vn -0.652967 0.269789 -0.707707
vn -0.252487 0.602084 -0.757460
vn -0.652967 0.269789 -0.707707
vn -0.525985 0.713002 -0.463646
vn -0.252487 0.602084 -0.757460
vn -0.144369 0.877922 0.456520
vn -0.527880 0.715570 0.457496
vn -0.253978 0.605640 0.754119
vn -0.525985 0.713002 -0.463646
vn -0.527880 0.715570 0.457496
vn -0.144369 0.877922 0.456520
vn -0.144369 0.877922 0.456520
vn -0.253978 0.605640 0.754119
vn 0.711722 0.530842 0.460063
vn -0.143853 0.874785 -0.462664
vn -0.525985 0.713002 -0.463646
vn -0.144369 0.877922 0.456520
vn -0.253978 0.605640 0.754119
vn 0.600656 0.255181 0.757691
vn 0.711722 0.530842 0.460063
vn -0.143853 0.874785 -0.462664
vn -0.252487 0.602084 -0.757460
vn -0.525985 0.713002 -0.463646
vn 0.600656 0.255181 0.757691
vn 0.876115 0.145364 0.459666
vn 0.711722 0.530842 0.460063
vn 0.597096 0.253668 -0.761005
vn -0.252487 0.602084 -0.757460
vn -0.143853 0.874785 -0.462664
vn 0.711722 0.530842 0.460063
vn 0.876115 0.145364 0.459666
vn 0.709139 0.528916 -0.466229
vn 0.709139 0.528916 -0.466229
vn 0.597096 0.253668 -0.761005
vn -0.143853 0.874785 -0.462664
vn 0.876115 0.145364 0.459666
vn 0.872941 0.144838 -0.465829
vn 0.709139 0.528916 -0.466229
vn 0.872941 0.144838 -0.465829
vn 0.597096 0.253668 -0.761005
vn 0.709139 0.528916 -0.466229
vt 0.503906 0.076172
vt 1.059570 0.076172
vt 0.503906 0.986198
vt 1.059570 0.076172
vt 1.059570 0.986198
vt 0.503906 0.986198
vt 0.495850 1.543945
vt 0.495850 2.327148
vt -0.060059 1.543945
vt 0.495850 2.327148
vt -0.060059 2.327148
vt -0.060059 1.543945
vt 0.923828 1.543945
vt 0.923828 2.327148
vt 0.013802 1.543945
vt 0.923828 2.327148
vt 0.013802 2.327148
vt 0.013802 1.543945
vt 1.059570 1.543945
vt 1.059570 2.327148
vt 0.503906 1.543945
vt 1.059570 2.327148
vt 0.503906 2.327148
vt 0.503906 1.543945
vt 0.985840 1.543945
vt 0.985840 2.327148
vt 0.075745 1.543945
vt 0.985840 2.327148
vt 0.075745 2.327148
vt 0.075745 1.543945
vt -0.060059 2.327148
vt -0.086121 2.327148
vt -0.060059 1.543945
vt -0.086121 2.327148
vt -0.086121 1.543945
vt -0.060059 1.543945
vt 0.049683 1.543945
vt 0.075745 1.543945
vt 0.049683 2.327148
vt 0.075745 1.543945
vt 0.075745 2.327148
vt 0.049683 2.327148
vt 0.013802 2.327148
vt -0.012291 2.327148
vt 0.013802 1.543945
vt -0.012291 2.327148
vt -0.012291 1.543945
vt 0.013802 1.543945
vt 0.503906 2.327148
vt 0.477783 2.327148
vt 0.503906 1.543945
vt 0.477783 2.327148
vt 0.477783 1.543945
vt 0.503906 1.543945
vt 0.503906 0.076172
vt 0.477783 0.076172
vt 0.503906 0.049805
vt 0.477783 0.986198
vt 0.477783 0.076172
vt 0.503906 0.076172
vt 0.503906 0.076172
vt 0.503906 0.049805
vt 1.059570 0.076172
vt 0.503906 0.986198
vt 0.477783 0.986198
vt 0.503906 0.076172
vt 0.503906 0.049805
vt 1.059570 0.049805
vt 1.059570 0.076172
vt 0.503906 0.986198
vt 0.503906 1.012291
vt 0.477783 0.986198
vt 1.059570 0.049805
vt 1.085938 0.076172
vt 1.059570 0.076172
vt 1.059570 1.012291
vt 0.503906 1.012291
vt 0.503906 0.986198
vt 1.059570 0.076172
vt 1.085938 0.076172
vt 1.059570 0.986198
vt 1.059570 0.986198
vt 1.059570 1.012291
vt 0.503906 0.986198
vt 1.085938 0.076172
vt 1.085938 0.986198
vt 1.059570 0.986198
vt 1.085938 0.986198
vt 1.059570 1.012291
vt 1.059570 0.986198
f 1/1/1 2/2/2 3/3/3
f 4/4/4 5/5/5 6/6/6
f 7/7/7 8/8/8 9/9/9
f 10/10/10 11/11/11 12/12/12
f 13/13/13 14/14/14 15/15/15
f 16/16/16 17/17/17 18/18/18
f 19/19/19 20/20/20 21/21/21
f 22/22/22 23/23/23 24/24/24
f 25/25/25 26/26/26 27/27/27
f 28/28/28 29/29/29 30/30/30
f 31/31/31 32/32/32 33/33/33
f 34/34/34 35/35/35 36/36/36
f 37/37/37 38/38/38 39/39/39
f 40/40/40 41/41/41 42/42/42
f 43/43/43 44/44/44 45/45/45
f 46/46/46 47/47/47 48/48/48
f 49/49/49 50/50/50 51/51/51
f 52/52/52 53/53/53 54/54/54
f 55/55/55 56/56/56 57/57/57
f 58/58/58 59/59/59 60/60/60
f 61/61/61 62/62/62 63/63/63
f 64/64/64 65/65/65 66/66/66
f 67/67/67 68/68/68 69/69/69
f 70/70/70 71/71/71 72/72/72
f 73/73/73 74/74/74 75/75/75
f 76/76/76 77/77/77 78/78/78
f 79/79/79 80/80/80 81/81/81
f 82/82/82 83/83/83 84/84/84
f 85/85/85 86/86/86 87/87/87
f 88/88/88 89/89/89 90/90/90
