# OBJ file
v 92.239930 -1304.605700 357.303900
v -1.301399 -1266.356000 357.360260
v 89.772130 -1310.640700 357.303900
v -1.301399 -1266.356000 357.360260
v -3.769187 -1272.391100 357.360260
v 89.772130 -1310.640700 357.303900
v -1.764198 -1266.166700 356.860530
v -1.764190 -1266.166700 185.987260
v -4.231994 -1272.201800 356.860530
v -1.764190 -1266.166700 185.987260
v -4.231986 -1272.201800 185.987260
v -4.231994 -1272.201800 356.860530
v -1.301391 -1266.356000 185.487260
v 92.239940 -1304.605700 185.487270
v -3.769180 -1272.391100 185.487260
v 92.239940 -1304.605700 185.487270
v 89.772140 -1310.640600 185.487270
v -3.769180 -1272.391100 185.487260
v 92.702736 -1304.794900 185.987270
v 92.702730 -1304.794900 356.803620
v 90.234950 -1310.830100 185.987270
v 92.702730 -1304.794900 356.803620
v 90.234930 -1310.830100 356.803620
v 90.234950 -1310.830100 185.987270
v 85.520380 -1301.243400 350.022740
v 5.849129 -1268.665300 350.070740
v 91.776670 -1303.871000 356.804300
v 5.849129 -1268.665300 350.070740
v -0.455711 -1266.156500 356.859860
v 91.776670 -1303.871000 356.804300
v 5.194458 -1268.397600 349.363860
v 5.194466 -1268.397600 193.479690
v -1.110389 -1265.888900 356.152950
v 5.194466 -1268.397600 193.479690
v -1.110374 -1265.888800 186.694340
v -1.110389 -1265.888900 356.152950
v 5.848954 -1268.665200 192.772600
v 85.520200 -1301.243300 192.772600
v -0.455886 -1266.156400 185.987240
v 85.520200 -1301.243300 192.772600
v 91.776500 -1303.870800 185.987240
v -0.455886 -1266.156400 185.987240
v 86.174700 -1301.511000 193.479690
v 86.174680 -1301.511000 349.315460
v 92.430984 -1304.138500 186.694340
v 86.174680 -1301.511000 349.315460
v 92.430980 -1304.138500 356.097020
v 92.430984 -1304.138500 186.694340
v 83.923256 -1302.361300 348.800170
v 6.205216 -1270.581700 348.847000
v 84.855220 -1301.460900 349.321720
v 6.205216 -1270.581700 348.847000
v 6.171135 -1269.286400 349.369140
v 84.855220 -1301.460900 349.321720
v 5.706253 -1270.377800 348.308230
v 5.706261 -1270.377700 194.534770
v 5.672173 -1269.082300 348.830350
v 5.706261 -1270.377700 194.534770
v 5.672181 -1269.082300 194.012950
v 5.672173 -1269.082300 348.830350
v 6.205178 -1270.581800 193.995760
v 83.923225 -1302.361100 193.995770
v 6.171105 -1269.286300 193.473920
v 83.923225 -1302.361100 193.995770
v 84.855194 -1301.460700 193.473940
v 6.171105 -1269.286300 193.473920
v 84.422140 -1302.565200 194.534790
v 84.422134 -1302.565200 348.260900
v 85.354110 -1301.664800 194.012950
v 84.422134 -1302.565200 348.260900
v 85.354100 -1301.664800 348.782440
v 85.354110 -1301.664800 194.012950
v 79.553820 -1301.015700 344.416960
v 10.265793 -1272.683300 344.458700
v 82.947710 -1302.450300 348.099330
v 10.265793 -1272.683300 344.458700
v 6.839066 -1271.329000 348.145170
v 82.947710 -1302.450300 348.099330
v 9.611130 -1272.415800 343.751830
v 9.611137 -1272.415600 199.088580
v 6.184395 -1271.061300 347.438260
v 9.611137 -1272.415600 199.088580
v 6.184403 -1271.061400 195.404160
v 6.184395 -1271.061300 347.438260
v 10.265617 -1272.683200 198.381500
v 79.553640 -1301.015500 198.381470
v 6.838891 -1271.328900 194.697080
v 79.553640 -1301.015500 198.381470
v 82.947530 -1302.450300 194.697070
v 6.838891 -1271.328900 194.697080
v 80.208130 -1301.283200 199.088580
v 80.208115 -1301.283300 343.709700
v 83.602005 -1302.717900 195.404160
v 80.208115 -1301.283300 343.709700
v 83.602005 -1302.717900 347.392060
v 83.602005 -1302.717900 195.404160
v 77.457950 -1305.367000 343.917180
v 8.712105 -1277.256300 343.958600
v 79.095530 -1301.362200 343.917180
v 8.712105 -1277.256300 343.958600
v 10.349686 -1273.251500 343.958600
v 79.095530 -1301.362200 343.917180
v 8.249298 -1277.067100 343.458860
v 8.249306 -1277.067000 199.381450
v 9.886887 -1273.062300 343.458860
v 8.249306 -1277.067000 199.381450
v 9.886894 -1273.062300 199.381440
v 9.886887 -1273.062300 343.458860
v 8.712112 -1277.256300 198.881450
v 77.457950 -1305.367000 198.881440
v 10.349693 -1273.251500 198.881440
v 77.457950 -1305.367000 198.881440
v 79.095535 -1301.362200 198.881450
v 10.349693 -1273.251500 198.881440
v 77.920750 -1305.556200 199.381440
v 77.920746 -1305.556200 343.416900
v 79.558334 -1301.551500 199.381450
v 77.920746 -1305.556200 343.416900
v 79.558330 -1301.551500 343.416900
v 79.558334 -1301.551500 199.381450
v 89.772130 -1310.640700 357.303900
v 90.234930 -1310.830100 356.803620
v 92.239930 -1304.605700 357.303900
v 90.234930 -1310.830100 356.803620
v 92.702730 -1304.794900 356.803620
v 92.239930 -1304.605700 357.303900
v 92.239930 -1304.605700 357.303900
v 91.776670 -1303.871000 356.804300
v -1.301399 -1266.356000 357.360260
v 91.776670 -1303.871000 356.804300
v -0.455711 -1266.156500 356.859860
v -1.301399 -1266.356000 357.360260
v -1.301399 -1266.356000 357.360260
v -1.764198 -1266.166700 356.860530
v -3.769187 -1272.391100 357.360260
v -1.764198 -1266.166700 356.860530
v -4.231994 -1272.201800 356.860530
v -3.769187 -1272.391100 357.360260
v -1.764198 -1266.166700 356.860530
v -1.110389 -1265.888900 356.152950
v -1.764190 -1266.166700 185.987260
v -1.110389 -1265.888900 356.152950
v -1.110374 -1265.888800 186.694340
v -1.764190 -1266.166700 185.987260
v -1.764190 -1266.166700 185.987260
v -1.301391 -1266.356000 185.487260
v -4.231986 -1272.201800 185.987260
v -1.301391 -1266.356000 185.487260
v -3.769180 -1272.391100 185.487260
v -4.231986 -1272.201800 185.987260
v -1.301391 -1266.356000 185.487260
v -0.455886 -1266.156400 185.987240
v 92.239940 -1304.605700 185.487270
v -0.455886 -1266.156400 185.987240
v 91.776500 -1303.870800 185.987240
v 92.239940 -1304.605700 185.487270
v 92.239940 -1304.605700 185.487270
v 92.702736 -1304.794900 185.987270
v 89.772140 -1310.640600 185.487270
v 92.702736 -1304.794900 185.987270
v 90.234950 -1310.830100 185.987270
v 89.772140 -1310.640600 185.487270
v 92.702736 -1304.794900 185.987270
v 92.430984 -1304.138500 186.694340
v 92.702730 -1304.794900 356.803620
v 92.430984 -1304.138500 186.694340
v 92.430980 -1304.138500 356.097020
v 92.702730 -1304.794900 356.803620
v 84.855220 -1301.460900 349.321720
v 85.354100 -1301.664800 348.782440
v 83.923256 -1302.361300 348.800170
v 85.354100 -1301.664800 348.782440
v 84.422134 -1302.565200 348.260900
v 83.923256 -1302.361300 348.800170
v 6.205216 -1270.581700 348.847000
v 5.706253 -1270.377800 348.308230
v 6.171135 -1269.286400 349.369140
v 5.706253 -1270.377800 348.308230
v 5.672173 -1269.082300 348.830350
v 6.171135 -1269.286400 349.369140
v 5.706261 -1270.377700 194.534770
v 6.205178 -1270.581800 193.995760
v 5.672181 -1269.082300 194.012950
v 6.205178 -1270.581800 193.995760
v 6.171105 -1269.286300 193.473920
v 5.672181 -1269.082300 194.012950
v 83.923225 -1302.361100 193.995770
v 84.422140 -1302.565200 194.534790
v 84.855194 -1301.460700 193.473940
v 84.422140 -1302.565200 194.534790
v 85.354110 -1301.664800 194.012950
v 84.855194 -1301.460700 193.473940
v 79.095530 -1301.362200 343.917180
v 79.558330 -1301.551500 343.416900
v 77.457950 -1305.367000 343.917180
v 79.558330 -1301.551500 343.416900
v 77.920746 -1305.556200 343.416900
v 77.457950 -1305.367000 343.917180
v 8.712105 -1277.256300 343.958600
v 8.249298 -1277.067100 343.458860
v 10.349686 -1273.251500 343.958600
v 8.249298 -1277.067100 343.458860
v 9.886887 -1273.062300 343.458860
v 10.349686 -1273.251500 343.958600
v 8.249306 -1277.067000 199.381450
v 8.712112 -1277.256300 198.881450
v 9.886894 -1273.062300 199.381440
v 8.712112 -1277.256300 198.881450
v 10.349693 -1273.251500 198.881440
v 9.886894 -1273.062300 199.381440
v 77.457950 -1305.367000 198.881440
v 77.920750 -1305.556200 199.381440
v 79.095535 -1301.362200 198.881450
v 77.920750 -1305.556200 199.381440
v 79.558334 -1301.551500 199.381450
v 79.095535 -1301.362200 198.881450
v 92.702730 -1304.794900 356.803620
v 92.430980 -1304.138500 356.097020
v 92.239930 -1304.605700 357.303900
v 92.430980 -1304.138500 356.097020
v 91.776670 -1303.871000 356.804300
v 92.239930 -1304.605700 357.303900
v 91.776670 -1303.871000 356.804300
v 92.430980 -1304.138500 356.097020
v 85.520380 -1301.243400 350.022740
v 92.430980 -1304.138500 356.097020
v 86.174680 -1301.511000 349.315460
v 85.520380 -1301.243400 350.022740
v 86.174680 -1301.511000 349.315460
v 85.354100 -1301.664800 348.782440
v 85.520380 -1301.243400 350.022740
v 85.354110 -1301.664800 194.012950
v 85.354100 -1301.664800 348.782440
v 86.174680 -1301.511000 349.315460
v 85.354100 -1301.664800 348.782440
v 84.855220 -1301.460900 349.321720
v 85.520380 -1301.243400 350.022740
v 86.174700 -1301.511000 193.479690
v 85.354110 -1301.664800 194.012950
v 86.174680 -1301.511000 349.315460
v 85.520380 -1301.243400 350.022740
v 84.855220 -1301.460900 349.321720
v 5.849129 -1268.665300 350.070740
v 84.855194 -1301.460700 193.473940
v 85.354110 -1301.664800 194.012950
v 86.174700 -1301.511000 193.479690
v 84.855220 -1301.460900 349.321720
v 6.171135 -1269.286400 349.369140
v 5.849129 -1268.665300 350.070740
v 85.520200 -1301.243300 192.772600
v 84.855194 -1301.460700 193.473940
v 86.174700 -1301.511000 193.479690
v 6.171105 -1269.286300 193.473920
v 84.855194 -1301.460700 193.473940
v 85.520200 -1301.243300 192.772600
v 85.520200 -1301.243300 192.772600
v 86.174700 -1301.511000 193.479690
v 91.776500 -1303.870800 185.987240
v 86.174700 -1301.511000 193.479690
v 92.430984 -1304.138500 186.694340
v 91.776500 -1303.870800 185.987240
v 91.776500 -1303.870800 185.987240
v 92.430984 -1304.138500 186.694340
v 92.702736 -1304.794900 185.987270
v 92.239940 -1304.605700 185.487270
v 91.776500 -1303.870800 185.987240
v 92.702736 -1304.794900 185.987270
v 5.848954 -1268.665200 192.772600
v 6.171105 -1269.286300 193.473920
v 85.520200 -1301.243300 192.772600
v 5.672181 -1269.082300 194.012950
v 6.171105 -1269.286300 193.473920
v 5.848954 -1268.665200 192.772600
v 5.194466 -1268.397600 193.479690
v 5.672181 -1269.082300 194.012950
v 5.848954 -1268.665200 192.772600
v 5.672173 -1269.082300 348.830350
v 5.672181 -1269.082300 194.012950
v 5.194466 -1268.397600 193.479690
v 5.194466 -1268.397600 193.479690
v 5.848954 -1268.665200 192.772600
v -1.110374 -1265.888800 186.694340
v 5.848954 -1268.665200 192.772600
v -0.455886 -1266.156400 185.987240
v -1.110374 -1265.888800 186.694340
v -1.110374 -1265.888800 186.694340
v -0.455886 -1266.156400 185.987240
v -1.301391 -1266.356000 185.487260
v -1.764190 -1266.166700 185.987260
v -1.110374 -1265.888800 186.694340
v -1.301391 -1266.356000 185.487260
v 5.194458 -1268.397600 349.363860
v 5.672173 -1269.082300 348.830350
v 5.194466 -1268.397600 193.479690
v 6.171135 -1269.286400 349.369140
v 5.672173 -1269.082300 348.830350
v 5.194458 -1268.397600 349.363860
v 5.849129 -1268.665300 350.070740
v 6.171135 -1269.286400 349.369140
v 5.194458 -1268.397600 349.363860
v 5.849129 -1268.665300 350.070740
v 5.194458 -1268.397600 349.363860
v -0.455711 -1266.156500 356.859860
v 5.194458 -1268.397600 349.363860
v -1.110389 -1265.888900 356.152950
v -0.455711 -1266.156500 356.859860
v -0.455711 -1266.156500 356.859860
v -1.110389 -1265.888900 356.152950
v -1.764198 -1266.166700 356.860530
v -1.301399 -1266.356000 357.360260
v -0.455711 -1266.156500 356.859860
v -1.764198 -1266.166700 356.860530
v 83.923256 -1302.361300 348.800170
v 82.947710 -1302.450300 348.099330
v 6.205216 -1270.581700 348.847000
v 83.602005 -1302.717900 347.392060
v 82.947710 -1302.450300 348.099330
v 83.923256 -1302.361300 348.800170
v 84.422134 -1302.565200 348.260900
v 83.602005 -1302.717900 347.392060
v 83.923256 -1302.361300 348.800170
v 82.947710 -1302.450300 348.099330
v 6.839066 -1271.329000 348.145170
v 6.205216 -1270.581700 348.847000
v 82.947710 -1302.450300 348.099330
v 83.602005 -1302.717900 347.392060
v 79.553820 -1301.015700 344.416960
v 6.205216 -1270.581700 348.847000
v 6.839066 -1271.329000 348.145170
v 5.706253 -1270.377800 348.308230
v 83.602005 -1302.717900 195.404160
v 83.602005 -1302.717900 347.392060
v 84.422134 -1302.565200 348.260900
v 84.422140 -1302.565200 194.534790
v 83.602005 -1302.717900 195.404160
v 84.422134 -1302.565200 348.260900
v 83.602005 -1302.717900 347.392060
v 80.208115 -1301.283300 343.709700
v 79.553820 -1301.015700 344.416960
v 82.947530 -1302.450300 194.697070
v 83.602005 -1302.717900 195.404160
v 84.422140 -1302.565200 194.534790
v 83.923225 -1302.361100 193.995770
v 82.947530 -1302.450300 194.697070
v 84.422140 -1302.565200 194.534790
v 80.208130 -1301.283200 199.088580
v 83.602005 -1302.717900 195.404160
v 82.947530 -1302.450300 194.697070
v 6.838891 -1271.328900 194.697080
v 82.947530 -1302.450300 194.697070
v 83.923225 -1302.361100 193.995770
v 6.205178 -1270.581800 193.995760
v 6.838891 -1271.328900 194.697080
v 83.923225 -1302.361100 193.995770
v 79.553640 -1301.015500 198.381470
v 80.208130 -1301.283200 199.088580
v 82.947530 -1302.450300 194.697070
v 6.184403 -1271.061400 195.404160
v 6.838891 -1271.328900 194.697080
v 6.205178 -1270.581800 193.995760
v 5.706261 -1270.377700 194.534770
v 6.184403 -1271.061400 195.404160
v 6.205178 -1270.581800 193.995760
v 10.265617 -1272.683200 198.381500
v 6.838891 -1271.328900 194.697080
v 6.184403 -1271.061400 195.404160
v 6.184395 -1271.061300 347.438260
v 6.184403 -1271.061400 195.404160
v 5.706261 -1270.377700 194.534770
v 5.706253 -1270.377800 348.308230
v 6.184395 -1271.061300 347.438260
v 5.706261 -1270.377700 194.534770
v 6.839066 -1271.329000 348.145170
v 6.184395 -1271.061300 347.438260
v 5.706253 -1270.377800 348.308230
v 9.611137 -1272.415600 199.088580
v 10.265617 -1272.683200 198.381500
v 6.184403 -1271.061400 195.404160
v 9.611130 -1272.415800 343.751830
v 6.184395 -1271.061300 347.438260
v 6.839066 -1271.329000 348.145170
v 10.265793 -1272.683300 344.458700
v 9.611130 -1272.415800 343.751830
v 6.839066 -1271.329000 348.145170
v 9.611137 -1272.415600 199.088580
v 9.886894 -1273.062300 199.381440
v 10.265617 -1272.683200 198.381500
v 9.886887 -1273.062300 343.458860
v 9.886894 -1273.062300 199.381440
v 9.611137 -1272.415600 199.088580
v 9.611130 -1272.415800 343.751830
v 9.886887 -1273.062300 343.458860
v 9.611137 -1272.415600 199.088580
v 9.886894 -1273.062300 199.381440
v 10.349693 -1273.251500 198.881440
v 10.265617 -1272.683200 198.381500
v 10.265617 -1272.683200 198.381500
v 10.349693 -1273.251500 198.881440
v 79.553640 -1301.015500 198.381470
v 10.349686 -1273.251500 343.958600
v 9.886887 -1273.062300 343.458860
v 9.611130 -1272.415800 343.751830
v 10.265793 -1272.683300 344.458700
v 10.349686 -1273.251500 343.958600
v 9.611130 -1272.415800 343.751830
v 10.349693 -1273.251500 198.881440
v 79.095535 -1301.362200 198.881450
v 79.553640 -1301.015500 198.381470
v 79.095530 -1301.362200 343.917180
v 10.349686 -1273.251500 343.958600
v 10.265793 -1272.683300 344.458700
v 79.553640 -1301.015500 198.381470
v 79.095535 -1301.362200 198.881450
v 80.208130 -1301.283200 199.088580
v 79.553820 -1301.015700 344.416960
v 79.095530 -1301.362200 343.917180
v 10.265793 -1272.683300 344.458700
v 79.095535 -1301.362200 198.881450
v 79.558334 -1301.551500 199.381450
v 80.208130 -1301.283200 199.088580
v 79.558330 -1301.551500 343.416900
v 79.095530 -1301.362200 343.917180
v 79.553820 -1301.015700 344.416960
v 80.208130 -1301.283200 199.088580
v 79.558334 -1301.551500 199.381450
v 80.208115 -1301.283300 343.709700
v 80.208115 -1301.283300 343.709700
v 79.558330 -1301.551500 343.416900
v 79.553820 -1301.015700 344.416960
v 79.558334 -1301.551500 199.381450
v 79.558330 -1301.551500 343.416900
v 80.208115 -1301.283300 343.709700
vn -0.003952 0.003952 0.999984
vn -0.003952 0.003952 0.999984
vn -0.003952 0.003952 0.999984
vn -0.003952 0.003952 0.999984
vn -0.003952 0.003952 0.999984
vn -0.003952 0.003952 0.999984
vn -0.925478 0.378782 -0.003905
vn -0.925478 0.378782 -0.003905
vn -0.925478 0.378782 -0.003905
vn -0.925478 0.378782 -0.003905
vn -0.925478 0.378782 -0.003905
vn -0.925478 0.378782 -0.003905
vn -0.003921 0.003921 -0.999985
vn -0.003921 0.003921 -0.999985
vn -0.003921 0.003921 -0.999985
vn -0.003921 0.003921 -0.999985
vn -0.003921 0.003921 -0.999985
vn -0.003921 0.003921 -0.999985
vn 0.927103 -0.374786 -0.003945
vn 0.927103 -0.374786 -0.003945
vn 0.927103 -0.374786 -0.003945
vn 0.927103 -0.374786 -0.003945
vn 0.927103 -0.374786 -0.003945
vn 0.927103 -0.374786 -0.003945
vn 0.372063 0.928199 0.003917
vn 0.372063 0.928199 0.003917
vn 0.372063 0.928199 0.003917
vn 0.372063 0.928199 0.003917
vn 0.372063 0.928199 0.003917
vn 0.372063 0.928199 0.003917
vn 0.365285 0.930887 -0.003928
vn 0.365285 0.930887 -0.003928
vn 0.365285 0.930887 -0.003928
vn 0.365285 0.930887 -0.003928
vn 0.365285 0.930887 -0.003928
vn 0.365285 0.930887 -0.003928
vn 0.372040 0.928142 -0.011749
vn 0.372040 0.928142 -0.011749
vn 0.372040 0.928142 -0.011749
vn 0.372040 0.928142 -0.011749
vn 0.372040 0.928142 -0.011749
vn 0.372040 0.928142 -0.011749
vn 0.378782 0.925478 -0.003905
vn 0.378782 0.925478 -0.003905
vn 0.378782 0.925478 -0.003905
vn 0.378782 0.925478 -0.003905
vn 0.378782 0.925478 -0.003905
vn 0.378782 0.925478 -0.003905
vn 0.144019 0.377563 -0.914715
vn 0.144019 0.377563 -0.914715
vn 0.144019 0.377563 -0.914715
vn 0.144019 0.377563 -0.914715
vn 0.144019 0.377563 -0.914715
vn 0.144019 0.377563 -0.914715
vn 0.999610 0.027657 -0.003951
vn 0.999610 0.027657 -0.003951
vn 0.999610 0.027657 -0.003951
vn 0.999610 0.027657 -0.003951
vn 0.999610 0.027657 -0.003951
vn 0.999610 0.027657 -0.003951
vn 0.145051 0.380269 0.913431
vn 0.145051 0.380269 0.913431
vn 0.145051 0.380269 0.913431
vn 0.145051 0.380269 0.913431
vn 0.145051 0.380269 0.913431
vn 0.145051 0.380269 0.913431
vn -0.695352 0.718659 -0.003885
vn -0.695352 0.718659 -0.003885
vn -0.695352 0.718659 -0.003885
vn -0.695352 0.718659 -0.003885
vn -0.695352 0.718659 -0.003885
vn -0.695352 0.718659 -0.003885
vn 0.372040 0.928142 0.011749
vn 0.372040 0.928142 0.011749
vn 0.372040 0.928142 0.011749
vn 0.372040 0.928142 0.011749
vn 0.372040 0.928142 0.011749
vn 0.372040 0.928142 0.011749
vn 0.362632 0.931924 -0.003899
vn 0.362632 0.931924 -0.003899
vn 0.362632 0.931924 -0.003899
vn 0.362632 0.931924 -0.003899
vn 0.362632 0.931924 -0.003899
vn 0.362632 0.931924 -0.003899
vn 0.371995 0.928029 -0.019579
vn 0.371995 0.928029 -0.019579
vn 0.371995 0.928029 -0.019579
vn 0.371995 0.928029 -0.019579
vn 0.371995 0.928029 -0.019579
vn 0.371995 0.928029 -0.019579
vn 0.388229 0.921554 -0.003921
vn 0.388229 0.921554 -0.003921
vn 0.388229 0.921554 -0.003921
vn 0.388229 0.921554 -0.003921
vn 0.388229 0.921554 -0.003921
vn 0.388229 0.921554 -0.003921
vn -0.003921 0.003921 -0.999985
vn -0.003921 0.003921 -0.999985
vn -0.003921 0.003921 -0.999985
vn -0.003921 0.003921 -0.999985
vn -0.003921 0.003921 -0.999985
vn -0.003921 0.003921 -0.999985
vn 0.927103 -0.374786 -0.003945
vn 0.927103 -0.374786 -0.003945
vn 0.927103 -0.374786 -0.003945
vn 0.927103 -0.374786 -0.003945
vn 0.927103 -0.374786 -0.003945
vn 0.927103 -0.374786 -0.003945
vn -0.003921 0.003921 0.999985
vn -0.003921 0.003921 0.999985
vn -0.003921 0.003921 0.999985
vn -0.003921 0.003921 0.999985
vn -0.003921 0.003921 0.999985
vn -0.003921 0.003921 0.999985
vn -0.925478 0.378782 -0.003905
vn -0.925478 0.378782 -0.003905
vn -0.925478 0.378782 -0.003905
vn -0.925478 0.378782 -0.003905
vn -0.925478 0.378782 -0.003905
vn -0.925478 0.378782 -0.003905
vn 0.653472 -0.265349 0.708918
vn 0.653472 -0.265349 0.708918
vn 0.673902 0.350744 0.650257
vn 0.653472 -0.265349 0.708918
vn 0.820201 0.294330 0.490551
vn 0.673902 0.350744 0.650257
vn 0.673902 0.350744 0.650257
vn 0.428845 0.790806 0.436714
vn -0.238948 0.724677 0.646334
vn 0.428845 0.790806 0.436714
vn 0.239477 0.867614 0.435770
vn -0.238948 0.724677 0.646334
vn -0.238948 0.724677 0.646334
vn -0.385863 0.783419 0.487201
vn -0.656590 0.271286 0.703771
vn -0.385863 0.783419 0.487201
vn -0.656590 0.271286 0.703771
vn -0.656590 0.271286 0.703771
vn -0.385863 0.783419 0.487201
vn -0.073951 0.992503 0.097304
vn -0.384394 0.780437 -0.493112
vn -0.073951 0.992503 0.097304
vn -0.073893 0.991722 -0.105006
vn -0.384394 0.780437 -0.493112
vn -0.384394 0.780437 -0.493112
vn -0.237739 0.721013 -0.650861
vn -0.652967 0.269789 -0.707707
vn -0.237739 0.721013 -0.650861
vn -0.652967 0.269789 -0.707707
vn -0.652967 0.269789 -0.707707
vn -0.237739 0.721013 -0.650861
vn 0.238655 0.864635 -0.442098
vn 0.668607 0.355808 -0.652967
vn 0.238655 0.864635 -0.442098
vn 0.427366 0.788078 -0.443049
vn 0.668607 0.355808 -0.652967
vn 0.668607 0.355808 -0.652967
vn 0.817036 0.293195 -0.496476
vn 0.649813 -0.263863 -0.712825
vn 0.817036 0.293195 -0.496476
vn 0.649813 -0.263863 -0.712825
vn 0.649813 -0.263863 -0.712825
vn 0.817036 0.293195 -0.496476
vn 0.741256 0.662816 -0.105894
vn 0.820201 0.294330 0.490551
vn 0.741256 0.662816 -0.105894
vn 0.741850 0.663347 0.098128
vn 0.820201 0.294330 0.490551
vn 0.027310 0.854407 -0.518886
vn -0.175520 0.940009 -0.292534
vn -0.042858 0.876642 -0.479231
vn -0.175520 0.940009 -0.292534
vn -0.144440 0.917388 -0.370859
vn -0.042858 0.876642 -0.479231
vn 0.635812 0.604607 -0.479785
vn 0.740210 0.560053 -0.372063
vn 0.567503 0.637951 -0.520537
vn 0.740210 0.560053 -0.372063
vn 0.779901 0.552593 -0.293932
vn 0.567503 0.637951 -0.520537
vn 0.742353 0.561675 0.365285
vn 0.638186 0.606864 0.473745
vn 0.781680 0.553853 0.286747
vn 0.638186 0.606864 0.473745
vn 0.569812 0.640547 0.514795
vn 0.781680 0.553853 0.286747
vn -0.043018 0.879907 0.473195
vn -0.144855 0.920028 0.364096
vn 0.027420 0.857861 0.513150
vn -0.144855 0.920028 0.364096
vn -0.175917 0.942133 0.285376
vn 0.027420 0.857861 0.513150
vn -0.167455 0.689290 -0.704867
vn -0.434141 0.801791 -0.410674
vn -0.652967 0.269789 -0.707707
vn -0.434141 0.801791 -0.410674
vn -0.652967 0.269789 -0.707707
vn -0.652967 0.269789 -0.707707
vn 0.649813 -0.263863 -0.712825
vn 0.649813 -0.263863 -0.712825
vn 0.592403 0.380550 -0.710099
vn 0.649813 -0.263863 -0.712825
vn 0.869331 0.271420 -0.413031
vn 0.592403 0.380550 -0.710099
vn 0.653472 -0.265349 0.708918
vn 0.653472 -0.265349 0.708918
vn 0.872143 0.272298 0.406474
vn 0.653472 -0.265349 0.708918
vn 0.595713 0.382676 0.706176
vn 0.872143 0.272298 0.406474
vn -0.656590 0.271286 0.703771
vn -0.656590 0.271286 0.703771
vn -0.168376 0.693084 0.700916
vn -0.656590 0.271286 0.703771
vn -0.435529 0.804355 0.404139
vn -0.168376 0.693084 0.700916
vn 0.820201 0.294330 0.490551
vn 0.741850 0.663347 0.098128
vn 0.673902 0.350744 0.650257
vn 0.741850 0.663347 0.098128
vn 0.428845 0.790806 0.436714
vn 0.673902 0.350744 0.650257
vn 0.428845 0.790806 0.436714
vn 0.741850 0.663347 0.098128
vn 0.246013 0.933288 -0.261633
vn 0.741850 0.663347 0.098128
vn 0.113044 0.986214 -0.120840
vn 0.246013 0.933288 -0.261633
vn 0.113044 0.986214 -0.120840
vn -0.175520 0.940009 -0.292534
vn 0.246013 0.933288 -0.261633
vn -0.175917 0.942133 0.285376
vn -0.175520 0.940009 -0.292534
vn 0.113044 0.986214 -0.120840
vn -0.175520 0.940009 -0.292534
vn 0.027310 0.854407 -0.518886
vn 0.246013 0.933288 -0.261633
vn 0.113148 0.987115 0.113148
vn -0.175917 0.942133 0.285376
vn 0.113044 0.986214 -0.120840
vn 0.246013 0.933288 -0.261633
vn 0.027310 0.854407 -0.518886
vn 0.467206 0.844111 -0.263049
vn 0.027420 0.857861 0.513150
vn -0.175917 0.942133 0.285376
vn 0.113148 0.987115 0.113148
vn 0.027310 0.854407 -0.518886
vn 0.567503 0.637951 -0.520537
vn 0.467206 0.844111 -0.263049
vn 0.246510 0.935172 0.254336
vn 0.027420 0.857861 0.513150
vn 0.113148 0.987115 0.113148
vn 0.569812 0.640547 0.514795
vn 0.027420 0.857861 0.513150
vn 0.246510 0.935172 0.254336
vn 0.246510 0.935172 0.254336
vn 0.113148 0.987115 0.113148
vn 0.427366 0.788078 -0.443049
vn 0.113148 0.987115 0.113148
vn 0.741256 0.662816 -0.105894
vn 0.427366 0.788078 -0.443049
vn 0.427366 0.788078 -0.443049
vn 0.741256 0.662816 -0.105894
vn 0.817036 0.293195 -0.496476
vn 0.668607 0.355808 -0.652967
vn 0.427366 0.788078 -0.443049
vn 0.817036 0.293195 -0.496476
vn 0.468159 0.845834 0.255717
vn 0.569812 0.640547 0.514795
vn 0.246510 0.935172 0.254336
vn 0.781680 0.553853 0.286747
vn 0.569812 0.640547 0.514795
vn 0.468159 0.845834 0.255717
vn 0.601733 0.790512 0.114054
vn 0.781680 0.553853 0.286747
vn 0.468159 0.845834 0.255717
vn 0.779901 0.552593 -0.293932
vn 0.781680 0.553853 0.286747
vn 0.601733 0.790512 0.114054
vn 0.601733 0.790512 0.114054
vn 0.468159 0.845834 0.255717
vn -0.073893 0.991722 -0.105006
vn 0.468159 0.845834 0.255717
vn 0.238655 0.864635 -0.442098
vn -0.073893 0.991722 -0.105006
vn -0.073893 0.991722 -0.105006
vn 0.238655 0.864635 -0.442098
vn -0.237739 0.721013 -0.650861
vn -0.384394 0.780437 -0.493112
vn -0.073893 0.991722 -0.105006
vn -0.237739 0.721013 -0.650861
vn 0.601175 0.789779 -0.121807
vn 0.779901 0.552593 -0.293932
vn 0.601733 0.790512 0.114054
vn 0.567503 0.637951 -0.520537
vn 0.779901 0.552593 -0.293932
vn 0.601175 0.789779 -0.121807
vn 0.467206 0.844111 -0.263049
vn 0.567503 0.637951 -0.520537
vn 0.601175 0.789779 -0.121807
vn 0.467206 0.844111 -0.263049
vn 0.601175 0.789779 -0.121807
vn 0.239477 0.867614 0.435770
vn 0.601175 0.789779 -0.121807
vn -0.073951 0.992503 0.097304
vn 0.239477 0.867614 0.435770
vn 0.239477 0.867614 0.435770
vn -0.073951 0.992503 0.097304
vn -0.385863 0.783419 0.487201
vn -0.238948 0.724677 0.646334
vn 0.239477 0.867614 0.435770
vn -0.385863 0.783419 0.487201
vn -0.042858 0.876642 -0.479231
vn 0.285063 0.902048 -0.324112
vn 0.635812 0.604607 -0.479785
vn 0.058560 0.995524 -0.074176
vn 0.285063 0.902048 -0.324112
vn -0.042858 0.876642 -0.479231
vn -0.144440 0.917388 -0.370859
vn 0.058560 0.995524 -0.074176
vn -0.042858 0.876642 -0.479231
vn 0.285063 0.902048 -0.324112
vn 0.418317 0.848362 -0.324489
vn 0.635812 0.604607 -0.479785
vn 0.285063 0.902048 -0.324112
vn 0.058560 0.995524 -0.074176
vn 0.183825 0.903482 -0.387206
vn 0.635812 0.604607 -0.479785
vn 0.418317 0.848362 -0.324489
vn 0.740210 0.560053 -0.372063
vn 0.058592 0.996071 0.066405
vn 0.058560 0.995524 -0.074176
vn -0.144440 0.917388 -0.370859
vn -0.144855 0.920028 0.364096
vn 0.058592 0.996071 0.066405
vn -0.144440 0.917388 -0.370859
vn 0.058560 0.995524 -0.074176
vn -0.019480 0.985675 -0.167526
vn 0.183825 0.903482 -0.387206
vn 0.285778 0.904312 0.317097
vn 0.058592 0.996071 0.066405
vn -0.144855 0.920028 0.364096
vn -0.043018 0.879907 0.473195
vn 0.285778 0.904312 0.317097
vn -0.144855 0.920028 0.364096
vn -0.019505 0.986934 0.159938
vn 0.058592 0.996071 0.066405
vn 0.285778 0.904312 0.317097
vn 0.419369 0.850497 0.317466
vn 0.285778 0.904312 0.317097
vn -0.043018 0.879907 0.473195
vn 0.638186 0.606864 0.473745
vn 0.419369 0.850497 0.317466
vn -0.043018 0.879907 0.473195
vn 0.184379 0.906203 0.380527
vn -0.019505 0.986934 0.159938
vn 0.285778 0.904312 0.317097
vn 0.648366 0.758392 0.066801
vn 0.419369 0.850497 0.317466
vn 0.638186 0.606864 0.473745
vn 0.742353 0.561675 0.365285
vn 0.648366 0.758392 0.066801
vn 0.638186 0.606864 0.473745
vn 0.497603 0.779709 0.380059
vn 0.419369 0.850497 0.317466
vn 0.648366 0.758392 0.066801
vn 0.648006 0.757971 -0.074619
vn 0.648366 0.758392 0.066801
vn 0.742353 0.561675 0.365285
vn 0.740210 0.560053 -0.372063
vn 0.648006 0.757971 -0.074619
vn 0.742353 0.561675 0.365285
vn 0.418317 0.848362 -0.324489
vn 0.648006 0.757971 -0.074619
vn 0.740210 0.560053 -0.372063
vn 0.697808 0.697808 0.161639
vn 0.497603 0.779709 0.380059
vn 0.648366 0.758392 0.066801
vn 0.696899 0.696899 -0.169303
vn 0.648006 0.757971 -0.074619
vn 0.418317 0.848362 -0.324489
vn 0.496113 0.777373 -0.386733
vn 0.696899 0.696899 -0.169303
vn 0.418317 0.848362 -0.324489
vn 0.697808 0.697808 0.161639
vn 0.872143 0.272298 0.406474
vn 0.497603 0.779709 0.380059
vn 0.869331 0.271420 -0.413031
vn 0.872143 0.272298 0.406474
vn 0.697808 0.697808 0.161639
vn 0.696899 0.696899 -0.169303
vn 0.869331 0.271420 -0.413031
vn 0.697808 0.697808 0.161639
vn 0.872143 0.272298 0.406474
vn 0.595713 0.382676 0.706176
vn 0.497603 0.779709 0.380059
vn 0.497603 0.779709 0.380059
vn 0.595713 0.382676 0.706176
vn 0.184379 0.906203 0.380527
vn 0.592403 0.380550 -0.710099
vn 0.869331 0.271420 -0.413031
vn 0.696899 0.696899 -0.169303
vn 0.496113 0.777373 -0.386733
vn 0.592403 0.380550 -0.710099
vn 0.696899 0.696899 -0.169303
vn 0.595713 0.382676 0.706176
vn -0.168376 0.693084 0.700916
vn 0.184379 0.906203 0.380527
vn -0.167455 0.689290 -0.704867
vn 0.592403 0.380550 -0.710099
vn 0.496113 0.777373 -0.386733
vn 0.184379 0.906203 0.380527
vn -0.168376 0.693084 0.700916
vn -0.019505 0.986934 0.159938
vn 0.183825 0.903482 -0.387206
vn -0.167455 0.689290 -0.704867
vn 0.496113 0.777373 -0.386733
vn -0.168376 0.693084 0.700916
vn -0.435529 0.804355 0.404139
vn -0.019505 0.986934 0.159938
vn -0.434141 0.801791 -0.410674
vn -0.167455 0.689290 -0.704867
vn 0.183825 0.903482 -0.387206
vn -0.019505 0.986934 0.159938
vn -0.435529 0.804355 0.404139
vn -0.019480 0.985675 -0.167526
vn -0.019480 0.985675 -0.167526
vn -0.434141 0.801791 -0.410674
vn 0.183825 0.903482 -0.387206
vn -0.435529 0.804355 0.404139
vn -0.434141 0.801791 -0.410674
vn -0.019480 0.985675 -0.167526
vt 0.337646 0.485352
vt 0.842773 0.485352
vt 0.337646 0.517822
vt 0.842773 0.485352
vt 0.842773 0.517822
vt 0.337646 0.517822
vt -0.199585 0.485352
vt 0.654297 0.485352
vt -0.199585 0.517822
vt 0.654297 0.485352
vt 0.654297 0.517822
vt -0.199585 0.517822
vt 0.156738 0.485352
vt 0.662109 0.485352
vt 0.156738 0.517822
vt 0.662109 0.485352
vt 0.662109 0.517822
vt 0.156738 0.517822
vt 0.345215 0.485352
vt 1.199219 0.485352
vt 0.345215 0.517822
vt 1.199219 0.485352
vt 1.199219 0.517822
vt 0.345215 0.517822
vt 0.375244 1.165405
vt 0.805664 1.165649
vt 0.341309 1.199341
vt 0.805664 1.165649
vt 0.839355 1.199585
vt 0.341309 1.199341
vt 0.809082 1.162109
vt 0.809082 0.382812
vt 0.842773 1.196045
vt 0.809082 0.382812
vt 0.842773 0.349121
vt 0.842773 1.196045
vt 0.805664 0.379395
vt 0.375244 0.379395
vt 0.839355 0.345703
vt 0.375244 0.379395
vt 0.341309 0.345703
vt 0.839355 0.345703
vt 0.371582 0.382812
vt 0.371582 1.161865
vt 0.337646 0.349121
vt 0.371582 1.161865
vt 0.337646 1.195801
vt 0.337646 0.349121
vt 0.619141 0.490723
vt 0.199463 0.490723
vt 0.621582 0.484863
vt 0.199463 0.490723
vt 0.196899 0.484863
vt 0.621582 0.484863
vt 1.156250 0.490723
vt 0.387939 0.490723
vt 1.159180 0.484863
vt 0.387939 0.490723
vt 0.385254 0.484863
vt 1.159180 0.484863
vt 0.800293 0.490723
vt 0.380615 0.490723
vt 0.802734 0.484863
vt 0.380615 0.490723
vt 0.377930 0.484863
vt 0.802734 0.484863
vt 0.611816 0.490723
vt -0.156616 0.490723
vt 0.614258 0.484863
vt -0.156616 0.490723
vt -0.159180 0.484863
vt 0.614258 0.484863
vt 0.403320 1.137451
vt 0.777344 1.137573
vt 0.384766 1.155762
vt 0.777344 1.137573
vt 0.795898 1.156006
vt 0.384766 1.155762
vt 0.780762 1.134033
vt 0.780762 0.411133
vt 0.799316 1.152466
vt 0.780762 0.411133
vt 0.799316 0.392578
vt 0.799316 1.152466
vt 0.777344 0.407715
vt 0.403320 0.407715
vt 0.795898 0.389160
vt 0.403320 0.407715
vt 0.384766 0.389160
vt 0.795898 0.389160
vt 0.399658 0.411133
vt 0.399658 1.133911
vt 0.381348 0.392578
vt 0.399658 1.133911
vt 0.381348 1.152222
vt 0.381348 0.392578
vt 0.594727 0.516846
vt 0.223755 0.516846
vt 0.594727 0.495117
vt 0.223755 0.516846
vt 0.223755 0.495117
vt 0.594727 0.495117
vt 1.131836 0.516846
vt 0.412109 0.516846
vt 1.131836 0.495117
vt 0.412109 0.516846
vt 0.412109 0.495117
vt 1.131836 0.495117
vt 0.775879 0.516846
vt 0.404785 0.516846
vt 0.775879 0.495117
vt 0.404785 0.516846
vt 0.404785 0.495117
vt 0.775879 0.495117
vt 0.587402 0.516846
vt -0.132446 0.516846
vt 0.587402 0.495117
vt -0.132446 0.516846
vt -0.132446 0.495117
vt 0.587402 0.495117
vt 1.201172 0.517822
vt 1.199219 0.517822
vt 1.201172 0.485352
vt 1.199219 0.517822
vt 1.199219 0.485352
vt 1.201172 0.485352
vt 0.337646 0.485352
vt 0.341309 0.482910
vt 0.842773 0.485352
vt 0.341309 0.482910
vt 0.839355 0.482910
vt 0.842773 0.485352
vt 0.842773 0.485352
vt 0.845215 0.485352
vt 0.842773 0.517822
vt 0.845215 0.485352
vt 0.845215 0.517822
vt 0.842773 0.517822
vt -0.199585 0.485352
vt -0.196045 0.482910
vt 0.654297 0.485352
vt -0.196045 0.482910
vt 0.650879 0.482910
vt 0.654297 0.485352
vt 0.654297 0.485352
vt 0.656738 0.485352
vt 0.654297 0.517822
vt 0.656738 0.485352
vt 0.656738 0.517822
vt 0.654297 0.517822
vt 0.156738 0.485352
vt 0.160278 0.482910
vt 0.662109 0.485352
vt 0.160278 0.482910
vt 0.658203 0.482910
vt 0.662109 0.485352
vt 0.662109 0.485352
vt 0.664551 0.485352
vt 0.662109 0.517822
vt 0.664551 0.485352
vt 0.664551 0.517822
vt 0.662109 0.517822
vt 0.345215 0.485352
vt 0.348633 0.482910
vt 1.199219 0.485352
vt 0.348633 0.482910
vt 1.195312 0.482910
vt 1.199219 0.485352
vt -0.161987 0.484863
vt -0.159180 0.484863
vt -0.159302 0.490723
vt -0.159180 0.484863
vt -0.156616 0.490723
vt -0.159302 0.490723
vt 0.199463 0.490723
vt 0.196777 0.490723
vt 0.196899 0.484863
vt 0.196777 0.490723
vt 0.194214 0.484863
vt 0.196899 0.484863
vt 0.387939 0.490723
vt 0.385254 0.490723
vt 0.385254 0.484863
vt 0.385254 0.490723
vt 0.382568 0.484863
vt 0.385254 0.484863
vt 0.380615 0.490723
vt 0.377686 0.490723
vt 0.377930 0.484863
vt 0.377686 0.490723
vt 0.375244 0.484863
vt 0.377930 0.484863
vt -0.134888 0.495117
vt -0.132446 0.495117
vt -0.134888 0.516846
vt -0.132446 0.495117
vt -0.132446 0.516846
vt -0.134888 0.516846
vt 0.223755 0.516846
vt 0.221191 0.516846
vt 0.223755 0.495117
vt 0.221191 0.516846
vt 0.221191 0.495117
vt 0.223755 0.495117
vt 0.412109 0.516846
vt 0.409668 0.516846
vt 0.412109 0.495117
vt 0.409668 0.516846
vt 0.409668 0.495117
vt 0.412109 0.495117
vt 0.404785 0.516846
vt 0.402344 0.516846
vt 0.404785 0.495117
vt 0.402344 0.516846
vt 0.402344 0.495117
vt 0.404785 0.495117
vt 0.335205 1.199341
vt 0.337646 1.195801
vt 0.337646 1.201782
vt 0.337646 1.195801
vt 0.341309 1.199341
vt 0.337646 1.201782
vt 0.341309 1.199341
vt 0.337646 1.195801
vt 0.375244 1.165405
vt 0.337646 1.195801
vt 0.371582 1.161865
vt 0.375244 1.165405
vt 0.371582 1.161865
vt 0.375244 1.159180
vt 0.375244 1.165405
vt 0.375244 0.385742
vt 0.375244 1.159180
vt 0.371582 1.161865
vt 0.375244 1.159180
vt 0.377930 1.161987
vt 0.375244 1.165405
vt 0.371582 0.382812
vt 0.375244 0.385742
vt 0.371582 1.161865
vt 0.375244 1.165405
vt 0.377930 1.161987
vt 0.805664 1.165649
vt 0.377930 0.382812
vt 0.375244 0.385742
vt 0.371582 0.382812
vt 0.377930 1.161987
vt 0.802734 1.162109
vt 0.805664 1.165649
vt 0.375244 0.379395
vt 0.377930 0.382812
vt 0.371582 0.382812
vt 0.802734 0.382812
vt 0.377930 0.382812
vt 0.375244 0.379395
vt 0.375244 0.379395
vt 0.371582 0.382812
vt 0.341309 0.345703
vt 0.371582 0.382812
vt 0.337646 0.349121
vt 0.341309 0.345703
vt 0.341309 0.345703
vt 0.337646 0.349121
vt 0.335205 0.345703
vt 0.337646 0.343262
vt 0.341309 0.345703
vt 0.335205 0.345703
vt 0.805664 0.379395
vt 0.802734 0.382812
vt 0.375244 0.379395
vt 0.805664 0.385742
vt 0.802734 0.382812
vt 0.805664 0.379395
vt 0.809082 0.382812
vt 0.805664 0.385742
vt 0.805664 0.379395
vt 0.805664 1.159424
vt 0.805664 0.385742
vt 0.809082 0.382812
vt 0.809082 0.382812
vt 0.805664 0.379395
vt 0.842773 0.349121
vt 0.805664 0.379395
vt 0.839355 0.345703
vt 0.842773 0.349121
vt 0.842773 0.349121
vt 0.839355 0.345703
vt 0.842773 0.343262
vt 0.845215 0.345703
vt 0.842773 0.349121
vt 0.842773 0.343262
vt 0.809082 1.162109
vt 0.805664 1.159424
vt 0.809082 0.382812
vt 0.802734 1.162109
vt 0.805664 1.159424
vt 0.809082 1.162109
vt 0.805664 1.165649
vt 0.802734 1.162109
vt 0.809082 1.162109
vt 0.805664 1.165649
vt 0.809082 1.162109
vt 0.839355 1.199585
vt 0.809082 1.162109
vt 0.842773 1.196045
vt 0.839355 1.199585
vt 0.839355 1.199585
vt 0.842773 1.196045
vt 0.845215 1.199585
vt 0.842773 1.202148
vt 0.839355 1.199585
vt 0.845215 1.199585
vt 0.380615 1.159302
vt 0.384766 1.155762
vt 0.800293 1.159546
vt 0.381348 1.152222
vt 0.384766 1.155762
vt 0.380615 1.159302
vt 0.377686 1.156616
vt 0.381348 1.152222
vt 0.380615 1.159302
vt 0.384766 1.155762
vt 0.795898 1.156006
vt 0.800293 1.159546
vt 0.384766 1.155762
vt 0.381348 1.152222
vt 0.403320 1.137451
vt 0.800293 1.159546
vt 0.795898 1.156006
vt 0.802734 1.156860
vt 0.381348 0.392578
vt 0.381348 1.152222
vt 0.377686 1.156616
vt 0.377686 0.388184
vt 0.381348 0.392578
vt 0.377686 1.156616
vt 0.381348 1.152222
vt 0.399658 1.133911
vt 0.403320 1.137451
vt 0.384766 0.389160
vt 0.381348 0.392578
vt 0.377686 0.388184
vt 0.380615 0.385742
vt 0.384766 0.389160
vt 0.377686 0.388184
vt 0.399658 0.411133
vt 0.381348 0.392578
vt 0.384766 0.389160
vt 0.795898 0.389160
vt 0.384766 0.389160
vt 0.380615 0.385742
vt 0.800293 0.385742
vt 0.795898 0.389160
vt 0.380615 0.385742
vt 0.403320 0.407715
vt 0.399658 0.411133
vt 0.384766 0.389160
vt 0.799316 0.392578
vt 0.795898 0.389160
vt 0.800293 0.385742
vt 0.802734 0.388184
vt 0.799316 0.392578
vt 0.800293 0.385742
vt 0.777344 0.407715
vt 0.795898 0.389160
vt 0.799316 0.392578
vt 0.799316 1.152466
vt 0.799316 0.392578
vt 0.802734 0.388184
vt 0.802734 1.156860
vt 0.799316 1.152466
vt 0.802734 0.388184
vt 0.795898 1.156006
vt 0.799316 1.152466
vt 0.802734 1.156860
vt 0.780762 0.411133
vt 0.777344 0.407715
vt 0.799316 0.392578
vt 0.780762 1.134033
vt 0.799316 1.152466
vt 0.795898 1.156006
vt 0.777344 1.137573
vt 0.780762 1.134033
vt 0.795898 1.156006
vt 0.780762 0.411133
vt 0.778320 0.412598
vt 0.777344 0.407715
vt 0.778320 1.132568
vt 0.778320 0.412598
vt 0.780762 0.411133
vt 0.780762 1.134033
vt 0.778320 1.132568
vt 0.780762 0.411133
vt 0.778320 0.412598
vt 0.775879 0.410156
vt 0.777344 0.407715
vt 0.777344 0.407715
vt 0.775879 0.410156
vt 0.403320 0.407715
vt 0.775879 1.135132
vt 0.778320 1.132568
vt 0.780762 1.134033
vt 0.777344 1.137573
vt 0.775879 1.135132
vt 0.780762 1.134033
vt 0.775879 0.410156
vt 0.404785 0.410156
vt 0.403320 0.407715
vt 0.404785 1.134888
vt 0.775879 1.135132
vt 0.777344 1.137573
vt 0.403320 0.407715
vt 0.404785 0.410156
vt 0.399658 0.411133
vt 0.403320 1.137451
vt 0.404785 1.134888
vt 0.777344 1.137573
vt 0.404785 0.410156
vt 0.402344 0.412598
vt 0.399658 0.411133
vt 0.402344 1.132446
vt 0.404785 1.134888
vt 0.403320 1.137451
vt 0.399658 0.411133
vt 0.402344 0.412598
vt 0.399658 1.133911
vt 0.399658 1.133911
vt 0.402344 1.132446
vt 0.403320 1.137451
vt 0.402344 0.412598
vt 0.402344 1.132446
vt 0.399658 1.133911
f 1/1/1 2/2/2 3/3/3
f 4/4/4 5/5/5 6/6/6
f 7/7/7 8/8/8 9/9/9
f 10/10/10 11/11/11 12/12/12
f 13/13/13 14/14/14 15/15/15
f 16/16/16 17/17/17 18/18/18
f 19/19/19 20/20/20 21/21/21
f 22/22/22 23/23/23 24/24/24
f 25/25/25 26/26/26 27/27/27
f 28/28/28 29/29/29 30/30/30
f 31/31/31 32/32/32 33/33/33
f 34/34/34 35/35/35 36/36/36
f 37/37/37 38/38/38 39/39/39
f 40/40/40 41/41/41 42/42/42
f 43/43/43 44/44/44 45/45/45
f 46/46/46 47/47/47 48/48/48
f 49/49/49 50/50/50 51/51/51
f 52/52/52 53/53/53 54/54/54
f 55/55/55 56/56/56 57/57/57
f 58/58/58 59/59/59 60/60/60
f 61/61/61 62/62/62 63/63/63
f 64/64/64 65/65/65 66/66/66
f 67/67/67 68/68/68 69/69/69
f 70/70/70 71/71/71 72/72/72
f 73/73/73 74/74/74 75/75/75
f 76/76/76 77/77/77 78/78/78
f 79/79/79 80/80/80 81/81/81
f 82/82/82 83/83/83 84/84/84
f 85/85/85 86/86/86 87/87/87
f 88/88/88 89/89/89 90/90/90
f 91/91/91 92/92/92 93/93/93
f 94/94/94 95/95/95 96/96/96
f 97/97/97 98/98/98 99/99/99
f 100/100/100 101/101/101 102/102/102
f 103/103/103 104/104/104 105/105/105
f 106/106/106 107/107/107 108/108/108
f 109/109/109 110/110/110 111/111/111
f 112/112/112 113/113/113 114/114/114
f 115/115/115 116/116/116 117/117/117
f 118/118/118 119/119/119 120/120/120
f 121/121/121 122/122/122 123/123/123
f 124/124/124 125/125/125 126/126/126
f 127/127/127 128/128/128 129/129/129
f 130/130/130 131/131/131 132/132/132
f 133/133/133 134/134/134 135/135/135
f 136/136/136 137/137/137 138/138/138
f 139/139/139 140/140/140 141/141/141
f 142/142/142 143/143/143 144/144/144
f 145/145/145 146/146/146 147/147/147
f 148/148/148 149/149/149 150/150/150
f 151/151/151 152/152/152 153/153/153
f 154/154/154 155/155/155 156/156/156
f 157/157/157 158/158/158 159/159/159
f 160/160/160 161/161/161 162/162/162
f 163/163/163 164/164/164 165/165/165
f 166/166/166 167/167/167 168/168/168
f 169/169/169 170/170/170 171/171/171
f 172/172/172 173/173/173 174/174/174
f 175/175/175 176/176/176 177/177/177
f 178/178/178 179/179/179 180/180/180
f 181/181/181 182/182/182 183/183/183
f 184/184/184 185/185/185 186/186/186
f 187/187/187 188/188/188 189/189/189
f 190/190/190 191/191/191 192/192/192
f 193/193/193 194/194/194 195/195/195
f 196/196/196 197/197/197 198/198/198
f 199/199/199 200/200/200 201/201/201
f 202/202/202 203/203/203 204/204/204
f 205/205/205 206/206/206 207/207/207
f 208/208/208 209/209/209 210/210/210
f 211/211/211 212/212/212 213/213/213
f 214/214/214 215/215/215 216/216/216
f 217/217/217 218/218/218 219/219/219
f 220/220/220 221/221/221 222/222/222
f 223/223/223 224/224/224 225/225/225
f 226/226/226 227/227/227 228/228/228
f 229/229/229 230/230/230 231/231/231
f 232/232/232 233/233/233 234/234/234
f 235/235/235 236/236/236 237/237/237
f 238/238/238 239/239/239 240/240/240
f 241/241/241 242/242/242 243/243/243
f 244/244/244 245/245/245 246/246/246
f 247/247/247 248/248/248 249/249/249
f 250/250/250 251/251/251 252/252/252
f 253/253/253 254/254/254 255/255/255
f 256/256/256 257/257/257 258/258/258
f 259/259/259 260/260/260 261/261/261
f 262/262/262 263/263/263 264/264/264
f 265/265/265 266/266/266 267/267/267
f 268/268/268 269/269/269 270/270/270
f 271/271/271 272/272/272 273/273/273
f 274/274/274 275/275/275 276/276/276
f 277/277/277 278/278/278 279/279/279
f 280/280/280 281/281/281 282/282/282
f 283/283/283 284/284/284 285/285/285
f 286/286/286 287/287/287 288/288/288
f 289/289/289 290/290/290 291/291/291
f 292/292/292 293/293/293 294/294/294
f 295/295/295 296/296/296 297/297/297
f 298/298/298 299/299/299 300/300/300
f 301/301/301 302/302/302 303/303/303
f 304/304/304 305/305/305 306/306/306
f 307/307/307 308/308/308 309/309/309
f 310/310/310 311/311/311 312/312/312
f 313/313/313 314/314/314 315/315/315
f 316/316/316 317/317/317 318/318/318
f 319/319/319 320/320/320 321/321/321
f 322/322/322 323/323/323 324/324/324
f 325/325/325 326/326/326 327/327/327
f 328/328/328 329/329/329 330/330/330
f 331/331/331 332/332/332 333/333/333
f 334/334/334 335/335/335 336/336/336
f 337/337/337 338/338/338 339/339/339
f 340/340/340 341/341/341 342/342/342
f 343/343/343 344/344/344 345/345/345
f 346/346/346 347/347/347 348/348/348
f 349/349/349 350/350/350 351/351/351
f 352/352/352 353/353/353 354/354/354
f 355/355/355 356/356/356 357/357/357
f 358/358/358 359/359/359 360/360/360
f 361/361/361 362/362/362 363/363/363
f 364/364/364 365/365/365 366/366/366
f 367/367/367 368/368/368 369/369/369
f 370/370/370 371/371/371 372/372/372
f 373/373/373 374/374/374 375/375/375
f 376/376/376 377/377/377 378/378/378
f 379/379/379 380/380/380 381/381/381
f 382/382/382 383/383/383 384/384/384
f 385/385/385 386/386/386 387/387/387
f 388/388/388 389/389/389 390/390/390
f 391/391/391 392/392/392 393/393/393
f 394/394/394 395/395/395 396/396/396
f 397/397/397 398/398/398 399/399/399
f 400/400/400 401/401/401 402/402/402
f 403/403/403 404/404/404 405/405/405
f 406/406/406 407/407/407 408/408/408
f 409/409/409 410/410/410 411/411/411
f 412/412/412 413/413/413 414/414/414
f 415/415/415 416/416/416 417/417/417
f 418/418/418 419/419/419 420/420/420
f 421/421/421 422/422/422 423/423/423
f 424/424/424 425/425/425 426/426/426
f 427/427/427 428/428/428 429/429/429
f 430/430/430 431/431/431 432/432/432
