# OBJ file
v 113.081020 -1253.637800 1011.205000
v 19.539696 -1215.388200 1011.261400
v 110.613230 -1259.673000 1011.205000
v 19.539696 -1215.388200 1011.261400
v 17.071907 -1221.423300 1011.261400
v 110.613230 -1259.673000 1011.205000
v 19.076897 -1215.198900 1010.761700
v 19.076904 -1215.199000 839.888370
v 16.609100 -1221.234000 1010.761600
v 19.076904 -1215.199000 839.888370
v 16.609116 -1221.234000 839.888400
v 16.609100 -1221.234000 1010.761600
v 19.539711 -1215.388200 839.388500
v 113.081030 -1253.637800 839.388500
v 17.071915 -1221.423200 839.388400
v 113.081030 -1253.637800 839.388500
v 110.613240 -1259.673000 839.388400
v 17.071915 -1221.423200 839.388400
v 113.543830 -1253.827100 839.888370
v 113.543820 -1253.827100 1010.704700
v 111.076040 -1259.862200 839.888400
v 113.543820 -1253.827100 1010.704700
v 111.076030 -1259.862300 1010.704800
v 111.076040 -1259.862200 839.888400
v 106.361470 -1250.275600 1003.923900
v 26.690224 -1217.697500 1003.971800
v 112.617770 -1252.903200 1010.705500
v 26.690224 -1217.697500 1003.971800
v 20.385384 -1215.188700 1010.761000
v 112.617770 -1252.903200 1010.705500
v 26.035553 -1217.429800 1003.265000
v 26.035560 -1217.429800 847.380800
v 19.730713 -1214.920900 1010.054000
v 26.035560 -1217.429800 847.380800
v 19.730720 -1214.921000 840.595460
v 19.730713 -1214.920900 1010.054000
v 26.690048 -1217.697400 846.673770
v 106.361300 -1250.275500 846.673770
v 20.385208 -1215.188600 839.888400
v 106.361300 -1250.275500 846.673770
v 112.617590 -1252.903100 839.888400
v 20.385208 -1215.188600 839.888400
v 107.015790 -1250.543200 847.380800
v 107.015780 -1250.543200 1003.216500
v 113.272090 -1253.170800 840.595460
v 107.015780 -1250.543200 1003.216500
v 113.272080 -1253.170800 1009.998000
v 113.272090 -1253.170800 840.595460
v 104.764350 -1251.393400 1002.701300
v 27.046310 -1219.613900 1002.748100
v 105.696310 -1250.492900 1003.222800
v 27.046310 -1219.613900 1002.748100
v 27.012230 -1218.318500 1003.270100
v 105.696310 -1250.492900 1003.222800
v 26.547348 -1219.409900 1002.209400
v 26.547356 -1219.409900 848.436000
v 26.513275 -1218.114400 1002.731400
v 26.547356 -1219.409900 848.436000
v 26.513283 -1218.114500 847.914060
v 26.513275 -1218.114400 1002.731400
v 27.046272 -1219.613900 847.897000
v 104.764320 -1251.393300 847.896850
v 27.012200 -1218.318500 847.375000
v 104.764320 -1251.393300 847.896850
v 105.696290 -1250.492900 847.375000
v 27.012200 -1218.318500 847.375000
v 105.263240 -1251.597300 848.436000
v 105.263230 -1251.597500 1002.162000
v 106.195210 -1250.697000 847.914060
v 105.263230 -1251.597500 1002.162000
v 106.195200 -1250.697100 1002.683500
v 106.195210 -1250.697000 847.914060
v 100.394910 -1250.048000 998.318000
v 31.106888 -1221.715600 998.359800
v 103.788800 -1251.482500 1002.000400
v 31.106888 -1221.715600 998.359800
v 27.680160 -1220.361200 1002.046300
v 103.788800 -1251.482500 1002.000400
v 30.452225 -1221.447900 997.652900
v 30.452232 -1221.447900 852.989700
v 27.025490 -1220.093500 1001.339500
v 30.452232 -1221.447900 852.989700
v 27.025505 -1220.093600 849.305240
v 27.025490 -1220.093500 1001.339500
v 31.106712 -1221.715500 852.282650
v 100.394740 -1250.047700 852.282700
v 27.679985 -1220.361100 848.598200
v 100.394740 -1250.047700 852.282700
v 103.788630 -1251.482400 848.598200
v 27.679985 -1220.361100 848.598200
v 101.049220 -1250.315400 852.989750
v 101.049210 -1250.315400 997.610800
v 104.443100 -1251.750100 849.305240
v 101.049210 -1250.315400 997.610800
v 104.443100 -1251.750100 1001.293100
v 104.443100 -1251.750100 849.305240
v 98.299040 -1254.399000 997.818240
v 29.553200 -1226.288500 997.859740
v 99.936620 -1250.394300 997.818240
v 29.553200 -1226.288500 997.859740
v 31.190780 -1222.283700 997.859740
v 99.936620 -1250.394300 997.818240
v 29.090400 -1226.099200 997.360050
v 29.090408 -1226.099200 853.282650
v 30.727982 -1222.094500 997.359900
v 29.090408 -1226.099200 853.282650
v 30.727990 -1222.094400 853.282600
v 30.727982 -1222.094500 997.359900
v 29.553207 -1226.288500 852.782600
v 98.299050 -1254.399200 852.782600
v 31.190788 -1222.283700 852.782600
v 98.299050 -1254.399200 852.782600
v 99.936630 -1250.394400 852.782600
v 31.190788 -1222.283700 852.782600
v 98.761850 -1254.588400 853.282650
v 98.761840 -1254.588400 997.318000
v 100.399430 -1250.583600 853.282600
v 98.761840 -1254.588400 997.318000
v 100.399430 -1250.583500 997.317930
v 100.399430 -1250.583600 853.282600
v 110.613230 -1259.673000 1011.205000
v 111.076030 -1259.862300 1010.704800
v 113.081020 -1253.637800 1011.205000
v 111.076030 -1259.862300 1010.704800
v 113.543820 -1253.827100 1010.704700
v 113.081020 -1253.637800 1011.205000
v 113.081020 -1253.637800 1011.205000
v 112.617770 -1252.903200 1010.705500
v 19.539696 -1215.388200 1011.261400
v 112.617770 -1252.903200 1010.705500
v 20.385384 -1215.188700 1010.761000
v 19.539696 -1215.388200 1011.261400
v 19.539696 -1215.388200 1011.261400
v 19.076897 -1215.198900 1010.761700
v 17.071907 -1221.423300 1011.261400
v 19.076897 -1215.198900 1010.761700
v 16.609100 -1221.234000 1010.761600
v 17.071907 -1221.423300 1011.261400
v 19.076897 -1215.198900 1010.761700
v 19.730713 -1214.920900 1010.054000
v 19.076904 -1215.199000 839.888370
v 19.730713 -1214.920900 1010.054000
v 19.730720 -1214.921000 840.595460
v 19.076904 -1215.199000 839.888370
v 19.076904 -1215.199000 839.888370
v 19.539711 -1215.388200 839.388500
v 16.609116 -1221.234000 839.888400
v 19.539711 -1215.388200 839.388500
v 17.071915 -1221.423200 839.388400
v 16.609116 -1221.234000 839.888400
v 19.539711 -1215.388200 839.388500
v 20.385208 -1215.188600 839.888400
v 113.081030 -1253.637800 839.388500
v 20.385208 -1215.188600 839.888400
v 112.617590 -1252.903100 839.888400
v 113.081030 -1253.637800 839.388500
v 113.081030 -1253.637800 839.388500
v 113.543830 -1253.827100 839.888370
v 110.613240 -1259.673000 839.388400
v 113.543830 -1253.827100 839.888370
v 111.076040 -1259.862200 839.888400
v 110.613240 -1259.673000 839.388400
v 113.543830 -1253.827100 839.888370
v 113.272090 -1253.170800 840.595460
v 113.543820 -1253.827100 1010.704700
v 113.272090 -1253.170800 840.595460
v 113.272080 -1253.170800 1009.998000
v 113.543820 -1253.827100 1010.704700
v 105.696310 -1250.492900 1003.222800
v 106.195200 -1250.697100 1002.683500
v 104.764350 -1251.393400 1002.701300
v 106.195200 -1250.697100 1002.683500
v 105.263230 -1251.597500 1002.162000
v 104.764350 -1251.393400 1002.701300
v 27.046310 -1219.613900 1002.748100
v 26.547348 -1219.409900 1002.209400
v 27.012230 -1218.318500 1003.270100
v 26.547348 -1219.409900 1002.209400
v 26.513275 -1218.114400 1002.731400
v 27.012230 -1218.318500 1003.270100
v 26.547356 -1219.409900 848.436000
v 27.046272 -1219.613900 847.897000
v 26.513283 -1218.114500 847.914060
v 27.046272 -1219.613900 847.897000
v 27.012200 -1218.318500 847.375000
v 26.513283 -1218.114500 847.914060
v 104.764320 -1251.393300 847.896850
v 105.263240 -1251.597300 848.436000
v 105.696290 -1250.492900 847.375000
v 105.263240 -1251.597300 848.436000
v 106.195210 -1250.697000 847.914060
v 105.696290 -1250.492900 847.375000
v 99.936620 -1250.394300 997.818240
v 100.399430 -1250.583500 997.317930
v 98.299040 -1254.399000 997.818240
v 100.399430 -1250.583500 997.317930
v 98.761840 -1254.588400 997.318000
v 98.299040 -1254.399000 997.818240
v 29.553200 -1226.288500 997.859740
v 29.090400 -1226.099200 997.360050
v 31.190780 -1222.283700 997.859740
v 29.090400 -1226.099200 997.360050
v 30.727982 -1222.094500 997.359900
v 31.190780 -1222.283700 997.859740
v 29.090408 -1226.099200 853.282650
v 29.553207 -1226.288500 852.782600
v 30.727990 -1222.094400 853.282600
v 29.553207 -1226.288500 852.782600
v 31.190788 -1222.283700 852.782600
v 30.727990 -1222.094400 853.282600
v 98.299050 -1254.399200 852.782600
v 98.761850 -1254.588400 853.282650
v 99.936630 -1250.394400 852.782600
v 98.761850 -1254.588400 853.282650
v 100.399430 -1250.583600 853.282600
v 99.936630 -1250.394400 852.782600
v 113.543820 -1253.827100 1010.704700
v 113.272080 -1253.170800 1009.998000
v 113.081020 -1253.637800 1011.205000
v 113.272080 -1253.170800 1009.998000
v 112.617770 -1252.903200 1010.705500
v 113.081020 -1253.637800 1011.205000
v 112.617770 -1252.903200 1010.705500
v 113.272080 -1253.170800 1009.998000
v 106.361470 -1250.275600 1003.923900
v 113.272080 -1253.170800 1009.998000
v 107.015780 -1250.543200 1003.216500
v 106.361470 -1250.275600 1003.923900
v 107.015780 -1250.543200 1003.216500
v 106.195200 -1250.697100 1002.683500
v 106.361470 -1250.275600 1003.923900
v 106.195210 -1250.697000 847.914060
v 106.195200 -1250.697100 1002.683500
v 107.015780 -1250.543200 1003.216500
v 106.195200 -1250.697100 1002.683500
v 105.696310 -1250.492900 1003.222800
v 106.361470 -1250.275600 1003.923900
v 107.015790 -1250.543200 847.380800
v 106.195210 -1250.697000 847.914060
v 107.015780 -1250.543200 1003.216500
v 106.361470 -1250.275600 1003.923900
v 105.696310 -1250.492900 1003.222800
v 26.690224 -1217.697500 1003.971800
v 105.696290 -1250.492900 847.375000
v 106.195210 -1250.697000 847.914060
v 107.015790 -1250.543200 847.380800
v 105.696310 -1250.492900 1003.222800
v 27.012230 -1218.318500 1003.270100
v 26.690224 -1217.697500 1003.971800
v 106.361300 -1250.275500 846.673770
v 105.696290 -1250.492900 847.375000
v 107.015790 -1250.543200 847.380800
v 27.012200 -1218.318500 847.375000
v 105.696290 -1250.492900 847.375000
v 106.361300 -1250.275500 846.673770
v 106.361300 -1250.275500 846.673770
v 107.015790 -1250.543200 847.380800
v 112.617590 -1252.903100 839.888400
v 107.015790 -1250.543200 847.380800
v 113.272090 -1253.170800 840.595460
v 112.617590 -1252.903100 839.888400
v 112.617590 -1252.903100 839.888400
v 113.272090 -1253.170800 840.595460
v 113.543830 -1253.827100 839.888370
v 113.081030 -1253.637800 839.388500
v 112.617590 -1252.903100 839.888400
v 113.543830 -1253.827100 839.888370
v 26.690048 -1217.697400 846.673770
v 27.012200 -1218.318500 847.375000
v 106.361300 -1250.275500 846.673770
v 26.513283 -1218.114500 847.914060
v 27.012200 -1218.318500 847.375000
v 26.690048 -1217.697400 846.673770
v 26.035560 -1217.429800 847.380800
v 26.513283 -1218.114500 847.914060
v 26.690048 -1217.697400 846.673770
v 26.513275 -1218.114400 1002.731400
v 26.513283 -1218.114500 847.914060
v 26.035560 -1217.429800 847.380800
v 26.035560 -1217.429800 847.380800
v 26.690048 -1217.697400 846.673770
v 19.730720 -1214.921000 840.595460
v 26.690048 -1217.697400 846.673770
v 20.385208 -1215.188600 839.888400
v 19.730720 -1214.921000 840.595460
v 19.730720 -1214.921000 840.595460
v 20.385208 -1215.188600 839.888400
v 19.539711 -1215.388200 839.388500
v 19.076904 -1215.199000 839.888370
v 19.730720 -1214.921000 840.595460
v 19.539711 -1215.388200 839.388500
v 26.035553 -1217.429800 1003.265000
v 26.513275 -1218.114400 1002.731400
v 26.035560 -1217.429800 847.380800
v 27.012230 -1218.318500 1003.270100
v 26.513275 -1218.114400 1002.731400
v 26.035553 -1217.429800 1003.265000
v 26.690224 -1217.697500 1003.971800
v 27.012230 -1218.318500 1003.270100
v 26.035553 -1217.429800 1003.265000
v 26.690224 -1217.697500 1003.971800
v 26.035553 -1217.429800 1003.265000
v 20.385384 -1215.188700 1010.761000
v 26.035553 -1217.429800 1003.265000
v 19.730713 -1214.920900 1010.054000
v 20.385384 -1215.188700 1010.761000
v 20.385384 -1215.188700 1010.761000
v 19.730713 -1214.920900 1010.054000
v 19.076897 -1215.198900 1010.761700
v 19.539696 -1215.388200 1011.261400
v 20.385384 -1215.188700 1010.761000
v 19.076897 -1215.198900 1010.761700
v 104.764350 -1251.393400 1002.701300
v 103.788800 -1251.482500 1002.000400
v 27.046310 -1219.613900 1002.748100
v 104.443100 -1251.750100 1001.293100
v 103.788800 -1251.482500 1002.000400
v 104.764350 -1251.393400 1002.701300
v 105.263230 -1251.597500 1002.162000
v 104.443100 -1251.750100 1001.293100
v 104.764350 -1251.393400 1002.701300
v 103.788800 -1251.482500 1002.000400
v 27.680160 -1220.361200 1002.046300
v 27.046310 -1219.613900 1002.748100
v 103.788800 -1251.482500 1002.000400
v 104.443100 -1251.750100 1001.293100
v 100.394910 -1250.048000 998.318000
v 27.046310 -1219.613900 1002.748100
v 27.680160 -1220.361200 1002.046300
v 26.547348 -1219.409900 1002.209400
v 104.443100 -1251.750100 849.305240
v 104.443100 -1251.750100 1001.293100
v 105.263230 -1251.597500 1002.162000
v 105.263240 -1251.597300 848.436000
v 104.443100 -1251.750100 849.305240
v 105.263230 -1251.597500 1002.162000
v 104.443100 -1251.750100 1001.293100
v 101.049210 -1250.315400 997.610800
v 100.394910 -1250.048000 998.318000
v 103.788630 -1251.482400 848.598200
v 104.443100 -1251.750100 849.305240
v 105.263240 -1251.597300 848.436000
v 104.764320 -1251.393300 847.896850
v 103.788630 -1251.482400 848.598200
v 105.263240 -1251.597300 848.436000
v 101.049220 -1250.315400 852.989750
v 104.443100 -1251.750100 849.305240
v 103.788630 -1251.482400 848.598200
v 27.679985 -1220.361100 848.598200
v 103.788630 -1251.482400 848.598200
v 104.764320 -1251.393300 847.896850
v 27.046272 -1219.613900 847.897000
v 27.679985 -1220.361100 848.598200
v 104.764320 -1251.393300 847.896850
v 100.394740 -1250.047700 852.282700
v 101.049220 -1250.315400 852.989750
v 103.788630 -1251.482400 848.598200
v 27.025505 -1220.093600 849.305240
v 27.679985 -1220.361100 848.598200
v 27.046272 -1219.613900 847.897000
v 26.547356 -1219.409900 848.436000
v 27.025505 -1220.093600 849.305240
v 27.046272 -1219.613900 847.897000
v 31.106712 -1221.715500 852.282650
v 27.679985 -1220.361100 848.598200
v 27.025505 -1220.093600 849.305240
v 27.025490 -1220.093500 1001.339500
v 27.025505 -1220.093600 849.305240
v 26.547356 -1219.409900 848.436000
v 26.547348 -1219.409900 1002.209400
v 27.025490 -1220.093500 1001.339500
v 26.547356 -1219.409900 848.436000
v 27.680160 -1220.361200 1002.046300
v 27.025490 -1220.093500 1001.339500
v 26.547348 -1219.409900 1002.209400
v 30.452232 -1221.447900 852.989700
v 31.106712 -1221.715500 852.282650
v 27.025505 -1220.093600 849.305240
v 30.452225 -1221.447900 997.652900
v 27.025490 -1220.093500 1001.339500
v 27.680160 -1220.361200 1002.046300
v 31.106888 -1221.715600 998.359800
v 30.452225 -1221.447900 997.652900
v 27.680160 -1220.361200 1002.046300
v 30.452232 -1221.447900 852.989700
v 30.727990 -1222.094400 853.282600
v 31.106712 -1221.715500 852.282650
v 30.727982 -1222.094500 997.359900
v 30.727990 -1222.094400 853.282600
v 30.452232 -1221.447900 852.989700
v 30.452225 -1221.447900 997.652900
v 30.727982 -1222.094500 997.359900
v 30.452232 -1221.447900 852.989700
v 30.727990 -1222.094400 853.282600
v 31.190788 -1222.283700 852.782600
v 31.106712 -1221.715500 852.282650
v 31.106712 -1221.715500 852.282650
v 31.190788 -1222.283700 852.782600
v 100.394740 -1250.047700 852.282700
v 31.190780 -1222.283700 997.859740
v 30.727982 -1222.094500 997.359900
v 30.452225 -1221.447900 997.652900
v 31.106888 -1221.715600 998.359800
v 31.190780 -1222.283700 997.859740
v 30.452225 -1221.447900 997.652900
v 31.190788 -1222.283700 852.782600
v 99.936630 -1250.394400 852.782600
v 100.394740 -1250.047700 852.282700
v 99.936620 -1250.394300 997.818240
v 31.190780 -1222.283700 997.859740
v 31.106888 -1221.715600 998.359800
v 100.394740 -1250.047700 852.282700
v 99.936630 -1250.394400 852.782600
v 101.049220 -1250.315400 852.989750
v 100.394910 -1250.048000 998.318000
v 99.936620 -1250.394300 997.818240
v 31.106888 -1221.715600 998.359800
v 99.936630 -1250.394400 852.782600
v 100.399430 -1250.583600 853.282600
v 101.049220 -1250.315400 852.989750
v 100.399430 -1250.583500 997.317930
v 99.936620 -1250.394300 997.818240
v 100.394910 -1250.048000 998.318000
v 101.049220 -1250.315400 852.989750
v 100.399430 -1250.583600 853.282600
v 101.049210 -1250.315400 997.610800
v 101.049210 -1250.315400 997.610800
v 100.399430 -1250.583500 997.317930
v 100.394910 -1250.048000 998.318000
v 100.399430 -1250.583600 853.282600
v 100.399430 -1250.583500 997.317930
v 101.049210 -1250.315400 997.610800
vn -0.003952 0.003952 0.999984
vn -0.003952 0.003952 0.999984
vn -0.003952 0.003952 0.999984
vn -0.003952 0.003952 0.999984
vn -0.003952 0.003952 0.999984
vn -0.003952 0.003952 0.999984
vn -0.925478 0.378782 -0.003905
vn -0.925478 0.378782 -0.003905
vn -0.925478 0.378782 -0.003905
vn -0.925478 0.378782 -0.003905
vn -0.925478 0.378782 -0.003905
vn -0.925478 0.378782 -0.003905
vn -0.003921 0.003921 -0.999985
vn -0.003921 0.003921 -0.999985
vn -0.003921 0.003921 -0.999985
vn -0.003921 0.003921 -0.999985
vn -0.003921 0.003921 -0.999985
vn -0.003921 0.003921 -0.999985
vn 0.927103 -0.374786 -0.003945
vn 0.927103 -0.374786 -0.003945
vn 0.927103 -0.374786 -0.003945
vn 0.927103 -0.374786 -0.003945
vn 0.927103 -0.374786 -0.003945
vn 0.927103 -0.374786 -0.003945
vn 0.372063 0.928199 0.003917
vn 0.372063 0.928199 0.003917
vn 0.372063 0.928199 0.003917
vn 0.372063 0.928199 0.003917
vn 0.372063 0.928199 0.003917
vn 0.372063 0.928199 0.003917
vn 0.365285 0.930887 -0.003928
vn 0.365285 0.930887 -0.003928
vn 0.365285 0.930887 -0.003928
vn 0.365285 0.930887 -0.003928
vn 0.365285 0.930887 -0.003928
vn 0.365285 0.930887 -0.003928
vn 0.372040 0.928142 -0.011749
vn 0.372040 0.928142 -0.011749
vn 0.372040 0.928142 -0.011749
vn 0.372040 0.928142 -0.011749
vn 0.372040 0.928142 -0.011749
vn 0.372040 0.928142 -0.011749
vn 0.378782 0.925478 -0.003905
vn 0.378782 0.925478 -0.003905
vn 0.378782 0.925478 -0.003905
vn 0.378782 0.925478 -0.003905
vn 0.378782 0.925478 -0.003905
vn 0.378782 0.925478 -0.003905
vn 0.144019 0.377563 -0.914715
vn 0.144019 0.377563 -0.914715
vn 0.144019 0.377563 -0.914715
vn 0.144019 0.377563 -0.914715
vn 0.144019 0.377563 -0.914715
vn 0.144019 0.377563 -0.914715
vn 0.999610 0.027657 -0.003951
vn 0.999610 0.027657 -0.003951
vn 0.999610 0.027657 -0.003951
vn 0.999610 0.027657 -0.003951
vn 0.999610 0.027657 -0.003951
vn 0.999610 0.027657 -0.003951
vn 0.145051 0.380269 0.913431
vn 0.145051 0.380269 0.913431
vn 0.145051 0.380269 0.913431
vn 0.145051 0.380269 0.913431
vn 0.145051 0.380269 0.913431
vn 0.145051 0.380269 0.913431
vn -0.695352 0.718659 -0.003885
vn -0.695352 0.718659 -0.003885
vn -0.695352 0.718659 -0.003885
vn -0.695352 0.718659 -0.003885
vn -0.695352 0.718659 -0.003885
vn -0.695352 0.718659 -0.003885
vn 0.372040 0.928142 0.011749
vn 0.372040 0.928142 0.011749
vn 0.372040 0.928142 0.011749
vn 0.372040 0.928142 0.011749
vn 0.372040 0.928142 0.011749
vn 0.372040 0.928142 0.011749
vn 0.362632 0.931924 -0.003899
vn 0.362632 0.931924 -0.003899
vn 0.362632 0.931924 -0.003899
vn 0.362632 0.931924 -0.003899
vn 0.362632 0.931924 -0.003899
vn 0.362632 0.931924 -0.003899
vn 0.371995 0.928029 -0.019579
vn 0.371995 0.928029 -0.019579
vn 0.371995 0.928029 -0.019579
vn 0.371995 0.928029 -0.019579
vn 0.371995 0.928029 -0.019579
vn 0.371995 0.928029 -0.019579
vn 0.388229 0.921554 -0.003921
vn 0.388229 0.921554 -0.003921
vn 0.388229 0.921554 -0.003921
vn 0.388229 0.921554 -0.003921
vn 0.388229 0.921554 -0.003921
vn 0.388229 0.921554 -0.003921
vn -0.003921 0.003921 -0.999985
vn -0.003921 0.003921 -0.999985
vn -0.003921 0.003921 -0.999985
vn -0.003921 0.003921 -0.999985
vn -0.003921 0.003921 -0.999985
vn -0.003921 0.003921 -0.999985
vn 0.927103 -0.374786 -0.003945
vn 0.927103 -0.374786 -0.003945
vn 0.927103 -0.374786 -0.003945
vn 0.927103 -0.374786 -0.003945
vn 0.927103 -0.374786 -0.003945
vn 0.927103 -0.374786 -0.003945
vn -0.003921 0.003921 0.999985
vn -0.003921 0.003921 0.999985
vn -0.003921 0.003921 0.999985
vn -0.003921 0.003921 0.999985
vn -0.003921 0.003921 0.999985
vn -0.003921 0.003921 0.999985
vn -0.925478 0.378782 -0.003905
vn -0.925478 0.378782 -0.003905
vn -0.925478 0.378782 -0.003905
vn -0.925478 0.378782 -0.003905
vn -0.925478 0.378782 -0.003905
vn -0.925478 0.378782 -0.003905
vn 0.653472 -0.265349 0.708918
vn 0.653472 -0.265349 0.708918
vn 0.673902 0.350744 0.650257
vn 0.653472 -0.265349 0.708918
vn 0.820201 0.294330 0.490551
vn 0.673902 0.350744 0.650257
vn 0.673902 0.350744 0.650257
vn 0.428845 0.790806 0.436714
vn -0.238948 0.724677 0.646334
vn 0.428845 0.790806 0.436714
vn 0.239477 0.867614 0.435770
vn -0.238948 0.724677 0.646334
vn -0.238948 0.724677 0.646334
vn -0.385863 0.783419 0.487201
vn -0.656590 0.271286 0.703771
vn -0.385863 0.783419 0.487201
vn -0.656590 0.271286 0.703771
vn -0.656590 0.271286 0.703771
vn -0.385863 0.783419 0.487201
vn -0.073951 0.992503 0.097304
vn -0.384394 0.780437 -0.493112
vn -0.073951 0.992503 0.097304
vn -0.073893 0.991722 -0.105006
vn -0.384394 0.780437 -0.493112
vn -0.384394 0.780437 -0.493112
vn -0.237739 0.721013 -0.650861
vn -0.652967 0.269789 -0.707707
vn -0.237739 0.721013 -0.650861
vn -0.652967 0.269789 -0.707707
vn -0.652967 0.269789 -0.707707
vn -0.237739 0.721013 -0.650861
vn 0.238655 0.864635 -0.442098
vn 0.668607 0.355808 -0.652967
vn 0.238655 0.864635 -0.442098
vn 0.427366 0.788078 -0.443049
vn 0.668607 0.355808 -0.652967
vn 0.668607 0.355808 -0.652967
vn 0.817036 0.293195 -0.496476
vn 0.649813 -0.263863 -0.712825
vn 0.817036 0.293195 -0.496476
vn 0.649813 -0.263863 -0.712825
vn 0.649813 -0.263863 -0.712825
vn 0.817036 0.293195 -0.496476
vn 0.741256 0.662816 -0.105894
vn 0.820201 0.294330 0.490551
vn 0.741256 0.662816 -0.105894
vn 0.741850 0.663347 0.098128
vn 0.820201 0.294330 0.490551
vn 0.027310 0.854407 -0.518886
vn -0.175520 0.940009 -0.292534
vn -0.042858 0.876642 -0.479231
vn -0.175520 0.940009 -0.292534
vn -0.144440 0.917388 -0.370859
vn -0.042858 0.876642 -0.479231
vn 0.635812 0.604607 -0.479785
vn 0.740210 0.560053 -0.372063
vn 0.567503 0.637951 -0.520537
vn 0.740210 0.560053 -0.372063
vn 0.779901 0.552593 -0.293932
vn 0.567503 0.637951 -0.520537
vn 0.742353 0.561675 0.365285
vn 0.638186 0.606864 0.473745
vn 0.781680 0.553853 0.286747
vn 0.638186 0.606864 0.473745
vn 0.569812 0.640547 0.514795
vn 0.781680 0.553853 0.286747
vn -0.043018 0.879907 0.473195
vn -0.144855 0.920028 0.364096
vn 0.027420 0.857861 0.513150
vn -0.144855 0.920028 0.364096
vn -0.175917 0.942133 0.285376
vn 0.027420 0.857861 0.513150
vn -0.167455 0.689290 -0.704867
vn -0.434141 0.801791 -0.410674
vn -0.652967 0.269789 -0.707707
vn -0.434141 0.801791 -0.410674
vn -0.652967 0.269789 -0.707707
vn -0.652967 0.269789 -0.707707
vn 0.649813 -0.263863 -0.712825
vn 0.649813 -0.263863 -0.712825
vn 0.592403 0.380550 -0.710099
vn 0.649813 -0.263863 -0.712825
vn 0.869331 0.271420 -0.413031
vn 0.592403 0.380550 -0.710099
vn 0.653472 -0.265349 0.708918
vn 0.653472 -0.265349 0.708918
vn 0.872143 0.272298 0.406474
vn 0.653472 -0.265349 0.708918
vn 0.595713 0.382676 0.706176
vn 0.872143 0.272298 0.406474
vn -0.656590 0.271286 0.703771
vn -0.656590 0.271286 0.703771
vn -0.168376 0.693084 0.700916
vn -0.656590 0.271286 0.703771
vn -0.435529 0.804355 0.404139
vn -0.168376 0.693084 0.700916
vn 0.820201 0.294330 0.490551
vn 0.741850 0.663347 0.098128
vn 0.673902 0.350744 0.650257
vn 0.741850 0.663347 0.098128
vn 0.428845 0.790806 0.436714
vn 0.673902 0.350744 0.650257
vn 0.428845 0.790806 0.436714
vn 0.741850 0.663347 0.098128
vn 0.246013 0.933288 -0.261633
vn 0.741850 0.663347 0.098128
vn 0.113044 0.986214 -0.120840
vn 0.246013 0.933288 -0.261633
vn 0.113044 0.986214 -0.120840
vn -0.175520 0.940009 -0.292534
vn 0.246013 0.933288 -0.261633
vn -0.175917 0.942133 0.285376
vn -0.175520 0.940009 -0.292534
vn 0.113044 0.986214 -0.120840
vn -0.175520 0.940009 -0.292534
vn 0.027310 0.854407 -0.518886
vn 0.246013 0.933288 -0.261633
vn 0.113148 0.987115 0.113148
vn -0.175917 0.942133 0.285376
vn 0.113044 0.986214 -0.120840
vn 0.246013 0.933288 -0.261633
vn 0.027310 0.854407 -0.518886
vn 0.467206 0.844111 -0.263049
vn 0.027420 0.857861 0.513150
vn -0.175917 0.942133 0.285376
vn 0.113148 0.987115 0.113148
vn 0.027310 0.854407 -0.518886
vn 0.567503 0.637951 -0.520537
vn 0.467206 0.844111 -0.263049
vn 0.246510 0.935172 0.254336
vn 0.027420 0.857861 0.513150
vn 0.113148 0.987115 0.113148
vn 0.569812 0.640547 0.514795
vn 0.027420 0.857861 0.513150
vn 0.246510 0.935172 0.254336
vn 0.246510 0.935172 0.254336
vn 0.113148 0.987115 0.113148
vn 0.427366 0.788078 -0.443049
vn 0.113148 0.987115 0.113148
vn 0.741256 0.662816 -0.105894
vn 0.427366 0.788078 -0.443049
vn 0.427366 0.788078 -0.443049
vn 0.741256 0.662816 -0.105894
vn 0.817036 0.293195 -0.496476
vn 0.668607 0.355808 -0.652967
vn 0.427366 0.788078 -0.443049
vn 0.817036 0.293195 -0.496476
vn 0.468159 0.845834 0.255717
vn 0.569812 0.640547 0.514795
vn 0.246510 0.935172 0.254336
vn 0.781680 0.553853 0.286747
vn 0.569812 0.640547 0.514795
vn 0.468159 0.845834 0.255717
vn 0.601733 0.790512 0.114054
vn 0.781680 0.553853 0.286747
vn 0.468159 0.845834 0.255717
vn 0.779901 0.552593 -0.293932
vn 0.781680 0.553853 0.286747
vn 0.601733 0.790512 0.114054
vn 0.601733 0.790512 0.114054
vn 0.468159 0.845834 0.255717
vn -0.073893 0.991722 -0.105006
vn 0.468159 0.845834 0.255717
vn 0.238655 0.864635 -0.442098
vn -0.073893 0.991722 -0.105006
vn -0.073893 0.991722 -0.105006
vn 0.238655 0.864635 -0.442098
vn -0.237739 0.721013 -0.650861
vn -0.384394 0.780437 -0.493112
vn -0.073893 0.991722 -0.105006
vn -0.237739 0.721013 -0.650861
vn 0.601175 0.789779 -0.121807
vn 0.779901 0.552593 -0.293932
vn 0.601733 0.790512 0.114054
vn 0.567503 0.637951 -0.520537
vn 0.779901 0.552593 -0.293932
vn 0.601175 0.789779 -0.121807
vn 0.467206 0.844111 -0.263049
vn 0.567503 0.637951 -0.520537
vn 0.601175 0.789779 -0.121807
vn 0.467206 0.844111 -0.263049
vn 0.601175 0.789779 -0.121807
vn 0.239477 0.867614 0.435770
vn 0.601175 0.789779 -0.121807
vn -0.073951 0.992503 0.097304
vn 0.239477 0.867614 0.435770
vn 0.239477 0.867614 0.435770
vn -0.073951 0.992503 0.097304
vn -0.385863 0.783419 0.487201
vn -0.238948 0.724677 0.646334
vn 0.239477 0.867614 0.435770
vn -0.385863 0.783419 0.487201
vn -0.042858 0.876642 -0.479231
vn 0.285063 0.902048 -0.324112
vn 0.635812 0.604607 -0.479785
vn 0.058560 0.995524 -0.074176
vn 0.285063 0.902048 -0.324112
vn -0.042858 0.876642 -0.479231
vn -0.144440 0.917388 -0.370859
vn 0.058560 0.995524 -0.074176
vn -0.042858 0.876642 -0.479231
vn 0.285063 0.902048 -0.324112
vn 0.418317 0.848362 -0.324489
vn 0.635812 0.604607 -0.479785
vn 0.285063 0.902048 -0.324112
vn 0.058560 0.995524 -0.074176
vn 0.183825 0.903482 -0.387206
vn 0.635812 0.604607 -0.479785
vn 0.418317 0.848362 -0.324489
vn 0.740210 0.560053 -0.372063
vn 0.058592 0.996071 0.066405
vn 0.058560 0.995524 -0.074176
vn -0.144440 0.917388 -0.370859
vn -0.144855 0.920028 0.364096
vn 0.058592 0.996071 0.066405
vn -0.144440 0.917388 -0.370859
vn 0.058560 0.995524 -0.074176
vn -0.019480 0.985675 -0.167526
vn 0.183825 0.903482 -0.387206
vn 0.285778 0.904312 0.317097
vn 0.058592 0.996071 0.066405
vn -0.144855 0.920028 0.364096
vn -0.043018 0.879907 0.473195
vn 0.285778 0.904312 0.317097
vn -0.144855 0.920028 0.364096
vn -0.019505 0.986934 0.159938
vn 0.058592 0.996071 0.066405
vn 0.285778 0.904312 0.317097
vn 0.419369 0.850497 0.317466
vn 0.285778 0.904312 0.317097
vn -0.043018 0.879907 0.473195
vn 0.638186 0.606864 0.473745
vn 0.419369 0.850497 0.317466
vn -0.043018 0.879907 0.473195
vn 0.184379 0.906203 0.380527
vn -0.019505 0.986934 0.159938
vn 0.285778 0.904312 0.317097
vn 0.648366 0.758392 0.066801
vn 0.419369 0.850497 0.317466
vn 0.638186 0.606864 0.473745
vn 0.742353 0.561675 0.365285
vn 0.648366 0.758392 0.066801
vn 0.638186 0.606864 0.473745
vn 0.497603 0.779709 0.380059
vn 0.419369 0.850497 0.317466
vn 0.648366 0.758392 0.066801
vn 0.648006 0.757971 -0.074619
vn 0.648366 0.758392 0.066801
vn 0.742353 0.561675 0.365285
vn 0.740210 0.560053 -0.372063
vn 0.648006 0.757971 -0.074619
vn 0.742353 0.561675 0.365285
vn 0.418317 0.848362 -0.324489
vn 0.648006 0.757971 -0.074619
vn 0.740210 0.560053 -0.372063
vn 0.697808 0.697808 0.161639
vn 0.497603 0.779709 0.380059
vn 0.648366 0.758392 0.066801
vn 0.696899 0.696899 -0.169303
vn 0.648006 0.757971 -0.074619
vn 0.418317 0.848362 -0.324489
vn 0.496113 0.777373 -0.386733
vn 0.696899 0.696899 -0.169303
vn 0.418317 0.848362 -0.324489
vn 0.697808 0.697808 0.161639
vn 0.872143 0.272298 0.406474
vn 0.497603 0.779709 0.380059
vn 0.869331 0.271420 -0.413031
vn 0.872143 0.272298 0.406474
vn 0.697808 0.697808 0.161639
vn 0.696899 0.696899 -0.169303
vn 0.869331 0.271420 -0.413031
vn 0.697808 0.697808 0.161639
vn 0.872143 0.272298 0.406474
vn 0.595713 0.382676 0.706176
vn 0.497603 0.779709 0.380059
vn 0.497603 0.779709 0.380059
vn 0.595713 0.382676 0.706176
vn 0.184379 0.906203 0.380527
vn 0.592403 0.380550 -0.710099
vn 0.869331 0.271420 -0.413031
vn 0.696899 0.696899 -0.169303
vn 0.496113 0.777373 -0.386733
vn 0.592403 0.380550 -0.710099
vn 0.696899 0.696899 -0.169303
vn 0.595713 0.382676 0.706176
vn -0.168376 0.693084 0.700916
vn 0.184379 0.906203 0.380527
vn -0.167455 0.689290 -0.704867
vn 0.592403 0.380550 -0.710099
vn 0.496113 0.777373 -0.386733
vn 0.184379 0.906203 0.380527
vn -0.168376 0.693084 0.700916
vn -0.019505 0.986934 0.159938
vn 0.183825 0.903482 -0.387206
vn -0.167455 0.689290 -0.704867
vn 0.496113 0.777373 -0.386733
vn -0.168376 0.693084 0.700916
vn -0.435529 0.804355 0.404139
vn -0.019505 0.986934 0.159938
vn -0.434141 0.801791 -0.410674
vn -0.167455 0.689290 -0.704867
vn 0.183825 0.903482 -0.387206
vn -0.019505 0.986934 0.159938
vn -0.435529 0.804355 0.404139
vn -0.019480 0.985675 -0.167526
vn -0.019480 0.985675 -0.167526
vn -0.434141 0.801791 -0.410674
vn 0.183825 0.903482 -0.387206
vn -0.435529 0.804355 0.404139
vn -0.434141 0.801791 -0.410674
vn -0.019480 0.985675 -0.167526
vt 0.337646 0.485352
vt 0.842773 0.485352
vt 0.337646 0.517822
vt 0.842773 0.485352
vt 0.842773 0.517822
vt 0.337646 0.517822
vt -0.199585 0.485352
vt 0.654297 0.485352
vt -0.199585 0.517822
vt 0.654297 0.485352
vt 0.654297 0.517822
vt -0.199585 0.517822
vt 0.156738 0.485352
vt 0.662109 0.485352
vt 0.156738 0.517822
vt 0.662109 0.485352
vt 0.662109 0.517822
vt 0.156738 0.517822
vt 0.345215 0.485352
vt 1.199219 0.485352
vt 0.345215 0.517822
vt 1.199219 0.485352
vt 1.199219 0.517822
vt 0.345215 0.517822
vt 0.375244 1.165405
vt 0.805664 1.165649
vt 0.341309 1.199341
vt 0.805664 1.165649
vt 0.839355 1.199585
vt 0.341309 1.199341
vt 0.809082 1.162109
vt 0.809082 0.382812
vt 0.842773 1.196045
vt 0.809082 0.382812
vt 0.842773 0.349121
vt 0.842773 1.196045
vt 0.805664 0.379395
vt 0.375244 0.379395
vt 0.839355 0.345703
vt 0.375244 0.379395
vt 0.341309 0.345703
vt 0.839355 0.345703
vt 0.371582 0.382812
vt 0.371582 1.161865
vt 0.337646 0.349121
vt 0.371582 1.161865
vt 0.337646 1.195801
vt 0.337646 0.349121
vt 0.619141 0.490723
vt 0.199463 0.490723
vt 0.621582 0.484863
vt 0.199463 0.490723
vt 0.196899 0.484863
vt 0.621582 0.484863
vt 1.156250 0.490723
vt 0.387939 0.490723
vt 1.159180 0.484863
vt 0.387939 0.490723
vt 0.385254 0.484863
vt 1.159180 0.484863
vt 0.800293 0.490723
vt 0.380615 0.490723
vt 0.802734 0.484863
vt 0.380615 0.490723
vt 0.377930 0.484863
vt 0.802734 0.484863
vt 0.611816 0.490723
vt -0.156616 0.490723
vt 0.614258 0.484863
vt -0.156616 0.490723
vt -0.159180 0.484863
vt 0.614258 0.484863
vt 0.403320 1.137451
vt 0.777344 1.137573
vt 0.384766 1.155762
vt 0.777344 1.137573
vt 0.795898 1.156006
vt 0.384766 1.155762
vt 0.780762 1.134033
vt 0.780762 0.411133
vt 0.799316 1.152466
vt 0.780762 0.411133
vt 0.799316 0.392578
vt 0.799316 1.152466
vt 0.777344 0.407715
vt 0.403320 0.407715
vt 0.795898 0.389160
vt 0.403320 0.407715
vt 0.384766 0.389160
vt 0.795898 0.389160
vt 0.399658 0.411133
vt 0.399658 1.133911
vt 0.381348 0.392578
vt 0.399658 1.133911
vt 0.381348 1.152222
vt 0.381348 0.392578
vt 0.594727 0.516846
vt 0.223755 0.516846
vt 0.594727 0.495117
vt 0.223755 0.516846
vt 0.223755 0.495117
vt 0.594727 0.495117
vt 1.131836 0.516846
vt 0.412109 0.516846
vt 1.131836 0.495117
vt 0.412109 0.516846
vt 0.412109 0.495117
vt 1.131836 0.495117
vt 0.775879 0.516846
vt 0.404785 0.516846
vt 0.775879 0.495117
vt 0.404785 0.516846
vt 0.404785 0.495117
vt 0.775879 0.495117
vt 0.587402 0.516846
vt -0.132446 0.516846
vt 0.587402 0.495117
vt -0.132446 0.516846
vt -0.132446 0.495117
vt 0.587402 0.495117
vt 1.201172 0.517822
vt 1.199219 0.517822
vt 1.201172 0.485352
vt 1.199219 0.517822
vt 1.199219 0.485352
vt 1.201172 0.485352
vt 0.337646 0.485352
vt 0.341309 0.482910
vt 0.842773 0.485352
vt 0.341309 0.482910
vt 0.839355 0.482910
vt 0.842773 0.485352
vt 0.842773 0.485352
vt 0.845215 0.485352
vt 0.842773 0.517822
vt 0.845215 0.485352
vt 0.845215 0.517822
vt 0.842773 0.517822
vt -0.199585 0.485352
vt -0.196045 0.482910
vt 0.654297 0.485352
vt -0.196045 0.482910
vt 0.650879 0.482910
vt 0.654297 0.485352
vt 0.654297 0.485352
vt 0.656738 0.485352
vt 0.654297 0.517822
vt 0.656738 0.485352
vt 0.656738 0.517822
vt 0.654297 0.517822
vt 0.156738 0.485352
vt 0.160278 0.482910
vt 0.662109 0.485352
vt 0.160278 0.482910
vt 0.658203 0.482910
vt 0.662109 0.485352
vt 0.662109 0.485352
vt 0.664551 0.485352
vt 0.662109 0.517822
vt 0.664551 0.485352
vt 0.664551 0.517822
vt 0.662109 0.517822
vt 0.345215 0.485352
vt 0.348633 0.482910
vt 1.199219 0.485352
vt 0.348633 0.482910
vt 1.195312 0.482910
vt 1.199219 0.485352
vt -0.161987 0.484863
vt -0.159180 0.484863
vt -0.159302 0.490723
vt -0.159180 0.484863
vt -0.156616 0.490723
vt -0.159302 0.490723
vt 0.199463 0.490723
vt 0.196777 0.490723
vt 0.196899 0.484863
vt 0.196777 0.490723
vt 0.194214 0.484863
vt 0.196899 0.484863
vt 0.387939 0.490723
vt 0.385254 0.490723
vt 0.385254 0.484863
vt 0.385254 0.490723
vt 0.382568 0.484863
vt 0.385254 0.484863
vt 0.380615 0.490723
vt 0.377686 0.490723
vt 0.377930 0.484863
vt 0.377686 0.490723
vt 0.375244 0.484863
vt 0.377930 0.484863
vt -0.134888 0.495117
vt -0.132446 0.495117
vt -0.134888 0.516846
vt -0.132446 0.495117
vt -0.132446 0.516846
vt -0.134888 0.516846
vt 0.223755 0.516846
vt 0.221191 0.516846
vt 0.223755 0.495117
vt 0.221191 0.516846
vt 0.221191 0.495117
vt 0.223755 0.495117
vt 0.412109 0.516846
vt 0.409668 0.516846
vt 0.412109 0.495117
vt 0.409668 0.516846
vt 0.409668 0.495117
vt 0.412109 0.495117
vt 0.404785 0.516846
vt 0.402344 0.516846
vt 0.404785 0.495117
vt 0.402344 0.516846
vt 0.402344 0.495117
vt 0.404785 0.495117
vt 0.335205 1.199341
vt 0.337646 1.195801
vt 0.337646 1.201782
vt 0.337646 1.195801
vt 0.341309 1.199341
vt 0.337646 1.201782
vt 0.341309 1.199341
vt 0.337646 1.195801
vt 0.375244 1.165405
vt 0.337646 1.195801
vt 0.371582 1.161865
vt 0.375244 1.165405
vt 0.371582 1.161865
vt 0.375244 1.159180
vt 0.375244 1.165405
vt 0.375244 0.385742
vt 0.375244 1.159180
vt 0.371582 1.161865
vt 0.375244 1.159180
vt 0.377930 1.161987
vt 0.375244 1.165405
vt 0.371582 0.382812
vt 0.375244 0.385742
vt 0.371582 1.161865
vt 0.375244 1.165405
vt 0.377930 1.161987
vt 0.805664 1.165649
vt 0.377930 0.382812
vt 0.375244 0.385742
vt 0.371582 0.382812
vt 0.377930 1.161987
vt 0.802734 1.162109
vt 0.805664 1.165649
vt 0.375244 0.379395
vt 0.377930 0.382812
vt 0.371582 0.382812
vt 0.802734 0.382812
vt 0.377930 0.382812
vt 0.375244 0.379395
vt 0.375244 0.379395
vt 0.371582 0.382812
vt 0.341309 0.345703
vt 0.371582 0.382812
vt 0.337646 0.349121
vt 0.341309 0.345703
vt 0.341309 0.345703
vt 0.337646 0.349121
vt 0.335205 0.345703
vt 0.337646 0.343262
vt 0.341309 0.345703
vt 0.335205 0.345703
vt 0.805664 0.379395
vt 0.802734 0.382812
vt 0.375244 0.379395
vt 0.805664 0.385742
vt 0.802734 0.382812
vt 0.805664 0.379395
vt 0.809082 0.382812
vt 0.805664 0.385742
vt 0.805664 0.379395
vt 0.805664 1.159424
vt 0.805664 0.385742
vt 0.809082 0.382812
vt 0.809082 0.382812
vt 0.805664 0.379395
vt 0.842773 0.349121
vt 0.805664 0.379395
vt 0.839355 0.345703
vt 0.842773 0.349121
vt 0.842773 0.349121
vt 0.839355 0.345703
vt 0.842773 0.343262
vt 0.845215 0.345703
vt 0.842773 0.349121
vt 0.842773 0.343262
vt 0.809082 1.162109
vt 0.805664 1.159424
vt 0.809082 0.382812
vt 0.802734 1.162109
vt 0.805664 1.159424
vt 0.809082 1.162109
vt 0.805664 1.165649
vt 0.802734 1.162109
vt 0.809082 1.162109
vt 0.805664 1.165649
vt 0.809082 1.162109
vt 0.839355 1.199585
vt 0.809082 1.162109
vt 0.842773 1.196045
vt 0.839355 1.199585
vt 0.839355 1.199585
vt 0.842773 1.196045
vt 0.845215 1.199585
vt 0.842773 1.202148
vt 0.839355 1.199585
vt 0.845215 1.199585
vt 0.380615 1.159302
vt 0.384766 1.155762
vt 0.800293 1.159546
vt 0.381348 1.152222
vt 0.384766 1.155762
vt 0.380615 1.159302
vt 0.377686 1.156616
vt 0.381348 1.152222
vt 0.380615 1.159302
vt 0.384766 1.155762
vt 0.795898 1.156006
vt 0.800293 1.159546
vt 0.384766 1.155762
vt 0.381348 1.152222
vt 0.403320 1.137451
vt 0.800293 1.159546
vt 0.795898 1.156006
vt 0.802734 1.156860
vt 0.381348 0.392578
vt 0.381348 1.152222
vt 0.377686 1.156616
vt 0.377686 0.388184
vt 0.381348 0.392578
vt 0.377686 1.156616
vt 0.381348 1.152222
vt 0.399658 1.133911
vt 0.403320 1.137451
vt 0.384766 0.389160
vt 0.381348 0.392578
vt 0.377686 0.388184
vt 0.380615 0.385742
vt 0.384766 0.389160
vt 0.377686 0.388184
vt 0.399658 0.411133
vt 0.381348 0.392578
vt 0.384766 0.389160
vt 0.795898 0.389160
vt 0.384766 0.389160
vt 0.380615 0.385742
vt 0.800293 0.385742
vt 0.795898 0.389160
vt 0.380615 0.385742
vt 0.403320 0.407715
vt 0.399658 0.411133
vt 0.384766 0.389160
vt 0.799316 0.392578
vt 0.795898 0.389160
vt 0.800293 0.385742
vt 0.802734 0.388184
vt 0.799316 0.392578
vt 0.800293 0.385742
vt 0.777344 0.407715
vt 0.795898 0.389160
vt 0.799316 0.392578
vt 0.799316 1.152466
vt 0.799316 0.392578
vt 0.802734 0.388184
vt 0.802734 1.156860
vt 0.799316 1.152466
vt 0.802734 0.388184
vt 0.795898 1.156006
vt 0.799316 1.152466
vt 0.802734 1.156860
vt 0.780762 0.411133
vt 0.777344 0.407715
vt 0.799316 0.392578
vt 0.780762 1.134033
vt 0.799316 1.152466
vt 0.795898 1.156006
vt 0.777344 1.137573
vt 0.780762 1.134033
vt 0.795898 1.156006
vt 0.780762 0.411133
vt 0.778320 0.412598
vt 0.777344 0.407715
vt 0.778320 1.132568
vt 0.778320 0.412598
vt 0.780762 0.411133
vt 0.780762 1.134033
vt 0.778320 1.132568
vt 0.780762 0.411133
vt 0.778320 0.412598
vt 0.775879 0.410156
vt 0.777344 0.407715
vt 0.777344 0.407715
vt 0.775879 0.410156
vt 0.403320 0.407715
vt 0.775879 1.135132
vt 0.778320 1.132568
vt 0.780762 1.134033
vt 0.777344 1.137573
vt 0.775879 1.135132
vt 0.780762 1.134033
vt 0.775879 0.410156
vt 0.404785 0.410156
vt 0.403320 0.407715
vt 0.404785 1.134888
vt 0.775879 1.135132
vt 0.777344 1.137573
vt 0.403320 0.407715
vt 0.404785 0.410156
vt 0.399658 0.411133
vt 0.403320 1.137451
vt 0.404785 1.134888
vt 0.777344 1.137573
vt 0.404785 0.410156
vt 0.402344 0.412598
vt 0.399658 0.411133
vt 0.402344 1.132446
vt 0.404785 1.134888
vt 0.403320 1.137451
vt 0.399658 0.411133
vt 0.402344 0.412598
vt 0.399658 1.133911
vt 0.399658 1.133911
vt 0.402344 1.132446
vt 0.403320 1.137451
vt 0.402344 0.412598
vt 0.402344 1.132446
vt 0.399658 1.133911
f 1/1/1 2/2/2 3/3/3
f 4/4/4 5/5/5 6/6/6
f 7/7/7 8/8/8 9/9/9
f 10/10/10 11/11/11 12/12/12
f 13/13/13 14/14/14 15/15/15
f 16/16/16 17/17/17 18/18/18
f 19/19/19 20/20/20 21/21/21
f 22/22/22 23/23/23 24/24/24
f 25/25/25 26/26/26 27/27/27
f 28/28/28 29/29/29 30/30/30
f 31/31/31 32/32/32 33/33/33
f 34/34/34 35/35/35 36/36/36
f 37/37/37 38/38/38 39/39/39
f 40/40/40 41/41/41 42/42/42
f 43/43/43 44/44/44 45/45/45
f 46/46/46 47/47/47 48/48/48
f 49/49/49 50/50/50 51/51/51
f 52/52/52 53/53/53 54/54/54
f 55/55/55 56/56/56 57/57/57
f 58/58/58 59/59/59 60/60/60
f 61/61/61 62/62/62 63/63/63
f 64/64/64 65/65/65 66/66/66
f 67/67/67 68/68/68 69/69/69
f 70/70/70 71/71/71 72/72/72
f 73/73/73 74/74/74 75/75/75
f 76/76/76 77/77/77 78/78/78
f 79/79/79 80/80/80 81/81/81
f 82/82/82 83/83/83 84/84/84
f 85/85/85 86/86/86 87/87/87
f 88/88/88 89/89/89 90/90/90
f 91/91/91 92/92/92 93/93/93
f 94/94/94 95/95/95 96/96/96
f 97/97/97 98/98/98 99/99/99
f 100/100/100 101/101/101 102/102/102
f 103/103/103 104/104/104 105/105/105
f 106/106/106 107/107/107 108/108/108
f 109/109/109 110/110/110 111/111/111
f 112/112/112 113/113/113 114/114/114
f 115/115/115 116/116/116 117/117/117
f 118/118/118 119/119/119 120/120/120
f 121/121/121 122/122/122 123/123/123
f 124/124/124 125/125/125 126/126/126
f 127/127/127 128/128/128 129/129/129
f 130/130/130 131/131/131 132/132/132
f 133/133/133 134/134/134 135/135/135
f 136/136/136 137/137/137 138/138/138
f 139/139/139 140/140/140 141/141/141
f 142/142/142 143/143/143 144/144/144
f 145/145/145 146/146/146 147/147/147
f 148/148/148 149/149/149 150/150/150
f 151/151/151 152/152/152 153/153/153
f 154/154/154 155/155/155 156/156/156
f 157/157/157 158/158/158 159/159/159
f 160/160/160 161/161/161 162/162/162
f 163/163/163 164/164/164 165/165/165
f 166/166/166 167/167/167 168/168/168
f 169/169/169 170/170/170 171/171/171
f 172/172/172 173/173/173 174/174/174
f 175/175/175 176/176/176 177/177/177
f 178/178/178 179/179/179 180/180/180
f 181/181/181 182/182/182 183/183/183
f 184/184/184 185/185/185 186/186/186
f 187/187/187 188/188/188 189/189/189
f 190/190/190 191/191/191 192/192/192
f 193/193/193 194/194/194 195/195/195
f 196/196/196 197/197/197 198/198/198
f 199/199/199 200/200/200 201/201/201
f 202/202/202 203/203/203 204/204/204
f 205/205/205 206/206/206 207/207/207
f 208/208/208 209/209/209 210/210/210
f 211/211/211 212/212/212 213/213/213
f 214/214/214 215/215/215 216/216/216
f 217/217/217 218/218/218 219/219/219
f 220/220/220 221/221/221 222/222/222
f 223/223/223 224/224/224 225/225/225
f 226/226/226 227/227/227 228/228/228
f 229/229/229 230/230/230 231/231/231
f 232/232/232 233/233/233 234/234/234
f 235/235/235 236/236/236 237/237/237
f 238/238/238 239/239/239 240/240/240
f 241/241/241 242/242/242 243/243/243
f 244/244/244 245/245/245 246/246/246
f 247/247/247 248/248/248 249/249/249
f 250/250/250 251/251/251 252/252/252
f 253/253/253 254/254/254 255/255/255
f 256/256/256 257/257/257 258/258/258
f 259/259/259 260/260/260 261/261/261
f 262/262/262 263/263/263 264/264/264
f 265/265/265 266/266/266 267/267/267
f 268/268/268 269/269/269 270/270/270
f 271/271/271 272/272/272 273/273/273
f 274/274/274 275/275/275 276/276/276
f 277/277/277 278/278/278 279/279/279
f 280/280/280 281/281/281 282/282/282
f 283/283/283 284/284/284 285/285/285
f 286/286/286 287/287/287 288/288/288
f 289/289/289 290/290/290 291/291/291
f 292/292/292 293/293/293 294/294/294
f 295/295/295 296/296/296 297/297/297
f 298/298/298 299/299/299 300/300/300
f 301/301/301 302/302/302 303/303/303
f 304/304/304 305/305/305 306/306/306
f 307/307/307 308/308/308 309/309/309
f 310/310/310 311/311/311 312/312/312
f 313/313/313 314/314/314 315/315/315
f 316/316/316 317/317/317 318/318/318
f 319/319/319 320/320/320 321/321/321
f 322/322/322 323/323/323 324/324/324
f 325/325/325 326/326/326 327/327/327
f 328/328/328 329/329/329 330/330/330
f 331/331/331 332/332/332 333/333/333
f 334/334/334 335/335/335 336/336/336
f 337/337/337 338/338/338 339/339/339
f 340/340/340 341/341/341 342/342/342
f 343/343/343 344/344/344 345/345/345
f 346/346/346 347/347/347 348/348/348
f 349/349/349 350/350/350 351/351/351
f 352/352/352 353/353/353 354/354/354
f 355/355/355 356/356/356 357/357/357
f 358/358/358 359/359/359 360/360/360
f 361/361/361 362/362/362 363/363/363
f 364/364/364 365/365/365 366/366/366
f 367/367/367 368/368/368 369/369/369
f 370/370/370 371/371/371 372/372/372
f 373/373/373 374/374/374 375/375/375
f 376/376/376 377/377/377 378/378/378
f 379/379/379 380/380/380 381/381/381
f 382/382/382 383/383/383 384/384/384
f 385/385/385 386/386/386 387/387/387
f 388/388/388 389/389/389 390/390/390
f 391/391/391 392/392/392 393/393/393
f 394/394/394 395/395/395 396/396/396
f 397/397/397 398/398/398 399/399/399
f 400/400/400 401/401/401 402/402/402
f 403/403/403 404/404/404 405/405/405
f 406/406/406 407/407/407 408/408/408
f 409/409/409 410/410/410 411/411/411
f 412/412/412 413/413/413 414/414/414
f 415/415/415 416/416/416 417/417/417
f 418/418/418 419/419/419 420/420/420
f 421/421/421 422/422/422 423/423/423
f 424/424/424 425/425/425 426/426/426
f 427/427/427 428/428/428 429/429/429
f 430/430/430 431/431/431 432/432/432
