# OBJ file
v 2663.363000 -2486.100800 580.730100
v 2663.363000 -2486.100800 619.373660
v 2766.011000 -2529.989700 580.730100
v 2663.363000 -2486.100800 619.373660
v 2766.011000 -2529.989700 619.373660
v 2766.011000 -2529.989700 580.730100
v 2408.373300 -2377.075400 580.730100
v 2408.373300 -2377.075400 619.373660
v 2511.021000 -2420.964400 580.730100
v 2408.373300 -2377.075400 619.373660
v 2511.021000 -2420.964400 619.373660
v 2511.021000 -2420.964400 580.730100
v 2138.831800 -2263.494900 580.730100
v 2138.831800 -2263.494900 619.373660
v 2241.479500 -2307.383800 580.730100
v 2138.831800 -2263.494900 619.373660
v 2241.479500 -2307.383800 619.373660
v 2241.479500 -2307.383800 580.730100
v 1867.334800 -2147.411600 580.730100
v 1867.334800 -2147.411600 619.373660
v 1969.982400 -2191.300500 580.730100
v 1867.334800 -2147.411600 619.373660
v 1969.982400 -2191.300500 619.373660
v 1969.982400 -2191.300500 580.730100
v 1984.036100 -2188.011200 1256.664900
v 1984.036300 -2188.011200 1167.492200
v 1780.249000 -2100.878400 1256.664900
v 1984.036300 -2188.011200 1167.492200
v 1780.249000 -2100.878400 1167.492200
v 1780.249000 -2100.878400 1256.664900
v 2191.782000 -2276.837000 1256.664900
v 2191.782000 -2276.836700 1167.492200
v 1987.994900 -2189.703900 1256.664900
v 2191.782000 -2276.836700 1167.492200
v 1987.994900 -2189.703900 1167.492200
v 1987.994900 -2189.703900 1256.664900
v 2193.239700 -2275.724400 1257.719800
v 2322.829600 -2331.132800 1257.719800
v 2193.239700 -2275.724400 1166.191000
v 2322.829600 -2331.132800 1257.719800
v 2322.829600 -2331.132800 1166.191000
v 2193.239700 -2275.724400 1166.191000
v 2451.309600 -2386.066700 1164.749100
v 2321.719500 -2330.658000 1164.749100
v 2451.309600 -2386.066700 1256.278000
v 2321.719500 -2330.658000 1164.749100
v 2321.719500 -2330.658000 1256.278000
v 2451.309600 -2386.066700 1256.278000
v 2653.300000 -2474.167200 1256.664900
v 2653.300000 -2474.167200 1167.492200
v 2449.513000 -2387.034200 1256.664900
v 2653.300000 -2474.167200 1167.492200
v 2449.513000 -2387.034200 1167.492200
v 2449.513000 -2387.034200 1256.664900
v 2861.046000 -2562.992700 1256.664900
v 2861.046000 -2562.992700 1167.492200
v 2657.258800 -2475.859600 1256.664900
v 2861.046000 -2562.992700 1167.492200
v 2657.258800 -2475.859600 1167.492200
v 2657.258800 -2475.859600 1256.664900
v 2863.549800 -2561.937700 1257.719800
v 2820.252200 -2663.202100 1257.719800
v 2863.549800 -2561.937700 1166.191000
v 2820.252200 -2663.202100 1257.719800
v 2820.252200 -2663.202100 1166.191000
v 2863.549800 -2561.937700 1166.191000
v 2278.873800 -2431.726000 1257.719800
v 2322.171400 -2330.461400 1257.719800
v 2278.873800 -2431.726000 1166.191000
v 2322.171400 -2330.461400 1257.719800
v 2322.171400 -2330.461400 1166.191000
v 2278.873800 -2431.726000 1166.191000
v 2322.171900 -2330.461700 1257.719800
v 2278.874000 -2431.726000 1257.719800
v 2322.171900 -2330.461700 1166.191000
v 2278.874000 -2431.726000 1257.719800
v 2278.874000 -2431.726000 1166.191000
v 2322.171900 -2330.461700 1166.191000
v 2450.350800 -2320.015400 933.393250
v 2450.350800 -2320.015400 844.525900
v 2399.046600 -2298.079000 933.393250
v 2450.350800 -2320.015400 844.525900
v 2399.046600 -2298.079300 844.525900
v 2399.046600 -2298.079000 933.393250
v 2450.351000 -2320.015400 844.525800
v 2450.350800 -2320.015400 933.393200
v 2501.247300 -2341.776900 844.525800
v 2450.350800 -2320.015400 933.393200
v 2501.247000 -2341.776900 933.393200
v 2501.247300 -2341.776900 844.525800
v 2767.784400 -2455.739500 933.393250
v 2767.784400 -2455.739500 844.525900
v 2716.888200 -2433.978000 933.393250
v 2767.784400 -2455.739500 844.525900
v 2716.888200 -2433.978000 844.525900
v 2716.888200 -2433.978000 933.393250
v 2767.784400 -2455.739500 844.525800
v 2767.784400 -2455.739700 933.393200
v 2818.680400 -2477.501200 844.525800
v 2767.784400 -2455.739700 933.393200
v 2818.680400 -2477.501200 933.393200
v 2818.680400 -2477.501200 844.525800
v 2661.973100 -2410.498000 933.393250
v 2661.973100 -2410.498300 844.525900
v 2611.077000 -2388.736600 933.393250
v 2661.973100 -2410.498300 844.525900
v 2611.077000 -2388.736600 844.525900
v 2611.077000 -2388.736600 933.393250
v 2661.973100 -2410.498000 844.525800
v 2661.973100 -2410.498300 933.393200
v 2712.869100 -2432.259800 844.525800
v 2661.973100 -2410.498300 933.393200
v 2712.869100 -2432.259800 933.393200
v 2712.869100 -2432.259800 844.525800
v 2556.162000 -2365.256800 933.393250
v 2556.162000 -2365.256800 844.525900
v 2505.265900 -2343.495000 933.393250
v 2556.162000 -2365.256800 844.525900
v 2505.265900 -2343.495000 844.525900
v 2505.265900 -2343.495000 933.393250
v 2556.162000 -2365.256800 844.525800
v 2556.162000 -2365.256800 933.393200
v 2607.058000 -2387.018300 844.525800
v 2556.162000 -2365.256800 933.393200
v 2607.058300 -2387.018300 933.393200
v 2607.058000 -2387.018300 844.525800
v 2344.540000 -2274.774000 933.393250
v 2344.540000 -2274.774000 844.525900
v 2293.087200 -2252.774200 933.393250
v 2344.540000 -2274.774000 844.525900
v 2293.087200 -2252.774200 844.525900
v 2293.087200 -2252.774200 933.393250
v 2344.540000 -2274.774000 844.525800
v 2344.540000 -2274.774000 933.393200
v 2395.436300 -2296.535400 844.525800
v 2344.540000 -2274.774000 933.393200
v 2395.436300 -2296.535400 933.393200
v 2395.436300 -2296.535400 844.525800
v 2238.728800 -2229.532500 933.393250
v 2238.728800 -2229.532500 844.525900
v 2187.832800 -2207.771000 933.393250
v 2238.728800 -2229.532500 844.525900
v 2187.832800 -2207.771000 844.525900
v 2187.832800 -2207.771000 933.393250
v 2238.728800 -2229.532500 844.525800
v 2238.728800 -2229.532500 933.393200
v 2289.625000 -2251.294000 844.525800
v 2238.728800 -2229.532500 933.393200
v 2289.625000 -2251.294000 933.393200
v 2289.625000 -2251.294000 844.525800
v 2132.339000 -2184.043700 933.393250
v 2132.339000 -2184.043700 844.525900
v 2081.443000 -2162.282000 933.393250
v 2132.339000 -2184.043700 844.525900
v 2081.443000 -2162.282200 844.525900
v 2081.443000 -2162.282000 933.393250
v 2132.339000 -2184.043700 844.525800
v 2132.339000 -2184.043700 933.393200
v 2183.235400 -2205.805200 844.525800
v 2132.339000 -2184.043700 933.393200
v 2183.235000 -2205.805200 933.393200
v 2183.235400 -2205.805200 844.525800
v 2025.949700 -2138.555000 933.393250
v 2025.949600 -2138.555000 844.525900
v 1975.053500 -2116.793200 933.393250
v 2025.949600 -2138.555000 844.525900
v 1975.053500 -2116.793200 844.525900
v 1975.053500 -2116.793200 933.393250
v 2025.949700 -2138.555000 844.525800
v 2025.949600 -2138.555000 933.393200
v 2076.846000 -2160.316400 844.525800
v 2025.949600 -2138.555000 933.393200
v 2076.845700 -2160.316400 933.393200
v 2076.846000 -2160.316400 844.525800
v 1919.559800 -2093.066000 933.393250
v 1919.559800 -2093.066000 844.525900
v 1869.924700 -2071.843500 933.393250
v 1919.559800 -2093.066000 844.525900
v 1869.924700 -2071.843500 844.525900
v 1869.924700 -2071.843500 933.393250
v 1919.559900 -2093.066000 844.525800
v 1919.559800 -2093.066000 933.393200
v 1970.455900 -2114.827400 844.525800
v 1919.559800 -2093.066000 933.393200
v 1970.455900 -2114.827600 933.393200
v 1970.455900 -2114.827400 844.525800
v 1867.746300 -2073.124300 932.091800
v 1867.746300 -2073.124300 843.224400
v 1847.932700 -2119.464800 932.091800
v 1867.746300 -2073.124300 843.224400
v 1847.932700 -2119.464800 843.224400
v 1847.932700 -2119.464800 932.091800
v 2820.913000 -2480.508800 843.224370
v 2820.913000 -2480.508800 932.091740
v 2801.273700 -2526.441200 843.224370
v 2820.913000 -2480.508800 932.091740
v 2801.273700 -2526.441200 932.091740
v 2801.273700 -2526.441200 843.224370
v 2344.569600 -2276.998500 935.790000
v 2344.569600 -2276.998500 836.731750
v 2321.911600 -2329.991500 935.790000
v 2344.569600 -2276.998500 836.731750
v 2321.911600 -2329.991500 836.731750
v 2321.911600 -2329.991500 935.790000
v 2321.911600 -2329.991500 935.790000
v 2321.911600 -2329.991500 836.731750
v 2344.569600 -2276.998500 935.790000
v 2321.911600 -2329.991500 836.731750
v 2344.569600 -2276.998500 836.731750
v 2344.569600 -2276.998500 935.790000
v 2278.041500 -2433.673600 1354.945100
v 2278.190400 -2433.325200 1280.857200
v 2282.432400 -2423.403800 1277.483300
v 2290.751700 -2403.946300 1344.002800
v 2278.041500 -2433.673600 1354.945100
v 2282.432400 -2423.403800 1277.483300
v 2290.751700 -2403.946300 1344.002800
v 2282.432400 -2423.403800 1277.483300
v 2285.587600 -2416.024400 1271.431000
v 2302.971000 -2375.368000 1322.542200
v 2290.751700 -2403.946300 1344.002800
v 2285.587600 -2416.024400 1271.431000
v 2302.971000 -2375.368000 1322.542200
v 2285.587600 -2416.024400 1271.431000
v 2287.915300 -2410.580600 1264.114100
v 2313.322500 -2351.158200 1293.608600
v 2302.971000 -2375.368000 1322.542200
v 2287.915300 -2410.580600 1264.114100
v 2313.322500 -2351.158200 1293.608600
v 2287.915300 -2410.580600 1264.114100
v 2288.868700 -2408.350800 1259.891400
v 2321.109400 -2332.946000 1259.891400
v 2313.322500 -2351.158200 1293.608600
v 2288.868700 -2408.350800 1259.891400
v 2320.472400 -2332.673800 1259.891400
v 2288.232000 -2408.078900 1259.891400
v 2312.685800 -2350.886000 1293.608600
v 2288.232000 -2408.078900 1259.891400
v 2287.278600 -2410.308300 1264.114100
v 2312.685800 -2350.886000 1293.608600
v 2312.685800 -2350.886000 1293.608600
v 2287.278600 -2410.308300 1264.114100
v 2302.334200 -2375.095700 1322.542200
v 2287.278600 -2410.308300 1264.114100
v 2284.950700 -2415.752200 1271.431000
v 2302.334200 -2375.095700 1322.542200
v 2302.334200 -2375.095700 1322.542200
v 2284.950700 -2415.752200 1271.431000
v 2290.115000 -2403.674000 1344.002800
v 2284.950700 -2415.752200 1271.431000
v 2281.795700 -2423.131600 1277.483300
v 2290.115000 -2403.674000 1344.002800
v 2290.115000 -2403.674000 1344.002800
v 2281.795700 -2423.131600 1277.483300
v 2277.404800 -2433.401400 1354.945100
v 2281.795700 -2423.131600 1277.483300
v 2277.553700 -2433.053000 1280.857200
v 2277.404800 -2433.401400 1354.945100
vn 0.388229 0.921554 -0.003921
vn 0.388229 0.921554 -0.003921
vn 0.388229 0.921554 -0.003921
vn 0.388229 0.921554 -0.003921
vn 0.388229 0.921554 -0.003921
vn 0.388229 0.921554 -0.003921
vn 0.388229 0.921554 -0.003921
vn 0.388229 0.921554 -0.003921
vn 0.388229 0.921554 -0.003921
vn 0.388229 0.921554 -0.003921
vn 0.388229 0.921554 -0.003921
vn 0.388229 0.921554 -0.003921
vn 0.388229 0.921554 -0.003921
vn 0.388229 0.921554 -0.003921
vn 0.388229 0.921554 -0.003921
vn 0.388229 0.921554 -0.003921
vn 0.388229 0.921554 -0.003921
vn 0.388229 0.921554 -0.003921
vn 0.388229 0.921554 -0.003921
vn 0.388229 0.921554 -0.003921
vn 0.388229 0.921554 -0.003921
vn 0.388229 0.921554 -0.003921
vn 0.388229 0.921554 -0.003921
vn 0.388229 0.921554 -0.003921
vn 0.388229 0.921554 -0.003921
vn 0.388229 0.921554 -0.003921
vn 0.388229 0.921554 -0.003921
vn 0.388229 0.921554 -0.003921
vn 0.388229 0.921554 -0.003921
vn 0.388229 0.921554 -0.003921
vn 0.388229 0.921554 -0.003921
vn 0.388229 0.921554 -0.003921
vn 0.388229 0.921554 -0.003921
vn 0.388229 0.921554 -0.003921
vn 0.388229 0.921554 -0.003921
vn 0.388229 0.921554 -0.003921
vn 0.388229 0.921554 -0.003921
vn 0.388229 0.921554 -0.003921
vn 0.388229 0.921554 -0.003921
vn 0.388229 0.921554 -0.003921
vn 0.388229 0.921554 -0.003921
vn 0.388229 0.921554 -0.003921
vn 0.388229 0.921554 -0.003921
vn 0.388229 0.921554 -0.003921
vn 0.388229 0.921554 -0.003921
vn 0.388229 0.921554 -0.003921
vn 0.388229 0.921554 -0.003921
vn 0.388229 0.921554 -0.003921
vn 0.388229 0.921554 -0.003921
vn 0.388229 0.921554 -0.003921
vn 0.388229 0.921554 -0.003921
vn 0.388229 0.921554 -0.003921
vn 0.388229 0.921554 -0.003921
vn 0.388229 0.921554 -0.003921
vn 0.388229 0.921554 -0.003921
vn 0.388229 0.921554 -0.003921
vn 0.388229 0.921554 -0.003921
vn 0.388229 0.921554 -0.003921
vn 0.388229 0.921554 -0.003921
vn 0.388229 0.921554 -0.003921
vn 0.920359 -0.391054 -0.003950
vn 0.920359 -0.391054 -0.003950
vn 0.920359 -0.391054 -0.003950
vn 0.920359 -0.391054 -0.003950
vn 0.920359 -0.391054 -0.003950
vn 0.920359 -0.391054 -0.003950
vn -0.918733 0.394860 -0.003909
vn -0.918733 0.394860 -0.003909
vn -0.918733 0.394860 -0.003909
vn -0.918733 0.394860 -0.003909
vn -0.918733 0.394860 -0.003909
vn -0.918733 0.394860 -0.003909
vn 0.920359 -0.391054 -0.003950
vn 0.920359 -0.391054 -0.003950
vn 0.920359 -0.391054 -0.003950
vn 0.920359 -0.391054 -0.003950
vn 0.920359 -0.391054 -0.003950
vn 0.920359 -0.391054 -0.003950
vn 0.388229 0.921554 -0.003921
vn 0.388229 0.921554 -0.003921
vn 0.388229 0.921554 -0.003921
vn 0.388229 0.921554 -0.003921
vn 0.388229 0.921554 -0.003921
vn 0.388229 0.921554 -0.003921
vn 0.388229 0.921554 -0.003921
vn 0.388229 0.921554 -0.003921
vn 0.388229 0.921554 -0.003921
vn 0.388229 0.921554 -0.003921
vn 0.388229 0.921554 -0.003921
vn 0.388229 0.921554 -0.003921
vn 0.388229 0.921554 -0.003921
vn 0.388229 0.921554 -0.003921
vn 0.388229 0.921554 -0.003921
vn 0.388229 0.921554 -0.003921
vn 0.388229 0.921554 -0.003921
vn 0.388229 0.921554 -0.003921
vn 0.388229 0.921554 -0.003921
vn 0.388229 0.921554 -0.003921
vn 0.388229 0.921554 -0.003921
vn 0.388229 0.921554 -0.003921
vn 0.388229 0.921554 -0.003921
vn 0.388229 0.921554 -0.003921
vn 0.388229 0.921554 -0.003921
vn 0.388229 0.921554 -0.003921
vn 0.388229 0.921554 -0.003921
vn 0.388229 0.921554 -0.003921
vn 0.388229 0.921554 -0.003921
vn 0.388229 0.921554 -0.003921
vn 0.388229 0.921554 -0.003921
vn 0.388229 0.921554 -0.003921
vn 0.388229 0.921554 -0.003921
vn 0.388229 0.921554 -0.003921
vn 0.388229 0.921554 -0.003921
vn 0.388229 0.921554 -0.003921
vn 0.388229 0.921554 -0.003921
vn 0.388229 0.921554 -0.003921
vn 0.388229 0.921554 -0.003921
vn 0.388229 0.921554 -0.003921
vn 0.388229 0.921554 -0.003921
vn 0.388229 0.921554 -0.003921
vn 0.388229 0.921554 -0.003921
vn 0.388229 0.921554 -0.003921
vn 0.388229 0.921554 -0.003921
vn 0.388229 0.921554 -0.003921
vn 0.388229 0.921554 -0.003921
vn 0.388229 0.921554 -0.003921
vn 0.388229 0.921554 -0.003921
vn 0.388229 0.921554 -0.003921
vn 0.388229 0.921554 -0.003921
vn 0.388229 0.921554 -0.003921
vn 0.388229 0.921554 -0.003921
vn 0.388229 0.921554 -0.003921
vn 0.388229 0.921554 -0.003921
vn 0.388229 0.921554 -0.003921
vn 0.388229 0.921554 -0.003921
vn 0.388229 0.921554 -0.003921
vn 0.388229 0.921554 -0.003921
vn 0.388229 0.921554 -0.003921
vn 0.388229 0.921554 -0.003921
vn 0.388229 0.921554 -0.003921
vn 0.388229 0.921554 -0.003921
vn 0.388229 0.921554 -0.003921
vn 0.388229 0.921554 -0.003921
vn 0.388229 0.921554 -0.003921
vn 0.388229 0.921554 -0.003921
vn 0.388229 0.921554 -0.003921
vn 0.388229 0.921554 -0.003921
vn 0.388229 0.921554 -0.003921
vn 0.388229 0.921554 -0.003921
vn 0.388229 0.921554 -0.003921
vn 0.388229 0.921554 -0.003921
vn 0.388229 0.921554 -0.003921
vn 0.388229 0.921554 -0.003921
vn 0.388229 0.921554 -0.003921
vn 0.388229 0.921554 -0.003921
vn 0.388229 0.921554 -0.003921
vn 0.388229 0.921554 -0.003921
vn 0.388229 0.921554 -0.003921
vn 0.388229 0.921554 -0.003921
vn 0.388229 0.921554 -0.003921
vn 0.388229 0.921554 -0.003921
vn 0.388229 0.921554 -0.003921
vn 0.388229 0.921554 -0.003921
vn 0.388229 0.921554 -0.003921
vn 0.388229 0.921554 -0.003921
vn 0.388229 0.921554 -0.003921
vn 0.388229 0.921554 -0.003921
vn 0.388229 0.921554 -0.003921
vn 0.388229 0.921554 -0.003921
vn 0.388229 0.921554 -0.003921
vn 0.388229 0.921554 -0.003921
vn 0.388229 0.921554 -0.003921
vn 0.388229 0.921554 -0.003921
vn 0.388229 0.921554 -0.003921
vn 0.388229 0.921554 -0.003921
vn 0.388229 0.921554 -0.003921
vn 0.388229 0.921554 -0.003921
vn 0.388229 0.921554 -0.003921
vn 0.388229 0.921554 -0.003921
vn 0.388229 0.921554 -0.003921
vn 0.388229 0.921554 -0.003921
vn 0.388229 0.921554 -0.003921
vn 0.388229 0.921554 -0.003921
vn 0.388229 0.921554 -0.003921
vn 0.388229 0.921554 -0.003921
vn 0.388229 0.921554 -0.003921
vn -0.918733 0.394860 -0.003909
vn -0.918733 0.394860 -0.003909
vn -0.918733 0.394860 -0.003909
vn -0.918733 0.394860 -0.003909
vn -0.918733 0.394860 -0.003909
vn -0.918733 0.394860 -0.003909
vn 0.920359 -0.391054 -0.003950
vn 0.920359 -0.391054 -0.003950
vn 0.920359 -0.391054 -0.003950
vn 0.920359 -0.391054 -0.003950
vn 0.920359 -0.391054 -0.003950
vn 0.920359 -0.391054 -0.003950
vn -0.918733 0.394860 -0.003909
vn -0.918733 0.394860 -0.003909
vn -0.918733 0.394860 -0.003909
vn -0.918733 0.394860 -0.003909
vn -0.918733 0.394860 -0.003909
vn -0.918733 0.394860 -0.003909
vn 0.920359 -0.391054 -0.003950
vn 0.920359 -0.391054 -0.003950
vn 0.920359 -0.391054 -0.003950
vn 0.920359 -0.391054 -0.003950
vn 0.920359 -0.391054 -0.003950
vn 0.920359 -0.391054 -0.003950
vn 0.920359 -0.391054 -0.003950
vn 0.920359 -0.391054 -0.003950
vn 0.920359 -0.391054 -0.003950
vn 0.920359 -0.391054 -0.003950
vn 0.920359 -0.391054 -0.003950
vn 0.920359 -0.391054 -0.003950
vn 0.920359 -0.391054 -0.003950
vn 0.920359 -0.391054 -0.003950
vn 0.920359 -0.391054 -0.003950
vn 0.920359 -0.391054 -0.003950
vn 0.920359 -0.391054 -0.003950
vn 0.920359 -0.391054 -0.003950
vn 0.920359 -0.391054 -0.003950
vn 0.920359 -0.391054 -0.003950
vn 0.920359 -0.391054 -0.003950
vn 0.920359 -0.391054 -0.003950
vn 0.920359 -0.391054 -0.003950
vn 0.920359 -0.391054 -0.003950
vn 0.920359 -0.391054 -0.003950
vn 0.920359 -0.391054 -0.003950
vn 0.920359 -0.391054 -0.003950
vn 0.920359 -0.391054 -0.003950
vn 0.920359 -0.391054 -0.003950
vn 0.920359 -0.391054 -0.003950
vn -0.918733 0.394860 -0.003909
vn -0.918733 0.394860 -0.003909
vn -0.918733 0.394860 -0.003909
vn -0.918733 0.394860 -0.003909
vn -0.918733 0.394860 -0.003909
vn -0.918733 0.394860 -0.003909
vn -0.918733 0.394860 -0.003909
vn -0.918733 0.394860 -0.003909
vn -0.918733 0.394860 -0.003909
vn -0.918733 0.394860 -0.003909
vn -0.918733 0.394860 -0.003909
vn -0.918733 0.394860 -0.003909
vn -0.918733 0.394860 -0.003909
vn -0.918733 0.394860 -0.003909
vn -0.918733 0.394860 -0.003909
vn -0.918733 0.394860 -0.003909
vn -0.918733 0.394860 -0.003909
vn -0.918733 0.394860 -0.003909
vn -0.918733 0.394860 -0.003909
vn -0.918733 0.394860 -0.003909
vn -0.918733 0.394860 -0.003909
vn -0.918733 0.394860 -0.003909
vn -0.918733 0.394860 -0.003909
vn -0.918733 0.394860 -0.003909
vt 0.572266 0.007812
vt 0.572266 0.239746
vt 0.007778 0.007812
vt 0.572266 0.239746
vt 0.007778 0.239746
vt 0.007778 0.007812
vt 0.572266 0.007812
vt 0.572266 0.239746
vt 0.007778 0.007812
vt 0.572266 0.239746
vt 0.007778 0.239746
vt 0.007778 0.007812
vt 0.572266 0.007812
vt 0.572266 0.239746
vt 0.007778 0.007812
vt 0.572266 0.239746
vt 0.007778 0.239746
vt 0.007778 0.007812
vt 0.572266 0.007812
vt 0.572266 0.239746
vt 0.007778 0.007812
vt 0.572266 0.239746
vt 0.007778 0.239746
vt 0.007778 0.007812
vt -0.001852 0.989075
vt -0.001852 0.751099
vt 0.589355 0.989075
vt -0.001852 0.751099
vt 0.589355 0.751099
vt 0.589355 0.989075
vt -0.001852 0.989075
vt -0.001852 0.751099
vt 0.589355 0.989075
vt -0.001852 0.751099
vt 0.589355 0.751099
vt 0.589355 0.989075
vt 0.215820 0.003906
vt 0.579590 0.003906
vt 0.215820 0.240234
vt 0.579590 0.003906
vt 0.579590 0.240234
vt 0.215820 0.240234
vt 0.215820 0.003906
vt 0.579590 0.003906
vt 0.215820 0.240234
vt 0.579590 0.003906
vt 0.579590 0.240234
vt 0.215820 0.240234
vt -0.001852 0.989075
vt -0.001852 0.751099
vt 0.589355 0.989075
vt -0.001852 0.751099
vt 0.589355 0.751099
vt 0.589355 0.989075
vt -0.001852 0.989075
vt -0.001852 0.751099
vt 0.589355 0.989075
vt -0.001852 0.751099
vt 0.589355 0.751099
vt 0.589355 0.989075
vt 0.164917 0.003906
vt 0.416260 0.003906
vt 0.164917 0.236816
vt 0.416260 0.003906
vt 0.416260 0.236816
vt 0.164917 0.236816
vt 0.164917 0.003906
vt 0.416260 0.003906
vt 0.164917 0.236816
vt 0.416260 0.003906
vt 0.416260 0.236816
vt 0.164917 0.236816
vt 0.164917 0.003906
vt 0.416260 0.003906
vt 0.164917 0.236816
vt 0.416260 0.003906
vt 0.416260 0.236816
vt 0.164917 0.236816
vt 0.018784 0.484863
vt 0.561523 0.484863
vt 0.018784 0.723633
vt 0.561523 0.484863
vt 0.561523 0.723633
vt 0.018784 0.723633
vt 0.018784 0.484863
vt 0.561523 0.484863
vt 0.018784 0.723633
vt 0.561523 0.484863
vt 0.561523 0.723633
vt 0.018784 0.723633
vt 0.018784 0.484863
vt 0.561523 0.484863
vt 0.018784 0.723633
vt 0.561523 0.484863
vt 0.561523 0.723633
vt 0.018784 0.723633
vt 0.018784 0.484863
vt 0.561523 0.484863
vt 0.018784 0.723633
vt 0.561523 0.484863
vt 0.561523 0.723633
vt 0.018784 0.723633
vt 0.018784 0.484863
vt 0.561523 0.484863
vt 0.018784 0.723633
vt 0.561523 0.484863
vt 0.561523 0.723633
vt 0.018784 0.723633
vt 0.018784 0.484863
vt 0.561523 0.484863
vt 0.018784 0.723633
vt 0.561523 0.484863
vt 0.561523 0.723633
vt 0.018784 0.723633
vt 0.018784 0.484863
vt 0.561523 0.484863
vt 0.018784 0.723633
vt 0.561523 0.484863
vt 0.561523 0.723633
vt 0.018784 0.723633
vt 0.018784 0.484863
vt 0.561523 0.484863
vt 0.018784 0.723633
vt 0.561523 0.484863
vt 0.561523 0.723633
vt 0.018784 0.723633
vt 0.018784 0.484863
vt 0.561523 0.484863
vt 0.018784 0.723633
vt 0.561523 0.484863
vt 0.561523 0.723633
vt 0.018784 0.723633
vt 0.018784 0.484863
vt 0.561523 0.484863
vt 0.018784 0.723633
vt 0.561523 0.484863
vt 0.561523 0.723633
vt 0.018784 0.723633
vt 0.018784 0.484863
vt 0.561523 0.484863
vt 0.018784 0.723633
vt 0.561523 0.484863
vt 0.561523 0.723633
vt 0.018784 0.723633
vt 0.018784 0.484863
vt 0.561523 0.484863
vt 0.018784 0.723633
vt 0.561523 0.484863
vt 0.561523 0.723633
vt 0.018784 0.723633
vt 0.018784 0.484863
vt 0.561523 0.484863
vt 0.018784 0.723633
vt 0.561523 0.484863
vt 0.561523 0.723633
vt 0.018784 0.723633
vt 0.018784 0.484863
vt 0.561523 0.484863
vt 0.018784 0.723633
vt 0.561523 0.484863
vt 0.561523 0.723633
vt 0.018784 0.723633
vt 0.018784 0.484863
vt 0.561523 0.484863
vt 0.018784 0.723633
vt 0.561523 0.484863
vt 0.561523 0.723633
vt 0.018784 0.723633
vt 0.018784 0.484863
vt 0.561523 0.484863
vt 0.018784 0.723633
vt 0.561523 0.484863
vt 0.561523 0.723633
vt 0.018784 0.723633
vt 0.018784 0.484863
vt 0.561523 0.484863
vt 0.018784 0.723633
vt 0.561523 0.484863
vt 0.561523 0.723633
vt 0.018784 0.723633
vt 0.018784 0.484863
vt 0.561523 0.484863
vt 0.018784 0.723633
vt 0.561523 0.484863
vt 0.561523 0.723633
vt 0.018784 0.723633
vt 0.007683 0.008301
vt 0.574219 0.008301
vt 0.007683 0.239746
vt 0.574219 0.008301
vt 0.574219 0.239746
vt 0.007683 0.239746
vt 0.007683 0.008301
vt 0.574219 0.008301
vt 0.007683 0.239746
vt 0.574219 0.008301
vt 0.574219 0.239746
vt 0.007683 0.239746
vt 0.007683 0.008301
vt 0.574219 0.008301
vt 0.007683 0.239746
vt 0.574219 0.008301
vt 0.574219 0.239746
vt 0.007683 0.239746
vt 0.007683 0.008301
vt 0.574219 0.008301
vt 0.007683 0.239746
vt 0.574219 0.008301
vt 0.574219 0.239746
vt 0.007683 0.239746
vt 0.534180 0.528320
vt 0.350830 0.730957
vt 0.315918 0.716309
vt 0.427734 0.486816
vt 0.534180 0.528320
vt 0.315918 0.716309
vt 0.427734 0.486816
vt 0.315918 0.716309
vt 0.281250 0.715088
vt 0.298096 0.477051
vt 0.427734 0.486816
vt 0.281250 0.715088
vt 0.298096 0.477051
vt 0.281250 0.715088
vt 0.248657 0.722168
vt 0.162109 0.498535
vt 0.298096 0.477051
vt 0.248657 0.722168
vt 0.162109 0.498535
vt 0.248657 0.722168
vt 0.232300 0.728516
vt 0.030243 0.547119
vt 0.162109 0.498535
vt 0.232300 0.728516
vt 0.030243 0.547119
vt 0.232300 0.728516
vt 0.162109 0.498535
vt 0.232300 0.728516
vt 0.248657 0.722168
vt 0.162109 0.498535
vt 0.162109 0.498535
vt 0.248657 0.722168
vt 0.298096 0.477051
vt 0.248657 0.722168
vt 0.281250 0.715088
vt 0.298096 0.477051
vt 0.298096 0.477051
vt 0.281250 0.715088
vt 0.427734 0.486816
vt 0.281250 0.715088
vt 0.315918 0.716309
vt 0.427734 0.486816
vt 0.427734 0.486816
vt 0.315918 0.716309
vt 0.534180 0.528320
vt 0.315918 0.716309
vt 0.350830 0.730957
vt 0.534180 0.528320
f 1/1/1 2/2/2 3/3/3
f 4/4/4 5/5/5 6/6/6
f 7/7/7 8/8/8 9/9/9
f 10/10/10 11/11/11 12/12/12
f 13/13/13 14/14/14 15/15/15
f 16/16/16 17/17/17 18/18/18
f 19/19/19 20/20/20 21/21/21
f 22/22/22 23/23/23 24/24/24
f 25/25/25 26/26/26 27/27/27
f 28/28/28 29/29/29 30/30/30
f 31/31/31 32/32/32 33/33/33
f 34/34/34 35/35/35 36/36/36
f 37/37/37 38/38/38 39/39/39
f 40/40/40 41/41/41 42/42/42
f 43/43/43 44/44/44 45/45/45
f 46/46/46 47/47/47 48/48/48
f 49/49/49 50/50/50 51/51/51
f 52/52/52 53/53/53 54/54/54
f 55/55/55 56/56/56 57/57/57
f 58/58/58 59/59/59 60/60/60
f 61/61/61 62/62/62 63/63/63
f 64/64/64 65/65/65 66/66/66
f 67/67/67 68/68/68 69/69/69
f 70/70/70 71/71/71 72/72/72
f 73/73/73 74/74/74 75/75/75
f 76/76/76 77/77/77 78/78/78
f 79/79/79 80/80/80 81/81/81
f 82/82/82 83/83/83 84/84/84
f 85/85/85 86/86/86 87/87/87
f 88/88/88 89/89/89 90/90/90
f 91/91/91 92/92/92 93/93/93
f 94/94/94 95/95/95 96/96/96
f 97/97/97 98/98/98 99/99/99
f 100/100/100 101/101/101 102/102/102
f 103/103/103 104/104/104 105/105/105
f 106/106/106 107/107/107 108/108/108
f 109/109/109 110/110/110 111/111/111
f 112/112/112 113/113/113 114/114/114
f 115/115/115 116/116/116 117/117/117
f 118/118/118 119/119/119 120/120/120
f 121/121/121 122/122/122 123/123/123
f 124/124/124 125/125/125 126/126/126
f 127/127/127 128/128/128 129/129/129
f 130/130/130 131/131/131 132/132/132
f 133/133/133 134/134/134 135/135/135
f 136/136/136 137/137/137 138/138/138
f 139/139/139 140/140/140 141/141/141
f 142/142/142 143/143/143 144/144/144
f 145/145/145 146/146/146 147/147/147
f 148/148/148 149/149/149 150/150/150
f 151/151/151 152/152/152 153/153/153
f 154/154/154 155/155/155 156/156/156
f 157/157/157 158/158/158 159/159/159
f 160/160/160 161/161/161 162/162/162
f 163/163/163 164/164/164 165/165/165
f 166/166/166 167/167/167 168/168/168
f 169/169/169 170/170/170 171/171/171
f 172/172/172 173/173/173 174/174/174
f 175/175/175 176/176/176 177/177/177
f 178/178/178 179/179/179 180/180/180
f 181/181/181 182/182/182 183/183/183
f 184/184/184 185/185/185 186/186/186
f 187/187/187 188/188/188 189/189/189
f 190/190/190 191/191/191 192/192/192
f 193/193/193 194/194/194 195/195/195
f 196/196/196 197/197/197 198/198/198
f 199/199/199 200/200/200 201/201/201
f 202/202/202 203/203/203 204/204/204
f 205/205/205 206/206/206 207/207/207
f 208/208/208 209/209/209 210/210/210
f 211/211/211 212/212/212 213/213/213
f 214/214/214 215/215/215 216/216/216
f 217/217/217 218/218/218 219/219/219
f 220/220/220 221/221/221 222/222/222
f 223/223/223 224/224/224 225/225/225
f 226/226/226 227/227/227 228/228/228
f 229/229/229 230/230/230 231/231/231
f 232/232/232 233/233/233 234/234/234
f 235/235/235 236/236/236 237/237/237
f 238/238/238 239/239/239 240/240/240
f 241/241/241 242/242/242 243/243/243
f 244/244/244 245/245/245 246/246/246
f 247/247/247 248/248/248 249/249/249
f 250/250/250 251/251/251 252/252/252
f 253/253/253 254/254/254 255/255/255
f 256/256/256 257/257/257 258/258/258
