# OBJ file
v 190.944700 -1358.385000 90.055010
v 230.296340 -1374.462500 90.055000
v 205.992690 -1321.549400 90.055010
v 230.296340 -1374.462500 90.055000
v 245.344350 -1337.626800 90.054890
v 205.992690 -1321.549400 90.055010
v 207.876050 -1316.939300 21.999954
v 207.876000 -1316.939300 84.709540
v 247.227690 -1333.016700 21.999954
v 207.876000 -1316.939300 84.709540
v 247.227660 -1333.016700 84.709540
v 247.227690 -1333.016700 21.999954
v 206.491650 -1320.328000 89.475970
v 245.843290 -1336.405500 89.475850
v 207.674580 -1317.432300 86.075330
v 245.843290 -1336.405500 89.475850
v 247.026230 -1333.509800 86.075330
v 207.674580 -1317.432300 86.075330
v 205.992690 -1321.549400 90.055010
v 205.389710 -1320.826200 89.268260
v 190.944700 -1358.385000 90.055010
v 205.389710 -1320.826200 89.268260
v 190.174760 -1358.070400 89.268260
v 190.944700 -1358.385000 90.055010
v 230.296340 -1374.462500 90.055000
v 231.066270 -1374.777000 89.268250
v 245.344350 -1337.626800 90.054890
v 231.066270 -1374.777000 89.268250
v 246.281200 -1337.532700 89.268135
v 245.344350 -1337.626800 90.054890
v 207.876050 -1316.939300 21.999954
v 206.808600 -1317.353000 21.999954
v 207.876000 -1316.939300 84.709540
v 206.808600 -1317.353000 21.999954
v 206.808550 -1317.352900 85.496290
v 207.876000 -1316.939300 84.709540
v 245.843290 -1336.405500 89.475850
v 246.281200 -1337.532700 89.268135
v 247.026230 -1333.509800 86.075330
v 246.281200 -1337.532700 89.268135
v 247.700030 -1334.059700 85.496290
v 247.026230 -1333.509800 86.075330
v 207.674580 -1317.432300 86.075330
v 206.808550 -1317.352900 85.496290
v 206.491650 -1320.328000 89.475970
v 206.808550 -1317.352900 85.496290
v 205.389710 -1320.826200 89.268260
v 206.491650 -1320.328000 89.475970
v 245.344350 -1337.626800 90.054890
v 246.281200 -1337.532700 89.268135
v 245.843290 -1336.405500 89.475850
v 245.344350 -1337.626800 90.054890
v 245.843290 -1336.405500 89.475850
v 205.992690 -1321.549400 90.055010
v 245.843290 -1336.405500 89.475850
v 206.491650 -1320.328000 89.475970
v 205.992690 -1321.549400 90.055010
v 205.992690 -1321.549400 90.055010
v 206.491650 -1320.328000 89.475970
v 205.389710 -1320.826200 89.268260
v 206.808550 -1317.352900 85.496290
v 207.674580 -1317.432300 86.075330
v 207.876000 -1316.939300 84.709540
v 207.876000 -1316.939300 84.709540
v 207.674580 -1317.432300 86.075330
v 247.227660 -1333.016700 84.709540
v 207.674580 -1317.432300 86.075330
v 247.026230 -1333.509800 86.075330
v 247.227660 -1333.016700 84.709540
v 247.026230 -1333.509800 86.075330
v 247.700030 -1334.059700 85.496290
v 247.227660 -1333.016700 84.709540
v 247.227660 -1333.016700 84.709540
v 247.700030 -1334.059700 85.496290
v 247.227690 -1333.016700 21.999954
v 247.700030 -1334.059700 85.496290
v 247.700060 -1334.059700 21.999954
v 247.227690 -1333.016700 21.999954
v 190.174820 -1358.070400 21.999952
v 190.174760 -1358.070400 85.496290
v 206.808600 -1317.353000 21.999954
v 190.174760 -1358.070400 85.496290
v 206.808550 -1317.352900 85.496290
v 206.808600 -1317.353000 21.999954
v 205.389710 -1320.826200 89.268260
v 206.808550 -1317.352900 85.496290
v 190.174760 -1358.070400 85.496290
v 190.174760 -1358.070400 89.268260
v 205.389710 -1320.826200 89.268260
v 190.174760 -1358.070400 85.496290
v 247.700060 -1334.059700 21.999954
v 247.700030 -1334.059700 85.496290
v 231.066300 -1374.777000 21.999952
v 247.700030 -1334.059700 85.496290
v 231.066270 -1374.777000 85.496284
v 231.066300 -1374.777000 21.999952
v 231.066270 -1374.777000 89.268250
v 231.066270 -1374.777000 85.496284
v 247.700030 -1334.059700 85.496290
v 246.281200 -1337.532700 89.268135
v 231.066270 -1374.777000 89.268250
v 247.700030 -1334.059700 85.496290
vn -0.003921 0.003921 0.999985
vn -0.003921 0.003921 0.999985
vn -0.003921 0.003921 0.999985
vn -0.003921 0.003921 0.999985
vn -0.003921 0.003921 0.999985
vn -0.003921 0.003921 0.999985
vn 0.372063 0.928199 -0.003916
vn 0.372063 0.928199 -0.003916
vn 0.372063 0.928199 -0.003916
vn 0.372063 0.928199 -0.003916
vn 0.372063 0.928199 -0.003916
vn 0.372063 0.928199 -0.003916
vn 0.271420 0.688384 0.672650
vn 0.271420 0.688384 0.672650
vn 0.271420 0.688384 0.672650
vn 0.271420 0.688384 0.672650
vn 0.271420 0.688384 0.672650
vn 0.271420 0.688384 0.672650
vn -0.326430 0.389357 0.861304
vn -0.480986 0.527912 0.699972
vn -0.637951 0.262225 0.724055
vn -0.480986 0.527912 0.699972
vn -0.637951 0.262225 0.724055
vn -0.637951 0.262225 0.724055
vn 0.634572 -0.256194 0.729166
vn 0.634572 -0.256194 0.729166
vn 0.500999 0.051283 0.863927
vn 0.634572 -0.256194 0.729166
vn 0.710361 0.043171 0.702512
vn 0.500999 0.051283 0.863927
vn -0.362632 0.931924 -0.003899
vn -0.362632 0.931924 -0.003899
vn -0.081840 0.978180 0.190960
vn -0.362632 0.931924 -0.003899
vn -0.292214 0.900019 0.323383
vn -0.081840 0.978180 0.190960
vn 0.563486 0.303415 0.768390
vn 0.710361 0.043171 0.702512
vn 0.664207 0.601324 0.444115
vn 0.710361 0.043171 0.702512
vn 0.835281 0.443130 0.325485
vn 0.664207 0.601324 0.444115
vn -0.066425 0.894784 0.441531
vn -0.292214 0.900019 0.323383
vn -0.199617 0.614506 0.763240
vn -0.292214 0.900019 0.323383
vn -0.480986 0.527912 0.699972
vn -0.199617 0.614506 0.763240
vn 0.500999 0.051283 0.863927
vn 0.710361 0.043171 0.702512
vn 0.563486 0.303415 0.768390
vn 0.500999 0.051283 0.863927
vn 0.563486 0.303415 0.768390
vn -0.326430 0.389357 0.861304
vn 0.563486 0.303415 0.768390
vn -0.199617 0.614506 0.763240
vn -0.326430 0.389357 0.861304
vn -0.326430 0.389357 0.861304
vn -0.199617 0.614506 0.763240
vn -0.480986 0.527912 0.699972
vn -0.292214 0.900019 0.323383
vn -0.066425 0.894784 0.441531
vn -0.081840 0.978180 0.190960
vn -0.081840 0.978180 0.190960
vn -0.066425 0.894784 0.441531
vn 0.735770 0.649209 0.192795
vn -0.066425 0.894784 0.441531
vn 0.664207 0.601324 0.444115
vn 0.735770 0.649209 0.192795
vn 0.664207 0.601324 0.444115
vn 0.835281 0.443130 0.325485
vn 0.735770 0.649209 0.192795
vn 0.735770 0.649209 0.192795
vn 0.835281 0.443130 0.325485
vn 0.907377 0.420300 -0.003928
vn 0.835281 0.443130 0.325485
vn 0.907377 0.420300 -0.003928
vn 0.907377 0.420300 -0.003928
vn -0.925478 0.378782 -0.003905
vn -0.925478 0.378782 -0.003905
vn -0.925478 0.378782 -0.003905
vn -0.925478 0.378782 -0.003905
vn -0.925478 0.378782 -0.003905
vn -0.925478 0.378782 -0.003905
vn -0.925478 0.378782 -0.003905
vn -0.925478 0.378782 -0.003905
vn -0.925478 0.378782 -0.003905
vn -0.925478 0.378782 -0.003905
vn -0.925478 0.378782 -0.003905
vn -0.925478 0.378782 -0.003905
vn 0.927103 -0.374786 -0.003945
vn 0.927103 -0.374786 -0.003945
vn 0.927103 -0.374786 -0.003945
vn 0.927103 -0.374786 -0.003945
vn 0.927103 -0.374786 -0.003945
vn 0.927103 -0.374786 -0.003945
vn 0.927103 -0.374786 -0.003945
vn 0.927103 -0.374786 -0.003945
vn 0.927103 -0.374786 -0.003945
vn 0.927103 -0.374786 -0.003945
vn 0.927103 -0.374786 -0.003945
vn 0.927103 -0.374786 -0.003945
vt 0.600098 0.612061
vt 0.399414 0.612061
vt 0.600098 0.413086
vt 0.399414 0.612061
vt 0.399414 0.413086
vt 0.600098 0.413086
vt 0.600098 0.330078
vt 0.600098 0.643555
vt 0.399414 0.330078
vt 0.600098 0.643555
vt 0.399414 0.643555
vt 0.399414 0.330078
vt 0.600098 0.667480
vt 0.399414 0.667480
vt 0.600098 0.650391
vt 0.399414 0.667480
vt 0.399414 0.650391
vt 0.600098 0.650391
vt 0.412842 0.670166
vt 0.410645 0.666260
vt 0.611816 0.670166
vt 0.410645 0.666260
vt 0.611816 0.666260
vt 0.611816 0.670166
vt 0.399414 0.612061
vt 0.395264 0.612061
vt 0.399414 0.413086
vt 0.395264 0.612061
vt 0.395508 0.411133
vt 0.399414 0.413086
vt 0.387939 0.330078
vt 0.391846 0.330078
vt 0.387939 0.643555
vt 0.391846 0.330078
vt 0.391846 0.647461
vt 0.387939 0.643555
vt 0.593262 0.667480
vt 0.588867 0.666260
vt 0.609375 0.650635
vt 0.588867 0.666260
vt 0.607910 0.647461
vt 0.609375 0.650635
vt 0.390625 0.650391
vt 0.391846 0.647461
vt 0.406250 0.667480
vt 0.391846 0.647461
vt 0.410645 0.666260
vt 0.406250 0.667480
vt 0.399414 0.413086
vt 0.395508 0.411133
vt 0.399414 0.406738
vt 0.399414 0.413086
vt 0.399414 0.406738
vt 0.600098 0.413086
vt 0.399414 0.406738
vt 0.600098 0.406738
vt 0.600098 0.413086
vt 0.600098 0.413086
vt 0.600098 0.406738
vt 0.604004 0.411133
vt 0.604492 0.647461
vt 0.600098 0.650391
vt 0.600098 0.643555
vt 0.600098 0.643555
vt 0.600098 0.650391
vt 0.399414 0.643555
vt 0.600098 0.650391
vt 0.399414 0.650391
vt 0.399414 0.643555
vt 0.399414 0.650391
vt 0.395508 0.647461
vt 0.399414 0.643555
vt 0.399414 0.643555
vt 0.395508 0.647461
vt 0.399414 0.330078
vt 0.395508 0.647461
vt 0.395508 0.330078
vt 0.399414 0.330078
vt 0.611816 0.330078
vt 0.611816 0.647461
vt 0.391846 0.330078
vt 0.611816 0.647461
vt 0.391846 0.647461
vt 0.391846 0.330078
vt 0.410645 0.666260
vt 0.391846 0.647461
vt 0.611816 0.647461
vt 0.611816 0.666260
vt 0.410645 0.666260
vt 0.611816 0.647461
vt 0.607910 0.330078
vt 0.607910 0.647461
vt 0.387939 0.330078
vt 0.607910 0.647461
vt 0.387939 0.647461
vt 0.387939 0.330078
vt 0.387939 0.666260
vt 0.387939 0.647461
vt 0.607910 0.647461
vt 0.588867 0.666260
vt 0.387939 0.666260
vt 0.607910 0.647461
f 1/1/1 2/2/2 3/3/3
f 4/4/4 5/5/5 6/6/6
f 7/7/7 8/8/8 9/9/9
f 10/10/10 11/11/11 12/12/12
f 13/13/13 14/14/14 15/15/15
f 16/16/16 17/17/17 18/18/18
f 19/19/19 20/20/20 21/21/21
f 22/22/22 23/23/23 24/24/24
f 25/25/25 26/26/26 27/27/27
f 28/28/28 29/29/29 30/30/30
f 31/31/31 32/32/32 33/33/33
f 34/34/34 35/35/35 36/36/36
f 37/37/37 38/38/38 39/39/39
f 40/40/40 41/41/41 42/42/42
f 43/43/43 44/44/44 45/45/45
f 46/46/46 47/47/47 48/48/48
f 49/49/49 50/50/50 51/51/51
f 52/52/52 53/53/53 54/54/54
f 55/55/55 56/56/56 57/57/57
f 58/58/58 59/59/59 60/60/60
f 61/61/61 62/62/62 63/63/63
f 64/64/64 65/65/65 66/66/66
f 67/67/67 68/68/68 69/69/69
f 70/70/70 71/71/71 72/72/72
f 73/73/73 74/74/74 75/75/75
f 76/76/76 77/77/77 78/78/78
f 79/79/79 80/80/80 81/81/81
f 82/82/82 83/83/83 84/84/84
f 85/85/85 86/86/86 87/87/87
f 88/88/88 89/89/89 90/90/90
f 91/91/91 92/92/92 93/93/93
f 94/94/94 95/95/95 96/96/96
f 97/97/97 98/98/98 99/99/99
f 100/100/100 101/101/101 102/102/102
