# OBJ file
v 2054.369600 -2353.082500 271.900630
v 2143.640100 -2391.251700 271.900630
v 2054.388200 -2353.090600 170.040020
v 2143.640100 -2391.251700 271.900630
v 2143.612000 -2391.239700 170.040100
v 2054.388200 -2353.090600 170.040020
v 2771.078000 -2601.460000 107.004220
v 2483.585000 -2478.537400 107.004230
v 2771.078000 -2601.460000 232.750380
v 2483.585000 -2478.537400 107.004230
v 2483.585000 -2478.537400 232.750380
v 2771.078000 -2601.460000 232.750380
v 2207.973900 -2368.081000 315.108700
v 2207.973900 -2368.081000 366.629000
v 2296.939200 -2406.119600 366.629000
v 2296.939200 -2406.119600 315.108700
v 2207.973900 -2368.081000 315.108700
v 2296.939200 -2406.119600 366.629000
v 2296.939200 -2406.119600 315.108700
v 2296.939200 -2406.119600 366.629000
v 2387.289300 -2444.750500 366.629030
v 2387.289300 -2444.750500 315.108730
v 2296.939200 -2406.119600 315.108700
v 2387.289300 -2444.750500 366.629030
vn 0.388229 0.921554 -0.003921
vn 0.388229 0.921554 -0.003921
vn 0.388229 0.921554 -0.003921
vn 0.388229 0.921554 -0.003921
vn 0.388229 0.921554 -0.003921
vn 0.388229 0.921554 -0.003921
vn 0.388229 0.921554 -0.003921
vn 0.388229 0.921554 -0.003921
vn 0.388229 0.921554 -0.003921
vn 0.388229 0.921554 -0.003921
vn 0.388229 0.921554 -0.003921
vn 0.388229 0.921554 -0.003921
vn 0.388229 0.921554 -0.003921
vn 0.388229 0.921554 -0.003921
vn 0.388229 0.921554 -0.003921
vn 0.388229 0.921554 -0.003921
vn 0.388229 0.921554 -0.003921
vn 0.388229 0.921554 -0.003921
vn 0.388229 0.921554 -0.003921
vn 0.388229 0.921554 -0.003921
vn 0.388229 0.921554 -0.003921
vn 0.388229 0.921554 -0.003921
vn 0.388229 0.921554 -0.003921
vn 0.388229 0.921554 -0.003921
vt 0.581055 -0.391602
vt 0.581055 0.247559
vt -0.069519 -0.391602
vt 0.581055 0.247559
vt -0.069519 0.247070
vt -0.069519 -0.391602
vt 1.119141 0.796265
vt -0.153931 0.796265
vt 1.119141 0.276367
vt -0.153931 0.796265
vt -0.153931 0.276367
vt 1.119141 0.276367
vt -0.962402 3.117188
vt -0.962402 2.339844
vt 0.496826 2.339844
vt 0.496826 3.117188
vt -0.962402 3.117188
vt 0.496826 2.339844
vt 0.496826 3.117188
vt 0.496826 2.339844
vt 1.978516 2.339844
vt 1.978516 3.117188
vt 0.496826 3.117188
vt 1.978516 2.339844
f 1/1/1 2/2/2 3/3/3
f 4/4/4 5/5/5 6/6/6
f 7/7/7 8/8/8 9/9/9
f 10/10/10 11/11/11 12/12/12
f 13/13/13 14/14/14 15/15/15
f 16/16/16 17/17/17 18/18/18
f 19/19/19 20/20/20 21/21/21
f 22/22/22 23/23/23 24/24/24
