# OBJ file
v 528.416199 3014.659912 1395.735352
v 630.036499 3125.248779 1395.735352
v 528.416199 3014.659912 1470.734985
v 630.036499 3125.248779 1395.735352
v 630.036499 3125.248779 1470.735107
v 528.416199 3014.659912 1470.734985
v 879.062744 3227.843018 22.773216
v 911.013855 3262.614014 22.773218
v 879.037598 3227.866455 472.773743
v 911.013855 3262.614014 22.773218
v 911.013855 3262.614014 351.856079
v 879.037598 3227.866455 472.773743
v 879.037598 3227.866455 472.773743
v 911.013855 3262.614014 351.856079
v 1007.779114 3367.969971 472.773743
v 911.013855 3262.614014 351.856079
v 1051.218506 3415.192383 351.856079
v 1007.779114 3367.969971 472.773743
v 1051.218506 3415.192383 351.856079
v 1068.406128 3433.896973 472.773560
v 1007.779114 3367.969971 472.773743
v 1051.218506 3415.192383 351.856079
v 1051.218506 3415.192383 22.773226
v 1068.406128 3433.896973 472.773560
v 1051.218506 3415.192383 22.773226
v 1068.406128 3433.896973 22.773226
v 1068.406128 3433.896973 472.773560
v 1068.406128 3433.896973 472.773560
v 1068.406128 3433.896973 22.773226
v 1070.036499 3437.680176 22.773226
v 1070.036499 3437.680176 472.773560
v 1068.406128 3433.896973 472.773560
v 1070.036499 3437.680176 22.773226
v 1070.036499 3437.680176 472.773560
v 1070.036499 3437.680176 22.773226
v 1067.701294 3441.239746 22.773226
v 1067.701294 3441.239746 472.773560
v 1070.036499 3437.680176 472.773560
v 1067.701294 3441.239746 22.773226
v 987.725464 3514.511963 472.773193
v 1067.701294 3441.239746 472.773560
v 1067.701294 3441.239746 22.773226
v 987.734375 3514.497803 22.773230
v 987.725464 3514.511963 472.773193
v 1067.701294 3441.239746 22.773226
v -796.880188 3526.520752 1470.891724
v -796.987854 3529.095215 1470.891479
v -796.880188 3526.520996 1393.805054
v -796.987854 3529.095215 1470.891479
v -796.987854 3529.095459 1393.803589
v -796.880188 3526.520996 1393.805054
v -796.987854 3529.095459 1393.803589
v -796.987854 3529.095215 1470.891479
v 11.373550 4408.783691 1470.579224
v -796.880188 3526.520996 1393.805054
v -796.987854 3529.095459 1393.803589
v -796.880127 3526.520996 1161.178101
v -796.987854 3529.095459 1393.803589
v -796.987854 3529.095459 1161.180786
v -796.880127 3526.520996 1161.178101
v 11.373550 4408.783691 1394.545776
v -796.987854 3529.095459 1393.803589
v 11.373550 4408.783691 1470.579224
v -796.987854 3529.095459 1161.180786
v -796.987854 3529.095459 1393.803589
v 11.373550 4408.783691 1394.545776
v 11.373550 4408.783691 1394.545776
v 11.373550 4408.783691 1470.579224
v 13.947525 4408.893066 1470.578979
v 13.947525 4408.893066 1394.548584
v 11.373550 4408.783691 1394.545776
v 13.947525 4408.893066 1470.578979
v 11.534927 4408.954590 1160.868530
v -796.987854 3529.095459 1161.180786
v 11.373550 4408.783691 1394.545776
v -796.880127 3526.520996 1161.178101
v -796.987854 3529.095459 1161.180786
v -796.880127 3526.520996 1136.738770
v -796.987854 3529.095459 1136.741699
v -796.987854 3529.095459 1161.180786
v 11.534927 4408.954590 1160.868530
v -796.987854 3529.095459 1161.180786
v -796.987854 3529.095459 1136.741699
v -796.880127 3526.520996 1136.738770
v 11.534927 4408.954590 1136.116943
v -796.987854 3529.095459 1136.741699
v 11.534927 4408.954590 1160.868530
v -796.880127 3526.520996 1136.738770
v -796.987854 3529.095459 1136.741699
v -797.505371 3525.821533 1062.584717
v 11.534927 4408.954590 1136.116943
v 11.534683 4408.954102 1062.584839
v -796.987854 3529.095459 1136.741699
v 11.534683 4408.954102 1062.584839
v 11.534927 4408.954590 1136.116943
v 14.108658 4409.063477 1136.113037
v 14.108414 4409.062988 1062.584839
v 11.534683 4408.954102 1062.584839
v 14.108658 4409.063477 1136.113037
v -796.987854 3529.095459 1136.741699
v -797.614014 3528.395264 1062.584717
v -797.505371 3525.821533 1062.584717
v 11.534683 4408.954102 1062.584839
v -797.614014 3528.395264 1062.584717
v -796.987854 3529.095459 1136.741699
v -797.505371 3525.821533 1062.584717
v -797.614014 3528.395264 1062.584717
v -797.505371 3525.821533 835.367249
v 11.534683 4408.954102 1062.584839
v 11.534683 4408.954102 835.367310
v -797.614014 3528.395264 1062.584717
v 11.534683 4408.954102 835.367310
v 11.534683 4408.954102 1062.584839
v 14.108414 4409.062988 1062.584839
v 14.108414 4409.062988 835.367310
v 11.534683 4408.954102 835.367310
v 14.108414 4409.062988 1062.584839
v -797.614014 3528.395264 1062.584717
v -797.614014 3528.395264 835.367249
v -797.505371 3525.821533 835.367249
v 11.534683 4408.954102 835.367310
v -797.614014 3528.395264 835.367249
v -797.614014 3528.395264 1062.584717
v -797.505371 3525.821533 835.367249
v -797.614014 3528.395264 835.367249
v -797.504211 3525.822510 765.592834
v 11.533829 4408.953125 765.592896
v 11.534683 4408.954102 835.367310
v 14.108414 4409.062988 835.367310
v 11.534683 4408.954102 835.367310
v 11.533829 4408.953125 765.592896
v -797.614014 3528.395264 835.367249
v 14.107437 4409.062012 765.601074
v 11.533829 4408.953125 765.592896
v 14.108414 4409.062988 835.367310
v -797.614014 3528.395264 835.367249
v -797.612854 3528.396240 765.592834
v -797.504211 3525.822510 765.592834
v 11.533829 4408.953125 765.592896
v -797.612854 3528.396240 765.592834
v -797.614014 3528.395264 835.367249
v -797.504211 3525.822510 765.592834
v -797.612854 3528.396240 765.592834
v -797.502136 3525.824707 472.773193
v 11.531876 4408.950684 472.773254
v 11.533829 4408.953125 765.592896
v 14.107437 4409.062012 765.601074
v 11.533829 4408.953125 765.592896
v 11.531876 4408.950684 472.773254
v -797.612854 3528.396240 765.592834
v 14.105606 4409.060059 472.773254
v 11.531876 4408.950684 472.773254
v 14.107437 4409.062012 765.601074
v -797.612854 3528.396240 765.592834
v -797.610779 3528.398193 472.773193
v -797.502136 3525.824707 472.773193
v 11.531876 4408.950684 472.773254
v -797.610779 3528.398193 472.773193
v -797.612854 3528.396240 765.592834
v -797.502136 3525.824707 472.773193
v -797.610779 3528.398193 472.773193
v -797.499023 3525.827637 22.773230
v -797.610779 3528.398193 472.773193
v -797.607727 3528.401123 22.773230
v -797.499023 3525.827637 22.773230
v 11.529068 4408.947754 22.773268
v -797.607727 3528.401123 22.773230
v -797.610779 3528.398193 472.773193
v 11.531876 4408.950684 472.773254
v 11.529068 4408.947754 22.773268
v -797.610779 3528.398193 472.773193
v 11.529068 4408.947754 22.773268
v 11.531876 4408.950684 472.773254
v 14.105606 4409.060059 472.773254
v 14.102798 4409.056152 22.773268
v 11.529068 4408.947754 22.773268
v 14.105606 4409.060059 472.773254
v 528.416199 3014.659912 1395.735352
v 528.416199 3014.659912 1470.734985
v 430.731567 2908.354248 1395.735840
v 528.416199 3014.659912 1470.734985
v 430.731750 2908.354492 1470.734985
v 430.731567 2908.354248 1395.735840
v 340.533234 2810.195557 1395.734985
v 430.731567 2908.354248 1395.735840
v 430.731750 2908.354492 1470.734985
v 340.533234 2810.195557 1470.734985
v 340.533234 2810.195557 1395.734985
v 430.731750 2908.354492 1470.734985
v 430.731567 2908.354248 1395.735840
v 340.533234 2810.195557 1395.734985
v 430.731750 2908.354492 1158.993286
v 340.533234 2810.195557 1395.734985
v 340.533234 2810.195557 1470.734985
v 241.252213 2702.152588 1395.734985
v 340.533234 2810.195557 1470.734985
v 241.252213 2702.152588 1470.735229
v 241.252213 2702.152588 1395.734985
v 340.533234 2810.195557 1395.734985
v 340.533234 2810.195557 1158.992554
v 430.731750 2908.354492 1158.993286
v 241.252213 2702.152588 1395.734985
v 241.252213 2702.152588 1470.735229
v 185.204575 2641.156982 1395.734863
v 241.252213 2702.152588 1470.735229
v 185.198822 2641.150146 1470.735107
v 185.204575 2641.156982 1395.734863
v 185.204575 2641.156982 1395.734863
v 185.198822 2641.150146 1470.735107
v 179.644394 2635.105469 1470.735107
v 179.650803 2635.112793 1395.734863
v 185.204575 2641.156982 1395.734863
v 179.644394 2635.105469 1470.735107
v 179.650803 2635.112793 1395.734863
v 179.669617 2635.135010 1158.992432
v 185.204575 2641.156982 1395.734863
v 241.252213 2702.152588 1395.734985
v 185.204575 2641.156982 1395.734863
v 241.252213 2702.152588 1158.992554
v 179.669617 2635.135010 1158.992432
v 185.221527 2641.177002 1158.992432
v 185.204575 2641.156982 1395.734863
v 185.204575 2641.156982 1395.734863
v 185.221527 2641.177002 1158.992432
v 241.252213 2702.152588 1158.992554
v 179.669617 2635.135010 1158.992432
v 179.671600 2635.137451 1133.992432
v 185.221527 2641.177002 1158.992432
v 179.671600 2635.137451 1133.992432
v 185.223312 2641.178955 1133.992432
v 185.221527 2641.177002 1158.992432
v 185.221527 2641.177002 1158.992432
v 185.223312 2641.178955 1133.992432
v 241.252213 2702.152588 1133.992432
v 241.252213 2702.152588 1158.992554
v 185.221527 2641.177002 1158.992432
v 241.252213 2702.152588 1133.992432
v 340.533234 2810.195557 1158.992554
v 241.252213 2702.152588 1158.992554
v 241.252213 2702.152588 1133.992432
v 340.533234 2810.195557 1133.992432
v 340.533234 2810.195557 1158.992554
v 241.252213 2702.152588 1133.992432
v 430.731750 2908.354492 1158.993286
v 340.533234 2810.195557 1158.992554
v 340.533234 2810.195557 1133.992432
v 430.731750 2908.354492 1133.993286
v 430.731750 2908.354492 1158.993286
v 340.533234 2810.195557 1133.992432
v 528.416199 3014.659912 1158.993286
v 430.731750 2908.354492 1158.993286
v 430.731750 2908.354492 1133.993286
v 528.416199 3014.659912 1133.993286
v 528.416199 3014.659912 1158.993286
v 430.731750 2908.354492 1133.993286
v 528.416199 3014.659912 1158.993286
v 528.416199 3014.659912 1133.993286
v 630.036560 3125.248779 1158.993286
v 528.416199 3014.659912 1158.993286
v 630.036560 3125.248779 1158.993286
v 528.416199 3014.659912 1395.735352
v 630.036560 3125.248779 1158.993286
v 630.036499 3125.248779 1395.735352
v 528.416199 3014.659912 1395.735352
v 528.416199 3014.659912 1133.993286
v 630.036560 3125.248779 1133.993286
v 630.036560 3125.248779 1158.993286
v 630.036560 3125.248779 1133.993286
v 723.639221 3227.112305 1133.993286
v 630.036560 3125.248779 1158.993286
v 723.639221 3227.112305 1133.993286
v 723.639221 3227.112305 1158.993286
v 630.036560 3125.248779 1158.993286
v 723.639221 3227.112305 1133.993286
v 826.047913 3338.559326 1133.992432
v 723.639221 3227.112305 1158.993286
v 826.047913 3338.559326 1133.992432
v 826.047913 3338.559326 1158.992554
v 723.639221 3227.112305 1158.993286
v 826.047913 3338.559326 1133.992432
v 923.899841 3445.046631 1133.992432
v 826.047913 3338.559326 1158.992554
v 723.639221 3227.112305 1158.993286
v 826.047913 3338.559326 1158.992554
v 723.639221 3227.112305 1395.735840
v 923.899841 3445.046631 1133.992432
v 923.899841 3445.046631 1158.992554
v 826.047913 3338.559326 1158.992554
v 826.047913 3338.559326 1158.992554
v 826.047913 3338.559326 1395.734985
v 723.639221 3227.112305 1395.735840
v 980.203491 3506.319580 1158.992554
v 923.899841 3445.046631 1158.992554
v 923.899841 3445.046631 1133.992432
v 980.201477 3506.317139 1133.992432
v 980.203491 3506.319580 1158.992554
v 923.899841 3445.046631 1133.992432
v 630.036499 3125.248779 1395.735352
v 723.639221 3227.112305 1395.735840
v 630.036499 3125.248779 1470.735107
v 723.639221 3227.112305 1395.735840
v 723.639221 3227.112305 1470.734985
v 630.036499 3125.248779 1470.735107
v 723.639221 3227.112305 1470.734985
v 723.639221 3227.112305 1395.735840
v 826.047913 3338.559326 1470.734985
v 723.639221 3227.112305 1395.735840
v 826.047913 3338.559326 1395.734985
v 826.047913 3338.559326 1470.734985
v 826.047913 3338.559326 1395.734985
v 923.899841 3445.046631 1395.734985
v 826.047913 3338.559326 1470.734985
v 923.899841 3445.046631 1395.734985
v 923.899841 3445.046387 1470.735229
v 826.047913 3338.559326 1470.734985
v 923.899841 3445.046387 1470.735229
v 923.899841 3445.046631 1395.734985
v 980.229004 3506.344727 1470.735107
v 923.899841 3445.046631 1395.734985
v 980.222534 3506.338623 1395.734863
v 980.229004 3506.344727 1470.735107
v 980.222534 3506.338623 1395.734863
v 923.899841 3445.046631 1395.734985
v 923.899841 3445.046631 1158.992554
v 980.203491 3506.319580 1158.992554
v 980.222534 3506.338623 1395.734863
v 923.899841 3445.046631 1158.992554
v 980.229004 3506.344727 1470.735107
v 980.222534 3506.338623 1395.734863
v 984.093994 3510.550537 1470.735107
v 980.222534 3506.338623 1395.734863
v 984.086975 3510.543701 1395.734863
v 984.093994 3510.550537 1470.735107
v 984.086975 3510.543701 1395.734863
v 980.222534 3506.338623 1395.734863
v 980.203491 3506.319580 1158.992554
v 984.093994 3510.550537 1470.735107
v 984.086975 3510.543701 1395.734863
v 984.890564 3514.478760 1470.735107
v 984.066467 3510.523193 1158.992432
v 984.086975 3510.543701 1395.734863
v 980.203491 3506.319580 1158.992554
v 984.066467 3510.523193 1158.992432
v 980.203491 3506.319580 1158.992554
v 980.201477 3506.317139 1133.992432
v 984.064331 3510.521240 1133.992432
v 984.066467 3510.523193 1158.992432
v 980.201477 3506.317139 1133.992432
v 984.086975 3510.543701 1395.734863
v 984.883728 3514.472412 1395.725830
v 984.890564 3514.478760 1470.735107
v 984.086975 3510.543701 1395.734863
v 984.066467 3510.523193 1158.992432
v 984.883728 3514.472412 1395.725830
v 984.066467 3510.523193 1158.992432
v 984.064331 3510.521240 1133.992432
v 984.863342 3514.451660 1158.991699
v 984.066467 3510.523193 1158.992432
v 984.863342 3514.451660 1158.991699
v 984.883728 3514.472412 1395.725830
v 984.064331 3510.521240 1133.992432
v 984.936523 3514.380371 1133.992065
v 984.863342 3514.451660 1158.991699
v 984.863342 3514.451660 1158.991699
v 984.936523 3514.380371 1133.992065
v 983.733521 3518.296631 1133.992432
v 984.890564 3514.478760 1470.735107
v 984.883728 3514.472412 1395.725830
v 983.755859 3518.318848 1395.715942
v 983.762695 3518.325684 1470.735107
v 984.890564 3514.478760 1470.735107
v 983.755859 3518.318848 1395.715942
v 983.762695 3518.325684 1470.735107
v 983.755859 3518.318848 1395.715942
v 13.947525 4408.893066 1470.578979
v 983.755859 3518.318848 1395.715942
v 13.947525 4408.893066 1394.548584
v 13.947525 4408.893066 1470.578979
v 984.883728 3514.472412 1395.725830
v 984.863342 3514.451660 1158.991699
v 983.735596 3518.298340 1158.990845
v 983.755859 3518.318848 1395.715942
v 984.883728 3514.472412 1395.725830
v 983.735596 3518.298340 1158.990845
v 983.755859 3518.318848 1395.715942
v 983.735596 3518.298340 1158.990845
v 13.947525 4408.893066 1394.548584
v 983.735596 3518.298340 1158.990845
v 984.863342 3514.451660 1158.991699
v 983.733521 3518.296631 1133.992432
v 11.373550 4408.783691 1394.545776
v 13.947525 4408.893066 1394.548584
v 11.534927 4408.954590 1160.868530
v 13.947525 4408.893066 1394.548584
v 14.108658 4409.063477 1160.865356
v 11.534927 4408.954590 1160.868530
v 983.735596 3518.298340 1158.990845
v 14.108658 4409.063477 1160.865356
v 13.947525 4408.893066 1394.548584
v 983.735596 3518.298340 1158.990845
v 983.733521 3518.296631 1133.992432
v 14.108658 4409.063477 1160.865356
v 11.534927 4408.954590 1160.868530
v 14.108658 4409.063477 1160.865356
v 11.534927 4408.954590 1136.116943
v 14.108658 4409.063477 1160.865356
v 14.108658 4409.063477 1136.113037
v 11.534927 4408.954590 1136.116943
v 983.733521 3518.296631 1133.992432
v 14.108658 4409.063477 1136.113037
v 14.108658 4409.063477 1160.865356
v 14.108658 4409.063477 1136.113037
v 983.733521 3518.296631 1133.992432
v 987.729126 3514.514648 1062.584717
v 14.108414 4409.062988 1062.584839
v 14.108658 4409.063477 1136.113037
v 987.729126 3514.514648 1062.584717
v 14.108414 4409.062988 1062.584839
v 987.729126 3514.514648 1062.584717
v 14.108414 4409.062988 835.367310
v 987.729126 3514.514648 1062.584717
v 983.733521 3518.296631 1133.992432
v 1067.701294 3441.239746 1062.584717
v 983.733521 3518.296631 1133.992432
v 1067.701294 3441.239746 1136.115356
v 1067.701294 3441.239746 1062.584717
v 1067.701294 3441.239746 1136.115356
v 1070.036499 3437.680176 1136.115356
v 1067.701294 3441.239746 1062.584717
v 987.729126 3514.514648 1062.584717
v 987.729126 3514.514404 835.367249
v 14.108414 4409.062988 835.367310
v 1070.036499 3437.680176 1136.115356
v 1070.036499 3437.680176 1062.584717
v 1067.701294 3441.239746 1062.584717
v 1070.036499 3437.680176 1136.115356
v 1068.406006 3433.896973 1136.115356
v 1070.036499 3437.680176 1062.584717
v 987.729126 3514.514648 1062.584717
v 1067.701294 3441.239746 1062.584717
v 1067.701294 3441.239746 835.367249
v 987.729126 3514.514404 835.367249
v 987.729126 3514.514648 1062.584717
v 1067.701294 3441.239746 835.367249
v 1070.036499 3437.680176 1062.584717
v 1070.036499 3437.680176 835.367249
v 1067.701294 3441.239746 1062.584717
v 1070.036499 3437.680176 835.367249
v 1067.701294 3441.239746 835.367249
v 1067.701294 3441.239746 1062.584717
v 14.108414 4409.062988 835.367310
v 987.729126 3514.514404 835.367249
v 987.730774 3514.511475 771.511536
v 14.107437 4409.062012 765.601074
v 14.108414 4409.062988 835.367310
v 987.730774 3514.511475 771.511536
v 987.729126 3514.514404 835.367249
v 1067.701294 3441.239746 835.367249
v 1067.701294 3441.239746 765.565552
v 987.730774 3514.511475 771.511536
v 987.729126 3514.514404 835.367249
v 1067.701294 3441.239746 765.565552
v 987.730774 3514.511475 771.511536
v 987.725464 3514.511963 472.773193
v 14.107437 4409.062012 765.601074
v 987.725464 3514.511963 472.773193
v 987.730774 3514.511475 771.511536
v 1067.701294 3441.239746 765.565552
v 987.725464 3514.511963 472.773193
v 14.105606 4409.060059 472.773254
v 14.107437 4409.062012 765.601074
v 14.102798 4409.056152 22.773268
v 14.105606 4409.060059 472.773254
v 987.725464 3514.511963 472.773193
v 987.734375 3514.497803 22.773230
v 14.102798 4409.056152 22.773268
v 987.725464 3514.511963 472.773193
v 1067.701294 3441.239746 472.773560
v 987.725464 3514.511963 472.773193
v 1067.701294 3441.239746 765.565552
v 1070.036499 3437.680176 472.773560
v 1067.701294 3441.239746 472.773560
v 1067.701294 3441.239746 765.565552
v 1070.036499 3437.680176 765.563171
v 1070.036499 3437.680176 472.773560
v 1067.701294 3441.239746 765.565552
v 1070.036499 3437.680176 765.563171
v 1067.701294 3441.239746 765.565552
v 1067.701294 3441.239746 835.367249
v 1070.036499 3437.680176 835.367249
v 1070.036499 3437.680176 765.563171
v 1067.701294 3441.239746 835.367249
v 1068.406006 3433.896973 472.773560
v 1070.036499 3437.680176 472.773560
v 1070.036499 3437.680176 765.563171
v 1068.406006 3433.896973 765.561279
v 1070.036499 3437.680176 765.563171
v 1070.036499 3437.680176 835.367249
v 1068.406006 3433.896973 765.561279
v 1068.406006 3433.896973 472.773560
v 1070.036499 3437.680176 765.563171
v 1068.406006 3433.896973 835.367249
v 1068.406006 3433.896973 765.561279
v 1070.036499 3437.680176 835.367249
v 1068.406006 3433.896973 835.367249
v 1070.036499 3437.680176 835.367249
v 1070.036499 3437.680176 1062.584717
v 1068.406006 3433.896973 472.773560
v 1068.406006 3433.896973 765.561279
v 1007.753784 3367.992920 765.532898
v 1068.406006 3433.896973 1062.584717
v 1068.406006 3433.896973 835.367249
v 1070.036499 3437.680176 1062.584717
v 1068.406006 3433.896973 1136.115356
v 1068.406006 3433.896973 1062.584717
v 1070.036499 3437.680176 1062.584717
v 1068.406006 3433.896973 765.561279
v 1068.406006 3433.896973 835.367249
v 1007.753723 3367.993164 835.367249
v 1068.406006 3433.896973 835.367249
v 1068.406006 3433.896973 1062.584717
v 1007.753723 3367.993164 835.367249
v 1007.753784 3367.992920 765.532898
v 1068.406006 3433.896973 765.561279
v 1007.753723 3367.993164 835.367249
v 1068.406006 3433.896973 1062.584717
v 1068.406006 3433.896973 1136.115356
v 1007.753784 3367.992920 1062.584717
v 1068.406006 3433.896973 1062.584717
v 1007.753784 3367.992920 1062.584717
v 1007.753723 3367.993164 835.367249
v 1068.406006 3433.896973 1136.115356
v 1007.753906 3367.992920 1136.114990
v 1007.753784 3367.992920 1062.584717
v 1007.753906 3367.992920 1136.114990
v 909.901917 3261.505371 1136.114990
v 1007.753784 3367.992920 1062.584717
v 1007.753723 3367.993164 835.367249
v 909.901917 3261.505371 835.367249
v 1007.753784 3367.992920 765.532898
v 909.901917 3261.505371 1136.114990
v 909.902100 3261.505127 1062.584717
v 1007.753784 3367.992920 1062.584717
v 909.902100 3261.505127 1062.584717
v 909.901917 3261.505371 1136.114990
v 807.493225 3150.058594 1136.114990
v 1007.753723 3367.993164 574.985657
v 1068.406006 3433.896973 472.773560
v 1007.753784 3367.992920 765.532898
v 1007.753723 3367.993164 574.985657
v 909.901917 3261.505371 574.985718
v 1068.406006 3433.896973 472.773560
v 909.901917 3261.505371 574.985718
v 1007.779114 3367.969971 472.773743
v 1068.406006 3433.896973 472.773560
v 879.037598 3227.866455 472.773743
v 1007.779114 3367.969971 472.773743
v 909.901917 3261.505371 574.985718
v 807.493225 3150.058594 472.773956
v 879.037598 3227.866455 472.773743
v 909.901917 3261.505371 574.985718
v 909.901917 3261.505371 835.367249
v 909.902100 3261.505127 765.532898
v 1007.753784 3367.992920 765.532898
v 807.493042 3150.058838 574.985657
v 807.493225 3150.058594 472.773956
v 909.901917 3261.505371 574.985718
v 807.493042 3150.058838 574.985657
v 909.901917 3261.505371 574.985718
v 909.902100 3261.505127 765.532898
v 807.493225 3150.058594 472.773956
v 807.493042 3150.058838 574.985657
v 713.890503 3048.195068 574.985718
v 807.493225 3150.058594 765.532898
v 807.493042 3150.058838 574.985657
v 909.902100 3261.505127 765.532898
v 713.890503 3048.195068 472.773956
v 807.493225 3150.058594 472.773956
v 713.890503 3048.195068 574.985718
v 612.270203 2937.606445 472.773865
v 713.890503 3048.195068 472.773956
v 713.890503 3048.195068 574.985718
v 807.493225 3150.058594 765.532898
v 909.902100 3261.505127 765.532898
v 807.493042 3150.058838 835.367249
v 909.902100 3261.505127 765.532898
v 909.901917 3261.505371 835.367249
v 807.493042 3150.058838 835.367249
v 807.493042 3150.058838 835.367249
v 909.901917 3261.505371 835.367249
v 909.902100 3261.505127 1062.584717
v 807.493225 3150.058594 765.532898
v 807.493042 3150.058838 835.367249
v 713.890686 3048.194824 765.532898
v 807.493225 3150.058594 1062.584717
v 807.493042 3150.058838 835.367249
v 909.902100 3261.505127 1062.584717
v 807.493225 3150.058594 1062.584717
v 909.902100 3261.505127 1062.584717
v 807.493225 3150.058594 1136.114990
v 807.493225 3150.058594 1062.584717
v 807.493225 3150.058594 1136.114990
v 713.890686 3048.195068 1062.584717
v 807.493225 3150.058594 1136.114990
v 713.890564 3048.195068 1136.114990
v 713.890686 3048.195068 1062.584717
v 807.493042 3150.058838 835.367249
v 713.890503 3048.195068 835.367249
v 713.890686 3048.194824 765.532898
v 713.890686 3048.195068 1062.584717
v 713.890564 3048.195068 1136.114990
v 612.270386 2937.606201 1062.584717
v 713.890503 3048.195068 835.367249
v 713.890686 3048.195068 1062.584717
v 612.270386 2937.606201 1062.584717
v 713.890564 3048.195068 1136.114990
v 612.270264 2937.606445 1136.114990
v 612.270386 2937.606201 1062.584717
v 612.270264 2937.606445 835.367249
v 713.890503 3048.195068 835.367249
v 612.270386 2937.606201 1062.584717
v 713.890686 3048.194824 765.532898
v 713.890503 3048.195068 835.367249
v 612.270264 2937.606445 835.367249
v 612.270386 2937.606201 1062.584717
v 612.270264 2937.606445 1136.114990
v 513.814941 2830.461914 1062.584717
v 612.270264 2937.606445 1136.114990
v 514.585754 2831.300781 1136.114990
v 513.814941 2830.461914 1062.584717
v 612.270386 2937.606201 765.532898
v 713.890686 3048.194824 765.532898
v 612.270264 2937.606445 835.367249
v 713.890503 3048.195068 574.985718
v 713.890686 3048.194824 765.532898
v 612.270386 2937.606201 765.532898
v 612.270386 2937.606201 765.532898
v 612.270264 2937.606445 835.367249
v 513.814514 2830.461914 835.367249
v 612.270203 2937.606445 574.985718
v 713.890503 3048.195068 574.985718
v 612.270386 2937.606201 765.532898
v 612.270203 2937.606445 574.985718
v 612.270203 2937.606445 472.773865
v 713.890503 3048.195068 574.985718
v 612.270203 2937.606445 472.773865
v 612.270203 2937.606445 574.985718
v 514.585876 2831.301025 472.773834
v 612.270203 2937.606445 574.985718
v 514.585388 2831.300781 574.985657
v 514.585876 2831.301025 472.773834
v 514.585693 2831.300781 765.532898
v 612.270386 2937.606201 765.532898
v 513.814514 2830.461914 835.367249
v 424.387268 2733.142090 472.773926
v 514.585876 2831.301025 472.773834
v 514.585388 2831.300781 574.985657
v 513.814514 2830.461914 835.367249
v 424.387268 2733.142090 835.367188
v 514.585693 2831.300781 765.532898
v 424.387268 2733.142090 574.985718
v 424.387268 2733.142090 472.773926
v 514.585388 2831.300781 574.985657
v 424.387268 2733.142090 472.773926
v 424.387268 2733.142090 574.985718
v 325.106201 2625.099121 472.773926
v 514.585693 2831.300781 765.532898
v 424.387451 2733.141846 765.532898
v 514.585388 2831.300781 574.985657
v 424.387451 2733.141846 765.532898
v 424.387268 2733.142090 574.985718
v 514.585388 2831.300781 574.985657
v 424.387268 2733.142090 835.367188
v 424.387451 2733.141846 765.532898
v 514.585693 2831.300781 765.532898
v 424.387268 2733.142090 574.985718
v 325.106018 2625.099121 574.985596
v 325.106201 2625.099121 472.773926
v 424.387451 2733.141846 765.532898
v 424.387268 2733.142090 835.367188
v 325.106018 2625.099121 835.367188
v 325.106018 2625.099121 574.985596
v 263.506714 2557.961670 472.773529
v 325.106201 2625.099121 472.773926
v 424.387451 2733.141846 1062.584717
v 424.387268 2733.142090 835.367188
v 513.814514 2830.461914 835.367249
v 513.814941 2830.461914 1062.584717
v 424.387451 2733.141846 1062.584717
v 513.814514 2830.461914 835.367249
v 513.814941 2830.461914 1062.584717
v 514.585754 2831.300781 1136.114990
v 424.387451 2733.141846 1062.584717
v 514.585754 2831.300781 1136.114990
v 424.387268 2733.142090 1136.114990
v 424.387451 2733.141846 1062.584717
v 424.387451 2733.141846 1062.584717
v 424.387268 2733.142090 1136.114990
v 325.106201 2625.099121 1062.584717
v 424.387268 2733.142090 1136.114990
v 325.106201 2625.099121 1136.114990
v 325.106201 2625.099121 1062.584717
v 325.106201 2625.099121 1136.114990
v 263.506683 2557.961670 1136.115356
v 325.106201 2625.099121 1062.584717
v 263.506683 2557.961670 1136.115356
v 263.506714 2557.961670 1062.584717
v 325.106201 2625.099121 1062.584717
v 325.106201 2625.099121 1062.584717
v 263.506714 2557.961670 1062.584717
v 325.106018 2625.099121 835.367188
v 263.506714 2557.961670 1062.584717
v 263.506683 2557.961670 1136.115356
v 259.716461 2555.871338 1136.115356
v 325.106201 2625.099121 765.532837
v 424.387451 2733.141846 765.532898
v 325.106018 2625.099121 835.367188
v 259.692261 2555.844971 1062.584717
v 263.506714 2557.961670 1062.584717
v 259.716461 2555.871338 1136.115356
v 259.692261 2555.844971 1062.584717
v 259.716461 2555.871338 1136.115356
v 255.762802 2557.644287 1136.115356
v 263.506714 2557.961670 1062.584717
v 263.506714 2557.961670 835.367188
v 325.106018 2625.099121 835.367188
v 325.106018 2625.099121 835.367188
v 263.506714 2557.961670 835.367188
v 325.106201 2625.099121 765.532837
v 263.506714 2557.961670 1062.584717
v 259.692261 2555.844971 1062.584717
v 263.506714 2557.961670 835.367188
v 263.506714 2557.961670 835.367188
v 263.506714 2557.961670 765.561218
v 325.106201 2625.099121 765.532837
v 325.106201 2625.099121 765.532837
v 263.506714 2557.961670 765.561218
v 325.106018 2625.099121 574.985596
v 263.506714 2557.961670 765.561218
v 263.506714 2557.961670 472.773529
v 325.106018 2625.099121 574.985596
v 259.692261 2555.844971 1062.584717
v 259.717072 2555.871338 835.367188
v 263.506714 2557.961670 835.367188
v 263.506714 2557.961670 765.561218
v 263.506714 2557.961670 835.367188
v 259.717072 2555.871338 835.367188
v 263.506714 2557.961670 472.773529
v 263.506714 2557.961670 765.561218
v 259.718781 2555.869873 765.563110
v 259.718781 2555.869873 765.563110
v 263.506714 2557.961670 765.561218
v 259.717072 2555.871338 835.367188
v 259.723907 2555.867432 472.773529
v 263.506714 2557.961670 472.773529
v 259.718781 2555.869873 765.563110
v 259.692261 2555.844971 1062.584717
v 255.762772 2557.644287 1062.584717
v 259.717072 2555.871338 835.367188
v 255.762772 2557.644287 1062.584717
v 259.692261 2555.844971 1062.584717
v 255.762802 2557.644287 1136.115356
v 255.762772 2557.644287 1062.584717
v 255.762802 2557.644287 835.367188
v 259.717072 2555.871338 835.367188
v 259.718781 2555.869873 765.563110
v 259.717072 2555.871338 835.367188
v 255.762802 2557.644287 835.367188
v 255.762772 2557.644287 1062.584717
v 255.762802 2557.644287 1136.115356
v 246.161270 2566.487549 1062.584717
v 255.762772 2557.644287 1062.584717
v 246.161270 2566.487549 1062.584717
v 255.762802 2557.644287 835.367188
v 255.762802 2557.644287 1136.115356
v 246.161331 2566.487549 1136.115479
v 246.161270 2566.487549 1062.584717
v 246.161331 2566.487549 1136.115479
v 171.895905 2634.810791 1133.992432
v 246.161270 2566.487549 1062.584717
v 259.723907 2555.867432 472.773529
v 259.718781 2555.869873 765.563110
v 255.762802 2557.644287 472.773529
v 258.863403 2554.791748 22.773188
v 259.723907 2555.867432 472.773529
v 255.762802 2557.644287 472.773529
v 255.762802 2557.644287 22.773188
v 258.863403 2554.791748 22.773188
v 255.762802 2557.644287 472.773529
v 259.718781 2555.869873 765.563110
v 255.762802 2557.644287 765.565491
v 255.762802 2557.644287 472.773529
v 255.762802 2557.644287 765.565491
v 259.718781 2555.869873 765.563110
v 255.762802 2557.644287 835.367188
v 255.762802 2557.644287 22.773188
v 255.762802 2557.644287 472.773529
v 246.167801 2566.485840 472.773407
v 246.167801 2566.485840 472.773407
v 255.762802 2557.644287 472.773529
v 255.762802 2557.644287 765.565491
v 246.225235 2566.436768 22.773188
v 255.762802 2557.644287 22.773188
v 246.167801 2566.485840 472.773407
v 246.225235 2566.436768 22.773188
v 246.167801 2566.485840 472.773407
v 171.956894 2634.877197 22.773191
v 255.762802 2557.644287 765.565491
v 255.762802 2557.644287 835.367188
v 246.164047 2566.486572 765.571716
v 246.164047 2566.486572 765.571716
v 246.167801 2566.485840 472.773407
v 255.762802 2557.644287 765.565491
v 246.167801 2566.485840 472.773407
v 171.953918 2634.874023 472.773163
v 171.956894 2634.877197 22.773191
v 171.953918 2634.874023 472.773163
v 246.167801 2566.485840 472.773407
v 246.164047 2566.486572 765.571716
v -797.502136 3525.824707 472.773193
v -797.499023 3525.827637 22.773230
v 171.956894 2634.877197 22.773191
v 171.953918 2634.874023 472.773163
v -797.502136 3525.824707 472.773193
v 171.956894 2634.877197 22.773191
v -797.502136 3525.824707 472.773193
v 171.953918 2634.874023 472.773163
v 171.951935 2634.871826 765.592834
v 171.951935 2634.871826 765.592834
v 171.953918 2634.874023 472.773163
v 246.164047 2566.486572 765.571716
v -797.504211 3525.822510 765.592834
v -797.502136 3525.824707 472.773193
v 171.951935 2634.871826 765.592834
v 255.762802 2557.644287 835.367188
v 246.161270 2566.487549 835.367188
v 246.164047 2566.486572 765.571716
v 246.161270 2566.487549 1062.584717
v 246.161270 2566.487549 835.367188
v 255.762802 2557.644287 835.367188
v 171.950943 2634.870605 835.367188
v 171.951935 2634.871826 765.592834
v 246.164047 2566.486572 765.571716
v 246.161270 2566.487549 835.367188
v 171.950943 2634.870605 835.367188
v 246.164047 2566.486572 765.571716
v 171.951935 2634.871826 765.592834
v 171.950943 2634.870605 835.367188
v -797.504211 3525.822510 765.592834
v 171.950943 2634.870605 835.367188
v 246.161270 2566.487549 835.367188
v 246.161270 2566.487549 1062.584717
v 171.950943 2634.870605 835.367188
v -797.505371 3525.821533 835.367249
v -797.504211 3525.822510 765.592834
v -797.505371 3525.821533 835.367249
v 171.950943 2634.870605 835.367188
v -797.505371 3525.821533 1062.584717
v 171.950958 2634.870605 1062.584717
v 171.950943 2634.870605 835.367188
v 246.161270 2566.487549 1062.584717
v 171.950943 2634.870605 835.367188
v 171.950958 2634.870605 1062.584717
v -797.505371 3525.821533 1062.584717
v 171.895905 2634.810791 1133.992432
v 171.950958 2634.870605 1062.584717
v 246.161270 2566.487549 1062.584717
v 171.950958 2634.870605 1062.584717
v 171.895905 2634.810791 1133.992432
v -797.505371 3525.821533 1062.584717
v 171.895905 2634.810791 1133.992432
v -796.880127 3526.520996 1136.738770
v -797.505371 3525.821533 1062.584717
v -796.880127 3526.520996 1136.738770
v 171.895905 2634.810791 1133.992432
v 171.893890 2634.808594 1158.990845
v -796.880127 3526.520996 1161.178101
v -796.880127 3526.520996 1136.738770
v 171.893890 2634.808594 1158.990845
v -796.880127 3526.520996 1161.178101
v 171.893890 2634.808594 1158.990845
v -796.880188 3526.520996 1393.805054
v 171.869186 2634.779541 1470.735107
v -796.880188 3526.520752 1470.891724
v -796.880188 3526.520996 1393.805054
v 171.875488 2634.786865 1395.715942
v 171.869186 2634.779541 1470.735107
v -796.880188 3526.520996 1393.805054
v 171.893890 2634.808594 1158.990845
v 171.875488 2634.786865 1395.715942
v -796.880188 3526.520996 1393.805054
v 175.797394 2633.980225 1470.735107
v 171.869186 2634.779541 1470.735107
v 171.875488 2634.786865 1395.715942
v 175.803772 2633.987793 1395.725830
v 175.797394 2633.980225 1470.735107
v 171.875488 2634.786865 1395.715942
v 175.803772 2633.987793 1395.725830
v 171.875488 2634.786865 1395.715942
v 171.893890 2634.808594 1158.990845
v 179.644394 2635.105469 1470.735107
v 175.797394 2633.980225 1470.735107
v 175.803772 2633.987793 1395.725830
v 179.650803 2635.112793 1395.734863
v 179.644394 2635.105469 1470.735107
v 175.803772 2633.987793 1395.725830
v 175.822357 2634.009521 1158.991699
v 175.803772 2633.987793 1395.725830
v 171.893890 2634.808594 1158.990845
v 179.650803 2635.112793 1395.734863
v 175.803772 2633.987793 1395.725830
v 175.822357 2634.009521 1158.991699
v 175.822357 2634.009521 1158.991699
v 171.893890 2634.808594 1158.990845
v 171.895905 2634.810791 1133.992432
v 179.669617 2635.135010 1158.992432
v 179.650803 2635.112793 1395.734863
v 175.822357 2634.009521 1158.991699
v 175.899399 2633.942627 1133.992188
v 175.822357 2634.009521 1158.991699
v 171.895905 2634.810791 1133.992432
v 179.669617 2635.135010 1158.992432
v 175.822357 2634.009521 1158.991699
v 175.899399 2633.942627 1133.992188
v 179.671600 2635.137451 1133.992432
v 179.669617 2635.135010 1158.992432
v 175.899399 2633.942627 1133.992188
vt 3.927734 2.679688
vt 4.675781 2.679688
vt 3.927734 3.052734
vt 4.675781 2.679688
vt 4.675781 3.052734
vt 3.927734 3.052734
vt 2.929688 -4.164062
vt 3.164062 -4.164062
vt 2.929688 -1.931641
vt 3.164062 -4.164062
vt 3.164062 -2.533203
vt 2.929688 -1.931641
vt 2.929688 -1.931641
vt 3.164062 -2.533203
vt 3.882812 -1.931641
vt 3.164062 -2.533203
vt 4.187500 -2.533203
vt 3.882812 -1.931641
vt 4.187500 -2.533203
vt 4.300781 -1.931641
vt 3.882812 -1.931641
vt 4.187500 -2.533203
vt 4.187500 -4.164062
vt 4.300781 -1.931641
vt 4.187500 -4.164062
vt 4.300781 -4.164062
vt 4.300781 -1.931641
vt 4.300781 -1.931641
vt 4.300781 -4.164062
vt 4.332031 -4.164062
vt 4.332031 -1.931641
vt 4.300781 -1.931641
vt 4.332031 -4.164062
vt 4.332031 -1.931641
vt 4.332031 -4.164062
vt 4.351562 -4.164062
vt 4.351562 -1.931641
vt 4.332031 -1.931641
vt 4.351562 -4.164062
vt 4.894531 -1.931641
vt 4.351562 -1.931641
vt 4.351562 -4.164062
vt 4.894531 -4.164062
vt 4.894531 -1.931641
vt 4.351562 -4.164062
vt -5.738281 3.027344
vt -5.750000 3.027344
vt -5.738281 2.647461
vt -5.750000 3.027344
vt -5.750000 2.647461
vt -5.738281 2.647461
vt -5.750000 2.647461
vt -5.750000 3.027344
vt -11.656250 3.025391
vt -5.738281 2.647461
vt -5.750000 2.647461
vt -5.738281 1.497314
vt -5.750000 2.647461
vt -5.750000 1.497314
vt -5.738281 1.497314
vt -11.656250 2.650391
vt -5.750000 2.647461
vt -11.656250 3.025391
vt -5.750000 1.497314
vt -5.750000 2.647461
vt -11.656250 2.650391
vt -11.656250 2.650391
vt -11.656250 3.025391
vt -11.664062 3.025391
vt -11.664062 2.650391
vt -11.656250 2.650391
vt -11.664062 3.025391
vt -11.656250 1.495850
vt -5.750000 1.497314
vt -11.656250 2.650391
vt -5.738281 1.497314
vt -5.750000 1.497314
vt -5.738281 1.376465
vt -5.750000 1.376465
vt -5.750000 1.497314
vt -11.656250 1.495850
vt -5.750000 1.497314
vt -5.750000 1.376465
vt -5.738281 1.376465
vt -11.656250 1.373535
vt -5.750000 1.376465
vt -11.656250 1.495850
vt -5.738281 1.376465
vt -5.750000 1.376465
vt -5.734375 1.009995
vt -11.656250 1.373535
vt -11.656250 1.009995
vt -5.750000 1.376465
vt -11.656250 1.009995
vt -11.656250 1.373535
vt -11.671875 1.373291
vt -11.671875 1.009949
vt -11.656250 1.009995
vt -11.671875 1.373291
vt -5.750000 1.376465
vt -5.746094 1.009995
vt -5.734375 1.009995
vt -11.656250 1.009995
vt -5.746094 1.009995
vt -5.750000 1.376465
vt -5.734375 1.009995
vt -5.746094 1.009995
vt -5.734375 -0.113281
vt -11.656250 1.009995
vt -11.656250 -0.113281
vt -5.746094 1.009995
vt -11.656250 -0.113281
vt -11.656250 1.009995
vt -11.671875 1.009995
vt -11.671875 -0.113281
vt -11.656250 -0.113281
vt -11.671875 1.009995
vt -5.746094 1.009995
vt -5.746094 -0.113281
vt -5.734375 -0.113281
vt -11.656250 -0.113281
vt -5.746094 -0.113281
vt -5.746094 1.009995
vt -5.734375 -0.113281
vt -5.746094 -0.113281
vt -5.734375 -0.458008
vt -11.656250 -0.458008
vt -11.656250 -0.113281
vt -11.671875 -0.113281
vt -11.656250 -0.113281
vt -11.656250 -0.458008
vt -5.746094 -0.113281
vt -11.671875 -0.458008
vt -11.656250 -0.458008
vt -11.671875 -0.113281
vt -5.746094 -0.113281
vt -5.746094 -0.458008
vt -5.734375 -0.458008
vt -11.656250 -0.458008
vt -5.746094 -0.458008
vt -5.746094 -0.113281
vt -5.734375 -0.458008
vt -5.746094 -0.458008
vt -5.734375 -1.904297
vt -11.656250 -1.904297
vt -11.656250 -0.458008
vt -11.671875 -0.458008
vt -11.656250 -0.458008
vt -11.656250 -1.904297
vt -5.746094 -0.458008
vt -11.671875 -1.904297
vt -11.656250 -1.904297
vt -11.671875 -0.458008
vt -5.746094 -0.458008
vt -5.746094 -1.904297
vt -5.734375 -1.904297
vt -11.656250 -1.904297
vt -5.746094 -1.904297
vt -5.746094 -0.458008
vt -5.734375 -1.904297
vt -5.746094 -1.904297
vt -5.734375 -4.128906
vt -5.746094 -1.904297
vt -5.746094 -4.128906
vt -5.734375 -4.128906
vt -11.656250 -4.128906
vt -5.746094 -4.128906
vt -5.746094 -1.904297
vt -11.656250 -1.904297
vt -11.656250 -4.128906
vt -5.746094 -1.904297
vt -11.656250 -4.128906
vt -11.656250 -1.904297
vt -11.671875 -1.904297
vt -11.671875 -4.128906
vt -11.656250 -4.128906
vt -11.671875 -1.904297
vt 1.530273 2.675781
vt 1.530273 3.048828
vt 0.810059 2.676758
vt 1.530273 3.048828
vt 0.810059 3.050781
vt 0.810059 2.676758
vt 0.145630 2.676758
vt 0.810059 2.676758
vt 0.810059 3.050781
vt 0.145630 3.050781
vt 0.145630 2.676758
vt 0.810059 3.050781
vt 0.810059 2.676758
vt 0.145630 2.676758
vt 0.810059 1.495850
vt 0.145630 2.676758
vt 0.145630 3.050781
vt -0.585938 2.676758
vt 0.145630 3.050781
vt -0.585938 3.050781
vt -0.585938 2.676758
vt 0.145630 2.676758
vt 0.145508 1.496094
vt 0.810059 1.495850
vt -0.585938 2.676758
vt -0.585938 3.050781
vt -0.999023 2.676758
vt -0.585938 3.050781
vt -0.999023 3.050781
vt -0.999023 2.676758
vt -0.999023 2.676758
vt -0.999023 3.050781
vt -1.040039 3.050781
vt -1.040039 2.676758
vt -0.999023 2.676758
vt -1.040039 3.050781
vt -1.040039 2.676758
vt -1.040039 1.496094
vt -0.999023 2.676758
vt -0.585938 2.676758
vt -0.999023 2.676758
vt -0.585938 1.496094
vt -1.040039 1.496094
vt -0.999023 1.496094
vt -0.999023 2.676758
vt -0.999023 2.676758
vt -0.999023 1.496094
vt -0.585938 1.496094
vt -1.040039 1.496094
vt -1.040039 1.371582
vt -0.999023 1.496094
vt -1.040039 1.371582
vt -0.999023 1.371582
vt -0.999023 1.496094
vt -0.999023 1.496094
vt -0.999023 1.371582
vt -0.585938 1.371338
vt -0.585938 1.496094
vt -0.999023 1.496094
vt -0.585938 1.371338
vt 0.145508 1.496094
vt -0.585938 1.496094
vt -0.585938 1.371338
vt 0.145508 1.371338
vt 0.145508 1.496094
vt -0.585938 1.371338
vt 0.810059 1.495850
vt 0.145508 1.496094
vt 0.145508 1.371338
vt 0.810059 1.371094
vt 0.810059 1.495850
vt 0.145508 1.371338
vt 1.529297 1.495850
vt 0.810059 1.495850
vt 0.810059 1.371094
vt 1.529297 1.371094
vt 1.529297 1.495850
vt 0.810059 1.371094
vt 1.529297 1.495850
vt 1.529297 1.371094
vt 2.277344 1.495605
vt 1.529297 1.495850
vt 2.277344 1.495605
vt 1.530273 2.675781
vt 2.277344 1.495605
vt 2.277344 2.675781
vt 1.530273 2.675781
vt 1.529297 1.371094
vt 2.277344 1.370850
vt 2.277344 1.495605
vt 2.277344 1.370850
vt 2.966797 1.370850
vt 2.277344 1.495605
vt 2.966797 1.370850
vt 2.966797 1.495361
vt 2.277344 1.495605
vt 2.966797 1.370850
vt 3.722656 1.370605
vt 2.966797 1.495361
vt 3.722656 1.370605
vt 3.722656 1.495361
vt 2.966797 1.495361
vt 3.722656 1.370605
vt 4.441406 1.370361
vt 3.722656 1.495361
vt 2.966797 1.495361
vt 3.722656 1.495361
vt 2.966797 2.675781
vt 4.441406 1.370361
vt 4.441406 1.495117
vt 3.722656 1.495361
vt 3.722656 1.495361
vt 3.722656 2.675781
vt 2.966797 2.675781
vt 4.855469 1.494873
vt 4.441406 1.495117
vt 4.441406 1.370361
vt 4.855469 1.370117
vt 4.855469 1.494873
vt 4.441406 1.370361
vt 2.277344 2.675781
vt 2.966797 2.675781
vt 2.277344 3.048828
vt 2.966797 2.675781
vt 2.966797 3.048828
vt 2.277344 3.048828
vt 2.966797 3.048828
vt 2.966797 2.675781
vt 3.722656 3.048828
vt 2.966797 2.675781
vt 3.722656 2.675781
vt 3.722656 3.048828
vt 3.722656 2.675781
vt 4.441406 2.675781
vt 3.722656 3.048828
vt 4.441406 2.675781
vt 4.441406 3.048828
vt 3.722656 3.048828
vt 4.441406 3.048828
vt 4.441406 2.675781
vt 4.855469 3.048828
vt 4.441406 2.675781
vt 4.855469 2.675781
vt 4.855469 3.048828
vt 4.855469 2.675781
vt 4.441406 2.675781
vt 4.441406 1.495117
vt 4.855469 1.494873
vt 4.855469 2.675781
vt 4.441406 1.495117
vt 4.855469 3.048828
vt 4.855469 2.675781
vt 4.886719 3.048828
vt 4.855469 2.675781
vt 4.886719 2.674805
vt 4.886719 3.048828
vt 4.886719 2.674805
vt 4.855469 2.675781
vt 4.855469 1.494873
vt 4.886719 3.048828
vt 4.886719 2.674805
vt 4.906250 3.048828
vt 4.882812 1.494873
vt 4.886719 2.674805
vt 4.855469 1.494873
vt 4.882812 1.494873
vt 4.855469 1.494873
vt 4.855469 1.370117
vt 4.882812 1.370117
vt 4.882812 1.494873
vt 4.855469 1.370117
vt 4.886719 2.674805
vt 4.906250 2.674805
vt 4.906250 3.048828
vt 4.886719 2.674805
vt 4.882812 1.494873
vt 4.906250 2.674805
vt 4.882812 1.494873
vt 4.882812 1.370117
vt 4.902344 1.494629
vt 4.882812 1.494873
vt 4.902344 1.494629
vt 4.906250 2.674805
vt 4.882812 1.370117
vt 4.902344 1.370117
vt 4.902344 1.494629
vt 4.902344 1.494629
vt 4.902344 1.370117
vt 4.921875 1.369873
vt 4.906250 3.048828
vt 4.906250 2.674805
vt 4.925781 2.674805
vt 4.925781 3.048828
vt 4.906250 3.048828
vt 4.925781 2.674805
vt 4.925781 3.048828
vt 4.925781 2.674805
vt 11.484375 3.048828
vt 4.925781 2.674805
vt 11.484375 2.669922
vt 11.484375 3.048828
vt 4.906250 2.674805
vt 4.902344 1.494629
vt 4.925781 1.494629
vt 4.925781 2.674805
vt 4.906250 2.674805
vt 4.925781 1.494629
vt 4.925781 2.674805
vt 4.925781 1.494629
vt 11.484375 2.669922
vt 4.925781 1.494629
vt 4.902344 1.494629
vt 4.921875 1.369873
vt 11.500000 2.669922
vt 11.484375 2.669922
vt 11.500000 1.504883
vt 11.484375 2.669922
vt 11.484375 1.504883
vt 11.500000 1.504883
vt 4.925781 1.494629
vt 11.484375 1.504883
vt 11.484375 2.669922
vt 4.925781 1.494629
vt 4.921875 1.369873
vt 11.484375 1.504883
vt 11.500000 1.504395
vt 11.484375 1.504883
vt 11.500000 1.380371
vt 11.484375 1.504883
vt 11.484375 1.380615
vt 11.500000 1.380371
vt 4.921875 1.369873
vt 11.484375 1.380615
vt 11.484375 1.504883
vt 11.484375 1.380615
vt 4.921875 1.369873
vt 4.894531 1.013855
vt 11.484375 1.013863
vt 11.484375 1.380615
vt 4.894531 1.013855
vt 11.484375 1.013863
vt 4.894531 1.013855
vt 11.484375 -0.119141
vt 4.894531 1.013855
vt 4.921875 1.369873
vt 4.351562 1.013840
vt 4.921875 1.369873
vt 4.351562 1.380371
vt 4.351562 1.013840
vt 4.351562 1.380371
vt 4.332031 1.380371
vt 4.351562 1.013840
vt 4.894531 1.013855
vt 4.894531 -0.119141
vt 11.484375 -0.119141
vt 4.332031 1.380371
vt 4.332031 1.013832
vt 4.351562 1.013840
vt 4.332031 1.380371
vt 4.312500 1.380371
vt 4.332031 1.013832
vt 4.894531 1.013855
vt 4.351562 1.013840
vt 4.351562 -0.119141
vt 4.894531 -0.119141
vt 4.894531 1.013855
vt 4.351562 -0.119141
vt 4.332031 1.013832
vt 4.332031 -0.119141
vt 4.351562 1.013840
vt 4.332031 -0.119141
vt 4.351562 -0.119141
vt 4.351562 1.013840
vt 11.484375 -0.119141
vt 4.894531 -0.119141
vt 4.894531 -0.437500
vt 11.484375 -0.466797
vt 11.484375 -0.119141
vt 4.894531 -0.437500
vt 4.894531 -0.119141
vt 4.351562 -0.119141
vt 4.351562 -0.466797
vt 4.894531 -0.437500
vt 4.894531 -0.119141
vt 4.351562 -0.466797
vt 4.894531 -0.437500
vt 4.894531 -1.927734
vt 11.484375 -0.466797
vt 4.894531 -1.927734
vt 4.894531 -0.437500
vt 4.351562 -0.466797
vt 4.894531 -1.927734
vt 11.484375 -1.927734
vt 11.484375 -0.466797
vt 11.484375 -4.171875
vt 11.484375 -1.927734
vt 4.894531 -1.927734
vt 4.894531 -4.171875
vt 11.484375 -4.171875
vt 4.894531 -1.927734
vt 4.351562 -1.927734
vt 4.894531 -1.927734
vt 4.351562 -0.466797
vt 4.332031 -1.927734
vt 4.351562 -1.927734
vt 4.351562 -0.466797
vt 4.332031 -0.466797
vt 4.332031 -1.927734
vt 4.351562 -0.466797
vt 4.332031 -0.466797
vt 4.351562 -0.466797
vt 4.351562 -0.119141
vt 4.332031 -0.119141
vt 4.332031 -0.466797
vt 4.351562 -0.119141
vt 4.308594 -1.927734
vt 4.332031 -1.927734
vt 4.332031 -0.466797
vt 4.308594 -0.466797
vt 4.332031 -0.466797
vt 4.332031 -0.119141
vt 4.308594 -0.466797
vt 4.308594 -1.927734
vt 4.332031 -0.466797
vt 4.308594 -0.119141
vt 4.308594 -0.466797
vt 4.332031 -0.119141
vt 4.308594 -0.119141
vt 4.332031 -0.119141
vt 4.332031 1.013832
vt 4.308594 -1.927734
vt 4.308594 -0.466797
vt 3.865234 -0.466797
vt 4.312500 1.013832
vt 4.308594 -0.119141
vt 4.332031 1.013832
vt 4.312500 1.380371
vt 4.312500 1.013832
vt 4.332031 1.013832
vt 4.308594 -0.466797
vt 4.308594 -0.119141
vt 3.865234 -0.119141
vt 4.308594 -0.119141
vt 4.312500 1.013832
vt 3.865234 -0.119141
vt 3.865234 -0.466797
vt 4.308594 -0.466797
vt 3.865234 -0.119141
vt 4.312500 1.013832
vt 4.312500 1.380371
vt 3.865234 1.013878
vt 4.312500 1.013832
vt 3.865234 1.013878
vt 3.865234 -0.119141
vt 4.312500 1.380371
vt 3.865234 1.380615
vt 3.865234 1.013878
vt 3.865234 1.380615
vt 3.142578 1.380615
vt 3.865234 1.013878
vt 3.865234 -0.119141
vt 3.142578 -0.119141
vt 3.865234 -0.466797
vt 3.142578 1.380615
vt 3.142578 1.014046
vt 3.865234 1.013878
vt 3.142578 1.014046
vt 3.142578 1.380615
vt 2.386719 1.380859
vt 3.863281 -1.417969
vt 4.308594 -1.927734
vt 3.865234 -0.466797
vt 3.863281 -1.417969
vt 3.142578 -1.416016
vt 4.308594 -1.927734
vt 3.142578 -1.416016
vt 3.863281 -1.927734
vt 4.308594 -1.927734
vt 2.914062 -1.925781
vt 3.863281 -1.927734
vt 3.142578 -1.416016
vt 2.386719 -1.925781
vt 2.914062 -1.925781
vt 3.142578 -1.416016
vt 3.142578 -0.119141
vt 3.142578 -0.466797
vt 3.865234 -0.466797
vt 2.386719 -1.416016
vt 2.386719 -1.925781
vt 3.142578 -1.416016
vt 2.386719 -1.416016
vt 3.142578 -1.416016
vt 3.142578 -0.466797
vt 2.386719 -1.925781
vt 2.386719 -1.416016
vt 1.696289 -1.416016
vt 2.386719 -0.466797
vt 2.386719 -1.416016
vt 3.142578 -0.466797
vt 1.696289 -1.925781
vt 2.386719 -1.925781
vt 1.696289 -1.416016
vt 0.947266 -1.925781
vt 1.696289 -1.925781
vt 1.696289 -1.416016
vt 2.386719 -0.466797
vt 3.142578 -0.466797
vt 2.386719 -0.118164
vt 3.142578 -0.466797
vt 3.142578 -0.119141
vt 2.386719 -0.118164
vt 2.386719 -0.118164
vt 3.142578 -0.119141
vt 3.142578 1.014046
vt 2.386719 -0.466797
vt 2.386719 -0.118164
vt 1.697266 -0.466797
vt 2.386719 1.014198
vt 2.386719 -0.118164
vt 3.142578 1.014046
vt 2.386719 1.014198
vt 3.142578 1.014046
vt 2.386719 1.380859
vt 2.386719 1.014198
vt 2.386719 1.380859
vt 1.697266 1.014427
vt 2.386719 1.380859
vt 1.697266 1.381104
vt 1.697266 1.014427
vt 2.386719 -0.118164
vt 1.697266 -0.118164
vt 1.697266 -0.466797
vt 1.697266 1.014427
vt 1.697266 1.381104
vt 0.947754 1.014587
vt 1.697266 -0.118164
vt 1.697266 1.014427
vt 0.947754 1.014587
vt 1.697266 1.381104
vt 0.947754 1.381104
vt 0.947754 1.014587
vt 0.947754 -0.118164
vt 1.697266 -0.118164
vt 0.947754 1.014587
vt 1.697266 -0.466797
vt 1.697266 -0.118164
vt 0.947754 -0.118164
vt 0.947754 1.014587
vt 0.947754 1.381104
vt 0.221558 1.014862
vt 0.947754 1.381104
vt 0.227417 1.381592
vt 0.221558 1.014862
vt 0.947754 -0.466797
vt 1.697266 -0.466797
vt 0.947754 -0.118164
vt 1.696289 -1.416016
vt 1.697266 -0.466797
vt 0.947754 -0.466797
vt 0.947754 -0.466797
vt 0.947754 -0.118164
vt 0.221436 -0.118164
vt 0.947754 -1.416016
vt 1.696289 -1.416016
vt 0.947754 -0.466797
vt 0.947754 -1.416016
vt 0.947266 -1.925781
vt 1.696289 -1.416016
vt 0.947266 -1.925781
vt 0.947754 -1.416016
vt 0.226929 -1.925781
vt 0.947754 -1.416016
vt 0.227051 -1.416016
vt 0.226929 -1.925781
vt 0.227051 -0.465820
vt 0.947754 -0.466797
vt 0.221436 -0.118164
vt -0.438232 -1.925781
vt 0.226929 -1.925781
vt 0.227051 -1.416016
vt 0.221436 -0.118164
vt -0.437988 -0.118164
vt 0.227051 -0.465820
vt -0.437988 -1.416016
vt -0.438232 -1.925781
vt 0.227051 -1.416016
vt -0.438232 -1.925781
vt -0.437988 -1.416016
vt -1.169922 -1.925781
vt 0.227051 -0.465820
vt -0.437988 -0.465820
vt 0.227051 -1.416016
vt -0.437988 -0.465820
vt -0.437988 -1.416016
vt 0.227051 -1.416016
vt -0.437988 -0.118164
vt -0.437988 -0.465820
vt 0.227051 -0.465820
vt -0.437988 -1.416016
vt -1.169922 -1.416016
vt -1.169922 -1.925781
vt -0.437988 -0.465820
vt -0.437988 -0.118164
vt -1.169922 -0.117188
vt -1.169922 -1.416016
vt -1.625000 -1.925781
vt -1.169922 -1.925781
vt -0.437988 1.014999
vt -0.437988 -0.118164
vt 0.221436 -0.118164
vt 0.221558 1.014862
vt -0.437988 1.014999
vt 0.221436 -0.118164
vt 0.221558 1.014862
vt 0.227417 1.381592
vt -0.437988 1.014999
vt 0.227417 1.381592
vt -0.437744 1.381592
vt -0.437988 1.014999
vt -0.437988 1.014999
vt -0.437744 1.381592
vt -1.169922 1.015366
vt -0.437744 1.381592
vt -1.169922 1.382080
vt -1.169922 1.015366
vt -1.169922 1.382080
vt -1.625000 1.382080
vt -1.169922 1.015366
vt -1.625000 1.382080
vt -1.625000 1.015488
vt -1.169922 1.015366
vt -1.169922 1.015366
vt -1.625000 1.015488
vt -1.169922 -0.117188
vt -1.625000 1.015488
vt -1.625000 1.382080
vt -1.646484 1.382080
vt -1.169922 -0.465820
vt -0.437988 -0.465820
vt -1.169922 -0.117188
vt -1.647461 1.015503
vt -1.625000 1.015488
vt -1.646484 1.382080
vt -1.647461 1.015503
vt -1.646484 1.382080
vt -1.668945 1.382080
vt -1.625000 1.015488
vt -1.625000 -0.117188
vt -1.169922 -0.117188
vt -1.169922 -0.117188
vt -1.625000 -0.117188
vt -1.169922 -0.465820
vt -1.625000 1.015488
vt -1.647461 1.015503
vt -1.625000 -0.117188
vt -1.625000 -0.117188
vt -1.625000 -0.465820
vt -1.169922 -0.465820
vt -1.169922 -0.465820
vt -1.625000 -0.465820
vt -1.169922 -1.416016
vt -1.625000 -0.465820
vt -1.625000 -1.925781
vt -1.169922 -1.416016
vt -1.647461 1.015503
vt -1.647461 -0.117188
vt -1.625000 -0.117188
vt -1.625000 -0.465820
vt -1.625000 -0.117188
vt -1.647461 -0.117188
vt -1.625000 -1.925781
vt -1.625000 -0.465820
vt -1.647461 -0.465820
vt -1.647461 -0.465820
vt -1.625000 -0.465820
vt -1.647461 -0.117188
vt -1.647461 -1.925781
vt -1.625000 -1.925781
vt -1.647461 -0.465820
vt -1.647461 1.015503
vt -1.668945 1.015518
vt -1.647461 -0.117188
vt -1.668945 1.015518
vt -1.647461 1.015503
vt -1.668945 1.382080
vt -1.668945 1.015518
vt -1.668945 -0.117188
vt -1.647461 -0.117188
vt -1.647461 -0.465820
vt -1.647461 -0.117188
vt -1.668945 -0.117188
vt -1.668945 1.015518
vt -1.668945 1.382080
vt -1.734375 1.015541
vt -1.668945 1.015518
vt -1.734375 1.015541
vt -1.668945 -0.117188
vt -1.668945 1.382080
vt -1.734375 1.382080
vt -1.734375 1.015541
vt -1.734375 1.382080
vt -2.238281 1.371582
vt -1.734375 1.015541
vt -1.647461 -1.925781
vt -1.647461 -0.465820
vt -1.668945 -1.925781
vt -1.648438 -4.167969
vt -1.647461 -1.925781
vt -1.668945 -1.925781
vt -1.668945 -4.167969
vt -1.648438 -4.167969
vt -1.668945 -1.925781
vt -1.647461 -0.465820
vt -1.668945 -0.465820
vt -1.668945 -1.925781
vt -1.668945 -0.465820
vt -1.647461 -0.465820
vt -1.668945 -0.117188
vt -1.668945 -4.167969
vt -1.668945 -1.925781
vt -1.734375 -1.925781
vt -1.734375 -1.925781
vt -1.668945 -1.925781
vt -1.668945 -0.465820
vt -1.733398 -4.167969
vt -1.668945 -4.167969
vt -1.734375 -1.925781
vt -1.733398 -4.167969
vt -1.734375 -1.925781
vt -2.236328 -4.167969
vt -1.668945 -0.465820
vt -1.668945 -0.117188
vt -1.734375 -0.465820
vt -1.734375 -0.465820
vt -1.734375 -1.925781
vt -1.668945 -0.465820
vt -1.734375 -1.925781
vt -2.236328 -1.925781
vt -2.236328 -4.167969
vt -2.236328 -1.925781
vt -1.734375 -1.925781
vt -1.734375 -0.465820
vt -8.796875 -1.925781
vt -8.796875 -4.167969
vt -2.236328 -4.167969
vt -2.236328 -1.925781
vt -8.796875 -1.925781
vt -2.236328 -4.167969
vt -8.796875 -1.925781
vt -2.236328 -1.925781
vt -2.236328 -0.464844
vt -2.236328 -0.464844
vt -2.236328 -1.925781
vt -1.734375 -0.465820
vt -8.796875 -0.464844
vt -8.796875 -1.925781
vt -2.236328 -0.464844
vt -1.668945 -0.117188
vt -1.734375 -0.117188
vt -1.734375 -0.465820
vt -1.734375 1.015541
vt -1.734375 -0.117188
vt -1.668945 -0.117188
vt -2.238281 -0.117188
vt -2.236328 -0.464844
vt -1.734375 -0.465820
vt -1.734375 -0.117188
vt -2.238281 -0.117188
vt -1.734375 -0.465820
vt -2.236328 -0.464844
vt -2.238281 -0.117188
vt -8.796875 -0.464844
vt -2.238281 -0.117188
vt -1.734375 -0.117188
vt -1.734375 1.015541
vt -2.238281 -0.117188
vt -8.796875 -0.117188
vt -8.796875 -0.464844
vt -8.796875 -0.117188
vt -2.238281 -0.117188
vt -8.796875 1.015572
vt -2.238281 1.015556
vt -2.238281 -0.117188
vt -1.734375 1.015541
vt -2.238281 -0.117188
vt -2.238281 1.015556
vt -8.796875 1.015572
vt -2.238281 1.371582
vt -2.238281 1.015556
vt -1.734375 1.015541
vt -2.238281 1.015556
vt -2.238281 1.371582
vt -8.796875 1.015572
vt -2.238281 1.371582
vt -8.796875 1.382324
vt -8.796875 1.015572
vt -8.796875 1.382324
vt -2.238281 1.371582
vt -2.238281 1.496338
vt -8.796875 1.506348
vt -8.796875 1.382324
vt -2.238281 1.496338
vt -8.796875 1.506348
vt -2.238281 1.496338
vt -8.812500 2.661133
vt -2.238281 3.050781
vt -8.812500 3.050781
vt -8.812500 2.661133
vt -2.238281 2.676758
vt -2.238281 3.050781
vt -8.812500 2.661133
vt -2.238281 1.496338
vt -2.238281 2.676758
vt -8.812500 2.661133
vt -2.218750 3.050781
vt -2.238281 3.050781
vt -2.238281 2.676758
vt -2.218750 2.676758
vt -2.218750 3.050781
vt -2.238281 2.676758
vt -2.218750 2.676758
vt -2.238281 2.676758
vt -2.238281 1.496338
vt -2.199219 3.050781
vt -2.218750 3.050781
vt -2.218750 2.676758
vt -2.199219 2.676758
vt -2.199219 3.050781
vt -2.218750 2.676758
vt -2.218750 1.496338
vt -2.218750 2.676758
vt -2.238281 1.496338
vt -2.199219 2.676758
vt -2.218750 2.676758
vt -2.218750 1.496338
vt -2.218750 1.496338
vt -2.238281 1.496338
vt -2.238281 1.371582
vt -2.197266 1.496338
vt -2.199219 2.676758
vt -2.218750 1.496338
vt -2.216797 1.371582
vt -2.218750 1.496338
vt -2.238281 1.371582
vt -2.197266 1.496338
vt -2.218750 1.496338
vt -2.216797 1.371582
vt -2.197266 1.371826
vt -2.197266 1.496338
vt -2.216797 1.371582
f 1/1/1 2/2/2 3/3/3
f 4/4/4 5/5/5 6/6/6
f 7/7/7 8/8/8 9/9/9
f 10/10/10 11/11/11 12/12/12
f 13/13/13 14/14/14 15/15/15
f 16/16/16 17/17/17 18/18/18
f 19/19/19 20/20/20 21/21/21
f 22/22/22 23/23/23 24/24/24
f 25/25/25 26/26/26 27/27/27
f 28/28/28 29/29/29 30/30/30
f 31/31/31 32/32/32 33/33/33
f 34/34/34 35/35/35 36/36/36
f 37/37/37 38/38/38 39/39/39
f 40/40/40 41/41/41 42/42/42
f 43/43/43 44/44/44 45/45/45
f 46/46/46 47/47/47 48/48/48
f 49/49/49 50/50/50 51/51/51
f 52/52/52 53/53/53 54/54/54
f 55/55/55 56/56/56 57/57/57
f 58/58/58 59/59/59 60/60/60
f 61/61/61 62/62/62 63/63/63
f 64/64/64 65/65/65 66/66/66
f 67/67/67 68/68/68 69/69/69
f 70/70/70 71/71/71 72/72/72
f 73/73/73 74/74/74 75/75/75
f 76/76/76 77/77/77 78/78/78
f 79/79/79 80/80/80 81/81/81
f 82/82/82 83/83/83 84/84/84
f 85/85/85 86/86/86 87/87/87
f 88/88/88 89/89/89 90/90/90
f 91/91/91 92/92/92 93/93/93
f 94/94/94 95/95/95 96/96/96
f 97/97/97 98/98/98 99/99/99
f 100/100/100 101/101/101 102/102/102
f 103/103/103 104/104/104 105/105/105
f 106/106/106 107/107/107 108/108/108
f 109/109/109 110/110/110 111/111/111
f 112/112/112 113/113/113 114/114/114
f 115/115/115 116/116/116 117/117/117
f 118/118/118 119/119/119 120/120/120
f 121/121/121 122/122/122 123/123/123
f 124/124/124 125/125/125 126/126/126
f 127/127/127 128/128/128 129/129/129
f 130/130/130 131/131/131 132/132/132
f 133/133/133 134/134/134 135/135/135
f 136/136/136 137/137/137 138/138/138
f 139/139/139 140/140/140 141/141/141
f 142/142/142 143/143/143 144/144/144
f 145/145/145 146/146/146 147/147/147
f 148/148/148 149/149/149 150/150/150
f 151/151/151 152/152/152 153/153/153
f 154/154/154 155/155/155 156/156/156
f 157/157/157 158/158/158 159/159/159
f 160/160/160 161/161/161 162/162/162
f 163/163/163 164/164/164 165/165/165
f 166/166/166 167/167/167 168/168/168
f 169/169/169 170/170/170 171/171/171
f 172/172/172 173/173/173 174/174/174
f 175/175/175 176/176/176 177/177/177
f 178/178/178 179/179/179 180/180/180
f 181/181/181 182/182/182 183/183/183
f 184/184/184 185/185/185 186/186/186
f 187/187/187 188/188/188 189/189/189
f 190/190/190 191/191/191 192/192/192
f 193/193/193 194/194/194 195/195/195
f 196/196/196 197/197/197 198/198/198
f 199/199/199 200/200/200 201/201/201
f 202/202/202 203/203/203 204/204/204
f 205/205/205 206/206/206 207/207/207
f 208/208/208 209/209/209 210/210/210
f 211/211/211 212/212/212 213/213/213
f 214/214/214 215/215/215 216/216/216
f 217/217/217 218/218/218 219/219/219
f 220/220/220 221/221/221 222/222/222
f 223/223/223 224/224/224 225/225/225
f 226/226/226 227/227/227 228/228/228
f 229/229/229 230/230/230 231/231/231
f 232/232/232 233/233/233 234/234/234
f 235/235/235 236/236/236 237/237/237
f 238/238/238 239/239/239 240/240/240
f 241/241/241 242/242/242 243/243/243
f 244/244/244 245/245/245 246/246/246
f 247/247/247 248/248/248 249/249/249
f 250/250/250 251/251/251 252/252/252
f 253/253/253 254/254/254 255/255/255
f 256/256/256 257/257/257 258/258/258
f 259/259/259 260/260/260 261/261/261
f 262/262/262 263/263/263 264/264/264
f 265/265/265 266/266/266 267/267/267
f 268/268/268 269/269/269 270/270/270
f 271/271/271 272/272/272 273/273/273
f 274/274/274 275/275/275 276/276/276
f 277/277/277 278/278/278 279/279/279
f 280/280/280 281/281/281 282/282/282
f 283/283/283 284/284/284 285/285/285
f 286/286/286 287/287/287 288/288/288
f 289/289/289 290/290/290 291/291/291
f 292/292/292 293/293/293 294/294/294
f 295/295/295 296/296/296 297/297/297
f 298/298/298 299/299/299 300/300/300
f 301/301/301 302/302/302 303/303/303
f 304/304/304 305/305/305 306/306/306
f 307/307/307 308/308/308 309/309/309
f 310/310/310 311/311/311 312/312/312
f 313/313/313 314/314/314 315/315/315
f 316/316/316 317/317/317 318/318/318
f 319/319/319 320/320/320 321/321/321
f 322/322/322 323/323/323 324/324/324
f 325/325/325 326/326/326 327/327/327
f 328/328/328 329/329/329 330/330/330
f 331/331/331 332/332/332 333/333/333
f 334/334/334 335/335/335 336/336/336
f 337/337/337 338/338/338 339/339/339
f 340/340/340 341/341/341 342/342/342
f 343/343/343 344/344/344 345/345/345
f 346/346/346 347/347/347 348/348/348
f 349/349/349 350/350/350 351/351/351
f 352/352/352 353/353/353 354/354/354
f 355/355/355 356/356/356 357/357/357
f 358/358/358 359/359/359 360/360/360
f 361/361/361 362/362/362 363/363/363
f 364/364/364 365/365/365 366/366/366
f 367/367/367 368/368/368 369/369/369
f 370/370/370 371/371/371 372/372/372
f 373/373/373 374/374/374 375/375/375
f 376/376/376 377/377/377 378/378/378
f 379/379/379 380/380/380 381/381/381
f 382/382/382 383/383/383 384/384/384
f 385/385/385 386/386/386 387/387/387
f 388/388/388 389/389/389 390/390/390
f 391/391/391 392/392/392 393/393/393
f 394/394/394 395/395/395 396/396/396
f 397/397/397 398/398/398 399/399/399
f 400/400/400 401/401/401 402/402/402
f 403/403/403 404/404/404 405/405/405
f 406/406/406 407/407/407 408/408/408
f 409/409/409 410/410/410 411/411/411
f 412/412/412 413/413/413 414/414/414
f 415/415/415 416/416/416 417/417/417
f 418/418/418 419/419/419 420/420/420
f 421/421/421 422/422/422 423/423/423
f 424/424/424 425/425/425 426/426/426
f 427/427/427 428/428/428 429/429/429
f 430/430/430 431/431/431 432/432/432
f 433/433/433 434/434/434 435/435/435
f 436/436/436 437/437/437 438/438/438
f 439/439/439 440/440/440 441/441/441
f 442/442/442 443/443/443 444/444/444
f 445/445/445 446/446/446 447/447/447
f 448/448/448 449/449/449 450/450/450
f 451/451/451 452/452/452 453/453/453
f 454/454/454 455/455/455 456/456/456
f 457/457/457 458/458/458 459/459/459
f 460/460/460 461/461/461 462/462/462
f 463/463/463 464/464/464 465/465/465
f 466/466/466 467/467/467 468/468/468
f 469/469/469 470/470/470 471/471/471
f 472/472/472 473/473/473 474/474/474
f 475/475/475 476/476/476 477/477/477
f 478/478/478 479/479/479 480/480/480
f 481/481/481 482/482/482 483/483/483
f 484/484/484 485/485/485 486/486/486
f 487/487/487 488/488/488 489/489/489
f 490/490/490 491/491/491 492/492/492
f 493/493/493 494/494/494 495/495/495
f 496/496/496 497/497/497 498/498/498
f 499/499/499 500/500/500 501/501/501
f 502/502/502 503/503/503 504/504/504
f 505/505/505 506/506/506 507/507/507
f 508/508/508 509/509/509 510/510/510
f 511/511/511 512/512/512 513/513/513
f 514/514/514 515/515/515 516/516/516
f 517/517/517 518/518/518 519/519/519
f 520/520/520 521/521/521 522/522/522
f 523/523/523 524/524/524 525/525/525
f 526/526/526 527/527/527 528/528/528
f 529/529/529 530/530/530 531/531/531
f 532/532/532 533/533/533 534/534/534
f 535/535/535 536/536/536 537/537/537
f 538/538/538 539/539/539 540/540/540
f 541/541/541 542/542/542 543/543/543
f 544/544/544 545/545/545 546/546/546
f 547/547/547 548/548/548 549/549/549
f 550/550/550 551/551/551 552/552/552
f 553/553/553 554/554/554 555/555/555
f 556/556/556 557/557/557 558/558/558
f 559/559/559 560/560/560 561/561/561
f 562/562/562 563/563/563 564/564/564
f 565/565/565 566/566/566 567/567/567
f 568/568/568 569/569/569 570/570/570
f 571/571/571 572/572/572 573/573/573
f 574/574/574 575/575/575 576/576/576
f 577/577/577 578/578/578 579/579/579
f 580/580/580 581/581/581 582/582/582
f 583/583/583 584/584/584 585/585/585
f 586/586/586 587/587/587 588/588/588
f 589/589/589 590/590/590 591/591/591
f 592/592/592 593/593/593 594/594/594
f 595/595/595 596/596/596 597/597/597
f 598/598/598 599/599/599 600/600/600
f 601/601/601 602/602/602 603/603/603
f 604/604/604 605/605/605 606/606/606
f 607/607/607 608/608/608 609/609/609
f 610/610/610 611/611/611 612/612/612
f 613/613/613 614/614/614 615/615/615
f 616/616/616 617/617/617 618/618/618
f 619/619/619 620/620/620 621/621/621
f 622/622/622 623/623/623 624/624/624
f 625/625/625 626/626/626 627/627/627
f 628/628/628 629/629/629 630/630/630
f 631/631/631 632/632/632 633/633/633
f 634/634/634 635/635/635 636/636/636
f 637/637/637 638/638/638 639/639/639
f 640/640/640 641/641/641 642/642/642
f 643/643/643 644/644/644 645/645/645
f 646/646/646 647/647/647 648/648/648
f 649/649/649 650/650/650 651/651/651
f 652/652/652 653/653/653 654/654/654
f 655/655/655 656/656/656 657/657/657
f 658/658/658 659/659/659 660/660/660
f 661/661/661 662/662/662 663/663/663
f 664/664/664 665/665/665 666/666/666
f 667/667/667 668/668/668 669/669/669
f 670/670/670 671/671/671 672/672/672
f 673/673/673 674/674/674 675/675/675
f 676/676/676 677/677/677 678/678/678
f 679/679/679 680/680/680 681/681/681
f 682/682/682 683/683/683 684/684/684
f 685/685/685 686/686/686 687/687/687
f 688/688/688 689/689/689 690/690/690
f 691/691/691 692/692/692 693/693/693
f 694/694/694 695/695/695 696/696/696
f 697/697/697 698/698/698 699/699/699
f 700/700/700 701/701/701 702/702/702
f 703/703/703 704/704/704 705/705/705
f 706/706/706 707/707/707 708/708/708
f 709/709/709 710/710/710 711/711/711
f 712/712/712 713/713/713 714/714/714
f 715/715/715 716/716/716 717/717/717
f 718/718/718 719/719/719 720/720/720
f 721/721/721 722/722/722 723/723/723
f 724/724/724 725/725/725 726/726/726
f 727/727/727 728/728/728 729/729/729
f 730/730/730 731/731/731 732/732/732
f 733/733/733 734/734/734 735/735/735
f 736/736/736 737/737/737 738/738/738
f 739/739/739 740/740/740 741/741/741
f 742/742/742 743/743/743 744/744/744
f 745/745/745 746/746/746 747/747/747
f 748/748/748 749/749/749 750/750/750
f 751/751/751 752/752/752 753/753/753
f 754/754/754 755/755/755 756/756/756
f 757/757/757 758/758/758 759/759/759
f 760/760/760 761/761/761 762/762/762
f 763/763/763 764/764/764 765/765/765
f 766/766/766 767/767/767 768/768/768
f 769/769/769 770/770/770 771/771/771
f 772/772/772 773/773/773 774/774/774
f 775/775/775 776/776/776 777/777/777
f 778/778/778 779/779/779 780/780/780
f 781/781/781 782/782/782 783/783/783
f 784/784/784 785/785/785 786/786/786
f 787/787/787 788/788/788 789/789/789
f 790/790/790 791/791/791 792/792/792
f 793/793/793 794/794/794 795/795/795
f 796/796/796 797/797/797 798/798/798
f 799/799/799 800/800/800 801/801/801
f 802/802/802 803/803/803 804/804/804
f 805/805/805 806/806/806 807/807/807
f 808/808/808 809/809/809 810/810/810
f 811/811/811 812/812/812 813/813/813
f 814/814/814 815/815/815 816/816/816
f 817/817/817 818/818/818 819/819/819
f 820/820/820 821/821/821 822/822/822
f 823/823/823 824/824/824 825/825/825
f 826/826/826 827/827/827 828/828/828
f 829/829/829 830/830/830 831/831/831
f 832/832/832 833/833/833 834/834/834
f 835/835/835 836/836/836 837/837/837
f 838/838/838 839/839/839 840/840/840
f 841/841/841 842/842/842 843/843/843
f 844/844/844 845/845/845 846/846/846
f 847/847/847 848/848/848 849/849/849
f 850/850/850 851/851/851 852/852/852
f 853/853/853 854/854/854 855/855/855
f 856/856/856 857/857/857 858/858/858
f 859/859/859 860/860/860 861/861/861
f 862/862/862 863/863/863 864/864/864
f 865/865/865 866/866/866 867/867/867
f 868/868/868 869/869/869 870/870/870
f 871/871/871 872/872/872 873/873/873
f 874/874/874 875/875/875 876/876/876
f 877/877/877 878/878/878 879/879/879
f 880/880/880 881/881/881 882/882/882
f 883/883/883 884/884/884 885/885/885
f 886/886/886 887/887/887 888/888/888
f 889/889/889 890/890/890 891/891/891
f 892/892/892 893/893/893 894/894/894
f 895/895/895 896/896/896 897/897/897
f 898/898/898 899/899/899 900/900/900
f 901/901/901 902/902/902 903/903/903
f 904/904/904 905/905/905 906/906/906
f 907/907/907 908/908/908 909/909/909
f 910/910/910 911/911/911 912/912/912
f 913/913/913 914/914/914 915/915/915
f 916/916/916 917/917/917 918/918/918
f 919/919/919 920/920/920 921/921/921
f 922/922/922 923/923/923 924/924/924
f 925/925/925 926/926/926 927/927/927
