# OBJ file
v 443.924683 2820.019531 148.193466
v 327.969086 2693.830566 148.193130
v 443.924683 2820.019531 84.634956
v 327.969086 2693.830566 148.193130
v 327.969421 2693.830811 84.816116
v 443.924683 2820.019531 84.634956
v 414.656433 2954.100586 1643.417358
v 414.867310 2954.329834 1643.717407
v 416.944214 2951.994873 1643.417358
v 414.867310 2954.329834 1643.717407
v 417.155090 2952.223633 1643.717407
v 416.944214 2951.994873 1643.417358
v 442.301361 2984.136230 1643.717407
v 442.512268 2984.365479 1643.417358
v 444.589111 2982.030518 1643.717407
v 442.512268 2984.365479 1643.417358
v 444.799988 2982.259521 1643.417358
v 444.589111 2982.030518 1643.717407
v 448.691223 2993.902588 1643.387329
v 448.923187 2994.154541 1643.717407
v 450.956909 2991.816895 1643.387329
v 448.923187 2994.154541 1643.717407
v 451.188904 2992.069092 1643.717407
v 450.956909 2991.816895 1643.387329
v 476.315063 3023.915283 1643.717407
v 476.546997 3024.167236 1643.387329
v 478.580688 3021.829834 1643.717407
v 476.546997 3024.167236 1643.387329
v 478.812683 3022.082031 1643.387329
v 478.580688 3021.829834 1643.717407
v 614.609192 3171.699707 1643.417358
v 614.820068 3171.928955 1643.717407
v 616.896973 3169.593750 1643.417358
v 614.820068 3171.928955 1643.717407
v 617.107849 3169.822754 1643.717407
v 616.896973 3169.593750 1643.417358
v 642.254089 3201.735352 1643.717407
v 642.464966 3201.964600 1643.417358
v 644.541870 3199.629639 1643.717407
v 642.464966 3201.964600 1643.417358
v 644.752747 3199.858643 1643.417358
v 644.541870 3199.629639 1643.717407
v 648.643921 3211.501465 1643.387329
v 648.875916 3211.753662 1643.717407
v 650.909668 3209.416016 1643.387329
v 648.875916 3211.753662 1643.717407
v 651.141602 3209.668213 1643.717407
v 650.909668 3209.416016 1643.387329
v 676.267761 3241.514404 1643.717407
v 676.499756 3241.766113 1643.387329
v 678.533447 3239.428955 1643.717407
v 676.499756 3241.766113 1643.387329
v 678.765442 3239.681152 1643.387329
v 678.533447 3239.428955 1643.717407
v 446.092987 2988.255371 1534.120239
v 446.303833 2988.484375 1534.420288
v 447.291748 2987.151123 1534.120239
v 446.303833 2988.484375 1534.420288
v 447.281921 2987.583496 1534.420288
v 447.291748 2987.151123 1534.120239
v 446.303833 2988.484375 1534.420288
v 446.303589 2988.484131 1648.810913
v 447.281921 2987.583496 1534.420288
v 446.303589 2988.484131 1648.810913
v 447.281799 2987.583252 1648.810913
v 447.281921 2987.583496 1534.420288
v 447.281921 2987.583496 1534.420288
v 447.281799 2987.583252 1648.810913
v 447.713379 2987.609375 1648.810913
v 447.713470 2987.609375 1534.420288
v 447.281921 2987.583496 1534.420288
v 447.713379 2987.609375 1648.810913
v 447.723358 2987.177246 1534.120239
v 447.713470 2987.609375 1534.420288
v 448.535706 2988.059814 1534.120239
v 447.713470 2987.609375 1534.420288
v 448.314972 2988.262939 1534.420288
v 448.535706 2988.059814 1534.120239
v 447.713470 2987.609375 1534.420288
v 447.713379 2987.609375 1648.810913
v 448.314972 2988.262939 1534.420288
v 447.713379 2987.609375 1648.810913
v 448.314880 2988.262939 1648.810913
v 448.314972 2988.262939 1534.420288
v 448.535645 2988.059814 1649.110962
v 448.746521 2988.288818 1648.810913
v 448.314880 2988.262939 1648.810913
v 448.314972 2988.262939 1534.420288
v 448.314880 2988.262939 1648.810913
v 448.746521 2988.288818 1648.810913
v 448.746613 2988.289062 1534.420288
v 448.314972 2988.262939 1534.420288
v 448.746521 2988.288818 1648.810913
v 448.314972 2988.262939 1534.420288
v 448.746613 2988.289062 1534.420288
v 448.535706 2988.059814 1534.120239
v 448.746521 2988.288818 1648.810913
v 449.614532 2987.490234 1648.810913
v 448.746613 2988.289062 1534.420288
v 449.403687 2987.261230 1534.120239
v 448.535706 2988.059814 1534.120239
v 448.746613 2988.289062 1534.420288
v 449.614532 2987.490234 1534.420288
v 449.403687 2987.261230 1534.120239
v 448.746613 2988.289062 1534.420288
v 449.614532 2987.490234 1648.810913
v 449.614532 2987.490234 1534.420288
v 448.746613 2988.289062 1534.420288
v 449.624420 2987.058105 1648.810913
v 449.614532 2987.490234 1648.810913
v 449.403687 2987.261230 1649.110962
v 449.614532 2987.490234 1648.810913
v 449.624420 2987.058105 1648.810913
v 449.614532 2987.490234 1534.420288
v 449.403687 2987.261230 1534.120239
v 449.614532 2987.490234 1534.420288
v 449.624420 2987.058105 1534.420288
v 449.624420 2987.058105 1648.810913
v 449.624420 2987.058105 1534.420288
v 449.614532 2987.490234 1534.420288
v 448.591278 2986.378662 1534.120239
v 449.403687 2987.261230 1534.120239
v 449.624420 2987.058105 1534.420288
v 448.812073 2986.175537 1534.420288
v 448.591278 2986.378662 1534.120239
v 449.624420 2987.058105 1534.420288
v 448.812073 2986.175537 1534.420288
v 449.624420 2987.058105 1534.420288
v 449.624420 2987.058105 1648.810913
v 448.812073 2986.175537 1534.420288
v 448.662933 2986.013428 1534.332397
v 448.591278 2986.378662 1534.120239
v 448.662933 2986.013428 1534.332397
v 448.812073 2986.175537 1534.420288
v 445.169891 2982.218018 1539.301636
v 448.812073 2986.175537 1648.810913
v 448.812073 2986.175537 1534.420288
v 449.624420 2987.058105 1648.810913
v 448.812073 2986.175537 1534.420288
v 448.812073 2986.175537 1648.810913
v 445.169891 2982.218018 1539.301636
v 448.812073 2986.175537 1648.810913
v 449.624420 2987.058105 1648.810913
v 449.403687 2987.261230 1649.110962
v 448.591278 2986.378662 1649.110962
v 448.812073 2986.175537 1648.810913
v 449.403687 2987.261230 1649.110962
v 448.812073 2986.175537 1648.810913
v 448.591278 2986.378662 1649.110962
v 448.662933 2986.013428 1648.898804
v 448.812073 2986.175537 1648.810913
v 448.662933 2986.013428 1648.898804
v 445.169891 2982.218018 1539.301636
v 448.662933 2986.013428 1648.898804
v 445.169800 2982.218262 1643.929443
v 445.169891 2982.218018 1539.301636
v 444.799988 2982.259521 1643.417358
v 445.169800 2982.218262 1643.929443
v 444.589111 2982.030518 1643.717407
v 445.169800 2982.218262 1643.929443
v 444.799988 2982.259521 1643.417358
v 445.169891 2982.218018 1539.301636
v 442.512268 2984.365479 1643.417358
v 442.512451 2984.365234 1539.813843
v 444.799988 2982.259521 1643.417358
v 444.799988 2982.259521 1643.417358
v 444.800049 2982.259277 1539.813843
v 445.169891 2982.218018 1539.301636
v 442.512451 2984.365234 1539.813843
v 444.800049 2982.259277 1539.813843
v 444.799988 2982.259521 1643.417358
v 444.589172 2982.030273 1539.513794
v 445.169891 2982.218018 1539.301636
v 444.800049 2982.259277 1539.813843
v 442.512451 2984.365234 1539.813843
v 442.301605 2984.136230 1539.513794
v 444.800049 2982.259277 1539.813843
v 442.301605 2984.136230 1539.513794
v 444.589172 2982.030273 1539.513794
v 444.800049 2982.259277 1539.813843
v 414.865509 2954.327393 1539.513794
v 414.654633 2954.098389 1539.813843
v 417.153137 2952.221191 1539.513794
v 414.654633 2954.098389 1539.813843
v 416.942230 2951.991943 1539.813843
v 417.153137 2952.221191 1539.513794
v 414.654633 2954.098389 1539.813843
v 414.656433 2954.100586 1643.417358
v 416.942230 2951.991943 1539.813843
v 414.656433 2954.100586 1643.417358
v 416.944214 2951.994873 1643.417358
v 416.942230 2951.991943 1539.813843
v 416.942230 2951.991943 1539.813843
v 417.013855 2951.626953 1539.301636
v 417.153137 2952.221191 1539.513794
v 416.942230 2951.991943 1539.813843
v 416.944214 2951.994873 1643.417358
v 417.015808 2951.629395 1643.929443
v 417.013855 2951.626953 1539.301636
v 416.942230 2951.991943 1539.813843
v 417.015808 2951.629395 1643.929443
v 417.155090 2952.223633 1643.717407
v 417.015808 2951.629395 1643.929443
v 416.944214 2951.994873 1643.417358
v 413.520325 2947.831543 1534.332397
v 417.013855 2951.626953 1539.301636
v 417.015808 2951.629395 1643.929443
v 413.522949 2947.834473 1648.898804
v 413.520325 2947.831543 1534.332397
v 417.015808 2951.629395 1643.929443
v 413.363892 2948.104736 1649.110962
v 413.152985 2947.875488 1648.810913
v 413.522949 2947.834473 1648.898804
v 413.522949 2947.834473 1648.898804
v 413.152985 2947.875488 1648.810913
v 413.520325 2947.831543 1534.332397
v 413.520325 2947.831543 1534.332397
v 413.150391 2947.872803 1534.420288
v 413.361267 2948.101807 1534.120239
v 413.152985 2947.875488 1648.810913
v 413.150391 2947.872803 1534.420288
v 413.520325 2947.831543 1534.332397
v 412.272217 2949.103271 1534.120239
v 413.361267 2948.101807 1534.120239
v 413.150391 2947.872803 1534.420288
v 413.150391 2947.872803 1534.420288
v 413.152985 2947.875488 1648.810913
v 412.061340 2948.874023 1534.420288
v 412.061340 2948.874023 1534.420288
v 412.272217 2949.103271 1534.120239
v 413.150391 2947.872803 1534.420288
v 413.152985 2947.875488 1648.810913
v 412.063904 2948.876953 1648.810913
v 412.061340 2948.874023 1534.420288
v 411.072784 2950.206787 1534.120239
v 412.272217 2949.103271 1534.120239
v 412.061340 2948.874023 1534.420288
v 412.063904 2948.876953 1648.810913
v 410.864441 2949.980225 1648.810913
v 412.061340 2948.874023 1534.420288
v 410.861938 2949.977783 1534.420288
v 411.072784 2950.206787 1534.120239
v 412.061340 2948.874023 1534.420288
v 410.864441 2949.980225 1648.810913
v 410.861938 2949.977783 1534.420288
v 412.061340 2948.874023 1534.420288
v 480.106659 3028.034424 1534.120239
v 480.338623 3028.286377 1534.450195
v 482.372070 3025.948975 1534.120239
v 480.338623 3028.286377 1534.450195
v 482.604004 3026.200684 1534.450195
v 482.372070 3025.948975 1534.120239
v 480.338623 3028.286377 1534.450195
v 480.338379 3028.286133 1648.780884
v 482.604004 3026.200684 1534.450195
v 480.338379 3028.286133 1648.780884
v 482.604004 3026.200684 1648.780884
v 482.604004 3026.200684 1534.450195
v 482.604004 3026.200684 1534.450195
v 482.682800 3025.799072 1534.353638
v 482.372070 3025.948975 1534.120239
v 482.604004 3026.200684 1534.450195
v 482.604004 3026.200684 1648.780884
v 482.682800 3025.799072 1648.877563
v 482.682800 3025.799072 1534.353638
v 482.604004 3026.200684 1534.450195
v 482.682800 3025.799072 1648.877563
v 482.372009 3025.948975 1649.110962
v 482.682800 3025.799072 1648.877563
v 482.604004 3026.200684 1648.780884
v 482.682800 3025.799072 1534.353638
v 482.682800 3025.799072 1648.877563
v 479.219574 3022.036133 1539.280396
v 482.682800 3025.799072 1648.877563
v 479.219513 3022.036621 1643.950684
v 479.219574 3022.036133 1539.280396
v 478.812683 3022.082031 1643.387329
v 479.219513 3022.036621 1643.950684
v 478.580688 3021.829834 1643.717407
v 479.219513 3022.036621 1643.950684
v 478.812683 3022.082031 1643.387329
v 479.219574 3022.036133 1539.280396
v 476.546997 3024.167236 1643.387329
v 476.547241 3024.167236 1539.843750
v 478.812683 3022.082031 1643.387329
v 478.812683 3022.082031 1643.387329
v 478.812775 3022.081787 1539.843750
v 479.219574 3022.036133 1539.280396
v 476.547241 3024.167236 1539.843750
v 478.812775 3022.081787 1539.843750
v 478.812683 3022.082031 1643.387329
v 478.580750 3021.829590 1539.513794
v 479.219574 3022.036133 1539.280396
v 478.812775 3022.081787 1539.843750
v 476.547241 3024.167236 1539.843750
v 476.315277 3023.915283 1539.513794
v 478.812775 3022.081787 1539.843750
v 476.315277 3023.915283 1539.513794
v 478.580750 3021.829590 1539.513794
v 478.812775 3022.081787 1539.843750
v 480.338379 3028.286133 1648.780884
v 480.106415 3028.034180 1649.110962
v 482.604004 3026.200684 1648.780884
v 480.106415 3028.034180 1649.110962
v 482.372009 3025.948975 1649.110962
v 482.604004 3026.200684 1648.780884
v 480.106415 3028.034180 1649.110962
v 445.131195 2990.034180 1649.110962
v 482.372009 3025.948975 1649.110962
v 445.131195 2990.034180 1649.110962
v 447.397644 2987.949951 1649.110962
v 482.372009 3025.948975 1649.110962
v 447.397644 2987.949951 1649.110962
v 445.131195 2990.034180 1649.110962
v 444.899200 2989.782227 1648.780884
v 447.165649 2987.697998 1648.780884
v 447.397644 2987.949951 1649.110962
v 444.899200 2989.782227 1648.780884
v 482.372009 3025.948975 1649.110962
v 447.397644 2987.949951 1649.110962
v 447.572601 2987.652588 1648.877563
v 482.682800 3025.799072 1648.877563
v 482.372009 3025.948975 1649.110962
v 447.572601 2987.652588 1648.877563
v 482.682800 3025.799072 1648.877563
v 447.572601 2987.652588 1648.877563
v 479.219513 3022.036621 1643.950684
v 447.572601 2987.652588 1648.877563
v 451.035675 2991.415283 1643.950684
v 479.219513 3022.036621 1643.950684
v 451.035675 2991.415283 1643.950684
v 451.188904 2992.069092 1643.717407
v 479.219513 3022.036621 1643.950684
v 451.188904 2992.069092 1643.717407
v 478.580688 3021.829834 1643.717407
v 479.219513 3022.036621 1643.950684
v 476.315063 3023.915283 1643.717407
v 478.580688 3021.829834 1643.717407
v 451.188904 2992.069092 1643.717407
v 448.923187 2994.154541 1643.717407
v 476.315063 3023.915283 1643.717407
v 451.188904 2992.069092 1643.717407
v 448.921356 2994.152100 1539.513794
v 448.689423 2993.900391 1539.843750
v 451.186920 2992.066406 1539.513794
v 448.689423 2993.900391 1539.843750
v 450.954926 2991.814453 1539.843750
v 451.186920 2992.066406 1539.513794
v 448.689423 2993.900391 1539.843750
v 448.691223 2993.902588 1643.387329
v 450.954926 2991.814453 1539.843750
v 448.691223 2993.902588 1643.387329
v 450.956909 2991.816895 1643.387329
v 450.954926 2991.814453 1539.843750
v 450.954926 2991.814453 1539.843750
v 451.033661 2991.412598 1539.280518
v 451.186920 2992.066406 1539.513794
v 450.954926 2991.814453 1539.843750
v 450.956909 2991.816895 1643.387329
v 451.035675 2991.415283 1643.950684
v 451.033661 2991.412598 1539.280518
v 450.954926 2991.814453 1539.843750
v 451.035675 2991.415283 1643.950684
v 451.188904 2992.069092 1643.717407
v 451.035675 2991.415283 1643.950684
v 450.956909 2991.816895 1643.387329
v 447.570007 2987.649658 1534.353516
v 451.033661 2991.412598 1539.280518
v 451.035675 2991.415283 1643.950684
v 447.572601 2987.652588 1648.877563
v 447.570007 2987.649658 1534.353516
v 451.035675 2991.415283 1643.950684
v 447.397644 2987.949951 1649.110962
v 447.165649 2987.697998 1648.780884
v 447.572601 2987.652588 1648.877563
v 447.572601 2987.652588 1648.877563
v 447.165649 2987.697998 1648.780884
v 447.570007 2987.649658 1534.353516
v 447.165649 2987.697998 1648.780884
v 444.899200 2989.782227 1648.780884
v 444.896667 2989.779541 1534.450195
v 447.165649 2987.697998 1648.780884
v 447.163116 2987.694824 1534.450195
v 447.570007 2987.649658 1534.353516
v 447.163116 2987.694824 1534.450195
v 447.165649 2987.697998 1648.780884
v 444.896667 2989.779541 1534.450195
v 447.570007 2987.649658 1534.353516
v 447.163116 2987.694824 1534.450195
v 447.395050 2987.946777 1534.120239
v 444.896667 2989.779541 1534.450195
v 445.128632 2990.031494 1534.120239
v 447.163116 2987.694824 1534.450195
v 445.128632 2990.031494 1534.120239
v 447.395050 2987.946777 1534.120239
v 447.163116 2987.694824 1534.450195
v 646.045715 3205.854736 1534.120239
v 646.256592 3206.083740 1534.420288
v 647.244446 3204.750732 1534.120239
v 646.256592 3206.083740 1534.420288
v 647.234680 3205.182861 1534.420288
v 647.244446 3204.750732 1534.120239
v 646.256592 3206.083740 1534.420288
v 646.256348 3206.083252 1648.810913
v 647.234680 3205.182861 1534.420288
v 646.256348 3206.083252 1648.810913
v 647.234558 3205.182373 1648.810913
v 647.234680 3205.182861 1534.420288
v 647.234680 3205.182861 1534.420288
v 647.234558 3205.182373 1648.810913
v 647.666138 3205.208496 1648.810913
v 647.666260 3205.208740 1534.420288
v 647.234680 3205.182861 1534.420288
v 647.666138 3205.208496 1648.810913
v 647.676147 3204.776611 1534.120239
v 647.666260 3205.208740 1534.420288
v 648.488464 3205.659180 1534.120239
v 647.666260 3205.208740 1534.420288
v 648.267700 3205.862061 1534.420288
v 648.488464 3205.659180 1534.120239
v 647.666260 3205.208740 1534.420288
v 647.666138 3205.208496 1648.810913
v 648.267700 3205.862061 1534.420288
v 647.666138 3205.208496 1648.810913
v 648.267639 3205.862061 1648.810913
v 648.267700 3205.862061 1534.420288
v 648.488403 3205.658936 1649.110962
v 648.699219 3205.887939 1648.810913
v 648.267639 3205.862061 1648.810913
v 648.267700 3205.862061 1534.420288
v 648.267639 3205.862061 1648.810913
v 648.699219 3205.887939 1648.810913
v 648.699341 3205.888428 1534.420288
v 648.267700 3205.862061 1534.420288
v 648.699219 3205.887939 1648.810913
v 648.267700 3205.862061 1534.420288
v 648.699341 3205.888428 1534.420288
v 648.488464 3205.659180 1534.120239
v 648.699219 3205.887939 1648.810913
v 649.567261 3205.089355 1648.810913
v 648.699341 3205.888428 1534.420288
v 649.356384 3204.860596 1534.120239
v 648.488464 3205.659180 1534.120239
v 648.699341 3205.888428 1534.420288
v 649.567261 3205.089600 1534.420288
v 649.356384 3204.860596 1534.120239
v 648.699341 3205.888428 1534.420288
v 649.567261 3205.089355 1648.810913
v 649.567261 3205.089600 1534.420288
v 648.699341 3205.888428 1534.420288
v 649.577148 3204.657227 1648.810913
v 649.567261 3205.089355 1648.810913
v 649.356384 3204.860352 1649.110962
v 649.567261 3205.089355 1648.810913
v 649.577148 3204.657227 1648.810913
v 649.567261 3205.089600 1534.420288
v 649.356384 3204.860596 1534.120239
v 649.567261 3205.089600 1534.420288
v 649.577148 3204.657471 1534.420288
v 649.577148 3204.657227 1648.810913
v 649.577148 3204.657471 1534.420288
v 649.567261 3205.089600 1534.420288
v 648.544067 3203.978027 1534.120239
v 649.356384 3204.860596 1534.120239
v 649.577148 3204.657471 1534.420288
v 648.764771 3203.774658 1534.420288
v 648.544067 3203.978027 1534.120239
v 649.577148 3204.657471 1534.420288
v 648.764771 3203.774658 1534.420288
v 649.577148 3204.657471 1534.420288
v 649.577148 3204.657227 1648.810913
v 648.764771 3203.774658 1534.420288
v 648.615723 3203.612793 1534.332397
v 648.544067 3203.978027 1534.120239
v 648.615723 3203.612793 1534.332397
v 648.764771 3203.774658 1534.420288
v 645.122620 3199.817627 1539.301636
v 648.764771 3203.774414 1648.810913
v 648.764771 3203.774658 1534.420288
v 649.577148 3204.657227 1648.810913
v 648.764771 3203.774658 1534.420288
v 648.764771 3203.774414 1648.810913
v 645.122620 3199.817627 1539.301636
v 648.764771 3203.774414 1648.810913
v 649.577148 3204.657227 1648.810913
v 649.356384 3204.860352 1649.110962
v 648.544006 3203.977783 1649.110962
v 648.764771 3203.774414 1648.810913
v 649.356384 3204.860352 1649.110962
v 648.764771 3203.774414 1648.810913
v 648.544006 3203.977783 1649.110962
v 648.615662 3203.612549 1648.898804
v 648.764771 3203.774414 1648.810913
v 648.615662 3203.612549 1648.898804
v 645.122620 3199.817627 1539.301636
v 648.615662 3203.612549 1648.898804
v 645.122559 3199.817383 1643.929443
v 645.122620 3199.817627 1539.301636
v 644.752747 3199.858643 1643.417358
v 645.122559 3199.817383 1643.929443
v 644.541870 3199.629639 1643.717407
v 645.122559 3199.817383 1643.929443
v 644.752747 3199.858643 1643.417358
v 645.122620 3199.817627 1539.301636
v 642.464966 3201.964600 1643.417358
v 642.465210 3201.964600 1539.813843
v 644.752747 3199.858643 1643.417358
v 644.752747 3199.858643 1643.417358
v 644.752808 3199.858643 1539.813843
v 645.122620 3199.817627 1539.301636
v 642.465210 3201.964600 1539.813843
v 644.752808 3199.858643 1539.813843
v 644.752747 3199.858643 1643.417358
v 644.541931 3199.629639 1539.513794
v 645.122620 3199.817627 1539.301636
v 644.752808 3199.858643 1539.813843
v 642.465210 3201.964600 1539.813843
v 642.254395 3201.735596 1539.513794
v 644.752808 3199.858643 1539.813843
v 642.254395 3201.735596 1539.513794
v 644.541931 3199.629639 1539.513794
v 644.752808 3199.858643 1539.813843
v 614.818237 3171.926758 1539.513794
v 614.607361 3171.697754 1539.813843
v 617.105835 3169.820557 1539.513794
v 614.607361 3171.697754 1539.813843
v 616.894958 3169.591309 1539.813843
v 617.105835 3169.820557 1539.513794
v 614.607361 3171.697754 1539.813843
v 614.609192 3171.699707 1643.417358
v 616.894958 3169.591309 1539.813843
v 614.609192 3171.699707 1643.417358
v 616.896973 3169.593750 1643.417358
v 616.894958 3169.591309 1539.813843
v 616.894958 3169.591309 1539.813843
v 616.966553 3169.226318 1539.301636
v 617.105835 3169.820557 1539.513794
v 616.894958 3169.591309 1539.813843
v 616.896973 3169.593750 1643.417358
v 616.968567 3169.228516 1643.929443
v 616.966553 3169.226318 1539.301636
v 616.894958 3169.591309 1539.813843
v 616.968567 3169.228516 1643.929443
v 617.107849 3169.822754 1643.717407
v 616.968567 3169.228516 1643.929443
v 616.896973 3169.593750 1643.417358
v 613.473083 3165.430908 1534.332397
v 616.966553 3169.226318 1539.301636
v 616.968567 3169.228516 1643.929443
v 613.475708 3165.433594 1648.898804
v 613.473083 3165.430908 1534.332397
v 616.968567 3169.228516 1643.929443
v 613.316650 3165.703857 1649.110962
v 613.105713 3165.474609 1648.810913
v 613.475708 3165.433594 1648.898804
v 613.475708 3165.433594 1648.898804
v 613.105713 3165.474609 1648.810913
v 613.473083 3165.430908 1534.332397
v 613.473083 3165.430908 1534.332397
v 613.103149 3165.472168 1534.420288
v 613.314026 3165.701172 1534.120239
v 613.105713 3165.474609 1648.810913
v 613.103149 3165.472168 1534.420288
v 613.473083 3165.430908 1534.332397
v 612.224976 3166.702637 1534.120239
v 613.314026 3165.701172 1534.120239
v 613.103149 3165.472168 1534.420288
v 613.103149 3165.472168 1534.420288
v 613.105713 3165.474609 1648.810913
v 612.014099 3166.473389 1534.420288
v 612.014099 3166.473389 1534.420288
v 612.224976 3166.702637 1534.120239
v 613.103149 3165.472168 1534.420288
v 613.105713 3165.474609 1648.810913
v 612.016663 3166.476074 1648.810913
v 612.014099 3166.473389 1534.420288
v 611.025574 3167.805908 1534.120239
v 612.224976 3166.702637 1534.120239
v 612.014099 3166.473389 1534.420288
v 612.016663 3166.476074 1648.810913
v 610.817200 3167.579590 1648.810913
v 612.014099 3166.473389 1534.420288
v 610.814697 3167.576904 1534.420288
v 611.025574 3167.805908 1534.120239
v 612.014099 3166.473389 1534.420288
v 610.817200 3167.579590 1648.810913
v 610.814697 3167.576904 1534.420288
v 612.014099 3166.473389 1534.420288
v 680.059387 3245.633789 1534.120239
v 680.291321 3245.885742 1534.450195
v 682.324768 3243.548096 1534.120239
v 680.291321 3245.885742 1534.450195
v 682.556763 3243.800049 1534.450195
v 682.324768 3243.548096 1534.120239
v 680.291321 3245.885742 1534.450195
v 680.291077 3245.885254 1648.780884
v 682.556763 3243.800049 1534.450195
v 680.291077 3245.885254 1648.780884
v 682.556763 3243.799805 1648.780884
v 682.556763 3243.800049 1534.450195
v 682.556763 3243.800049 1534.450195
v 682.635559 3243.398438 1534.353638
v 682.324768 3243.548096 1534.120239
v 682.556763 3243.800049 1534.450195
v 682.556763 3243.799805 1648.780884
v 682.635498 3243.398438 1648.877563
v 682.635559 3243.398438 1534.353638
v 682.556763 3243.800049 1534.450195
v 682.635498 3243.398438 1648.877563
v 682.324768 3243.547852 1649.110962
v 682.635498 3243.398438 1648.877563
v 682.556763 3243.799805 1648.780884
v 682.635559 3243.398438 1534.353638
v 682.635498 3243.398438 1648.877563
v 679.172302 3239.635742 1539.280396
v 682.635498 3243.398438 1648.877563
v 679.172241 3239.635742 1643.950684
v 679.172302 3239.635742 1539.280396
v 678.765442 3239.681152 1643.387329
v 679.172241 3239.635742 1643.950684
v 678.533447 3239.428955 1643.717407
v 679.172241 3239.635742 1643.950684
v 678.765442 3239.681152 1643.387329
v 679.172302 3239.635742 1539.280396
v 676.499756 3241.766113 1643.387329
v 676.500000 3241.766846 1539.843750
v 678.765442 3239.681152 1643.387329
v 678.765442 3239.681152 1643.387329
v 678.765503 3239.680908 1539.843750
v 679.172302 3239.635742 1539.280396
v 676.500000 3241.766846 1539.843750
v 678.765503 3239.680908 1539.843750
v 678.765442 3239.681152 1643.387329
v 678.533569 3239.428955 1539.513794
v 679.172302 3239.635742 1539.280396
v 678.765503 3239.680908 1539.843750
v 676.500000 3241.766846 1539.843750
v 676.268066 3241.514648 1539.513794
v 678.765503 3239.680908 1539.843750
v 676.268066 3241.514648 1539.513794
v 678.533569 3239.428955 1539.513794
v 678.765503 3239.680908 1539.843750
v 680.291077 3245.885254 1648.780884
v 680.059143 3245.633301 1649.110962
v 682.556763 3243.799805 1648.780884
v 680.059143 3245.633301 1649.110962
v 682.324768 3243.547852 1649.110962
v 682.556763 3243.799805 1648.780884
v 680.059143 3245.633301 1649.110962
v 645.083923 3207.633301 1649.110962
v 682.324768 3243.547852 1649.110962
v 645.083923 3207.633301 1649.110962
v 647.350403 3205.548828 1649.110962
v 682.324768 3243.547852 1649.110962
v 647.350403 3205.548828 1649.110962
v 645.083923 3207.633301 1649.110962
v 644.851929 3207.381348 1648.780884
v 647.118408 3205.297119 1648.780884
v 647.350403 3205.548828 1649.110962
v 644.851929 3207.381348 1648.780884
v 682.324768 3243.547852 1649.110962
v 647.350403 3205.548828 1649.110962
v 647.525391 3205.251709 1648.877563
v 682.635498 3243.398438 1648.877563
v 682.324768 3243.547852 1649.110962
v 647.525391 3205.251709 1648.877563
v 682.635498 3243.398438 1648.877563
v 647.525391 3205.251709 1648.877563
v 679.172241 3239.635742 1643.950684
v 647.525391 3205.251709 1648.877563
v 650.988403 3209.014404 1643.950684
v 679.172241 3239.635742 1643.950684
v 650.988403 3209.014404 1643.950684
v 651.141602 3209.668213 1643.717407
v 679.172241 3239.635742 1643.950684
v 651.141602 3209.668213 1643.717407
v 678.533447 3239.428955 1643.717407
v 679.172241 3239.635742 1643.950684
v 676.267761 3241.514404 1643.717407
v 678.533447 3239.428955 1643.717407
v 651.141602 3209.668213 1643.717407
v 648.875916 3211.753662 1643.717407
v 676.267761 3241.514404 1643.717407
v 651.141602 3209.668213 1643.717407
v 648.874084 3211.751709 1539.513794
v 648.642090 3211.499756 1539.843750
v 651.139648 3209.665771 1539.513794
v 648.642090 3211.499756 1539.843750
v 650.907715 3209.413818 1539.843750
v 651.139648 3209.665771 1539.513794
v 648.642090 3211.499756 1539.843750
v 648.643921 3211.501465 1643.387329
v 650.907715 3209.413818 1539.843750
v 648.643921 3211.501465 1643.387329
v 650.909668 3209.416016 1643.387329
v 650.907715 3209.413818 1539.843750
v 650.907715 3209.413818 1539.843750
v 650.986389 3209.011963 1539.280518
v 651.139648 3209.665771 1539.513794
v 650.907715 3209.413818 1539.843750
v 650.909668 3209.416016 1643.387329
v 650.988403 3209.014404 1643.950684
v 650.986389 3209.011963 1539.280518
v 650.907715 3209.413818 1539.843750
v 650.988403 3209.014404 1643.950684
v 651.141602 3209.668213 1643.717407
v 650.988403 3209.014404 1643.950684
v 650.909668 3209.416016 1643.387329
v 647.522766 3205.249023 1534.353516
v 650.986389 3209.011963 1539.280518
v 650.988403 3209.014404 1643.950684
v 647.525391 3205.251709 1648.877563
v 647.522766 3205.249023 1534.353516
v 650.988403 3209.014404 1643.950684
v 647.350403 3205.548828 1649.110962
v 647.118408 3205.297119 1648.780884
v 647.525391 3205.251709 1648.877563
v 647.525391 3205.251709 1648.877563
v 647.118408 3205.297119 1648.780884
v 647.522766 3205.249023 1534.353516
v 647.118408 3205.297119 1648.780884
v 644.851929 3207.381348 1648.780884
v 644.849426 3207.378906 1534.450195
v 647.118408 3205.297119 1648.780884
v 647.115845 3205.294189 1534.450195
v 647.522766 3205.249023 1534.353516
v 647.115845 3205.294189 1534.450195
v 647.118408 3205.297119 1648.780884
v 644.849426 3207.378906 1534.450195
v 647.522766 3205.249023 1534.353516
v 647.115845 3205.294189 1534.450195
v 647.347839 3205.546143 1534.120239
v 644.849426 3207.378906 1534.450195
v 645.081360 3207.630859 1534.120239
v 647.115845 3205.294189 1534.450195
v 645.081360 3207.630859 1534.120239
v 647.347839 3205.546143 1534.120239
v 647.115845 3205.294189 1534.450195
v 442.301605 2984.136230 1539.513794
v 414.865509 2954.327393 1539.513794
v 444.589172 2982.030273 1539.513794
v 414.865509 2954.327393 1539.513794
v 417.153137 2952.221191 1539.513794
v 444.589172 2982.030273 1539.513794
v 444.589172 2982.030273 1539.513794
v 417.153137 2952.221191 1539.513794
v 417.013855 2951.626953 1539.301636
v 445.169891 2982.218018 1539.301636
v 444.589172 2982.030273 1539.513794
v 417.013855 2951.626953 1539.301636
v 448.662933 2986.013428 1534.332397
v 445.169891 2982.218018 1539.301636
v 417.013855 2951.626953 1539.301636
v 413.520325 2947.831543 1534.332397
v 448.662933 2986.013428 1534.332397
v 417.013855 2951.626953 1539.301636
v 413.520325 2947.831543 1534.332397
v 413.361267 2948.101807 1534.120239
v 448.662933 2986.013428 1534.332397
v 413.361267 2948.101807 1534.120239
v 448.591278 2986.378662 1534.120239
v 448.662933 2986.013428 1534.332397
v 448.591278 2986.378662 1534.120239
v 413.361267 2948.101807 1534.120239
v 412.272217 2949.103271 1534.120239
v 411.072784 2950.206787 1534.120239
v 446.092987 2988.255371 1534.120239
v 412.272217 2949.103271 1534.120239
v 446.092987 2988.255371 1534.120239
v 447.291748 2987.151123 1534.120239
v 412.272217 2949.103271 1534.120239
v 447.723358 2987.177246 1534.120239
v 448.591278 2986.378662 1534.120239
v 412.272217 2949.103271 1534.120239
v 447.291748 2987.151123 1534.120239
v 447.723358 2987.177246 1534.120239
v 412.272217 2949.103271 1534.120239
v 448.591278 2986.378662 1534.120239
v 447.723358 2987.177246 1534.120239
v 449.403687 2987.261230 1534.120239
v 447.723358 2987.177246 1534.120239
v 448.535706 2988.059814 1534.120239
v 449.403687 2987.261230 1534.120239
v 447.713470 2987.609375 1534.420288
v 447.723358 2987.177246 1534.120239
v 447.291748 2987.151123 1534.120239
v 447.281921 2987.583496 1534.420288
v 447.713470 2987.609375 1534.420288
v 447.291748 2987.151123 1534.120239
v 414.867310 2954.329834 1643.717407
v 442.301361 2984.136230 1643.717407
v 417.155090 2952.223633 1643.717407
v 442.301361 2984.136230 1643.717407
v 444.589111 2982.030518 1643.717407
v 417.155090 2952.223633 1643.717407
v 417.155090 2952.223633 1643.717407
v 444.589111 2982.030518 1643.717407
v 445.169800 2982.218262 1643.929443
v 417.015808 2951.629395 1643.929443
v 417.155090 2952.223633 1643.717407
v 445.169800 2982.218262 1643.929443
v 413.522949 2947.834473 1648.898804
v 417.015808 2951.629395 1643.929443
v 445.169800 2982.218262 1643.929443
v 448.662933 2986.013428 1648.898804
v 413.522949 2947.834473 1648.898804
v 445.169800 2982.218262 1643.929443
v 448.662933 2986.013428 1648.898804
v 448.591278 2986.378662 1649.110962
v 413.522949 2947.834473 1648.898804
v 448.591278 2986.378662 1649.110962
v 413.363892 2948.104736 1649.110962
v 413.522949 2947.834473 1648.898804
v 413.152985 2947.875488 1648.810913
v 413.363892 2948.104736 1649.110962
v 412.063904 2948.876953 1648.810913
v 413.363892 2948.104736 1649.110962
v 412.274811 2949.105957 1649.110962
v 412.063904 2948.876953 1648.810913
v 412.063904 2948.876953 1648.810913
v 412.274811 2949.105957 1649.110962
v 410.864441 2949.980225 1648.810913
v 412.274811 2949.105957 1649.110962
v 411.075348 2950.209229 1649.110962
v 410.864441 2949.980225 1648.810913
v 412.274811 2949.105957 1649.110962
v 413.363892 2948.104736 1649.110962
v 447.291626 2987.151123 1649.110962
v 411.075348 2950.209229 1649.110962
v 412.274811 2949.105957 1649.110962
v 447.291626 2987.151123 1649.110962
v 413.363892 2948.104736 1649.110962
v 448.591278 2986.378662 1649.110962
v 447.291626 2987.151123 1649.110962
v 446.092743 2988.255127 1649.110962
v 411.075348 2950.209229 1649.110962
v 447.291626 2987.151123 1649.110962
v 446.303589 2988.484131 1648.810913
v 446.092743 2988.255127 1649.110962
v 447.281799 2987.583252 1648.810913
v 446.092743 2988.255127 1649.110962
v 447.291626 2987.151123 1649.110962
v 447.281799 2987.583252 1648.810913
v 447.291626 2987.151123 1649.110962
v 447.723267 2987.177246 1649.110962
v 447.281799 2987.583252 1648.810913
v 448.591278 2986.378662 1649.110962
v 447.723267 2987.177246 1649.110962
v 447.291626 2987.151123 1649.110962
v 447.723267 2987.177246 1649.110962
v 447.713379 2987.609375 1648.810913
v 447.281799 2987.583252 1648.810913
v 447.713379 2987.609375 1648.810913
v 447.723267 2987.177246 1649.110962
v 448.314880 2988.262939 1648.810913
v 447.723267 2987.177246 1649.110962
v 448.535645 2988.059814 1649.110962
v 448.314880 2988.262939 1648.810913
v 447.723267 2987.177246 1649.110962
v 448.591278 2986.378662 1649.110962
v 448.535645 2988.059814 1649.110962
v 448.591278 2986.378662 1649.110962
v 449.403687 2987.261230 1649.110962
v 448.535645 2988.059814 1649.110962
v 448.535645 2988.059814 1649.110962
v 449.403687 2987.261230 1649.110962
v 449.614532 2987.490234 1648.810913
v 448.746521 2988.288818 1648.810913
v 448.535645 2988.059814 1649.110962
v 449.614532 2987.490234 1648.810913
v 445.128632 2990.031494 1534.120239
v 480.106659 3028.034424 1534.120239
v 447.395050 2987.946777 1534.120239
v 480.106659 3028.034424 1534.120239
v 482.372070 3025.948975 1534.120239
v 447.395050 2987.946777 1534.120239
v 447.395050 2987.946777 1534.120239
v 482.372070 3025.948975 1534.120239
v 482.682800 3025.799072 1534.353638
v 447.570007 2987.649658 1534.353516
v 447.395050 2987.946777 1534.120239
v 482.682800 3025.799072 1534.353638
v 447.570007 2987.649658 1534.353516
v 482.682800 3025.799072 1534.353638
v 451.033661 2991.412598 1539.280518
v 482.682800 3025.799072 1534.353638
v 479.219574 3022.036133 1539.280396
v 451.033661 2991.412598 1539.280518
v 479.219574 3022.036133 1539.280396
v 478.580750 3021.829590 1539.513794
v 451.033661 2991.412598 1539.280518
v 478.580750 3021.829590 1539.513794
v 451.186920 2992.066406 1539.513794
v 451.033661 2991.412598 1539.280518
v 448.921356 2994.152100 1539.513794
v 451.186920 2992.066406 1539.513794
v 478.580750 3021.829590 1539.513794
v 476.315277 3023.915283 1539.513794
v 448.921356 2994.152100 1539.513794
v 478.580750 3021.829590 1539.513794
v 642.254395 3201.735596 1539.513794
v 614.818237 3171.926758 1539.513794
v 644.541931 3199.629639 1539.513794
v 614.818237 3171.926758 1539.513794
v 617.105835 3169.820557 1539.513794
v 644.541931 3199.629639 1539.513794
v 644.541931 3199.629639 1539.513794
v 617.105835 3169.820557 1539.513794
v 616.966553 3169.226318 1539.301636
v 645.122620 3199.817627 1539.301636
v 644.541931 3199.629639 1539.513794
v 616.966553 3169.226318 1539.301636
v 648.615723 3203.612793 1534.332397
v 645.122620 3199.817627 1539.301636
v 616.966553 3169.226318 1539.301636
v 613.473083 3165.430908 1534.332397
v 648.615723 3203.612793 1534.332397
v 616.966553 3169.226318 1539.301636
v 613.473083 3165.430908 1534.332397
v 613.314026 3165.701172 1534.120239
v 648.615723 3203.612793 1534.332397
v 613.314026 3165.701172 1534.120239
v 648.544067 3203.978027 1534.120239
v 648.615723 3203.612793 1534.332397
v 648.544067 3203.978027 1534.120239
v 613.314026 3165.701172 1534.120239
v 612.224976 3166.702637 1534.120239
v 611.025574 3167.805908 1534.120239
v 646.045715 3205.854736 1534.120239
v 612.224976 3166.702637 1534.120239
v 646.045715 3205.854736 1534.120239
v 647.244446 3204.750732 1534.120239
v 612.224976 3166.702637 1534.120239
v 647.676147 3204.776611 1534.120239
v 648.544067 3203.978027 1534.120239
v 612.224976 3166.702637 1534.120239
v 647.244446 3204.750732 1534.120239
v 647.676147 3204.776611 1534.120239
v 612.224976 3166.702637 1534.120239
v 648.544067 3203.978027 1534.120239
v 647.676147 3204.776611 1534.120239
v 649.356384 3204.860596 1534.120239
v 647.676147 3204.776611 1534.120239
v 648.488464 3205.659180 1534.120239
v 649.356384 3204.860596 1534.120239
v 647.666260 3205.208740 1534.420288
v 647.676147 3204.776611 1534.120239
v 647.244446 3204.750732 1534.120239
v 647.234680 3205.182861 1534.420288
v 647.666260 3205.208740 1534.420288
v 647.244446 3204.750732 1534.120239
v 614.820068 3171.928955 1643.717407
v 642.254089 3201.735352 1643.717407
v 617.107849 3169.822754 1643.717407
v 642.254089 3201.735352 1643.717407
v 644.541870 3199.629639 1643.717407
v 617.107849 3169.822754 1643.717407
v 617.107849 3169.822754 1643.717407
v 644.541870 3199.629639 1643.717407
v 645.122559 3199.817383 1643.929443
v 616.968567 3169.228516 1643.929443
v 617.107849 3169.822754 1643.717407
v 645.122559 3199.817383 1643.929443
v 613.475708 3165.433594 1648.898804
v 616.968567 3169.228516 1643.929443
v 645.122559 3199.817383 1643.929443
v 648.615662 3203.612549 1648.898804
v 613.475708 3165.433594 1648.898804
v 645.122559 3199.817383 1643.929443
v 648.615662 3203.612549 1648.898804
v 648.544006 3203.977783 1649.110962
v 613.475708 3165.433594 1648.898804
v 648.544006 3203.977783 1649.110962
v 613.316650 3165.703857 1649.110962
v 613.475708 3165.433594 1648.898804
v 613.105713 3165.474609 1648.810913
v 613.316650 3165.703857 1649.110962
v 612.016663 3166.476074 1648.810913
v 613.316650 3165.703857 1649.110962
v 612.227539 3166.705078 1649.110962
v 612.016663 3166.476074 1648.810913
v 612.016663 3166.476074 1648.810913
v 612.227539 3166.705078 1649.110962
v 610.817200 3167.579590 1648.810913
v 612.227539 3166.705078 1649.110962
v 611.028076 3167.808350 1649.110962
v 610.817200 3167.579590 1648.810913
v 612.227539 3166.705078 1649.110962
v 613.316650 3165.703857 1649.110962
v 647.244324 3204.750244 1649.110962
v 611.028076 3167.808350 1649.110962
v 612.227539 3166.705078 1649.110962
v 647.244324 3204.750244 1649.110962
v 613.316650 3165.703857 1649.110962
v 648.544006 3203.977783 1649.110962
v 647.244324 3204.750244 1649.110962
v 646.045471 3205.854248 1649.110962
v 611.028076 3167.808350 1649.110962
v 647.244324 3204.750244 1649.110962
v 646.256348 3206.083252 1648.810913
v 646.045471 3205.854248 1649.110962
v 647.234558 3205.182373 1648.810913
v 646.045471 3205.854248 1649.110962
v 647.244324 3204.750244 1649.110962
v 647.234558 3205.182373 1648.810913
v 647.244324 3204.750244 1649.110962
v 647.676025 3204.776367 1649.110962
v 647.234558 3205.182373 1648.810913
v 648.544006 3203.977783 1649.110962
v 647.676025 3204.776367 1649.110962
v 647.244324 3204.750244 1649.110962
v 647.676025 3204.776367 1649.110962
v 647.666138 3205.208496 1648.810913
v 647.234558 3205.182373 1648.810913
v 647.666138 3205.208496 1648.810913
v 647.676025 3204.776367 1649.110962
v 648.267639 3205.862061 1648.810913
v 647.676025 3204.776367 1649.110962
v 648.488403 3205.658936 1649.110962
v 648.267639 3205.862061 1648.810913
v 647.676025 3204.776367 1649.110962
v 648.544006 3203.977783 1649.110962
v 648.488403 3205.658936 1649.110962
v 648.544006 3203.977783 1649.110962
v 649.356384 3204.860352 1649.110962
v 648.488403 3205.658936 1649.110962
v 648.488403 3205.658936 1649.110962
v 649.356384 3204.860352 1649.110962
v 649.567261 3205.089355 1648.810913
v 648.699219 3205.887939 1648.810913
v 648.488403 3205.658936 1649.110962
v 649.567261 3205.089355 1648.810913
v 645.081360 3207.630859 1534.120239
v 680.059387 3245.633789 1534.120239
v 647.347839 3205.546143 1534.120239
v 680.059387 3245.633789 1534.120239
v 682.324768 3243.548096 1534.120239
v 647.347839 3205.546143 1534.120239
v 647.347839 3205.546143 1534.120239
v 682.324768 3243.548096 1534.120239
v 682.635559 3243.398438 1534.353638
v 647.522766 3205.249023 1534.353516
v 647.347839 3205.546143 1534.120239
v 682.635559 3243.398438 1534.353638
v 647.522766 3205.249023 1534.353516
v 682.635559 3243.398438 1534.353638
v 650.986389 3209.011963 1539.280518
v 682.635559 3243.398438 1534.353638
v 679.172302 3239.635742 1539.280396
v 650.986389 3209.011963 1539.280518
v 679.172302 3239.635742 1539.280396
v 678.533569 3239.428955 1539.513794
v 650.986389 3209.011963 1539.280518
v 678.533569 3239.428955 1539.513794
v 651.139648 3209.665771 1539.513794
v 650.986389 3209.011963 1539.280518
v 648.874084 3211.751709 1539.513794
v 651.139648 3209.665771 1539.513794
v 678.533569 3239.428955 1539.513794
v 676.268066 3241.514648 1539.513794
v 648.874084 3211.751709 1539.513794
v 678.533569 3239.428955 1539.513794
vt -0.204956 1.371338
vt -0.204956 1.584473
vt -0.597168 1.371338
vt -0.204956 1.584473
vt -0.596191 1.584473
vt -0.597168 1.371338
vt 1.188477 0.405762
vt 1.188477 0.401855
vt 1.228516 0.405762
vt 1.188477 0.401855
vt 1.229492 0.401855
vt 1.228516 0.405762
vt 1.188477 -0.100586
vt 1.188477 -0.104492
vt 1.228516 -0.100586
vt 1.188477 -0.104492
vt 1.228516 -0.104492
vt 1.228516 -0.100586
vt 1.955078 2.545898
vt 1.955078 2.541016
vt 1.995117 2.545898
vt 1.955078 2.541016
vt 1.995117 2.541016
vt 1.995117 2.545898
vt 1.955078 2.040039
vt 1.955078 2.035156
vt 1.995117 2.040039
vt 1.955078 2.035156
vt 1.995117 2.035156
vt 1.995117 2.040039
vt 1.188477 0.405762
vt 1.188477 0.401855
vt 1.228516 0.405762
vt 1.188477 0.401855
vt 1.229492 0.401855
vt 1.228516 0.405762
vt 1.188477 -0.100586
vt 1.188477 -0.104492
vt 1.228516 -0.100586
vt 1.188477 -0.104492
vt 1.228516 -0.104492
vt 1.228516 -0.100586
vt 1.955078 2.545898
vt 1.955078 2.541016
vt 1.995117 2.545898
vt 1.955078 2.541016
vt 1.995117 2.541016
vt 1.995117 2.545898
vt 1.955078 2.040039
vt 1.955078 2.035156
vt 1.995117 2.040039
vt 1.955078 2.035156
vt 1.995117 2.035156
vt 1.995117 2.040039
vt -0.180908 -0.243164
vt -0.177002 -0.243164
vt -0.180908 -0.222656
vt -0.177002 -0.243164
vt -0.177002 -0.226562
vt -0.180908 -0.222656
vt -0.177002 -0.243164
vt 1.295898 -0.243164
vt -0.177002 -0.226562
vt 1.295898 -0.243164
vt 1.295898 -0.226562
vt -0.177002 -0.226562
vt -0.177002 -0.226562
vt 1.295898 -0.226562
vt 1.295898 -0.222656
vt -0.177002 -0.222656
vt -0.177002 -0.226562
vt 1.295898 -0.222656
vt -0.180908 -0.226562
vt -0.177002 -0.222656
vt -0.180908 -0.211914
vt -0.177002 -0.222656
vt -0.177002 -0.211914
vt -0.180908 -0.211914
vt -0.177002 -0.222656
vt 1.295898 -0.222656
vt -0.177002 -0.211914
vt 1.295898 -0.222656
vt 1.295898 -0.211914
vt -0.177002 -0.211914
vt 1.299805 -0.209961
vt 1.295898 -0.207031
vt 1.295898 -0.211914
vt -0.177002 -0.211914
vt 1.295898 -0.211914
vt 1.295898 -0.207031
vt -0.177002 -0.207031
vt -0.177002 -0.211914
vt 1.295898 -0.207031
vt -0.177002 -0.211914
vt -0.177002 -0.207031
vt -0.181030 -0.209961
vt 1.295898 -0.207031
vt 1.294922 -0.192383
vt -0.177002 -0.207031
vt -0.180908 -0.192383
vt -0.180908 -0.208008
vt -0.177002 -0.207031
vt -0.177002 -0.192383
vt -0.180908 -0.192383
vt -0.177002 -0.207031
vt 1.294922 -0.192383
vt -0.177002 -0.192383
vt -0.177002 -0.207031
vt 1.295898 -0.188477
vt 1.294922 -0.192383
vt 1.299805 -0.191406
vt 1.294922 -0.192383
vt 1.295898 -0.188477
vt -0.177002 -0.192383
vt -0.181030 -0.190430
vt -0.177002 -0.192383
vt -0.177002 -0.188477
vt 1.295898 -0.188477
vt -0.177002 -0.188477
vt -0.177002 -0.192383
vt -0.181519 -0.173828
vt -0.180908 -0.188477
vt -0.177002 -0.188477
vt -0.177002 -0.173828
vt -0.181519 -0.173828
vt -0.177002 -0.188477
vt -0.177002 -0.173828
vt -0.177002 -0.188477
vt 1.295898 -0.188477
vt -0.177002 -0.173828
vt -0.178101 -0.170898
vt -0.181519 -0.173828
vt -0.178101 -0.170898
vt -0.177002 -0.173828
vt -0.114258 -0.107422
vt 1.295898 -0.173828
vt -0.177002 -0.173828
vt 1.295898 -0.188477
vt -0.177002 -0.173828
vt 1.295898 -0.173828
vt -0.114258 -0.107422
vt 1.295898 -0.173828
vt 1.295898 -0.188477
vt 1.300781 -0.188477
vt 1.300781 -0.173828
vt 1.295898 -0.173828
vt 1.300781 -0.188477
vt 1.295898 -0.173828
vt 1.300781 -0.173828
vt 1.296875 -0.170898
vt 1.295898 -0.173828
vt 1.296875 -0.170898
vt -0.114258 -0.107422
vt 1.296875 -0.170898
vt 1.232422 -0.107422
vt -0.114258 -0.107422
vt 1.226562 -0.103516
vt 1.232422 -0.107422
vt 1.228516 -0.100586
vt 1.232422 -0.107422
vt 1.226562 -0.103516
vt -0.114258 -0.107422
vt 1.225586 -0.063477
vt -0.107605 -0.063477
vt 1.226562 -0.103516
vt 1.226562 -0.103516
vt -0.107544 -0.103516
vt -0.114258 -0.107422
vt -0.107605 -0.063477
vt -0.107544 -0.103516
vt 1.226562 -0.103516
vt -0.110962 -0.099609
vt -0.114258 -0.107422
vt -0.107544 -0.103516
vt -0.107605 -0.063477
vt -0.111450 -0.063477
vt -0.107544 -0.103516
vt -0.111450 -0.063477
vt -0.111450 -0.103516
vt -0.107544 -0.103516
vt -0.111450 0.364746
vt -0.107605 0.364746
vt -0.111450 0.404785
vt -0.107605 0.364746
vt -0.107666 0.404785
vt -0.111450 0.404785
vt -0.107605 0.364746
vt 1.225586 0.364746
vt -0.107666 0.404785
vt 1.225586 0.364746
vt 1.225586 0.404785
vt -0.107666 0.404785
vt -0.107666 0.404785
vt -0.114136 0.408691
vt -0.111267 0.401855
vt -0.107666 0.404785
vt 1.225586 0.404785
vt 1.232422 0.408691
vt -0.114136 0.408691
vt -0.107666 0.404785
vt 1.232422 0.408691
vt 1.229492 0.401855
vt 1.232422 0.408691
vt 1.225586 0.404785
vt -0.178101 0.472656
vt -0.114136 0.408691
vt 1.232422 0.408691
vt 1.296875 0.472656
vt -0.178101 0.472656
vt 1.232422 0.408691
vt 1.300781 0.471191
vt 1.295898 0.476562
vt 1.296875 0.472656
vt 1.296875 0.472656
vt 1.295898 0.476562
vt -0.178101 0.472656
vt -0.178101 0.472656
vt -0.177002 0.476562
vt -0.182007 0.471680
vt 1.295898 0.476562
vt -0.177002 0.476562
vt -0.178101 0.472656
vt -0.180908 0.495605
vt -0.180908 0.476562
vt -0.177002 0.476562
vt -0.177002 0.476562
vt 1.295898 0.476562
vt -0.177002 0.495605
vt -0.177002 0.495605
vt -0.180908 0.495605
vt -0.177002 0.476562
vt 1.295898 0.476562
vt 1.295898 0.495605
vt -0.177002 0.495605
vt -0.180908 0.516357
vt -0.180908 0.495605
vt -0.177002 0.495605
vt 1.295898 0.495605
vt 1.295898 0.516357
vt -0.177002 0.495605
vt -0.177002 0.516357
vt -0.180908 0.516357
vt -0.177002 0.495605
vt 1.295898 0.516357
vt -0.177002 0.516357
vt -0.177002 0.495605
vt 0.585449 1.925293
vt 0.589844 1.925293
vt 0.585449 1.964844
vt 0.589844 1.925293
vt 0.589844 1.964844
vt 0.585449 1.964844
vt 0.589844 1.925293
vt 2.060547 1.925293
vt 0.589844 1.964844
vt 2.060547 1.925293
vt 2.060547 1.964844
vt 0.589844 1.964844
vt 0.589844 1.964844
vt 0.588379 1.969238
vt 0.583496 1.970215
vt 0.589844 1.964844
vt 2.060547 1.964844
vt 2.062500 1.969238
vt 0.588379 1.969238
vt 0.589844 1.964844
vt 2.062500 1.969238
vt 2.066406 1.970215
vt 2.062500 1.969238
vt 2.060547 1.964844
vt 0.588379 1.969238
vt 2.062500 1.969238
vt 0.651367 2.032227
vt 2.062500 1.969238
vt 1.999023 2.032227
vt 0.651367 2.032227
vt 1.992188 2.036133
vt 1.999023 2.032227
vt 1.995117 2.040039
vt 1.999023 2.032227
vt 1.992188 2.036133
vt 0.651367 2.032227
vt 1.992188 2.076172
vt 0.659180 2.076172
vt 1.992188 2.036133
vt 1.992188 2.036133
vt 0.659180 2.037109
vt 0.651367 2.032227
vt 0.659180 2.076172
vt 0.659180 2.037109
vt 1.992188 2.036133
vt 0.655273 2.040039
vt 0.651367 2.032227
vt 0.659180 2.037109
vt 0.659180 2.076172
vt 0.654785 2.076172
vt 0.659180 2.037109
vt 0.654785 2.076172
vt 0.654785 2.036133
vt 0.659180 2.037109
vt 2.912109 2.661133
vt 2.908203 2.661133
vt 2.912109 2.621094
vt 2.908203 2.661133
vt 2.908203 2.621094
vt 2.912109 2.621094
vt 2.908203 2.661133
vt 2.267578 2.661133
vt 2.908203 2.621094
vt 2.267578 2.661133
vt 2.267578 2.621094
vt 2.908203 2.621094
vt 2.267578 2.621094
vt 2.267578 2.661133
vt 2.263672 2.661133
vt 2.263672 2.621094
vt 2.267578 2.621094
vt 2.263672 2.661133
vt 2.908203 2.621094
vt 2.267578 2.621094
vt 2.265625 2.617188
vt 2.910156 2.617188
vt 2.908203 2.621094
vt 2.265625 2.617188
vt 2.910156 2.617188
vt 2.265625 2.617188
vt 2.845703 2.553711
vt 2.265625 2.617188
vt 2.330078 2.553711
vt 2.845703 2.553711
vt 2.330078 2.553711
vt 2.337891 2.549805
vt 2.845703 2.553711
vt 2.337891 2.549805
vt 2.839844 2.549805
vt 2.845703 2.553711
vt 2.839844 2.509766
vt 2.839844 2.549805
vt 2.337891 2.549805
vt 2.337891 2.509766
vt 2.839844 2.509766
vt 2.337891 2.549805
vt 0.654297 2.504883
vt 0.658691 2.504883
vt 0.654297 2.543945
vt 0.658691 2.504883
vt 0.658691 2.543945
vt 0.654297 2.543945
vt 0.658691 2.504883
vt 1.992188 2.504883
vt 0.658691 2.543945
vt 1.992188 2.504883
vt 1.992188 2.545898
vt 0.658691 2.543945
vt 0.658691 2.543945
vt 0.651367 2.548828
vt 0.654785 2.541016
vt 0.658691 2.543945
vt 1.992188 2.545898
vt 1.999023 2.548828
vt 0.651367 2.548828
vt 0.658691 2.543945
vt 1.999023 2.548828
vt 1.995117 2.541016
vt 1.999023 2.548828
vt 1.992188 2.545898
vt 0.587891 2.612305
vt 0.651367 2.548828
vt 1.999023 2.548828
vt 2.062500 2.612305
vt 0.587891 2.612305
vt 1.999023 2.548828
vt 2.066406 2.610352
vt 2.060547 2.616211
vt 2.062500 2.612305
vt 2.062500 2.612305
vt 2.060547 2.616211
vt 0.587891 2.612305
vt 2.060547 2.616211
vt 2.060547 2.656250
vt 0.589355 2.656250
vt 2.060547 2.616211
vt 0.589355 2.616211
vt 0.587891 2.612305
vt 0.589355 2.616211
vt 2.060547 2.616211
vt 0.589355 2.656250
vt 0.587891 2.612305
vt 0.589355 2.616211
vt 0.583496 2.611328
vt 0.589355 2.656250
vt 0.584961 2.656250
vt 0.589355 2.616211
vt 0.584961 2.656250
vt 0.584961 2.616211
vt 0.589355 2.616211
vt -0.180908 -0.243164
vt -0.177002 -0.243164
vt -0.180908 -0.222656
vt -0.177002 -0.243164
vt -0.177002 -0.226562
vt -0.180908 -0.222656
vt -0.177002 -0.243164
vt 1.295898 -0.243164
vt -0.177002 -0.226562
vt 1.295898 -0.243164
vt 1.295898 -0.226562
vt -0.177002 -0.226562
vt -0.177002 -0.226562
vt 1.295898 -0.226562
vt 1.295898 -0.222656
vt -0.177002 -0.222656
vt -0.177002 -0.226562
vt 1.295898 -0.222656
vt -0.180908 -0.226562
vt -0.177002 -0.222656
vt -0.180908 -0.211914
vt -0.177002 -0.222656
vt -0.177002 -0.211914
vt -0.180908 -0.211914
vt -0.177002 -0.222656
vt 1.295898 -0.222656
vt -0.177002 -0.211914
vt 1.295898 -0.222656
vt 1.295898 -0.211914
vt -0.177002 -0.211914
vt 1.299805 -0.209961
vt 1.295898 -0.207031
vt 1.295898 -0.211914
vt -0.177002 -0.211914
vt 1.295898 -0.211914
vt 1.295898 -0.207031
vt -0.177002 -0.207031
vt -0.177002 -0.211914
vt 1.295898 -0.207031
vt -0.177002 -0.211914
vt -0.177002 -0.207031
vt -0.181030 -0.209961
vt 1.295898 -0.207031
vt 1.294922 -0.192383
vt -0.177002 -0.207031
vt -0.180908 -0.192383
vt -0.180908 -0.208008
vt -0.177002 -0.207031
vt -0.177002 -0.192383
vt -0.180908 -0.192383
vt -0.177002 -0.207031
vt 1.294922 -0.192383
vt -0.177002 -0.192383
vt -0.177002 -0.207031
vt 1.295898 -0.188477
vt 1.294922 -0.192383
vt 1.299805 -0.191406
vt 1.294922 -0.192383
vt 1.295898 -0.188477
vt -0.177002 -0.192383
vt -0.181030 -0.190430
vt -0.177002 -0.192383
vt -0.177002 -0.188477
vt 1.295898 -0.188477
vt -0.177002 -0.188477
vt -0.177002 -0.192383
vt -0.181519 -0.173828
vt -0.180908 -0.188477
vt -0.177002 -0.188477
vt -0.177002 -0.173828
vt -0.181519 -0.173828
vt -0.177002 -0.188477
vt -0.177002 -0.173828
vt -0.177002 -0.188477
vt 1.295898 -0.188477
vt -0.177002 -0.173828
vt -0.178101 -0.170898
vt -0.181519 -0.173828
vt -0.178101 -0.170898
vt -0.177002 -0.173828
vt -0.114258 -0.107422
vt 1.295898 -0.173828
vt -0.177002 -0.173828
vt 1.295898 -0.188477
vt -0.177002 -0.173828
vt 1.295898 -0.173828
vt -0.114258 -0.107422
vt 1.295898 -0.173828
vt 1.295898 -0.188477
vt 1.300781 -0.188477
vt 1.300781 -0.173828
vt 1.295898 -0.173828
vt 1.300781 -0.188477
vt 1.295898 -0.173828
vt 1.300781 -0.173828
vt 1.296875 -0.170898
vt 1.295898 -0.173828
vt 1.296875 -0.170898
vt -0.114258 -0.107422
vt 1.296875 -0.170898
vt 1.232422 -0.107422
vt -0.114258 -0.107422
vt 1.226562 -0.103516
vt 1.232422 -0.107422
vt 1.228516 -0.100586
vt 1.232422 -0.107422
vt 1.226562 -0.103516
vt -0.114258 -0.107422
vt 1.225586 -0.063477
vt -0.107605 -0.063477
vt 1.226562 -0.103516
vt 1.226562 -0.103516
vt -0.107544 -0.103516
vt -0.114258 -0.107422
vt -0.107605 -0.063477
vt -0.107544 -0.103516
vt 1.226562 -0.103516
vt -0.110962 -0.099609
vt -0.114258 -0.107422
vt -0.107544 -0.103516
vt -0.107605 -0.063477
vt -0.111450 -0.063477
vt -0.107544 -0.103516
vt -0.111450 -0.063477
vt -0.111450 -0.103516
vt -0.107544 -0.103516
vt -0.111450 0.364746
vt -0.107605 0.364746
vt -0.111450 0.404785
vt -0.107605 0.364746
vt -0.107666 0.404785
vt -0.111450 0.404785
vt -0.107605 0.364746
vt 1.225586 0.364746
vt -0.107666 0.404785
vt 1.225586 0.364746
vt 1.225586 0.404785
vt -0.107666 0.404785
vt -0.107666 0.404785
vt -0.114136 0.408691
vt -0.111267 0.401855
vt -0.107666 0.404785
vt 1.225586 0.404785
vt 1.232422 0.408691
vt -0.114136 0.408691
vt -0.107666 0.404785
vt 1.232422 0.408691
vt 1.229492 0.401855
vt 1.232422 0.408691
vt 1.225586 0.404785
vt -0.178101 0.472656
vt -0.114136 0.408691
vt 1.232422 0.408691
vt 1.296875 0.472656
vt -0.178101 0.472656
vt 1.232422 0.408691
vt 1.300781 0.471191
vt 1.295898 0.476562
vt 1.296875 0.472656
vt 1.296875 0.472656
vt 1.295898 0.476562
vt -0.178101 0.472656
vt -0.178101 0.472656
vt -0.177002 0.476562
vt -0.182007 0.471680
vt 1.295898 0.476562
vt -0.177002 0.476562
vt -0.178101 0.472656
vt -0.180908 0.495605
vt -0.180908 0.476562
vt -0.177002 0.476562
vt -0.177002 0.476562
vt 1.295898 0.476562
vt -0.177002 0.495605
vt -0.177002 0.495605
vt -0.180908 0.495605
vt -0.177002 0.476562
vt 1.295898 0.476562
vt 1.295898 0.495605
vt -0.177002 0.495605
vt -0.180908 0.516357
vt -0.180908 0.495605
vt -0.177002 0.495605
vt 1.295898 0.495605
vt 1.295898 0.516357
vt -0.177002 0.495605
vt -0.177002 0.516357
vt -0.180908 0.516357
vt -0.177002 0.495605
vt 1.295898 0.516357
vt -0.177002 0.516357
vt -0.177002 0.495605
vt 0.585449 1.925293
vt 0.589844 1.925293
vt 0.585449 1.964844
vt 0.589844 1.925293
vt 0.589844 1.964844
vt 0.585449 1.964844
vt 0.589844 1.925293
vt 2.060547 1.925293
vt 0.589844 1.964844
vt 2.060547 1.925293
vt 2.060547 1.964844
vt 0.589844 1.964844
vt 0.589844 1.964844
vt 0.588379 1.969238
vt 0.583496 1.970215
vt 0.589844 1.964844
vt 2.060547 1.964844
vt 2.062500 1.969238
vt 0.588379 1.969238
vt 0.589844 1.964844
vt 2.062500 1.969238
vt 2.066406 1.970215
vt 2.062500 1.969238
vt 2.060547 1.964844
vt 0.588379 1.969238
vt 2.062500 1.969238
vt 0.651367 2.032227
vt 2.062500 1.969238
vt 1.999023 2.032227
vt 0.651367 2.032227
vt 1.992188 2.036133
vt 1.999023 2.032227
vt 1.995117 2.040039
vt 1.999023 2.032227
vt 1.992188 2.036133
vt 0.651367 2.032227
vt 1.992188 2.076172
vt 0.659180 2.076172
vt 1.992188 2.036133
vt 1.992188 2.036133
vt 0.659180 2.037109
vt 0.651367 2.032227
vt 0.659180 2.076172
vt 0.659180 2.037109
vt 1.992188 2.036133
vt 0.655273 2.040039
vt 0.651367 2.032227
vt 0.659180 2.037109
vt 0.659180 2.076172
vt 0.654785 2.076172
vt 0.659180 2.037109
vt 0.654785 2.076172
vt 0.654785 2.036133
vt 0.659180 2.037109
vt 2.912109 2.661133
vt 2.908203 2.661133
vt 2.912109 2.621094
vt 2.908203 2.661133
vt 2.908203 2.621094
vt 2.912109 2.621094
vt 2.908203 2.661133
vt 2.267578 2.661133
vt 2.908203 2.621094
vt 2.267578 2.661133
vt 2.267578 2.621094
vt 2.908203 2.621094
vt 2.267578 2.621094
vt 2.267578 2.661133
vt 2.263672 2.661133
vt 2.263672 2.621094
vt 2.267578 2.621094
vt 2.263672 2.661133
vt 2.908203 2.621094
vt 2.267578 2.621094
vt 2.265625 2.617188
vt 2.910156 2.617188
vt 2.908203 2.621094
vt 2.265625 2.617188
vt 2.910156 2.617188
vt 2.265625 2.617188
vt 2.845703 2.553711
vt 2.265625 2.617188
vt 2.330078 2.553711
vt 2.845703 2.553711
vt 2.330078 2.553711
vt 2.337891 2.549805
vt 2.845703 2.553711
vt 2.337891 2.549805
vt 2.839844 2.549805
vt 2.845703 2.553711
vt 2.839844 2.509766
vt 2.839844 2.549805
vt 2.337891 2.549805
vt 2.337891 2.509766
vt 2.839844 2.509766
vt 2.337891 2.549805
vt 0.654297 2.504883
vt 0.658691 2.504883
vt 0.654297 2.543945
vt 0.658691 2.504883
vt 0.658691 2.543945
vt 0.654297 2.543945
vt 0.658691 2.504883
vt 1.992188 2.504883
vt 0.658691 2.543945
vt 1.992188 2.504883
vt 1.992188 2.545898
vt 0.658691 2.543945
vt 0.658691 2.543945
vt 0.651367 2.548828
vt 0.654785 2.541016
vt 0.658691 2.543945
vt 1.992188 2.545898
vt 1.999023 2.548828
vt 0.651367 2.548828
vt 0.658691 2.543945
vt 1.999023 2.548828
vt 1.995117 2.541016
vt 1.999023 2.548828
vt 1.992188 2.545898
vt 0.587891 2.612305
vt 0.651367 2.548828
vt 1.999023 2.548828
vt 2.062500 2.612305
vt 0.587891 2.612305
vt 1.999023 2.548828
vt 2.066406 2.610352
vt 2.060547 2.616211
vt 2.062500 2.612305
vt 2.062500 2.612305
vt 2.060547 2.616211
vt 0.587891 2.612305
vt 2.060547 2.616211
vt 2.060547 2.656250
vt 0.589355 2.656250
vt 2.060547 2.616211
vt 0.589355 2.616211
vt 0.587891 2.612305
vt 0.589355 2.616211
vt 2.060547 2.616211
vt 0.589355 2.656250
vt 0.587891 2.612305
vt 0.589355 2.616211
vt 0.583496 2.611328
vt 0.589355 2.656250
vt 0.584961 2.656250
vt 0.589355 2.616211
vt 0.584961 2.656250
vt 0.584961 2.616211
vt 0.589355 2.616211
vt 0.801270 -0.488281
vt 0.298584 -0.488281
vt 0.800781 -0.529297
vt 0.298584 -0.488281
vt 0.298828 -0.529297
vt 0.800781 -0.529297
vt 0.800781 -0.529297
vt 0.298828 -0.529297
vt 0.291992 -0.532227
vt 0.807617 -0.532227
vt 0.800781 -0.529297
vt 0.291992 -0.532227
vt 0.871582 -0.595703
vt 0.807617 -0.532227
vt 0.291992 -0.532227
vt 0.228027 -0.595703
vt 0.871582 -0.595703
vt 0.291992 -0.532227
vt 0.228027 -0.595703
vt 0.229248 -0.599609
vt 0.871582 -0.595703
vt 0.229248 -0.599609
vt 0.874512 -0.599609
vt 0.871582 -0.595703
vt 0.874512 -0.599609
vt 0.229248 -0.599609
vt 0.229248 -0.619141
vt 0.229248 -0.639648
vt 0.870605 -0.639648
vt 0.229248 -0.619141
vt 0.870605 -0.639648
vt 0.870605 -0.619141
vt 0.229248 -0.619141
vt 0.874512 -0.615234
vt 0.874512 -0.599609
vt 0.229248 -0.619141
vt 0.870605 -0.619141
vt 0.874512 -0.615234
vt 0.229248 -0.619141
vt 0.874512 -0.599609
vt 0.874512 -0.615234
vt 0.889160 -0.599609
vt 0.874512 -0.615234
vt 0.889160 -0.615234
vt 0.889160 -0.599609
vt 0.878418 -0.619141
vt 0.874512 -0.615234
vt 0.870605 -0.619141
vt 0.874512 -0.623047
vt 0.878418 -0.619141
vt 0.870605 -0.619141
vt 0.298584 0.770874
vt 0.801270 0.770874
vt 0.299072 0.811523
vt 0.801270 0.770874
vt 0.801270 0.810913
vt 0.299072 0.811523
vt 0.299072 0.811523
vt 0.801270 0.810913
vt 0.807617 0.814819
vt 0.291992 0.814819
vt 0.299072 0.811523
vt 0.807617 0.814819
vt 0.228149 0.878723
vt 0.291992 0.814819
vt 0.807617 0.814819
vt 0.871582 0.878723
vt 0.228149 0.878723
vt 0.807617 0.814819
vt 0.871582 0.878723
vt 0.874512 0.882812
vt 0.228149 0.878723
vt 0.874512 0.882812
vt 0.229248 0.882629
vt 0.228149 0.878723
vt 0.225342 0.882629
vt 0.229248 0.882629
vt 0.225342 0.901672
vt 0.229248 0.882629
vt 0.229248 0.901672
vt 0.225342 0.901672
vt 0.225342 0.901672
vt 0.229248 0.901672
vt 0.225342 0.922668
vt 0.229248 0.901672
vt 0.229248 0.922668
vt 0.225342 0.922668
vt 0.229248 0.901672
vt 0.229248 0.882629
vt 0.870605 0.901672
vt 0.229248 0.922668
vt 0.229248 0.901672
vt 0.870605 0.901672
vt 0.229248 0.882629
vt 0.874512 0.882812
vt 0.870605 0.901672
vt 0.870605 0.922668
vt 0.229248 0.922668
vt 0.870605 0.901672
vt 0.874512 0.922668
vt 0.870605 0.922668
vt 0.874512 0.905518
vt 0.870605 0.922668
vt 0.870605 0.901672
vt 0.874512 0.905518
vt 0.870605 0.901672
vt 0.874512 0.897827
vt 0.874512 0.905518
vt 0.874512 0.882812
vt 0.874512 0.897827
vt 0.870605 0.901672
vt 0.874512 0.897827
vt 0.878418 0.901672
vt 0.874512 0.905518
vt 0.878418 0.901672
vt 0.874512 0.897827
vt 0.889160 0.901672
vt 0.874512 0.897827
vt 0.889160 0.897827
vt 0.889160 0.901672
vt 0.874512 0.897827
vt 0.874512 0.882812
vt 0.889160 0.897827
vt 0.874512 0.882812
vt 0.889160 0.882629
vt 0.889160 0.897827
vt 0.889160 0.897827
vt 0.889160 0.882629
vt 0.893066 0.882629
vt 0.893066 0.897827
vt 0.889160 0.897827
vt 0.893066 0.882629
vt 2.187500 1.980469
vt 2.828125 1.980469
vt 2.187500 2.019531
vt 2.828125 1.980469
vt 2.828125 2.019531
vt 2.187500 2.019531
vt 2.187500 2.019531
vt 2.828125 2.019531
vt 2.830078 2.024414
vt 2.185547 2.024414
vt 2.187500 2.019531
vt 2.830078 2.024414
vt 2.185547 2.024414
vt 2.830078 2.024414
vt 2.250000 2.087891
vt 2.830078 2.024414
vt 2.765625 2.087891
vt 2.250000 2.087891
vt 2.765625 2.087891
vt 2.757812 2.091797
vt 2.250000 2.087891
vt 2.757812 2.091797
vt 2.257812 2.090820
vt 2.250000 2.087891
vt 2.257812 2.131836
vt 2.257812 2.090820
vt 2.757812 2.091797
vt 2.759766 2.131836
vt 2.257812 2.131836
vt 2.757812 2.091797
vt 0.801270 -0.488281
vt 0.298584 -0.488281
vt 0.800781 -0.529297
vt 0.298584 -0.488281
vt 0.298828 -0.529297
vt 0.800781 -0.529297
vt 0.800781 -0.529297
vt 0.298828 -0.529297
vt 0.291992 -0.532227
vt 0.807617 -0.532227
vt 0.800781 -0.529297
vt 0.291992 -0.532227
vt 0.871582 -0.595703
vt 0.807617 -0.532227
vt 0.291992 -0.532227
vt 0.228027 -0.595703
vt 0.871582 -0.595703
vt 0.291992 -0.532227
vt 0.228027 -0.595703
vt 0.229248 -0.599609
vt 0.871582 -0.595703
vt 0.229248 -0.599609
vt 0.874512 -0.599609
vt 0.871582 -0.595703
vt 0.874512 -0.599609
vt 0.229248 -0.599609
vt 0.229248 -0.619141
vt 0.229248 -0.639648
vt 0.870605 -0.639648
vt 0.229248 -0.619141
vt 0.870605 -0.639648
vt 0.870605 -0.619141
vt 0.229248 -0.619141
vt 0.874512 -0.615234
vt 0.874512 -0.599609
vt 0.229248 -0.619141
vt 0.870605 -0.619141
vt 0.874512 -0.615234
vt 0.229248 -0.619141
vt 0.874512 -0.599609
vt 0.874512 -0.615234
vt 0.889160 -0.599609
vt 0.874512 -0.615234
vt 0.889160 -0.615234
vt 0.889160 -0.599609
vt 0.878418 -0.619141
vt 0.874512 -0.615234
vt 0.870605 -0.619141
vt 0.874512 -0.623047
vt 0.878418 -0.619141
vt 0.870605 -0.619141
vt 0.298584 0.770874
vt 0.801270 0.770874
vt 0.299072 0.811523
vt 0.801270 0.770874
vt 0.801270 0.810913
vt 0.299072 0.811523
vt 0.299072 0.811523
vt 0.801270 0.810913
vt 0.807617 0.814819
vt 0.291992 0.814819
vt 0.299072 0.811523
vt 0.807617 0.814819
vt 0.228149 0.878723
vt 0.291992 0.814819
vt 0.807617 0.814819
vt 0.871582 0.878723
vt 0.228149 0.878723
vt 0.807617 0.814819
vt 0.871582 0.878723
vt 0.874512 0.882812
vt 0.228149 0.878723
vt 0.874512 0.882812
vt 0.229248 0.882629
vt 0.228149 0.878723
vt 0.225342 0.882629
vt 0.229248 0.882629
vt 0.225342 0.901672
vt 0.229248 0.882629
vt 0.229248 0.901672
vt 0.225342 0.901672
vt 0.225342 0.901672
vt 0.229248 0.901672
vt 0.225342 0.922668
vt 0.229248 0.901672
vt 0.229248 0.922668
vt 0.225342 0.922668
vt 0.229248 0.901672
vt 0.229248 0.882629
vt 0.870605 0.901672
vt 0.229248 0.922668
vt 0.229248 0.901672
vt 0.870605 0.901672
vt 0.229248 0.882629
vt 0.874512 0.882812
vt 0.870605 0.901672
vt 0.870605 0.922668
vt 0.229248 0.922668
vt 0.870605 0.901672
vt 0.874512 0.922668
vt 0.870605 0.922668
vt 0.874512 0.905518
vt 0.870605 0.922668
vt 0.870605 0.901672
vt 0.874512 0.905518
vt 0.870605 0.901672
vt 0.874512 0.897827
vt 0.874512 0.905518
vt 0.874512 0.882812
vt 0.874512 0.897827
vt 0.870605 0.901672
vt 0.874512 0.897827
vt 0.878418 0.901672
vt 0.874512 0.905518
vt 0.878418 0.901672
vt 0.874512 0.897827
vt 0.889160 0.901672
vt 0.874512 0.897827
vt 0.889160 0.897827
vt 0.889160 0.901672
vt 0.874512 0.897827
vt 0.874512 0.882812
vt 0.889160 0.897827
vt 0.874512 0.882812
vt 0.889160 0.882629
vt 0.889160 0.897827
vt 0.889160 0.897827
vt 0.889160 0.882629
vt 0.893066 0.882629
vt 0.893066 0.897827
vt 0.889160 0.897827
vt 0.893066 0.882629
vt 2.187500 1.980469
vt 2.828125 1.980469
vt 2.187500 2.019531
vt 2.828125 1.980469
vt 2.828125 2.019531
vt 2.187500 2.019531
vt 2.187500 2.019531
vt 2.828125 2.019531
vt 2.830078 2.024414
vt 2.185547 2.024414
vt 2.187500 2.019531
vt 2.830078 2.024414
vt 2.185547 2.024414
vt 2.830078 2.024414
vt 2.250000 2.087891
vt 2.830078 2.024414
vt 2.765625 2.087891
vt 2.250000 2.087891
vt 2.765625 2.087891
vt 2.757812 2.091797
vt 2.250000 2.087891
vt 2.757812 2.091797
vt 2.257812 2.090820
vt 2.250000 2.087891
vt 2.257812 2.131836
vt 2.257812 2.090820
vt 2.757812 2.091797
vt 2.759766 2.131836
vt 2.257812 2.131836
vt 2.757812 2.091797
f 1/1/1 2/2/2 3/3/3
f 4/4/4 5/5/5 6/6/6
f 7/7/7 8/8/8 9/9/9
f 10/10/10 11/11/11 12/12/12
f 13/13/13 14/14/14 15/15/15
f 16/16/16 17/17/17 18/18/18
f 19/19/19 20/20/20 21/21/21
f 22/22/22 23/23/23 24/24/24
f 25/25/25 26/26/26 27/27/27
f 28/28/28 29/29/29 30/30/30
f 31/31/31 32/32/32 33/33/33
f 34/34/34 35/35/35 36/36/36
f 37/37/37 38/38/38 39/39/39
f 40/40/40 41/41/41 42/42/42
f 43/43/43 44/44/44 45/45/45
f 46/46/46 47/47/47 48/48/48
f 49/49/49 50/50/50 51/51/51
f 52/52/52 53/53/53 54/54/54
f 55/55/55 56/56/56 57/57/57
f 58/58/58 59/59/59 60/60/60
f 61/61/61 62/62/62 63/63/63
f 64/64/64 65/65/65 66/66/66
f 67/67/67 68/68/68 69/69/69
f 70/70/70 71/71/71 72/72/72
f 73/73/73 74/74/74 75/75/75
f 76/76/76 77/77/77 78/78/78
f 79/79/79 80/80/80 81/81/81
f 82/82/82 83/83/83 84/84/84
f 85/85/85 86/86/86 87/87/87
f 88/88/88 89/89/89 90/90/90
f 91/91/91 92/92/92 93/93/93
f 94/94/94 95/95/95 96/96/96
f 97/97/97 98/98/98 99/99/99
f 100/100/100 101/101/101 102/102/102
f 103/103/103 104/104/104 105/105/105
f 106/106/106 107/107/107 108/108/108
f 109/109/109 110/110/110 111/111/111
f 112/112/112 113/113/113 114/114/114
f 115/115/115 116/116/116 117/117/117
f 118/118/118 119/119/119 120/120/120
f 121/121/121 122/122/122 123/123/123
f 124/124/124 125/125/125 126/126/126
f 127/127/127 128/128/128 129/129/129
f 130/130/130 131/131/131 132/132/132
f 133/133/133 134/134/134 135/135/135
f 136/136/136 137/137/137 138/138/138
f 139/139/139 140/140/140 141/141/141
f 142/142/142 143/143/143 144/144/144
f 145/145/145 146/146/146 147/147/147
f 148/148/148 149/149/149 150/150/150
f 151/151/151 152/152/152 153/153/153
f 154/154/154 155/155/155 156/156/156
f 157/157/157 158/158/158 159/159/159
f 160/160/160 161/161/161 162/162/162
f 163/163/163 164/164/164 165/165/165
f 166/166/166 167/167/167 168/168/168
f 169/169/169 170/170/170 171/171/171
f 172/172/172 173/173/173 174/174/174
f 175/175/175 176/176/176 177/177/177
f 178/178/178 179/179/179 180/180/180
f 181/181/181 182/182/182 183/183/183
f 184/184/184 185/185/185 186/186/186
f 187/187/187 188/188/188 189/189/189
f 190/190/190 191/191/191 192/192/192
f 193/193/193 194/194/194 195/195/195
f 196/196/196 197/197/197 198/198/198
f 199/199/199 200/200/200 201/201/201
f 202/202/202 203/203/203 204/204/204
f 205/205/205 206/206/206 207/207/207
f 208/208/208 209/209/209 210/210/210
f 211/211/211 212/212/212 213/213/213
f 214/214/214 215/215/215 216/216/216
f 217/217/217 218/218/218 219/219/219
f 220/220/220 221/221/221 222/222/222
f 223/223/223 224/224/224 225/225/225
f 226/226/226 227/227/227 228/228/228
f 229/229/229 230/230/230 231/231/231
f 232/232/232 233/233/233 234/234/234
f 235/235/235 236/236/236 237/237/237
f 238/238/238 239/239/239 240/240/240
f 241/241/241 242/242/242 243/243/243
f 244/244/244 245/245/245 246/246/246
f 247/247/247 248/248/248 249/249/249
f 250/250/250 251/251/251 252/252/252
f 253/253/253 254/254/254 255/255/255
f 256/256/256 257/257/257 258/258/258
f 259/259/259 260/260/260 261/261/261
f 262/262/262 263/263/263 264/264/264
f 265/265/265 266/266/266 267/267/267
f 268/268/268 269/269/269 270/270/270
f 271/271/271 272/272/272 273/273/273
f 274/274/274 275/275/275 276/276/276
f 277/277/277 278/278/278 279/279/279
f 280/280/280 281/281/281 282/282/282
f 283/283/283 284/284/284 285/285/285
f 286/286/286 287/287/287 288/288/288
f 289/289/289 290/290/290 291/291/291
f 292/292/292 293/293/293 294/294/294
f 295/295/295 296/296/296 297/297/297
f 298/298/298 299/299/299 300/300/300
f 301/301/301 302/302/302 303/303/303
f 304/304/304 305/305/305 306/306/306
f 307/307/307 308/308/308 309/309/309
f 310/310/310 311/311/311 312/312/312
f 313/313/313 314/314/314 315/315/315
f 316/316/316 317/317/317 318/318/318
f 319/319/319 320/320/320 321/321/321
f 322/322/322 323/323/323 324/324/324
f 325/325/325 326/326/326 327/327/327
f 328/328/328 329/329/329 330/330/330
f 331/331/331 332/332/332 333/333/333
f 334/334/334 335/335/335 336/336/336
f 337/337/337 338/338/338 339/339/339
f 340/340/340 341/341/341 342/342/342
f 343/343/343 344/344/344 345/345/345
f 346/346/346 347/347/347 348/348/348
f 349/349/349 350/350/350 351/351/351
f 352/352/352 353/353/353 354/354/354
f 355/355/355 356/356/356 357/357/357
f 358/358/358 359/359/359 360/360/360
f 361/361/361 362/362/362 363/363/363
f 364/364/364 365/365/365 366/366/366
f 367/367/367 368/368/368 369/369/369
f 370/370/370 371/371/371 372/372/372
f 373/373/373 374/374/374 375/375/375
f 376/376/376 377/377/377 378/378/378
f 379/379/379 380/380/380 381/381/381
f 382/382/382 383/383/383 384/384/384
f 385/385/385 386/386/386 387/387/387
f 388/388/388 389/389/389 390/390/390
f 391/391/391 392/392/392 393/393/393
f 394/394/394 395/395/395 396/396/396
f 397/397/397 398/398/398 399/399/399
f 400/400/400 401/401/401 402/402/402
f 403/403/403 404/404/404 405/405/405
f 406/406/406 407/407/407 408/408/408
f 409/409/409 410/410/410 411/411/411
f 412/412/412 413/413/413 414/414/414
f 415/415/415 416/416/416 417/417/417
f 418/418/418 419/419/419 420/420/420
f 421/421/421 422/422/422 423/423/423
f 424/424/424 425/425/425 426/426/426
f 427/427/427 428/428/428 429/429/429
f 430/430/430 431/431/431 432/432/432
f 433/433/433 434/434/434 435/435/435
f 436/436/436 437/437/437 438/438/438
f 439/439/439 440/440/440 441/441/441
f 442/442/442 443/443/443 444/444/444
f 445/445/445 446/446/446 447/447/447
f 448/448/448 449/449/449 450/450/450
f 451/451/451 452/452/452 453/453/453
f 454/454/454 455/455/455 456/456/456
f 457/457/457 458/458/458 459/459/459
f 460/460/460 461/461/461 462/462/462
f 463/463/463 464/464/464 465/465/465
f 466/466/466 467/467/467 468/468/468
f 469/469/469 470/470/470 471/471/471
f 472/472/472 473/473/473 474/474/474
f 475/475/475 476/476/476 477/477/477
f 478/478/478 479/479/479 480/480/480
f 481/481/481 482/482/482 483/483/483
f 484/484/484 485/485/485 486/486/486
f 487/487/487 488/488/488 489/489/489
f 490/490/490 491/491/491 492/492/492
f 493/493/493 494/494/494 495/495/495
f 496/496/496 497/497/497 498/498/498
f 499/499/499 500/500/500 501/501/501
f 502/502/502 503/503/503 504/504/504
f 505/505/505 506/506/506 507/507/507
f 508/508/508 509/509/509 510/510/510
f 511/511/511 512/512/512 513/513/513
f 514/514/514 515/515/515 516/516/516
f 517/517/517 518/518/518 519/519/519
f 520/520/520 521/521/521 522/522/522
f 523/523/523 524/524/524 525/525/525
f 526/526/526 527/527/527 528/528/528
f 529/529/529 530/530/530 531/531/531
f 532/532/532 533/533/533 534/534/534
f 535/535/535 536/536/536 537/537/537
f 538/538/538 539/539/539 540/540/540
f 541/541/541 542/542/542 543/543/543
f 544/544/544 545/545/545 546/546/546
f 547/547/547 548/548/548 549/549/549
f 550/550/550 551/551/551 552/552/552
f 553/553/553 554/554/554 555/555/555
f 556/556/556 557/557/557 558/558/558
f 559/559/559 560/560/560 561/561/561
f 562/562/562 563/563/563 564/564/564
f 565/565/565 566/566/566 567/567/567
f 568/568/568 569/569/569 570/570/570
f 571/571/571 572/572/572 573/573/573
f 574/574/574 575/575/575 576/576/576
f 577/577/577 578/578/578 579/579/579
f 580/580/580 581/581/581 582/582/582
f 583/583/583 584/584/584 585/585/585
f 586/586/586 587/587/587 588/588/588
f 589/589/589 590/590/590 591/591/591
f 592/592/592 593/593/593 594/594/594
f 595/595/595 596/596/596 597/597/597
f 598/598/598 599/599/599 600/600/600
f 601/601/601 602/602/602 603/603/603
f 604/604/604 605/605/605 606/606/606
f 607/607/607 608/608/608 609/609/609
f 610/610/610 611/611/611 612/612/612
f 613/613/613 614/614/614 615/615/615
f 616/616/616 617/617/617 618/618/618
f 619/619/619 620/620/620 621/621/621
f 622/622/622 623/623/623 624/624/624
f 625/625/625 626/626/626 627/627/627
f 628/628/628 629/629/629 630/630/630
f 631/631/631 632/632/632 633/633/633
f 634/634/634 635/635/635 636/636/636
f 637/637/637 638/638/638 639/639/639
f 640/640/640 641/641/641 642/642/642
f 643/643/643 644/644/644 645/645/645
f 646/646/646 647/647/647 648/648/648
f 649/649/649 650/650/650 651/651/651
f 652/652/652 653/653/653 654/654/654
f 655/655/655 656/656/656 657/657/657
f 658/658/658 659/659/659 660/660/660
f 661/661/661 662/662/662 663/663/663
f 664/664/664 665/665/665 666/666/666
f 667/667/667 668/668/668 669/669/669
f 670/670/670 671/671/671 672/672/672
f 673/673/673 674/674/674 675/675/675
f 676/676/676 677/677/677 678/678/678
f 679/679/679 680/680/680 681/681/681
f 682/682/682 683/683/683 684/684/684
f 685/685/685 686/686/686 687/687/687
f 688/688/688 689/689/689 690/690/690
f 691/691/691 692/692/692 693/693/693
f 694/694/694 695/695/695 696/696/696
f 697/697/697 698/698/698 699/699/699
f 700/700/700 701/701/701 702/702/702
f 703/703/703 704/704/704 705/705/705
f 706/706/706 707/707/707 708/708/708
f 709/709/709 710/710/710 711/711/711
f 712/712/712 713/713/713 714/714/714
f 715/715/715 716/716/716 717/717/717
f 718/718/718 719/719/719 720/720/720
f 721/721/721 722/722/722 723/723/723
f 724/724/724 725/725/725 726/726/726
f 727/727/727 728/728/728 729/729/729
f 730/730/730 731/731/731 732/732/732
f 733/733/733 734/734/734 735/735/735
f 736/736/736 737/737/737 738/738/738
f 739/739/739 740/740/740 741/741/741
f 742/742/742 743/743/743 744/744/744
f 745/745/745 746/746/746 747/747/747
f 748/748/748 749/749/749 750/750/750
f 751/751/751 752/752/752 753/753/753
f 754/754/754 755/755/755 756/756/756
f 757/757/757 758/758/758 759/759/759
f 760/760/760 761/761/761 762/762/762
f 763/763/763 764/764/764 765/765/765
f 766/766/766 767/767/767 768/768/768
f 769/769/769 770/770/770 771/771/771
f 772/772/772 773/773/773 774/774/774
f 775/775/775 776/776/776 777/777/777
f 778/778/778 779/779/779 780/780/780
f 781/781/781 782/782/782 783/783/783
f 784/784/784 785/785/785 786/786/786
f 787/787/787 788/788/788 789/789/789
f 790/790/790 791/791/791 792/792/792
f 793/793/793 794/794/794 795/795/795
f 796/796/796 797/797/797 798/798/798
f 799/799/799 800/800/800 801/801/801
f 802/802/802 803/803/803 804/804/804
f 805/805/805 806/806/806 807/807/807
f 808/808/808 809/809/809 810/810/810
f 811/811/811 812/812/812 813/813/813
f 814/814/814 815/815/815 816/816/816
f 817/817/817 818/818/818 819/819/819
f 820/820/820 821/821/821 822/822/822
f 823/823/823 824/824/824 825/825/825
f 826/826/826 827/827/827 828/828/828
f 829/829/829 830/830/830 831/831/831
f 832/832/832 833/833/833 834/834/834
f 835/835/835 836/836/836 837/837/837
f 838/838/838 839/839/839 840/840/840
f 841/841/841 842/842/842 843/843/843
f 844/844/844 845/845/845 846/846/846
f 847/847/847 848/848/848 849/849/849
f 850/850/850 851/851/851 852/852/852
f 853/853/853 854/854/854 855/855/855
f 856/856/856 857/857/857 858/858/858
f 859/859/859 860/860/860 861/861/861
f 862/862/862 863/863/863 864/864/864
f 865/865/865 866/866/866 867/867/867
f 868/868/868 869/869/869 870/870/870
f 871/871/871 872/872/872 873/873/873
f 874/874/874 875/875/875 876/876/876
f 877/877/877 878/878/878 879/879/879
f 880/880/880 881/881/881 882/882/882
f 883/883/883 884/884/884 885/885/885
f 886/886/886 887/887/887 888/888/888
f 889/889/889 890/890/890 891/891/891
f 892/892/892 893/893/893 894/894/894
f 895/895/895 896/896/896 897/897/897
f 898/898/898 899/899/899 900/900/900
f 901/901/901 902/902/902 903/903/903
f 904/904/904 905/905/905 906/906/906
f 907/907/907 908/908/908 909/909/909
f 910/910/910 911/911/911 912/912/912
f 913/913/913 914/914/914 915/915/915
f 916/916/916 917/917/917 918/918/918
f 919/919/919 920/920/920 921/921/921
f 922/922/922 923/923/923 924/924/924
f 925/925/925 926/926/926 927/927/927
f 928/928/928 929/929/929 930/930/930
f 931/931/931 932/932/932 933/933/933
f 934/934/934 935/935/935 936/936/936
f 937/937/937 938/938/938 939/939/939
f 940/940/940 941/941/941 942/942/942
f 943/943/943 944/944/944 945/945/945
f 946/946/946 947/947/947 948/948/948
f 949/949/949 950/950/950 951/951/951
f 952/952/952 953/953/953 954/954/954
f 955/955/955 956/956/956 957/957/957
f 958/958/958 959/959/959 960/960/960
f 961/961/961 962/962/962 963/963/963
f 964/964/964 965/965/965 966/966/966
f 967/967/967 968/968/968 969/969/969
f 970/970/970 971/971/971 972/972/972
f 973/973/973 974/974/974 975/975/975
f 976/976/976 977/977/977 978/978/978
f 979/979/979 980/980/980 981/981/981
f 982/982/982 983/983/983 984/984/984
f 985/985/985 986/986/986 987/987/987
f 988/988/988 989/989/989 990/990/990
f 991/991/991 992/992/992 993/993/993
f 994/994/994 995/995/995 996/996/996
f 997/997/997 998/998/998 999/999/999
f 1000/1000/1000 1001/1001/1001 1002/1002/1002
f 1003/1003/1003 1004/1004/1004 1005/1005/1005
f 1006/1006/1006 1007/1007/1007 1008/1008/1008
f 1009/1009/1009 1010/1010/1010 1011/1011/1011
f 1012/1012/1012 1013/1013/1013 1014/1014/1014
f 1015/1015/1015 1016/1016/1016 1017/1017/1017
f 1018/1018/1018 1019/1019/1019 1020/1020/1020
f 1021/1021/1021 1022/1022/1022 1023/1023/1023
f 1024/1024/1024 1025/1025/1025 1026/1026/1026
f 1027/1027/1027 1028/1028/1028 1029/1029/1029
f 1030/1030/1030 1031/1031/1031 1032/1032/1032
f 1033/1033/1033 1034/1034/1034 1035/1035/1035
f 1036/1036/1036 1037/1037/1037 1038/1038/1038
f 1039/1039/1039 1040/1040/1040 1041/1041/1041
f 1042/1042/1042 1043/1043/1043 1044/1044/1044
f 1045/1045/1045 1046/1046/1046 1047/1047/1047
f 1048/1048/1048 1049/1049/1049 1050/1050/1050
f 1051/1051/1051 1052/1052/1052 1053/1053/1053
f 1054/1054/1054 1055/1055/1055 1056/1056/1056
f 1057/1057/1057 1058/1058/1058 1059/1059/1059
f 1060/1060/1060 1061/1061/1061 1062/1062/1062
