# OBJ file
v 77.864210 2241.336000 1125.128400
v 39.738540 2199.845500 1125.128400
v 77.864210 2241.336000 956.227360
v 39.738540 2199.845500 1125.128400
v 39.738540 2199.845500 956.227360
v 77.864210 2241.336000 956.227360
v 117.166460 2284.106400 956.227360
v 117.166460 2284.106400 1125.128400
v 78.817030 2242.372800 956.227360
v 117.166460 2284.106400 1125.128400
v 78.817030 2242.372800 1125.128400
v 78.817030 2242.372800 956.227360
v -143.209820 2037.058100 1125.111300
v -181.335560 1995.567600 1125.111300
v -143.209820 2037.058100 956.210270
v -181.335560 1995.567600 1125.111300
v -181.335560 1995.567600 956.210270
v -143.209820 2037.058100 956.210270
v -103.907820 2079.828600 956.210270
v -103.907820 2079.828600 1125.111300
v -142.257060 2038.095000 956.210270
v -103.907820 2079.828600 1125.111300
v -142.257060 2038.095000 1125.111300
v -142.257060 2038.095000 956.210270
v -380.250340 1779.097500 1125.111300
v -418.376200 1737.606800 1125.111300
v -380.250340 1779.097500 956.210270
v -418.376200 1737.606800 1125.111300
v -418.376200 1737.606800 956.210270
v -380.250340 1779.097500 956.210270
v -340.948330 1821.868200 956.210270
v -340.948330 1821.868200 1125.111300
v -379.297700 1780.134400 956.210270
v -340.948330 1821.868200 1125.111300
v -379.297700 1780.134400 1125.111300
v -379.297700 1780.134400 956.210270
v -583.235530 1558.198400 1125.111300
v -621.361200 1516.707800 1125.111300
v -583.235530 1558.198500 956.210270
v -621.361200 1516.707800 1125.111300
v -621.361200 1516.707900 956.210270
v -583.235530 1558.198500 956.210270
v -543.933530 1600.969000 956.210270
v -543.933530 1600.968800 1125.111300
v -582.282700 1559.235400 956.210270
v -543.933530 1600.968800 1125.111300
v -582.282700 1559.235200 1125.111300
v -582.282700 1559.235400 956.210270
v -819.828700 1300.724700 1125.111300
v -857.954500 1259.234100 1125.111300
v -819.828700 1300.724700 956.210200
v -857.954500 1259.234100 1125.111300
v -857.954500 1259.234100 956.210200
v -819.828700 1300.724700 956.210200
v -780.526730 1343.495100 956.210200
v -780.526730 1343.495100 1125.111300
v -818.875900 1301.761400 956.210200
v -780.526730 1343.495100 1125.111300
v -818.875900 1301.761400 1125.111300
v -818.875900 1301.761400 956.210200
v -966.817570 1104.457500 1260.614100
v -966.817440 1104.457400 1427.313100
v -1005.166800 1062.723900 1260.614100
v -966.817440 1104.457400 1427.313100
v -1005.166800 1062.723800 1427.313100
v -1005.166800 1062.723900 1260.614100
v -1006.119600 1061.686900 1427.313100
v -1044.245500 1020.196400 1427.313100
v -1006.119600 1061.687000 1260.614100
v -1044.245500 1020.196400 1427.313100
v -1044.245500 1020.196400 1260.614100
v -1006.119600 1061.687000 1260.614100
v -780.526400 1343.495400 1260.614100
v -780.526300 1343.495400 1427.330200
v -818.875700 1301.761700 1260.614100
v -780.526300 1343.495400 1427.330200
v -818.875700 1301.761700 1427.330200
v -818.875700 1301.761700 1260.614100
v -819.828400 1300.725000 1427.330200
v -857.954160 1259.234300 1427.330200
v -819.828400 1300.725000 1260.614100
v -857.954160 1259.234300 1427.330200
v -857.954160 1259.234300 1260.614100
v -819.828400 1300.725000 1260.614100
v -543.878970 1601.262700 1260.614100
v -543.878900 1601.262700 1427.313100
v -582.228150 1559.529200 1260.614100
v -543.878900 1601.262700 1427.313100
v -582.228150 1559.529200 1427.313100
v -582.228150 1559.529200 1260.614100
v -583.180660 1558.492300 1427.313100
v -621.083440 1517.244400 1427.313100
v -583.180660 1558.492300 1260.614100
v -621.083440 1517.244400 1427.313100
v -621.083440 1517.244400 1260.614100
v -583.180660 1558.492300 1260.614100
v -103.907940 2079.828400 1260.614100
v -103.907940 2079.828400 1427.313100
v -142.257190 2038.094700 1260.614100
v -103.907940 2079.828400 1427.313100
v -142.257190 2038.094700 1427.313100
v -142.257190 2038.094700 1260.614100
v -143.209950 2037.057600 1427.313100
v -181.335680 1995.567300 1427.313100
v -143.209950 2037.057600 1260.614100
v -181.335680 1995.567300 1427.313100
v -181.335680 1995.567300 1260.614100
v -143.209950 2037.057600 1260.614100
v 117.319720 2283.894800 1259.222000
v 117.319720 2283.894800 1425.929900
v 78.970410 2242.161100 1259.222000
v 117.319720 2283.894800 1425.929900
v 78.970410 2242.161100 1425.929900
v 78.970410 2242.161100 1259.222000
v 78.017590 2241.124300 1425.929900
v 39.891860 2199.633800 1425.929900
v 78.017590 2241.124300 1259.222000
v 39.891860 2199.633800 1425.929900
v 39.891860 2199.633800 1259.222000
v 78.017590 2241.124300 1259.222000
v -1404.537100 1272.581800 1428.004200
v -1446.608900 1311.241800 1428.004200
v -1404.537100 1272.581900 1259.103100
v -1446.608900 1311.241800 1428.004200
v -1446.608900 1311.241800 1259.103100
v -1404.537100 1272.581900 1259.103100
v -1358.856900 1230.606300 1259.103100
v -1358.857000 1230.606300 1428.004200
v -1403.500200 1271.629200 1259.103100
v -1358.857000 1230.606300 1428.004200
v -1403.500100 1271.629200 1428.004200
v -1403.500200 1271.629200 1259.103100
v -1198.976400 1054.153400 1428.003900
v -1240.467000 1092.279300 1428.003900
v -1198.976600 1054.153700 1259.102900
v -1240.467000 1092.279300 1428.003900
v -1240.467000 1092.279400 1259.102900
v -1198.976600 1054.153700 1259.102900
v -1154.654500 1013.425900 1259.102900
v -1154.654500 1013.425900 1428.003900
v -1197.939600 1053.200800 1259.102900
v -1154.654500 1013.425900 1428.003900
v -1197.939600 1053.200700 1428.003900
v -1197.939600 1053.200800 1259.102900
v -1152.638300 1015.974200 959.102800
v -1152.638400 1015.974200 1128.003900
v -1194.042200 1054.020500 959.102800
v -1152.638400 1015.974200 1128.003900
v -1194.042200 1054.020500 1128.003900
v -1194.042200 1054.020500 959.102800
v -1195.079100 1054.973500 1128.003900
v -1237.651600 1094.093500 1128.003900
v -1195.079100 1054.973500 959.102800
v -1237.651600 1094.093500 1128.003900
v -1237.651600 1094.093500 959.102800
v -1195.079100 1054.973500 959.102800
v -1359.502300 1235.070300 956.457950
v -1359.502300 1235.070300 1128.004200
v -1401.817100 1273.953500 956.457950
v -1359.502300 1235.070300 1128.004200
v -1401.817100 1273.953500 1128.004200
v -1401.817100 1273.953500 956.457950
v -1402.853900 1274.906200 1128.004200
v -1444.983000 1313.618900 1128.004200
v -1402.853900 1274.906200 956.457950
v -1444.983000 1313.618900 1128.004200
v -1444.983000 1313.618900 956.457950
v -1402.853900 1274.906200 956.457950
v -1591.492300 1422.495400 956.900630
v -1591.492400 1422.495200 1125.801800
v -1635.903600 1463.304900 956.900700
v -1591.492400 1422.495200 1125.801800
v -1635.903600 1463.304800 1125.801800
v -1635.903600 1463.304900 956.900700
v -1636.940400 1464.257700 1125.801800
v -1679.935400 1503.766000 1125.801800
v -1636.940400 1464.257800 956.900700
v -1679.935400 1503.766000 1125.801800
v -1679.935400 1503.766100 956.900700
v -1636.940400 1464.257800 956.900700
v -1014.486300 1070.557300 741.183200
v -1052.380600 1029.318800 741.183200
v -1014.486300 1070.557300 572.282200
v -1052.380600 1029.318800 741.183200
v -1052.380600 1029.318800 572.282200
v -1014.486300 1070.557300 572.282200
v -975.184200 1113.327900 572.282200
v -975.184200 1113.327800 741.183200
v -1013.533400 1071.594100 572.282200
v -975.184200 1113.327800 741.183200
v -1013.533400 1071.594100 741.183200
v -1013.533400 1071.594100 572.282200
v -424.452670 2863.159200 1428.003900
v -381.385280 2823.584500 1428.003900
v -424.452900 2863.159000 1259.102900
v -381.385280 2823.584500 1428.003900
v -381.385530 2823.584500 1259.102900
v -424.452900 2863.159000 1259.102900
v -468.049600 2903.220200 1259.102900
v -468.049600 2903.220200 1428.003900
v -425.489530 2864.111800 1259.102900
v -468.049600 2903.220200 1428.003900
v -425.489530 2864.111800 1428.003900
v -425.489530 2864.111800 1259.102900
v -470.998870 2901.529000 957.754900
v -470.998800 2901.529300 1128.519400
v -428.020780 2862.036900 957.754900
v -470.998800 2901.529300 1128.519400
v -428.020780 2862.036900 1128.519400
v -428.020780 2862.036900 957.754900
v -426.983730 2861.083700 1128.519400
v -384.277680 2821.841000 1128.519400
v -426.983730 2861.083700 957.754900
v -384.277680 2821.841000 1128.519400
v -384.277680 2821.841000 957.754800
v -426.983730 2861.083700 957.754900
v -31.068220 2494.019300 956.579650
v -31.068220 2494.019300 1125.480700
v 12.541153 2453.946500 956.579650
v -31.068220 2494.019300 1125.480700
v 12.541153 2453.946500 1125.480700
v 12.541153 2453.946500 956.579650
v 13.578079 2452.993700 1125.480700
v 56.657364 2413.408000 1125.480700
v 13.578079 2452.993700 956.579650
v 56.657364 2413.408000 1125.480700
v 56.657364 2413.408000 956.579650
v 13.578079 2452.993700 956.579650
v -263.864170 2682.184800 955.919800
v -263.864170 2682.184800 1128.004200
v -222.663740 2644.325700 955.919800
v -263.864170 2682.184800 1128.004200
v -222.663740 2644.325700 1128.004200
v -222.663740 2644.325700 955.919800
v -221.626880 2643.372800 1128.004200
v -177.574390 2602.892800 1128.004200
v -221.626880 2643.372800 955.919800
v -177.574390 2602.892800 1128.004200
v -177.574390 2602.892800 955.919800
v -221.626880 2643.372800 955.919800
v -220.179860 2645.914300 1428.004200
v -176.233320 2605.531500 1428.004200
v -220.180100 2645.914000 1259.103100
v -176.233320 2605.531500 1428.004200
v -176.233440 2605.531500 1259.103100
v -220.180100 2645.914000 1259.103100
v -263.948880 2686.133300 1259.103100
v -263.948640 2686.133300 1428.004200
v -221.216960 2646.866700 1259.103100
v -263.948640 2686.133300 1428.004200
v -221.216960 2646.866700 1428.004200
v -221.216960 2646.866700 1259.103100
v -1012.778400 1067.223800 338.292630
v -1051.911600 1024.637100 338.292630
v -1012.778400 1067.223800 164.089300
v -1051.911600 1024.637100 338.292630
v -1051.911600 1024.637100 164.089300
v -1012.778400 1067.223800 164.089300
v -970.934400 1112.760600 164.089300
v -970.934400 1112.760500 338.292630
v -1011.825600 1068.260600 164.089300
v -970.934400 1112.760500 338.292630
v -1011.825600 1068.260600 338.292630
v -1011.825600 1068.260600 164.089300
v -809.898250 1288.008900 338.292630
v -849.031430 1245.422100 338.292630
v -809.898250 1288.008900 164.089310
v -849.031430 1245.422100 338.292630
v -849.031430 1245.422100 164.089310
v -809.898250 1288.008900 164.089310
v -768.054200 1333.545800 164.089310
v -768.054200 1333.545700 338.292630
v -808.945400 1289.045800 164.089310
v -768.054200 1333.545700 338.292630
v -808.945400 1289.045800 338.292630
v -808.945400 1289.045800 164.089310
v -383.500030 1752.038800 338.292660
v -422.633150 1709.451800 338.292660
v -383.500030 1752.038800 164.089320
v -422.633150 1709.451800 338.292660
v -422.633150 1709.451800 164.089320
v -383.500030 1752.038800 164.089320
v -341.655980 1797.575400 164.089320
v -341.655980 1797.575400 338.292660
v -382.547200 1753.075600 164.089320
v -341.655980 1797.575400 338.292660
v -382.547200 1753.075600 338.292660
v -382.547200 1753.075600 164.089320
v -1247.258800 1113.626100 338.292630
v -1289.845700 1152.759300 338.292630
v -1247.258800 1113.626100 164.089300
v -1289.845700 1152.759300 338.292630
v -1289.845700 1152.759300 164.089300
v -1247.258800 1113.626100 164.089300
v -1201.722000 1071.782200 164.089300
v -1201.722000 1071.782000 338.292630
v -1246.222000 1112.673300 164.089300
v -1201.722000 1071.782000 338.292630
v -1246.222000 1112.673300 338.292630
v -1246.222000 1112.673300 164.089300
v -1624.278100 1460.758800 338.292660
v -1666.865000 1499.891800 338.292660
v -1624.278100 1460.758800 164.089310
v -1666.865000 1499.891800 338.292660
v -1666.865000 1499.891800 164.089310
v -1624.278100 1460.758800 164.089310
v -1578.741200 1418.914800 164.089310
v -1578.741200 1418.914700 338.292630
v -1623.241200 1459.805900 164.089310
v -1578.741200 1418.914700 338.292630
v -1623.241200 1459.805900 338.292630
v -1623.241200 1459.805900 164.089310
v -133.657460 2027.978400 741.183300
v -171.551620 1986.740000 741.183300
v -133.657460 2027.978400 572.282300
v -171.551620 1986.740000 741.183300
v -171.551620 1986.740000 572.282300
v -133.657460 2027.978400 572.282300
v -94.355450 2070.749000 572.282300
v -94.355450 2070.749000 741.183300
v -132.704700 2029.015300 572.282300
v -94.355450 2070.749000 741.183300
v -132.704700 2029.015300 741.183300
v -132.704700 2029.015300 572.282300
v 69.410050 2248.687500 741.183300
v 31.515884 2207.449000 741.183300
v 69.410050 2248.687500 572.282300
v 31.515884 2207.449000 741.183300
v 31.515884 2207.449000 572.282300
v 69.410050 2248.687500 572.282300
v 108.712050 2291.458000 572.282300
v 108.712050 2291.457800 741.183300
v 70.362686 2249.724400 572.282300
v 108.712050 2291.457800 741.183300
v 70.362686 2249.724400 741.183300
v 70.362686 2249.724400 572.282300
v -568.588440 1553.021700 740.792900
v -615.467300 1502.005700 740.792900
v -568.588440 1553.021700 571.891900
v -615.467300 1502.005700 740.792900
v -615.467300 1502.005700 571.891900
v -568.588440 1553.021700 571.891900
v -528.511100 1596.636200 571.891900
v -528.511000 1596.636100 740.792900
v -577.164060 1543.689200 571.891900
v -528.511000 1596.636100 740.792900
v -577.164060 1543.689200 740.792900
v -577.164060 1543.689200 571.891900
v -765.107200 1329.325900 570.643400
v -765.107200 1329.326200 739.544400
v -803.456360 1287.592300 570.643400
v -765.107200 1329.326200 739.544400
v -803.456360 1287.592300 739.544300
v -803.456360 1287.592300 570.643400
v -804.409100 1286.555500 739.544300
v -842.535000 1245.065100 739.544300
v -804.409100 1286.555500 570.643400
v -842.535000 1245.065100 739.544300
v -842.535000 1245.065100 570.643400
v -804.409100 1286.555500 570.643400
v -371.286650 1770.105000 741.183300
v -409.180630 1728.866600 741.183300
v -371.286650 1770.105000 572.282300
v -409.180630 1728.866600 741.183300
v -409.180630 1728.866600 572.282300
v -371.286650 1770.105000 572.282300
v -332.123380 1813.002800 572.282300
v -332.123260 1813.002800 741.183300
v -370.472630 1771.269400 572.282300
v -332.123260 1813.002800 741.183300
v -370.472630 1771.269400 741.183300
v -370.472630 1771.269400 572.282300
v -1193.240200 1061.922000 741.183200
v -1234.142000 1099.506700 741.183200
v -1193.240200 1061.922000 572.282200
v -1234.142000 1099.506700 741.183200
v -1234.142000 1099.506700 572.282200
v -1193.240200 1061.922000 572.282200
v -1148.756300 1021.045500 572.282200
v -1148.756500 1021.045300 741.183200
v -1192.203400 1060.969100 572.282200
v -1148.756500 1021.045300 741.183200
v -1192.203400 1060.969100 741.183200
v -1192.203400 1060.969100 572.282200
v -1419.010000 1255.248900 741.183200
v -1461.572100 1294.359400 741.183200
v -1419.010000 1255.248900 572.444400
v -1461.572100 1294.359400 741.183200
v -1461.572100 1294.359400 572.444400
v -1419.010000 1255.248900 572.444400
v -1376.239500 1215.946800 572.444340
v -1376.239500 1215.946800 741.183200
v -1417.973100 1254.296100 572.444400
v -1376.239500 1215.946800 741.183200
v -1417.973100 1254.296100 741.183200
v -1417.973100 1254.296100 572.444400
v -1632.264000 1469.580800 741.183300
v -1674.203500 1508.119100 741.183300
v -1632.264000 1469.580800 572.282300
v -1674.203500 1508.119100 741.183300
v -1674.203500 1508.119100 572.282300
v -1632.264000 1469.580800 572.282300
v -1589.062000 1429.882300 572.282300
v -1589.062000 1429.882300 741.183300
v -1631.227200 1468.628000 572.282300
v -1589.062000 1429.882300 741.183300
v -1631.227200 1468.628000 741.183300
v -1631.227200 1468.628000 572.282300
v 6.721024 2479.235600 741.183300
v 48.710100 2440.651900 741.183300
v 6.721024 2479.235600 572.282300
v 48.710100 2440.651900 741.183300
v 48.710100 2440.651900 572.282300
v 6.721024 2479.235600 572.282300
v -37.135360 2519.535400 572.282300
v -37.135360 2519.535400 741.183300
v 5.684159 2480.188200 572.282300
v -37.135360 2519.535400 741.183300
v 5.684159 2480.188200 741.183300
v 5.684159 2480.188200 572.282300
v -213.570660 2683.703000 741.183300
v -171.596480 2645.132600 741.183300
v -213.570660 2683.703000 572.282350
v -171.596480 2645.132600 741.183300
v -171.596480 2645.132600 572.282350
v -213.570660 2683.703000 572.282350
v -257.429470 2724.005100 572.282350
v -257.429470 2724.005100 741.183350
v -214.607530 2684.655500 572.282350
v -257.429470 2724.005100 741.183350
v -214.607530 2684.655500 741.183300
v -214.607530 2684.655500 572.282350
v -435.201140 2887.344700 741.183350
v -393.033170 2848.596200 741.183350
v -435.201140 2887.344700 572.282350
v -393.033170 2848.596200 741.183350
v -393.033170 2848.596200 572.282350
v -435.201140 2887.344700 572.282350
v -478.492280 2927.125000 572.282350
v -478.492280 2927.125000 741.183350
v -436.238000 2888.297400 572.282350
v -478.492280 2927.125000 741.183350
v -436.238000 2888.297400 741.183350
v -436.238000 2888.297400 572.282350
v -142.025620 1976.818100 1539.334100
v -73.895860 2050.961000 1539.334100
v -142.023570 1976.820800 1659.806900
v -73.895860 2050.961000 1539.334100
v -73.895980 2050.961200 1659.806900
v -142.023570 1976.820800 1659.806900
v -1684.342900 1489.402300 1551.440200
v -1610.200300 1421.272500 1551.440200
v -1684.340500 1489.400100 1663.719100
v -1610.200300 1421.272500 1551.440200
v -1610.200200 1421.272600 1663.719100
v -1684.340500 1489.400100 1663.719100
v -385.452640 1711.908200 1545.660900
v -317.322780 1786.050500 1545.660900
v -385.450500 1711.910500 1663.719100
v -317.322780 1786.050500 1545.660900
v -317.322780 1786.050700 1663.719100
v -385.450500 1711.910500 1663.719100
v -96.548260 2623.603800 1551.440200
v -170.690780 2691.733600 1551.440200
v -96.550580 2623.606000 1663.719100
v -170.690780 2691.733600 1551.440200
v -170.690840 2691.733600 1663.719100
v -96.550580 2623.606000 1663.719100
v -579.023700 1497.902600 1545.660900
v -510.893950 1572.045300 1545.660900
v -579.021600 1497.905000 1663.719100
v -510.893950 1572.045300 1545.660900
v -510.894040 1572.045200 1663.719100
v -579.021600 1497.905000 1663.719100
v -1460.462200 1283.678100 1551.440200
v -1386.319600 1215.548200 1551.440200
v -1460.459700 1283.675900 1663.719100
v -1386.319600 1215.548200 1551.440200
v -1386.319500 1215.548200 1663.719100
v -1460.459700 1283.675900 1663.719100
v -320.428920 2829.328100 1551.440200
v -394.571380 2897.458000 1551.440200
v -320.431370 2829.330300 1663.719100
v -394.571380 2897.458000 1551.440200
v -394.571500 2897.458000 1663.719100
v -320.431370 2829.330300 1663.719100
v -821.175500 1234.379900 1545.660900
v -753.045700 1308.522300 1545.660900
v -821.173400 1234.382200 1663.719100
v -753.045700 1308.522300 1545.660900
v -753.045840 1308.522500 1663.719100
v -821.173400 1234.382200 1663.719100
vn 0.737967 -0.674825 -0.003946
vn 0.737967 -0.674825 -0.003946
vn 0.737967 -0.674825 -0.003946
vn 0.737967 -0.674825 -0.003946
vn 0.737967 -0.674825 -0.003946
vn 0.737967 -0.674825 -0.003946
vn 0.737967 -0.674825 -0.003946
vn 0.737967 -0.674825 -0.003946
vn 0.737967 -0.674825 -0.003946
vn 0.737967 -0.674825 -0.003946
vn 0.737967 -0.674825 -0.003946
vn 0.737967 -0.674825 -0.003946
vn 0.737967 -0.674825 -0.003946
vn 0.737967 -0.674825 -0.003946
vn 0.737967 -0.674825 -0.003946
vn 0.737967 -0.674825 -0.003946
vn 0.737967 -0.674825 -0.003946
vn 0.737967 -0.674825 -0.003946
vn 0.737967 -0.674825 -0.003946
vn 0.737967 -0.674825 -0.003946
vn 0.737967 -0.674825 -0.003946
vn 0.737967 -0.674825 -0.003946
vn 0.737967 -0.674825 -0.003946
vn 0.737967 -0.674825 -0.003946
vn 0.737967 -0.674825 -0.003946
vn 0.737967 -0.674825 -0.003946
vn 0.737967 -0.674825 -0.003946
vn 0.737967 -0.674825 -0.003946
vn 0.737967 -0.674825 -0.003946
vn 0.737967 -0.674825 -0.003946
vn 0.737967 -0.674825 -0.003946
vn 0.737967 -0.674825 -0.003946
vn 0.737967 -0.674825 -0.003946
vn 0.737967 -0.674825 -0.003946
vn 0.737967 -0.674825 -0.003946
vn 0.737967 -0.674825 -0.003946
vn 0.737967 -0.674825 -0.003946
vn 0.737967 -0.674825 -0.003946
vn 0.737967 -0.674825 -0.003946
vn 0.737967 -0.674825 -0.003946
vn 0.737967 -0.674825 -0.003946
vn 0.737967 -0.674825 -0.003946
vn 0.737967 -0.674825 -0.003946
vn 0.737967 -0.674825 -0.003946
vn 0.737967 -0.674825 -0.003946
vn 0.737967 -0.674825 -0.003946
vn 0.737967 -0.674825 -0.003946
vn 0.737967 -0.674825 -0.003946
vn 0.737967 -0.674825 -0.003946
vn 0.737967 -0.674825 -0.003946
vn 0.737967 -0.674825 -0.003946
vn 0.737967 -0.674825 -0.003946
vn 0.737967 -0.674825 -0.003946
vn 0.737967 -0.674825 -0.003946
vn 0.737967 -0.674825 -0.003946
vn 0.737967 -0.674825 -0.003946
vn 0.737967 -0.674825 -0.003946
vn 0.737967 -0.674825 -0.003946
vn 0.737967 -0.674825 -0.003946
vn 0.737967 -0.674825 -0.003946
vn 0.737967 -0.674825 -0.003946
vn 0.737967 -0.674825 -0.003946
vn 0.737967 -0.674825 -0.003946
vn 0.737967 -0.674825 -0.003946
vn 0.737967 -0.674825 -0.003946
vn 0.737967 -0.674825 -0.003946
vn 0.737967 -0.674825 -0.003946
vn 0.737967 -0.674825 -0.003946
vn 0.737967 -0.674825 -0.003946
vn 0.737967 -0.674825 -0.003946
vn 0.737967 -0.674825 -0.003946
vn 0.737967 -0.674825 -0.003946
vn 0.737967 -0.674825 -0.003946
vn 0.737967 -0.674825 -0.003946
vn 0.737967 -0.674825 -0.003946
vn 0.737967 -0.674825 -0.003946
vn 0.737967 -0.674825 -0.003946
vn 0.737967 -0.674825 -0.003946
vn 0.737967 -0.674825 -0.003946
vn 0.737967 -0.674825 -0.003946
vn 0.737967 -0.674825 -0.003946
vn 0.737967 -0.674825 -0.003946
vn 0.737967 -0.674825 -0.003946
vn 0.737967 -0.674825 -0.003946
vn 0.737967 -0.674825 -0.003946
vn 0.737967 -0.674825 -0.003946
vn 0.737967 -0.674825 -0.003946
vn 0.737967 -0.674825 -0.003946
vn 0.737967 -0.674825 -0.003946
vn 0.737967 -0.674825 -0.003946
vn 0.737967 -0.674825 -0.003946
vn 0.737967 -0.674825 -0.003946
vn 0.737967 -0.674825 -0.003946
vn 0.737967 -0.674825 -0.003946
vn 0.737967 -0.674825 -0.003946
vn 0.737967 -0.674825 -0.003946
vn 0.737967 -0.674825 -0.003946
vn 0.737967 -0.674825 -0.003946
vn 0.737967 -0.674825 -0.003946
vn 0.737967 -0.674825 -0.003946
vn 0.737967 -0.674825 -0.003946
vn 0.737967 -0.674825 -0.003946
vn 0.737967 -0.674825 -0.003946
vn 0.737967 -0.674825 -0.003946
vn 0.737967 -0.674825 -0.003946
vn 0.737967 -0.674825 -0.003946
vn 0.737967 -0.674825 -0.003946
vn 0.737967 -0.674825 -0.003946
vn 0.737967 -0.674825 -0.003946
vn 0.737967 -0.674825 -0.003946
vn 0.737967 -0.674825 -0.003946
vn 0.737967 -0.674825 -0.003946
vn 0.737967 -0.674825 -0.003946
vn 0.737967 -0.674825 -0.003946
vn 0.737967 -0.674825 -0.003946
vn 0.737967 -0.674825 -0.003946
vn 0.737967 -0.674825 -0.003946
vn 0.737967 -0.674825 -0.003946
vn 0.737967 -0.674825 -0.003946
vn 0.737967 -0.674825 -0.003946
vn -0.679090 -0.734045 -0.003925
vn -0.679090 -0.734045 -0.003925
vn -0.679090 -0.734045 -0.003925
vn -0.679090 -0.734045 -0.003925
vn -0.679090 -0.734045 -0.003925
vn -0.679090 -0.734045 -0.003925
vn -0.679090 -0.734045 -0.003925
vn -0.679090 -0.734045 -0.003925
vn -0.679090 -0.734045 -0.003925
vn -0.679090 -0.734045 -0.003925
vn -0.679090 -0.734045 -0.003925
vn -0.679090 -0.734045 -0.003925
vn -0.679090 -0.734045 -0.003925
vn -0.679090 -0.734045 -0.003925
vn -0.679090 -0.734045 -0.003925
vn -0.679090 -0.734045 -0.003925
vn -0.679090 -0.734045 -0.003925
vn -0.679090 -0.734045 -0.003925
vn -0.679090 -0.734045 -0.003925
vn -0.679090 -0.734045 -0.003925
vn -0.679090 -0.734045 -0.003925
vn -0.679090 -0.734045 -0.003925
vn -0.679090 -0.734045 -0.003925
vn -0.679090 -0.734045 -0.003925
vn -0.679090 -0.734045 -0.003925
vn -0.679090 -0.734045 -0.003925
vn -0.679090 -0.734045 -0.003925
vn -0.679090 -0.734045 -0.003925
vn -0.679090 -0.734045 -0.003925
vn -0.679090 -0.734045 -0.003925
vn -0.679090 -0.734045 -0.003925
vn -0.679090 -0.734045 -0.003925
vn -0.679090 -0.734045 -0.003925
vn -0.679090 -0.734045 -0.003925
vn -0.679090 -0.734045 -0.003925
vn -0.679090 -0.734045 -0.003925
vn -0.679090 -0.734045 -0.003925
vn -0.679090 -0.734045 -0.003925
vn -0.679090 -0.734045 -0.003925
vn -0.679090 -0.734045 -0.003925
vn -0.679090 -0.734045 -0.003925
vn -0.679090 -0.734045 -0.003925
vn -0.679090 -0.734045 -0.003925
vn -0.679090 -0.734045 -0.003925
vn -0.679090 -0.734045 -0.003925
vn -0.679090 -0.734045 -0.003925
vn -0.679090 -0.734045 -0.003925
vn -0.679090 -0.734045 -0.003925
vn -0.679090 -0.734045 -0.003925
vn -0.679090 -0.734045 -0.003925
vn -0.679090 -0.734045 -0.003925
vn -0.679090 -0.734045 -0.003925
vn -0.679090 -0.734045 -0.003925
vn -0.679090 -0.734045 -0.003925
vn -0.679090 -0.734045 -0.003925
vn -0.679090 -0.734045 -0.003925
vn -0.679090 -0.734045 -0.003925
vn -0.679090 -0.734045 -0.003925
vn -0.679090 -0.734045 -0.003925
vn -0.679090 -0.734045 -0.003925
vn 0.737967 -0.674825 -0.003946
vn 0.737967 -0.674825 -0.003946
vn 0.737967 -0.674825 -0.003946
vn 0.737967 -0.674825 -0.003946
vn 0.737967 -0.674825 -0.003946
vn 0.737967 -0.674825 -0.003946
vn 0.737967 -0.674825 -0.003946
vn 0.737967 -0.674825 -0.003946
vn 0.737967 -0.674825 -0.003946
vn 0.737967 -0.674825 -0.003946
vn 0.737967 -0.674825 -0.003946
vn 0.737967 -0.674825 -0.003946
vn 0.670908 0.741530 -0.003923
vn 0.670908 0.741530 -0.003923
vn 0.670908 0.741530 -0.003923
vn 0.670908 0.741530 -0.003923
vn 0.670908 0.741530 -0.003923
vn 0.670908 0.741530 -0.003923
vn 0.670908 0.741530 -0.003923
vn 0.670908 0.741530 -0.003923
vn 0.670908 0.741530 -0.003923
vn 0.670908 0.741530 -0.003923
vn 0.670908 0.741530 -0.003923
vn 0.670908 0.741530 -0.003923
vn 0.670908 0.741530 -0.003923
vn 0.670908 0.741530 -0.003923
vn 0.670908 0.741530 -0.003923
vn 0.670908 0.741530 -0.003923
vn 0.670908 0.741530 -0.003923
vn 0.670908 0.741530 -0.003923
vn 0.670908 0.741530 -0.003923
vn 0.670908 0.741530 -0.003923
vn 0.670908 0.741530 -0.003923
vn 0.670908 0.741530 -0.003923
vn 0.670908 0.741530 -0.003923
vn 0.670908 0.741530 -0.003923
vn 0.670908 0.741530 -0.003923
vn 0.670908 0.741530 -0.003923
vn 0.670908 0.741530 -0.003923
vn 0.670908 0.741530 -0.003923
vn 0.670908 0.741530 -0.003923
vn 0.670908 0.741530 -0.003923
vn 0.670908 0.741530 -0.003923
vn 0.670908 0.741530 -0.003923
vn 0.670908 0.741530 -0.003923
vn 0.670908 0.741530 -0.003923
vn 0.670908 0.741530 -0.003923
vn 0.670908 0.741530 -0.003923
vn 0.670908 0.741530 -0.003923
vn 0.670908 0.741530 -0.003923
vn 0.670908 0.741530 -0.003923
vn 0.670908 0.741530 -0.003923
vn 0.670908 0.741530 -0.003923
vn 0.670908 0.741530 -0.003923
vn 0.670908 0.741530 -0.003923
vn 0.670908 0.741530 -0.003923
vn 0.670908 0.741530 -0.003923
vn 0.670908 0.741530 -0.003923
vn 0.670908 0.741530 -0.003923
vn 0.670908 0.741530 -0.003923
vn 0.670908 0.741530 -0.003923
vn 0.670908 0.741530 -0.003923
vn 0.670908 0.741530 -0.003923
vn 0.670908 0.741530 -0.003923
vn 0.670908 0.741530 -0.003923
vn 0.670908 0.741530 -0.003923
vn 0.670908 0.741530 -0.003923
vn 0.670908 0.741530 -0.003923
vn 0.670908 0.741530 -0.003923
vn 0.670908 0.741530 -0.003923
vn 0.670908 0.741530 -0.003923
vn 0.670908 0.741530 -0.003923
vn 0.737967 -0.674825 -0.003946
vn 0.737967 -0.674825 -0.003946
vn 0.737967 -0.674825 -0.003946
vn 0.737967 -0.674825 -0.003946
vn 0.737967 -0.674825 -0.003946
vn 0.737967 -0.674825 -0.003946
vn 0.737967 -0.674825 -0.003946
vn 0.737967 -0.674825 -0.003946
vn 0.737967 -0.674825 -0.003946
vn 0.737967 -0.674825 -0.003946
vn 0.737967 -0.674825 -0.003946
vn 0.737967 -0.674825 -0.003946
vn 0.737967 -0.674825 -0.003946
vn 0.737967 -0.674825 -0.003946
vn 0.737967 -0.674825 -0.003946
vn 0.737967 -0.674825 -0.003946
vn 0.737967 -0.674825 -0.003946
vn 0.737967 -0.674825 -0.003946
vn 0.737967 -0.674825 -0.003946
vn 0.737967 -0.674825 -0.003946
vn 0.737967 -0.674825 -0.003946
vn 0.737967 -0.674825 -0.003946
vn 0.737967 -0.674825 -0.003946
vn 0.737967 -0.674825 -0.003946
vn 0.737967 -0.674825 -0.003946
vn 0.737967 -0.674825 -0.003946
vn 0.737967 -0.674825 -0.003946
vn 0.737967 -0.674825 -0.003946
vn 0.737967 -0.674825 -0.003946
vn 0.737967 -0.674825 -0.003946
vn 0.737967 -0.674825 -0.003946
vn 0.737967 -0.674825 -0.003946
vn 0.737967 -0.674825 -0.003946
vn 0.737967 -0.674825 -0.003946
vn 0.737967 -0.674825 -0.003946
vn 0.737967 -0.674825 -0.003946
vn -0.679090 -0.734045 -0.003925
vn -0.679090 -0.734045 -0.003925
vn -0.679090 -0.734045 -0.003925
vn -0.679090 -0.734045 -0.003925
vn -0.679090 -0.734045 -0.003925
vn -0.679090 -0.734045 -0.003925
vn -0.679090 -0.734045 -0.003925
vn -0.679090 -0.734045 -0.003925
vn -0.679090 -0.734045 -0.003925
vn -0.679090 -0.734045 -0.003925
vn -0.679090 -0.734045 -0.003925
vn -0.679090 -0.734045 -0.003925
vn -0.679090 -0.734045 -0.003925
vn -0.679090 -0.734045 -0.003925
vn -0.679090 -0.734045 -0.003925
vn -0.679090 -0.734045 -0.003925
vn -0.679090 -0.734045 -0.003925
vn -0.679090 -0.734045 -0.003925
vn -0.679090 -0.734045 -0.003925
vn -0.679090 -0.734045 -0.003925
vn -0.679090 -0.734045 -0.003925
vn -0.679090 -0.734045 -0.003925
vn -0.679090 -0.734045 -0.003925
vn -0.679090 -0.734045 -0.003925
vn 0.737967 -0.674825 -0.003946
vn 0.737967 -0.674825 -0.003946
vn 0.737967 -0.674825 -0.003946
vn 0.737967 -0.674825 -0.003946
vn 0.737967 -0.674825 -0.003946
vn 0.737967 -0.674825 -0.003946
vn 0.737967 -0.674825 -0.003946
vn 0.737967 -0.674825 -0.003946
vn 0.737967 -0.674825 -0.003946
vn 0.737967 -0.674825 -0.003946
vn 0.737967 -0.674825 -0.003946
vn 0.737967 -0.674825 -0.003946
vn 0.737967 -0.674825 -0.003946
vn 0.737967 -0.674825 -0.003946
vn 0.737967 -0.674825 -0.003946
vn 0.737967 -0.674825 -0.003946
vn 0.737967 -0.674825 -0.003946
vn 0.737967 -0.674825 -0.003946
vn 0.737967 -0.674825 -0.003946
vn 0.737967 -0.674825 -0.003946
vn 0.737967 -0.674825 -0.003946
vn 0.737967 -0.674825 -0.003946
vn 0.737967 -0.674825 -0.003946
vn 0.737967 -0.674825 -0.003946
vn 0.737967 -0.674825 -0.003946
vn 0.737967 -0.674825 -0.003946
vn 0.737967 -0.674825 -0.003946
vn 0.737967 -0.674825 -0.003946
vn 0.737967 -0.674825 -0.003946
vn 0.737967 -0.674825 -0.003946
vn 0.737967 -0.674825 -0.003946
vn 0.737967 -0.674825 -0.003946
vn 0.737967 -0.674825 -0.003946
vn 0.737967 -0.674825 -0.003946
vn 0.737967 -0.674825 -0.003946
vn 0.737967 -0.674825 -0.003946
vn 0.737967 -0.674825 -0.003946
vn 0.737967 -0.674825 -0.003946
vn 0.737967 -0.674825 -0.003946
vn 0.737967 -0.674825 -0.003946
vn 0.737967 -0.674825 -0.003946
vn 0.737967 -0.674825 -0.003946
vn 0.737967 -0.674825 -0.003946
vn 0.737967 -0.674825 -0.003946
vn 0.737967 -0.674825 -0.003946
vn 0.737967 -0.674825 -0.003946
vn 0.737967 -0.674825 -0.003946
vn 0.737967 -0.674825 -0.003946
vn 0.737967 -0.674825 -0.003946
vn 0.737967 -0.674825 -0.003946
vn 0.737967 -0.674825 -0.003946
vn 0.737967 -0.674825 -0.003946
vn 0.737967 -0.674825 -0.003946
vn 0.737967 -0.674825 -0.003946
vn 0.737967 -0.674825 -0.003946
vn 0.737967 -0.674825 -0.003946
vn 0.737967 -0.674825 -0.003946
vn 0.737967 -0.674825 -0.003946
vn 0.737967 -0.674825 -0.003946
vn 0.737967 -0.674825 -0.003946
vn -0.679090 -0.734045 -0.003925
vn -0.679090 -0.734045 -0.003925
vn -0.679090 -0.734045 -0.003925
vn -0.679090 -0.734045 -0.003925
vn -0.679090 -0.734045 -0.003925
vn -0.679090 -0.734045 -0.003925
vn -0.679090 -0.734045 -0.003925
vn -0.679090 -0.734045 -0.003925
vn -0.679090 -0.734045 -0.003925
vn -0.679090 -0.734045 -0.003925
vn -0.679090 -0.734045 -0.003925
vn -0.679090 -0.734045 -0.003925
vn -0.679090 -0.734045 -0.003925
vn -0.679090 -0.734045 -0.003925
vn -0.679090 -0.734045 -0.003925
vn -0.679090 -0.734045 -0.003925
vn -0.679090 -0.734045 -0.003925
vn -0.679090 -0.734045 -0.003925
vn -0.679090 -0.734045 -0.003925
vn -0.679090 -0.734045 -0.003925
vn -0.679090 -0.734045 -0.003925
vn -0.679090 -0.734045 -0.003925
vn -0.679090 -0.734045 -0.003925
vn -0.679090 -0.734045 -0.003925
vn -0.679090 -0.734045 -0.003925
vn -0.679090 -0.734045 -0.003925
vn -0.679090 -0.734045 -0.003925
vn -0.679090 -0.734045 -0.003925
vn -0.679090 -0.734045 -0.003925
vn -0.679090 -0.734045 -0.003925
vn -0.679090 -0.734045 -0.003925
vn -0.679090 -0.734045 -0.003925
vn -0.679090 -0.734045 -0.003925
vn -0.679090 -0.734045 -0.003925
vn -0.679090 -0.734045 -0.003925
vn -0.679090 -0.734045 -0.003925
vn 0.670908 0.741530 -0.003923
vn 0.670908 0.741530 -0.003923
vn 0.670908 0.741530 -0.003923
vn 0.670908 0.741530 -0.003923
vn 0.670908 0.741530 -0.003923
vn 0.670908 0.741530 -0.003923
vn 0.670908 0.741530 -0.003923
vn 0.670908 0.741530 -0.003923
vn 0.670908 0.741530 -0.003923
vn 0.670908 0.741530 -0.003923
vn 0.670908 0.741530 -0.003923
vn 0.670908 0.741530 -0.003923
vn 0.670908 0.741530 -0.003923
vn 0.670908 0.741530 -0.003923
vn 0.670908 0.741530 -0.003923
vn 0.670908 0.741530 -0.003923
vn 0.670908 0.741530 -0.003923
vn 0.670908 0.741530 -0.003923
vn 0.670908 0.741530 -0.003923
vn 0.670908 0.741530 -0.003923
vn 0.670908 0.741530 -0.003923
vn 0.670908 0.741530 -0.003923
vn 0.670908 0.741530 -0.003923
vn 0.670908 0.741530 -0.003923
vn 0.670908 0.741530 -0.003923
vn 0.670908 0.741530 -0.003923
vn 0.670908 0.741530 -0.003923
vn 0.670908 0.741530 -0.003923
vn 0.670908 0.741530 -0.003923
vn 0.670908 0.741530 -0.003923
vn 0.670908 0.741530 -0.003923
vn 0.670908 0.741530 -0.003923
vn 0.670908 0.741530 -0.003923
vn 0.670908 0.741530 -0.003923
vn 0.670908 0.741530 -0.003923
vn 0.670908 0.741530 -0.003923
vn 0.737967 -0.674825 -0.003946
vn 0.737967 -0.674825 -0.003946
vn 0.737967 -0.674825 -0.003946
vn 0.737967 -0.674825 -0.003946
vn 0.737967 -0.674825 -0.003946
vn 0.737967 -0.674825 -0.003946
vn -0.679090 -0.734045 -0.003925
vn -0.679090 -0.734045 -0.003925
vn -0.679090 -0.734045 -0.003925
vn -0.679090 -0.734045 -0.003925
vn -0.679090 -0.734045 -0.003925
vn -0.679090 -0.734045 -0.003925
vn 0.737967 -0.674825 -0.003946
vn 0.737967 -0.674825 -0.003946
vn 0.737967 -0.674825 -0.003946
vn 0.737967 -0.674825 -0.003946
vn 0.737967 -0.674825 -0.003946
vn 0.737967 -0.674825 -0.003946
vn 0.670908 0.741530 -0.003923
vn 0.670908 0.741530 -0.003923
vn 0.670908 0.741530 -0.003923
vn 0.670908 0.741530 -0.003923
vn 0.670908 0.741530 -0.003923
vn 0.670908 0.741530 -0.003923
vn 0.737967 -0.674825 -0.003946
vn 0.737967 -0.674825 -0.003946
vn 0.737967 -0.674825 -0.003946
vn 0.737967 -0.674825 -0.003946
vn 0.737967 -0.674825 -0.003946
vn 0.737967 -0.674825 -0.003946
vn -0.679090 -0.734045 -0.003925
vn -0.679090 -0.734045 -0.003925
vn -0.679090 -0.734045 -0.003925
vn -0.679090 -0.734045 -0.003925
vn -0.679090 -0.734045 -0.003925
vn -0.679090 -0.734045 -0.003925
vn 0.670908 0.741530 -0.003923
vn 0.670908 0.741530 -0.003923
vn 0.670908 0.741530 -0.003923
vn 0.670908 0.741530 -0.003923
vn 0.670908 0.741530 -0.003923
vn 0.670908 0.741530 -0.003923
vn 0.737967 -0.674825 -0.003946
vn 0.737967 -0.674825 -0.003946
vn 0.737967 -0.674825 -0.003946
vn 0.737967 -0.674825 -0.003946
vn 0.737967 -0.674825 -0.003946
vn 0.737967 -0.674825 -0.003946
vt 0.497803 0.988487
vt 0.251221 0.988487
vt 0.497803 0.225098
vt 0.251221 0.988487
vt 0.251221 0.225098
vt 0.497803 0.225098
vt 0.249146 0.225098
vt 0.249146 0.988487
vt 0.002602 0.225098
vt 0.249146 0.988487
vt 0.002602 0.988487
vt 0.002602 0.225098
vt -2.246094 0.988487
vt -2.492188 0.988487
vt -2.246094 0.225098
vt -2.492188 0.988487
vt -2.492188 0.225098
vt -2.246094 0.225098
vt -2.496094 0.225098
vt -2.496094 0.988487
vt -2.250000 0.225098
vt -2.496094 0.988487
vt -2.250000 0.988487
vt -2.250000 0.225098
vt 0.497803 0.988487
vt 0.251221 0.988487
vt 0.497803 0.225098
vt 0.251221 0.988487
vt 0.251221 0.225098
vt 0.497803 0.225098
vt 0.249146 0.225098
vt 0.249146 0.988487
vt 0.002602 0.225098
vt 0.249146 0.988487
vt 0.002602 0.988487
vt 0.002602 0.225098
vt 0.497803 0.988487
vt 0.251221 0.988487
vt 0.497803 0.225098
vt 0.251221 0.988487
vt 0.251221 0.225098
vt 0.497803 0.225098
vt 0.249146 0.225098
vt 0.249146 0.988487
vt 0.002602 0.225098
vt 0.249146 0.988487
vt 0.002602 0.988487
vt 0.002602 0.225098
vt 0.497803 0.988487
vt 0.251221 0.988487
vt 0.497803 0.225098
vt 0.251221 0.988487
vt 0.251221 0.225098
vt 0.497803 0.225098
vt 0.249146 0.225098
vt 0.249146 0.988487
vt 0.002602 0.225098
vt 0.249146 0.988487
vt 0.002602 0.988487
vt 0.002602 0.225098
vt 0.249146 0.225098
vt 0.249146 0.988487
vt 0.002602 0.225098
vt 0.249146 0.988487
vt 0.002602 0.988487
vt 0.002602 0.225098
vt 0.497803 0.988487
vt 0.251221 0.988487
vt 0.497803 0.225098
vt 0.251221 0.988487
vt 0.251221 0.225098
vt 0.497803 0.225098
vt 0.249146 0.225098
vt 0.249146 0.988487
vt 0.002602 0.225098
vt 0.249146 0.988487
vt 0.002602 0.988487
vt 0.002602 0.225098
vt 0.497803 0.988487
vt 0.251221 0.988487
vt 0.497803 0.225098
vt 0.251221 0.988487
vt 0.251221 0.225098
vt 0.497803 0.225098
vt 0.249146 0.225098
vt 0.249146 0.988487
vt 0.002602 0.225098
vt 0.249146 0.988487
vt 0.002602 0.988487
vt 0.002602 0.225098
vt 0.497803 0.988487
vt 0.251221 0.988487
vt 0.497803 0.225098
vt 0.251221 0.988487
vt 0.251221 0.225098
vt 0.497803 0.225098
vt 0.249146 0.225098
vt 0.249146 0.988487
vt 0.002602 0.225098
vt 0.249146 0.988487
vt 0.002602 0.988487
vt 0.002602 0.225098
vt 0.497803 0.988487
vt 0.251221 0.988487
vt 0.497803 0.225098
vt 0.251221 0.988487
vt 0.251221 0.225098
vt 0.497803 0.225098
vt 0.249146 0.225098
vt 0.249146 0.988487
vt 0.002602 0.225098
vt 0.249146 0.988487
vt 0.002602 0.988487
vt 0.002602 0.225098
vt 0.497803 0.988487
vt 0.251221 0.988487
vt 0.497803 0.225098
vt 0.251221 0.988487
vt 0.251221 0.225098
vt 0.497803 0.225098
vt 0.497803 0.988487
vt 0.251221 0.988487
vt 0.497803 0.225098
vt 0.251221 0.988487
vt 0.251221 0.225098
vt 0.497803 0.225098
vt 0.249146 0.225098
vt 0.249146 0.988487
vt 0.002602 0.225098
vt 0.249146 0.988487
vt 0.002602 0.988487
vt 0.002602 0.225098
vt 0.497803 0.988487
vt 0.251221 0.988487
vt 0.497803 0.225098
vt 0.251221 0.988487
vt 0.251221 0.225098
vt 0.497803 0.225098
vt 0.249146 0.225098
vt 0.249146 0.988487
vt 0.002602 0.225098
vt 0.249146 0.988487
vt 0.002602 0.988487
vt 0.002602 0.225098
vt 0.497070 0.225098
vt 0.497070 0.988487
vt 0.743652 0.225098
vt 0.497070 0.988487
vt 0.743652 0.988487
vt 0.743652 0.225098
vt 0.747559 0.988487
vt 0.500977 0.988487
vt 0.747559 0.225098
vt 0.500977 0.988487
vt 0.500977 0.225098
vt 0.747559 0.225098
vt 0.498047 0.225098
vt 0.498047 0.988487
vt 0.744629 0.225098
vt 0.498047 0.988487
vt 0.744629 0.988487
vt 0.744629 0.225098
vt 0.993164 0.988487
vt 0.746582 0.988487
vt 0.993164 0.225098
vt 0.746582 0.988487
vt 0.746582 0.225098
vt 0.993164 0.225098
vt 0.249146 0.225098
vt 0.249146 0.988487
vt 0.002602 0.225098
vt 0.249146 0.988487
vt 0.002602 0.988487
vt 0.002602 0.225098
vt 0.497803 0.988487
vt 0.251221 0.988487
vt 0.497803 0.225098
vt 0.251221 0.988487
vt 0.251221 0.225098
vt 0.497803 0.225098
vt 0.497803 0.988487
vt 0.251221 0.988487
vt 0.497803 0.225098
vt 0.251221 0.988487
vt 0.251221 0.225098
vt 0.497803 0.225098
vt 0.249146 0.225098
vt 0.249146 0.988487
vt 0.002602 0.225098
vt 0.249146 0.988487
vt 0.002602 0.988487
vt 0.002602 0.225098
vt 0.497803 0.988487
vt 0.251221 0.988487
vt 0.497803 0.225098
vt 0.251221 0.988487
vt 0.251221 0.225098
vt 0.497803 0.225098
vt 0.249146 0.225098
vt 0.249146 0.988487
vt 0.002602 0.225098
vt 0.249146 0.988487
vt 0.002602 0.988487
vt 0.002602 0.225098
vt 0.497070 0.225098
vt 0.497070 0.988487
vt 0.743652 0.225098
vt 0.497070 0.988487
vt 0.743652 0.988487
vt 0.743652 0.225098
vt 0.747559 0.988487
vt 0.500977 0.988487
vt 0.747559 0.225098
vt 0.500977 0.988487
vt 0.500977 0.225098
vt 0.747559 0.225098
vt 0.249146 0.225098
vt 0.249146 0.988487
vt 0.002602 0.225098
vt 0.249146 0.988487
vt 0.002602 0.988487
vt 0.002602 0.225098
vt 0.497803 0.988487
vt 0.251221 0.988487
vt 0.497803 0.225098
vt 0.251221 0.988487
vt 0.251221 0.225098
vt 0.497803 0.225098
vt 0.498047 0.225098
vt 0.498047 0.988487
vt 0.744629 0.225098
vt 0.498047 0.988487
vt 0.744629 0.988487
vt 0.744629 0.225098
vt 0.993164 0.988487
vt 0.746582 0.988487
vt 0.993164 0.225098
vt 0.746582 0.988487
vt 0.746582 0.225098
vt 0.993164 0.225098
vt 0.497803 0.988487
vt 0.251221 0.988487
vt 0.497803 0.225098
vt 0.251221 0.988487
vt 0.251221 0.225098
vt 0.497803 0.225098
vt 0.249146 0.225098
vt 0.249146 0.988487
vt 0.002602 0.225098
vt 0.249146 0.988487
vt 0.002602 0.988487
vt 0.002602 0.225098
vt 0.497803 0.988487
vt 0.251221 0.988487
vt 0.497803 0.225098
vt 0.251221 0.988487
vt 0.251221 0.225098
vt 0.497803 0.225098
vt 0.249146 0.225098
vt 0.249146 0.988487
vt 0.002602 0.225098
vt 0.249146 0.988487
vt 0.002602 0.988487
vt 0.002602 0.225098
vt 0.497803 0.988487
vt 0.251221 0.988487
vt 0.497803 0.225098
vt 0.251221 0.988487
vt 0.251221 0.225098
vt 0.497803 0.225098
vt 0.249146 0.225098
vt 0.249146 0.988487
vt 0.002602 0.225098
vt 0.249146 0.988487
vt 0.002602 0.988487
vt 0.002602 0.225098
vt 0.497803 0.988487
vt 0.251221 0.988487
vt 0.497803 0.225098
vt 0.251221 0.988487
vt 0.251221 0.225098
vt 0.497803 0.225098
vt 0.249146 0.225098
vt 0.249146 0.988487
vt 0.002602 0.225098
vt 0.249146 0.988487
vt 0.002602 0.988487
vt 0.002602 0.225098
vt 0.497803 0.988487
vt 0.251221 0.988487
vt 0.497803 0.225098
vt 0.251221 0.988487
vt 0.251221 0.225098
vt 0.497803 0.225098
vt 0.249146 0.225098
vt 0.249146 0.988487
vt 0.002602 0.225098
vt 0.249146 0.988487
vt 0.002602 0.988487
vt 0.002602 0.225098
vt 0.497803 0.988487
vt 0.251221 0.988487
vt 0.497803 0.225098
vt 0.251221 0.988487
vt 0.251221 0.225098
vt 0.497803 0.225098
vt 0.249146 0.225098
vt 0.249146 0.988487
vt 0.002602 0.225098
vt 0.249146 0.988487
vt 0.002602 0.988487
vt 0.002602 0.225098
vt 0.497803 0.988487
vt 0.251221 0.988487
vt 0.497803 0.225098
vt 0.251221 0.988487
vt 0.251221 0.225098
vt 0.497803 0.225098
vt 0.249146 0.225098
vt 0.249146 0.988487
vt 0.002602 0.225098
vt 0.249146 0.988487
vt 0.002602 0.988487
vt 0.002602 0.225098
vt 0.497803 0.988487
vt 0.251221 0.988487
vt 0.497803 0.225098
vt 0.251221 0.988487
vt 0.251221 0.225098
vt 0.497803 0.225098
vt 0.249146 0.225098
vt 0.249146 0.988487
vt 0.002602 0.225098
vt 0.249146 0.988487
vt 0.002602 0.988487
vt 0.002602 0.225098
vt -2.246094 0.988487
vt -2.492188 0.988487
vt -2.246094 0.225098
vt -2.492188 0.988487
vt -2.492188 0.225098
vt -2.246094 0.225098
vt -2.496094 0.225098
vt -2.496094 0.988487
vt -2.250000 0.225098
vt -2.496094 0.988487
vt -2.250000 0.988487
vt -2.250000 0.225098
vt -0.995605 0.225098
vt -0.995605 0.988487
vt -1.242188 0.225098
vt -0.995605 0.988487
vt -1.242188 0.988487
vt -1.242188 0.225098
vt -0.997559 0.988487
vt -1.244141 0.988487
vt -0.997559 0.225098
vt -1.244141 0.988487
vt -1.244141 0.225098
vt -0.997559 0.225098
vt 0.497803 0.988487
vt 0.251221 0.988487
vt 0.497803 0.225098
vt 0.251221 0.988487
vt 0.251221 0.225098
vt 0.497803 0.225098
vt 0.249146 0.225098
vt 0.249146 0.988487
vt 0.002602 0.225098
vt 0.249146 0.988487
vt 0.002602 0.988487
vt 0.002602 0.225098
vt 0.497803 0.988487
vt 0.251221 0.988487
vt 0.497803 0.225098
vt 0.251221 0.988487
vt 0.251221 0.225098
vt 0.497803 0.225098
vt 0.249146 0.225098
vt 0.249146 0.988487
vt 0.002602 0.225098
vt 0.249146 0.988487
vt 0.002602 0.988487
vt 0.002602 0.225098
vt 0.497803 0.988487
vt 0.251221 0.988487
vt 0.497803 0.225098
vt 0.251221 0.988487
vt 0.251221 0.225098
vt 0.497803 0.225098
vt 0.249146 0.225098
vt 0.249146 0.988487
vt 0.002602 0.225098
vt 0.249146 0.988487
vt 0.002602 0.988487
vt 0.002602 0.225098
vt 0.497803 0.988487
vt 0.251221 0.988487
vt 0.497803 0.225098
vt 0.251221 0.988487
vt 0.251221 0.225098
vt 0.497803 0.225098
vt 0.249146 0.225098
vt 0.249146 0.988487
vt 0.002602 0.225098
vt 0.249146 0.988487
vt 0.002602 0.988487
vt 0.002602 0.225098
vt 0.497803 0.988487
vt 0.251221 0.988487
vt 0.497803 0.225098
vt 0.251221 0.988487
vt 0.251221 0.225098
vt 0.497803 0.225098
vt 0.249146 0.225098
vt 0.249146 0.988487
vt 0.002602 0.225098
vt 0.249146 0.988487
vt 0.002602 0.988487
vt 0.002602 0.225098
vt 0.497803 0.988487
vt 0.251221 0.988487
vt 0.497803 0.225098
vt 0.251221 0.988487
vt 0.251221 0.225098
vt 0.497803 0.225098
vt 0.249146 0.225098
vt 0.249146 0.988487
vt 0.002602 0.225098
vt 0.249146 0.988487
vt 0.002602 0.988487
vt 0.002602 0.225098
vt 0.497803 0.988487
vt 0.251221 0.988487
vt 0.497803 0.225098
vt 0.251221 0.988487
vt 0.251221 0.225098
vt 0.497803 0.225098
vt 0.249146 0.225098
vt 0.249146 0.988487
vt 0.002602 0.225098
vt 0.249146 0.988487
vt 0.002602 0.988487
vt 0.002602 0.225098
vt 0.016113 0.223633
vt 0.490234 0.223633
vt 0.016144 0.990166
vt 0.490234 0.223633
vt 0.490234 0.990166
vt 0.016144 0.990166
vt 0.016113 0.223633
vt 0.490234 0.223633
vt 0.016144 0.990166
vt 0.490234 0.223633
vt 0.490234 0.990166
vt 0.016144 0.990166
vt 0.016113 0.223633
vt 0.490234 0.223633
vt 0.016144 0.990166
vt 0.490234 0.223633
vt 0.490234 0.990166
vt 0.016144 0.990166
vt 0.016113 0.223633
vt 0.490234 0.223633
vt 0.016144 0.990166
vt 0.490234 0.223633
vt 0.490234 0.990166
vt 0.016144 0.990166
vt 0.016113 0.223633
vt 0.490234 0.223633
vt 0.016144 0.990166
vt 0.490234 0.223633
vt 0.490234 0.990166
vt 0.016144 0.990166
vt 0.016113 0.223633
vt 0.490234 0.223633
vt 0.016144 0.990166
vt 0.490234 0.223633
vt 0.490234 0.990166
vt 0.016144 0.990166
vt 0.016113 0.223633
vt 0.490234 0.223633
vt 0.016144 0.990166
vt 0.490234 0.223633
vt 0.490234 0.990166
vt 0.016144 0.990166
vt 0.016113 0.223633
vt 0.490234 0.223633
vt 0.016144 0.990166
vt 0.490234 0.223633
vt 0.490234 0.990166
vt 0.016144 0.990166
f 1/1/1 2/2/2 3/3/3
f 4/4/4 5/5/5 6/6/6
f 7/7/7 8/8/8 9/9/9
f 10/10/10 11/11/11 12/12/12
f 13/13/13 14/14/14 15/15/15
f 16/16/16 17/17/17 18/18/18
f 19/19/19 20/20/20 21/21/21
f 22/22/22 23/23/23 24/24/24
f 25/25/25 26/26/26 27/27/27
f 28/28/28 29/29/29 30/30/30
f 31/31/31 32/32/32 33/33/33
f 34/34/34 35/35/35 36/36/36
f 37/37/37 38/38/38 39/39/39
f 40/40/40 41/41/41 42/42/42
f 43/43/43 44/44/44 45/45/45
f 46/46/46 47/47/47 48/48/48
f 49/49/49 50/50/50 51/51/51
f 52/52/52 53/53/53 54/54/54
f 55/55/55 56/56/56 57/57/57
f 58/58/58 59/59/59 60/60/60
f 61/61/61 62/62/62 63/63/63
f 64/64/64 65/65/65 66/66/66
f 67/67/67 68/68/68 69/69/69
f 70/70/70 71/71/71 72/72/72
f 73/73/73 74/74/74 75/75/75
f 76/76/76 77/77/77 78/78/78
f 79/79/79 80/80/80 81/81/81
f 82/82/82 83/83/83 84/84/84
f 85/85/85 86/86/86 87/87/87
f 88/88/88 89/89/89 90/90/90
f 91/91/91 92/92/92 93/93/93
f 94/94/94 95/95/95 96/96/96
f 97/97/97 98/98/98 99/99/99
f 100/100/100 101/101/101 102/102/102
f 103/103/103 104/104/104 105/105/105
f 106/106/106 107/107/107 108/108/108
f 109/109/109 110/110/110 111/111/111
f 112/112/112 113/113/113 114/114/114
f 115/115/115 116/116/116 117/117/117
f 118/118/118 119/119/119 120/120/120
f 121/121/121 122/122/122 123/123/123
f 124/124/124 125/125/125 126/126/126
f 127/127/127 128/128/128 129/129/129
f 130/130/130 131/131/131 132/132/132
f 133/133/133 134/134/134 135/135/135
f 136/136/136 137/137/137 138/138/138
f 139/139/139 140/140/140 141/141/141
f 142/142/142 143/143/143 144/144/144
f 145/145/145 146/146/146 147/147/147
f 148/148/148 149/149/149 150/150/150
f 151/151/151 152/152/152 153/153/153
f 154/154/154 155/155/155 156/156/156
f 157/157/157 158/158/158 159/159/159
f 160/160/160 161/161/161 162/162/162
f 163/163/163 164/164/164 165/165/165
f 166/166/166 167/167/167 168/168/168
f 169/169/169 170/170/170 171/171/171
f 172/172/172 173/173/173 174/174/174
f 175/175/175 176/176/176 177/177/177
f 178/178/178 179/179/179 180/180/180
f 181/181/181 182/182/182 183/183/183
f 184/184/184 185/185/185 186/186/186
f 187/187/187 188/188/188 189/189/189
f 190/190/190 191/191/191 192/192/192
f 193/193/193 194/194/194 195/195/195
f 196/196/196 197/197/197 198/198/198
f 199/199/199 200/200/200 201/201/201
f 202/202/202 203/203/203 204/204/204
f 205/205/205 206/206/206 207/207/207
f 208/208/208 209/209/209 210/210/210
f 211/211/211 212/212/212 213/213/213
f 214/214/214 215/215/215 216/216/216
f 217/217/217 218/218/218 219/219/219
f 220/220/220 221/221/221 222/222/222
f 223/223/223 224/224/224 225/225/225
f 226/226/226 227/227/227 228/228/228
f 229/229/229 230/230/230 231/231/231
f 232/232/232 233/233/233 234/234/234
f 235/235/235 236/236/236 237/237/237
f 238/238/238 239/239/239 240/240/240
f 241/241/241 242/242/242 243/243/243
f 244/244/244 245/245/245 246/246/246
f 247/247/247 248/248/248 249/249/249
f 250/250/250 251/251/251 252/252/252
f 253/253/253 254/254/254 255/255/255
f 256/256/256 257/257/257 258/258/258
f 259/259/259 260/260/260 261/261/261
f 262/262/262 263/263/263 264/264/264
f 265/265/265 266/266/266 267/267/267
f 268/268/268 269/269/269 270/270/270
f 271/271/271 272/272/272 273/273/273
f 274/274/274 275/275/275 276/276/276
f 277/277/277 278/278/278 279/279/279
f 280/280/280 281/281/281 282/282/282
f 283/283/283 284/284/284 285/285/285
f 286/286/286 287/287/287 288/288/288
f 289/289/289 290/290/290 291/291/291
f 292/292/292 293/293/293 294/294/294
f 295/295/295 296/296/296 297/297/297
f 298/298/298 299/299/299 300/300/300
f 301/301/301 302/302/302 303/303/303
f 304/304/304 305/305/305 306/306/306
f 307/307/307 308/308/308 309/309/309
f 310/310/310 311/311/311 312/312/312
f 313/313/313 314/314/314 315/315/315
f 316/316/316 317/317/317 318/318/318
f 319/319/319 320/320/320 321/321/321
f 322/322/322 323/323/323 324/324/324
f 325/325/325 326/326/326 327/327/327
f 328/328/328 329/329/329 330/330/330
f 331/331/331 332/332/332 333/333/333
f 334/334/334 335/335/335 336/336/336
f 337/337/337 338/338/338 339/339/339
f 340/340/340 341/341/341 342/342/342
f 343/343/343 344/344/344 345/345/345
f 346/346/346 347/347/347 348/348/348
f 349/349/349 350/350/350 351/351/351
f 352/352/352 353/353/353 354/354/354
f 355/355/355 356/356/356 357/357/357
f 358/358/358 359/359/359 360/360/360
f 361/361/361 362/362/362 363/363/363
f 364/364/364 365/365/365 366/366/366
f 367/367/367 368/368/368 369/369/369
f 370/370/370 371/371/371 372/372/372
f 373/373/373 374/374/374 375/375/375
f 376/376/376 377/377/377 378/378/378
f 379/379/379 380/380/380 381/381/381
f 382/382/382 383/383/383 384/384/384
f 385/385/385 386/386/386 387/387/387
f 388/388/388 389/389/389 390/390/390
f 391/391/391 392/392/392 393/393/393
f 394/394/394 395/395/395 396/396/396
f 397/397/397 398/398/398 399/399/399
f 400/400/400 401/401/401 402/402/402
f 403/403/403 404/404/404 405/405/405
f 406/406/406 407/407/407 408/408/408
f 409/409/409 410/410/410 411/411/411
f 412/412/412 413/413/413 414/414/414
f 415/415/415 416/416/416 417/417/417
f 418/418/418 419/419/419 420/420/420
f 421/421/421 422/422/422 423/423/423
f 424/424/424 425/425/425 426/426/426
f 427/427/427 428/428/428 429/429/429
f 430/430/430 431/431/431 432/432/432
f 433/433/433 434/434/434 435/435/435
f 436/436/436 437/437/437 438/438/438
f 439/439/439 440/440/440 441/441/441
f 442/442/442 443/443/443 444/444/444
f 445/445/445 446/446/446 447/447/447
f 448/448/448 449/449/449 450/450/450
f 451/451/451 452/452/452 453/453/453
f 454/454/454 455/455/455 456/456/456
f 457/457/457 458/458/458 459/459/459
f 460/460/460 461/461/461 462/462/462
f 463/463/463 464/464/464 465/465/465
f 466/466/466 467/467/467 468/468/468
f 469/469/469 470/470/470 471/471/471
f 472/472/472 473/473/473 474/474/474
f 475/475/475 476/476/476 477/477/477
f 478/478/478 479/479/479 480/480/480
f 481/481/481 482/482/482 483/483/483
f 484/484/484 485/485/485 486/486/486
f 487/487/487 488/488/488 489/489/489
f 490/490/490 491/491/491 492/492/492
