# OBJ file
v 5685.890600 -3347.969700 186.025120
v 5638.585400 -3484.118000 186.025120
v 5685.890600 -3347.969500 395.596220
v 5638.585400 -3484.118000 186.025120
v 5638.586000 -3484.118200 395.596200
v 5685.890600 -3347.969500 395.596220
v 5594.392000 -3611.311000 186.025120
v 5547.086400 -3747.459500 186.025100
v 5594.391600 -3611.311000 395.596200
v 5547.086400 -3747.459500 186.025100
v 5547.086400 -3747.459500 395.596200
v 5594.391600 -3611.311000 395.596200
v 5502.044000 -3877.094700 186.025100
v 5454.739000 -4013.243200 186.025100
v 5502.044400 -3877.094700 395.596200
v 5454.739000 -4013.243200 186.025100
v 5454.739000 -4013.243200 395.596200
v 5502.044400 -3877.094700 395.596200
v 5974.975600 -2515.961000 186.025160
v 5927.670400 -2652.109400 186.025150
v 5974.972700 -2515.959700 395.596250
v 5927.670400 -2652.109400 186.025150
v 5927.667000 -2652.108200 395.596250
v 5974.972700 -2515.959700 395.596250
v 6066.454000 -2252.679400 186.025180
v 6019.148000 -2388.828100 186.025160
v 6066.450000 -2252.678200 395.596250
v 6019.148000 -2388.828100 186.025160
v 6019.145000 -2388.826700 395.596250
v 6066.450000 -2252.678200 395.596250
v 6158.803000 -1986.894000 186.025180
v 6111.496600 -2123.042700 186.025180
v 6158.798300 -1986.892800 395.596250
v 6111.496600 -2123.042700 186.025180
v 6111.493000 -2123.041300 395.596220
v 6158.798300 -1986.892800 395.596250
v 6607.003400 -2052.561300 1371.153800
v 6538.929000 -2028.908700 1371.153900
v 6607.003400 -2052.561300 1577.357800
v 6538.929000 -2028.908700 1371.153900
v 6538.929000 -2028.908700 1577.358000
v 6607.003400 -2052.561300 1577.357800
v 6351.970000 -1963.949000 1371.154200
v 6215.822000 -1916.643800 1371.154400
v 6351.966300 -1963.947600 1577.358300
v 6215.822000 -1916.643800 1371.154400
v 6215.819300 -1916.642300 1577.358500
v 6351.966300 -1963.947600 1577.358300
v 6883.360000 -2148.582500 1371.153900
v 6747.210400 -2101.277300 1371.154000
v 6883.360000 -2148.582300 1577.357900
v 6747.210400 -2101.277300 1371.154000
v 6747.211000 -2101.276900 1577.358200
v 6883.360000 -2148.582300 1577.357900
v 6883.364000 -2148.583700 963.000600
v 6747.215300 -2101.278800 963.000700
v 6883.363300 -2148.583700 1169.204600
v 6747.215300 -2101.278800 963.000700
v 6747.215000 -2101.278300 1169.204600
v 6883.363300 -2148.583700 1169.204600
v 6607.004000 -2052.561300 963.000550
v 6538.929000 -2028.908700 963.000600
v 6607.003400 -2052.561300 1169.204600
v 6538.929000 -2028.908700 963.000600
v 6538.929000 -2028.908400 1169.204600
v 6607.003400 -2052.561300 1169.204600
v 6351.970000 -1963.949200 963.000800
v 6283.897000 -1940.296400 963.000850
v 6351.970000 -1963.949200 1169.204700
v 6283.897000 -1940.296400 963.000850
v 6283.897000 -1940.296500 1169.205000
v 6351.970000 -1963.949200 1169.204700
v 6538.929000 -2028.908700 1371.153900
v 6470.855000 -2005.256100 1371.153800
v 6538.929000 -2028.908700 1577.358000
v 6470.855000 -2005.256100 1371.153800
v 6470.855000 -2005.255600 1577.358000
v 6538.929000 -2028.908700 1577.358000
v 6283.897000 -1940.296400 963.000850
v 6215.822000 -1916.643800 963.000800
v 6283.897000 -1940.296500 1169.205000
v 6215.822000 -1916.643800 963.000800
v 6215.822300 -1916.643300 1169.205000
v 6283.897000 -1940.296500 1169.205000
v 6538.929000 -2028.908700 963.000600
v 6470.855000 -2005.255700 963.000730
v 6538.929000 -2028.908400 1169.204600
v 6470.855000 -2005.255700 963.000730
v 6470.855000 -2005.255900 1169.204600
v 6538.929000 -2028.908400 1169.204600
v 5753.569000 -2896.456000 963.000600
v 5729.915500 -2964.530000 963.000600
v 5753.564500 -2896.454800 1169.204700
v 5729.915500 -2964.530000 963.000600
v 5729.911600 -2964.529300 1169.204600
v 5753.564500 -2896.454800 1169.204700
v 6119.047400 -1973.081300 963.000500
v 6071.741700 -2109.229700 963.000550
v 6119.047400 -1973.081000 1169.204500
v 6071.741700 -2109.229700 963.000550
v 6071.741700 -2109.229700 1169.204600
v 6119.047400 -1973.081000 1169.204500
v 6026.631300 -2239.063000 963.000600
v 6002.978000 -2307.137200 963.000600
v 6026.631300 -2239.063000 1169.204600
v 6002.978000 -2307.137200 963.000600
v 6002.978000 -2307.137200 1169.204600
v 6026.631300 -2239.063000 1169.204600
v 6119.047400 -1973.081000 1371.154000
v 6095.395500 -2041.155300 1371.153900
v 6119.047400 -1973.081200 1577.358000
v 6095.395500 -2041.155300 1371.153900
v 6095.395500 -2041.155400 1577.358000
v 6119.047400 -1973.081200 1577.358000
v 6026.631300 -2239.063000 1371.154000
v 5979.325700 -2375.211400 1371.153900
v 6026.631300 -2239.063200 1577.358000
v 5979.325700 -2375.211400 1371.153900
v 5979.325700 -2375.211700 1577.358000
v 6026.631300 -2239.063200 1577.358000
v 5753.565000 -2896.454600 1371.154000
v 5706.259300 -3032.603000 1371.154200
v 5753.565000 -2896.454800 1577.358200
v 5706.259300 -3032.603000 1371.154200
v 5706.259300 -3032.603000 1577.358200
v 5753.565000 -2896.454800 1577.358200
v 5931.683600 -2512.328400 963.000600
v 5884.379400 -2648.476800 963.000700
v 5931.683600 -2512.328600 1169.204600
v 5884.379400 -2648.476800 963.000700
v 5884.379000 -2648.476600 1169.204700
v 5931.683600 -2512.328600 1169.204600
v 5646.601600 -3332.817600 963.000550
v 5599.296400 -3468.965800 963.000550
v 5646.601000 -3332.817600 1169.204600
v 5599.296400 -3468.965800 963.000550
v 5599.296400 -3468.966000 1169.204700
v 5646.601000 -3332.817600 1169.204600
v 5550.961400 -3608.077000 963.000550
v 5527.309600 -3676.151400 963.000550
v 5550.961400 -3608.077000 1169.204600
v 5527.309600 -3676.151400 963.000550
v 5527.309000 -3676.151100 1169.204700
v 5550.961400 -3608.077000 1169.204600
v 5460.840300 -3867.453400 963.000500
v 5413.535600 -4003.601000 963.000600
v 5460.841000 -3867.453000 1169.204600
v 5413.535600 -4003.601000 963.000600
v 5413.535600 -4003.601300 1169.204700
v 5460.841000 -3867.453000 1169.204600
v 5931.683600 -2512.328000 1371.154000
v 5908.031200 -2580.402600 1371.154300
v 5931.683600 -2512.328400 1577.358300
v 5908.031200 -2580.402600 1371.154300
v 5908.031200 -2580.402600 1577.358300
v 5931.683600 -2512.328400 1577.358300
v 5646.601600 -3332.817400 1371.154200
v 5622.948700 -3400.891800 1371.154200
v 5646.601000 -3332.817600 1577.358300
v 5622.948700 -3400.891800 1371.154200
v 5622.948700 -3400.891800 1577.358300
v 5646.601000 -3332.817600 1577.358300
v 5550.961400 -3608.076700 1371.154000
v 5527.309000 -3676.151100 1371.154300
v 5550.958000 -3608.075400 1577.358300
v 5527.309000 -3676.151100 1371.154300
v 5527.305000 -3676.149700 1577.358300
v 5550.958000 -3608.075400 1577.358300
v 5460.840300 -3867.453100 1371.154000
v 5437.188000 -3935.527000 1371.154200
v 5460.837000 -3867.451400 1577.358300
v 5437.188000 -3935.527000 1371.154200
v 5437.184000 -3935.525600 1577.358300
v 5460.837000 -3867.451400 1577.358300
v 5622.948700 -3400.891800 1371.154200
v 5599.296400 -3468.966000 1371.154300
v 5622.948700 -3400.891800 1577.358300
v 5599.296400 -3468.966000 1371.154300
v 5599.296400 -3468.966000 1577.358300
v 5622.948700 -3400.891800 1577.358300
v 6002.978000 -2307.137200 963.000600
v 5979.325700 -2375.211200 963.000600
v 6002.978000 -2307.137200 1169.204600
v 5979.325700 -2375.211200 963.000600
v 5979.325700 -2375.211400 1169.204700
v 6002.978000 -2307.137200 1169.204600
v 5527.309600 -3676.151400 963.000550
v 5503.656200 -3744.225600 963.000550
v 5527.309000 -3676.151100 1169.204700
v 5503.656200 -3744.225600 963.000550
v 5503.656200 -3744.225300 1169.204700
v 5527.309000 -3676.151100 1169.204700
v 6095.395500 -2041.155300 1371.153900
v 6071.741700 -2109.229500 1371.153900
v 6095.395500 -2041.155400 1577.358000
v 6071.741700 -2109.229500 1371.153900
v 6071.741700 -2109.229700 1577.358000
v 6095.395500 -2041.155400 1577.358000
v 5729.915500 -2964.530000 963.000600
v 5706.262700 -3032.604500 963.000600
v 5729.911600 -2964.529300 1169.204600
v 5706.262700 -3032.604500 963.000600
v 5706.259300 -3032.603300 1169.204600
v 5729.911600 -2964.529300 1169.204600
v 5437.188000 -3935.527000 1371.154200
v 5413.535600 -4003.601300 1371.154200
v 5437.184000 -3935.525600 1577.358300
v 5413.535600 -4003.601300 1371.154200
v 5413.531700 -4003.599900 1577.358300
v 5437.184000 -3935.525600 1577.358300
v 5527.309000 -3676.151100 1371.154300
v 5503.656000 -3744.225300 1371.154400
v 5527.305000 -3676.149700 1577.358300
v 5503.656000 -3744.225300 1371.154400
v 5503.652300 -3744.223900 1577.358300
v 5527.305000 -3676.149700 1577.358300
v 5908.031200 -2580.402600 1371.154300
v 5884.379000 -2648.476600 1371.154300
v 5908.031200 -2580.402600 1577.358300
v 5884.379000 -2648.476600 1371.154300
v 5884.379000 -2648.476300 1577.358300
v 5908.031200 -2580.402600 1577.358300
v 5631.527300 -3504.421000 533.960400
v 5631.531200 -3504.421900 700.063100
v 5647.102000 -3459.606700 718.556200
v 5646.762000 -3460.574000 533.960400
v 5631.527300 -3504.421000 533.960400
v 5647.102000 -3459.606700 718.556200
v 5646.762000 -3460.574000 533.960400
v 5647.102000 -3459.606700 718.556200
v 5656.966300 -3431.216600 724.009950
v 5656.962400 -3431.215300 533.960400
v 5646.762000 -3460.574000 533.960400
v 5656.966300 -3431.216600 724.009950
v 5656.962400 -3431.215300 533.960400
v 5656.966300 -3431.216600 724.009950
v 5662.239000 -3416.042700 724.009950
v 5662.235000 -3416.041500 533.960400
v 5656.962400 -3431.215300 533.960400
v 5662.239000 -3416.042700 724.009950
v 5692.946000 -3327.665800 700.063100
v 5692.942000 -3327.664600 533.960450
v 5677.708000 -3371.509000 533.960400
v 5677.375000 -3372.478500 718.556000
v 5692.946000 -3327.665800 700.063100
v 5677.708000 -3371.509000 533.960400
v 5677.375000 -3372.478500 718.556000
v 5677.708000 -3371.509000 533.960400
v 5667.507300 -3400.867700 533.960400
v 5667.510700 -3400.869100 724.009950
v 5677.375000 -3372.478500 718.556000
v 5667.507300 -3400.867700 533.960400
v 5667.507300 -3400.867700 533.960400
v 5662.235000 -3416.041500 533.960400
v 5667.510700 -3400.869100 724.009950
v 5662.235000 -3416.041500 533.960400
v 5662.239000 -3416.042700 724.009950
v 5667.510700 -3400.869100 724.009950
v 5540.028000 -3767.762200 533.960450
v 5540.031700 -3767.763200 700.063200
v 5555.603000 -3722.948500 718.556200
v 5555.262700 -3723.915500 533.960450
v 5540.028000 -3767.762200 533.960450
v 5555.603000 -3722.948500 718.556200
v 5555.262700 -3723.915500 533.960450
v 5555.603000 -3722.948500 718.556200
v 5565.467300 -3694.558300 724.009950
v 5565.463400 -3694.556600 533.960450
v 5555.262700 -3723.915500 533.960450
v 5565.467300 -3694.558300 724.009950
v 5565.463400 -3694.556600 533.960450
v 5565.467300 -3694.558300 724.009950
v 5576.011000 -3664.210700 724.009950
v 5576.008300 -3664.209200 533.960450
v 5565.463400 -3694.556600 533.960450
v 5576.011000 -3664.210700 724.009950
v 5576.011000 -3664.210700 724.009950
v 5585.876000 -3635.820600 718.556000
v 5576.008300 -3664.209200 533.960450
v 5585.876000 -3635.820600 718.556000
v 5586.209000 -3634.850600 533.960450
v 5576.008300 -3664.209200 533.960450
v 5585.876000 -3635.820600 718.556000
v 5601.447000 -3591.007300 700.063200
v 5586.209000 -3634.850600 533.960450
v 5601.447000 -3591.007300 700.063200
v 5601.443000 -3591.006000 533.960450
v 5586.209000 -3634.850600 533.960450
v 5447.681000 -4033.546100 533.960400
v 5447.684000 -4033.546900 700.063100
v 5463.255400 -3988.732200 718.556200
v 5462.915500 -3989.699200 533.960400
v 5447.681000 -4033.546100 533.960400
v 5463.255400 -3988.732200 718.556200
v 5462.915500 -3989.699200 533.960400
v 5463.255400 -3988.732200 718.556200
v 5473.119600 -3960.341800 724.009950
v 5473.115700 -3960.340300 533.960400
v 5462.915500 -3989.699200 533.960400
v 5473.119600 -3960.341800 724.009950
v 5473.115700 -3960.340300 533.960400
v 5473.119600 -3960.341800 724.009950
v 5478.391600 -3945.168000 724.009950
v 5478.388000 -3945.166700 533.960400
v 5473.115700 -3960.340300 533.960400
v 5478.391600 -3945.168000 724.009950
v 5509.098600 -3856.791000 700.063100
v 5509.094700 -3856.789800 533.960450
v 5493.861300 -3900.634300 533.960400
v 5493.528300 -3901.603800 718.556000
v 5509.098600 -3856.791000 700.063100
v 5493.861300 -3900.634300 533.960400
v 5493.528300 -3901.603800 718.556000
v 5493.861300 -3900.634300 533.960400
v 5483.660000 -3929.993000 533.960400
v 5483.664000 -3929.994100 724.009950
v 5493.528300 -3901.603800 718.556000
v 5483.660000 -3929.993000 533.960400
v 5483.660000 -3929.993000 533.960400
v 5478.388000 -3945.166700 533.960400
v 5483.664000 -3929.994100 724.009950
v 5478.388000 -3945.166700 533.960400
v 5478.391600 -3945.168000 724.009950
v 5483.664000 -3929.994100 724.009950
v 5920.612300 -2672.412000 533.960500
v 5920.615700 -2672.413000 700.063200
v 5936.187000 -2627.598000 718.556300
v 5935.846700 -2628.565400 533.960500
v 5920.612300 -2672.412000 533.960500
v 5936.187000 -2627.598000 718.556300
v 5935.846700 -2628.565400 533.960500
v 5936.187000 -2627.598000 718.556300
v 5946.051300 -2599.208000 724.010100
v 5946.047400 -2599.206800 533.960500
v 5935.846700 -2628.565400 533.960500
v 5946.051300 -2599.208000 724.010100
v 5946.047400 -2599.206800 533.960500
v 5946.051300 -2599.208000 724.010100
v 5956.595700 -2568.860400 724.010100
v 5956.592300 -2568.859100 533.960500
v 5946.047400 -2599.206800 533.960500
v 5956.595700 -2568.860400 724.010100
v 5956.595700 -2568.860400 724.010100
v 5966.460000 -2540.470200 718.556150
v 5956.592300 -2568.859100 533.960500
v 5966.460000 -2540.470200 718.556150
v 5966.792500 -2539.500200 533.960500
v 5956.592300 -2568.859100 533.960500
v 5966.460000 -2540.470200 718.556150
v 5982.031200 -2495.657000 700.063200
v 5966.792500 -2539.500200 533.960500
v 5982.031200 -2495.657000 700.063200
v 5982.026400 -2495.655800 533.960450
v 5966.792500 -2539.500200 533.960500
v 6012.090300 -2409.130600 533.960500
v 6012.093800 -2409.131800 700.063200
v 6027.665000 -2364.316700 718.556300
v 6027.325000 -2365.284000 533.960500
v 6012.090300 -2409.130600 533.960500
v 6027.665000 -2364.316700 718.556300
v 6027.325000 -2365.284000 533.960500
v 6027.665000 -2364.316700 718.556300
v 6037.526000 -2335.925000 724.010000
v 6037.526000 -2335.925000 533.960500
v 6027.325000 -2365.284000 533.960500
v 6037.526000 -2335.925000 724.010000
v 6037.526000 -2335.925000 533.960500
v 6037.526000 -2335.925000 724.010000
v 6042.798000 -2320.751200 724.010000
v 6042.798000 -2320.751200 533.960500
v 6037.526000 -2335.925000 533.960500
v 6042.798000 -2320.751200 724.010000
v 6073.509000 -2232.375500 700.063200
v 6073.505000 -2232.374300 533.960500
v 6058.271000 -2276.218800 533.960500
v 6057.937500 -2277.188700 718.556100
v 6073.509000 -2232.375500 700.063200
v 6058.271000 -2276.218800 533.960500
v 6057.937500 -2277.188700 718.556100
v 6058.271000 -2276.218800 533.960500
v 6048.070300 -2305.577400 533.960500
v 6048.070300 -2305.577400 724.010000
v 6057.937500 -2277.188700 718.556100
v 6048.070300 -2305.577400 533.960500
v 6048.070300 -2305.577400 533.960500
v 6042.798000 -2320.751200 533.960500
v 6048.070300 -2305.577400 724.010000
v 6042.798000 -2320.751200 533.960500
v 6042.798000 -2320.751200 724.010000
v 6048.070300 -2305.577400 724.010000
v 6104.439000 -2143.345200 533.960500
v 6104.442400 -2143.346700 700.063200
v 6120.013000 -2098.531500 718.556300
v 6119.673300 -2099.498500 533.960500
v 6104.439000 -2143.345200 533.960500
v 6120.013000 -2098.531500 718.556300
v 6119.673300 -2099.498500 533.960500
v 6120.013000 -2098.531500 718.556300
v 6129.873500 -2070.140000 724.009950
v 6129.873500 -2070.140000 533.960500
v 6119.673300 -2099.498500 533.960500
v 6129.873500 -2070.140000 724.009950
v 6129.873500 -2070.140000 533.960500
v 6129.873500 -2070.140000 724.009950
v 6140.418500 -2039.792200 724.009950
v 6140.418500 -2039.792200 533.960500
v 6129.873500 -2070.140000 533.960500
v 6140.418500 -2039.792200 724.009950
v 6140.418500 -2039.792200 724.009950
v 6150.286600 -2011.403300 718.556100
v 6140.418500 -2039.792200 533.960500
v 6150.286600 -2011.403300 718.556100
v 6150.619000 -2010.433300 533.960500
v 6140.418500 -2039.792200 533.960500
v 6150.286600 -2011.403300 718.556100
v 6165.857000 -1966.590300 700.063200
v 6150.619000 -2010.433300 533.960500
v 6165.857000 -1966.590300 700.063200
v 6165.854000 -1966.589400 533.960450
v 6150.619000 -2010.433300 533.960500
vn -0.943055 0.332613 -0.003913
vn -0.943055 0.332613 -0.003913
vn -0.943055 0.332613 -0.003913
vn -0.943055 0.332613 -0.003913
vn -0.943055 0.332613 -0.003913
vn -0.943055 0.332613 -0.003913
vn -0.943055 0.332613 -0.003913
vn -0.943055 0.332613 -0.003913
vn -0.943055 0.332613 -0.003913
vn -0.943055 0.332613 -0.003913
vn -0.943055 0.332613 -0.003913
vn -0.943055 0.332613 -0.003913
vn -0.943055 0.332613 -0.003913
vn -0.943055 0.332613 -0.003913
vn -0.943055 0.332613 -0.003913
vn -0.943055 0.332613 -0.003913
vn -0.943055 0.332613 -0.003913
vn -0.943055 0.332613 -0.003913
vn -0.943055 0.332613 -0.003913
vn -0.943055 0.332613 -0.003913
vn -0.943055 0.332613 -0.003913
vn -0.943055 0.332613 -0.003913
vn -0.943055 0.332613 -0.003913
vn -0.943055 0.332613 -0.003913
vn -0.943055 0.332613 -0.003913
vn -0.943055 0.332613 -0.003913
vn -0.943055 0.332613 -0.003913
vn -0.943055 0.332613 -0.003913
vn -0.943055 0.332613 -0.003913
vn -0.943055 0.332613 -0.003913
vn -0.943055 0.332613 -0.003913
vn -0.943055 0.332613 -0.003913
vn -0.943055 0.332613 -0.003913
vn -0.943055 0.332613 -0.003913
vn -0.943055 0.332613 -0.003913
vn -0.943055 0.332613 -0.003913
vn 0.325625 0.945491 -0.003923
vn 0.325625 0.945491 -0.003923
vn 0.325625 0.945491 -0.003923
vn 0.325625 0.945491 -0.003923
vn 0.325625 0.945491 -0.003923
vn 0.325625 0.945491 -0.003923
vn 0.325625 0.945491 -0.003923
vn 0.325625 0.945491 -0.003923
vn 0.325625 0.945491 -0.003923
vn 0.325625 0.945491 -0.003923
vn 0.325625 0.945491 -0.003923
vn 0.325625 0.945491 -0.003923
vn 0.325625 0.945491 -0.003923
vn 0.325625 0.945491 -0.003923
vn 0.325625 0.945491 -0.003923
vn 0.325625 0.945491 -0.003923
vn 0.325625 0.945491 -0.003923
vn 0.325625 0.945491 -0.003923
vn 0.325625 0.945491 -0.003923
vn 0.325625 0.945491 -0.003923
vn 0.325625 0.945491 -0.003923
vn 0.325625 0.945491 -0.003923
vn 0.325625 0.945491 -0.003923
vn 0.325625 0.945491 -0.003923
vn 0.325625 0.945491 -0.003923
vn 0.325625 0.945491 -0.003923
vn 0.325625 0.945491 -0.003923
vn 0.325625 0.945491 -0.003923
vn 0.325625 0.945491 -0.003923
vn 0.325625 0.945491 -0.003923
vn 0.325625 0.945491 -0.003923
vn 0.325625 0.945491 -0.003923
vn 0.325625 0.945491 -0.003923
vn 0.325625 0.945491 -0.003923
vn 0.325625 0.945491 -0.003923
vn 0.325625 0.945491 -0.003923
vn 0.325625 0.945491 -0.003923
vn 0.325625 0.945491 -0.003923
vn 0.325625 0.945491 -0.003923
vn 0.325625 0.945491 -0.003923
vn 0.325625 0.945491 -0.003923
vn 0.325625 0.945491 -0.003923
vn 0.325625 0.945491 -0.003923
vn 0.325625 0.945491 -0.003923
vn 0.325625 0.945491 -0.003923
vn 0.325625 0.945491 -0.003923
vn 0.325625 0.945491 -0.003923
vn 0.325625 0.945491 -0.003923
vn 0.325625 0.945491 -0.003923
vn 0.325625 0.945491 -0.003923
vn 0.325625 0.945491 -0.003923
vn 0.325625 0.945491 -0.003923
vn 0.325625 0.945491 -0.003923
vn 0.325625 0.945491 -0.003923
vn -0.943055 0.332613 -0.003913
vn -0.943055 0.332613 -0.003913
vn -0.943055 0.332613 -0.003913
vn -0.943055 0.332613 -0.003913
vn -0.943055 0.332613 -0.003913
vn -0.943055 0.332613 -0.003913
vn -0.943055 0.332613 -0.003913
vn -0.943055 0.332613 -0.003913
vn -0.943055 0.332613 -0.003913
vn -0.943055 0.332613 -0.003913
vn -0.943055 0.332613 -0.003913
vn -0.943055 0.332613 -0.003913
vn -0.943055 0.332613 -0.003913
vn -0.943055 0.332613 -0.003913
vn -0.943055 0.332613 -0.003913
vn -0.943055 0.332613 -0.003913
vn -0.943055 0.332613 -0.003913
vn -0.943055 0.332613 -0.003913
vn -0.943055 0.332613 -0.003913
vn -0.943055 0.332613 -0.003913
vn -0.943055 0.332613 -0.003913
vn -0.943055 0.332613 -0.003913
vn -0.943055 0.332613 -0.003913
vn -0.943055 0.332613 -0.003913
vn -0.943055 0.332613 -0.003913
vn -0.943055 0.332613 -0.003913
vn -0.943055 0.332613 -0.003913
vn -0.943055 0.332613 -0.003913
vn -0.943055 0.332613 -0.003913
vn -0.943055 0.332613 -0.003913
vn -0.943055 0.332613 -0.003913
vn -0.943055 0.332613 -0.003913
vn -0.943055 0.332613 -0.003913
vn -0.943055 0.332613 -0.003913
vn -0.943055 0.332613 -0.003913
vn -0.943055 0.332613 -0.003913
vn -0.943055 0.332613 -0.003913
vn -0.943055 0.332613 -0.003913
vn -0.943055 0.332613 -0.003913
vn -0.943055 0.332613 -0.003913
vn -0.943055 0.332613 -0.003913
vn -0.943055 0.332613 -0.003913
vn -0.943055 0.332613 -0.003913
vn -0.943055 0.332613 -0.003913
vn -0.943055 0.332613 -0.003913
vn -0.943055 0.332613 -0.003913
vn -0.943055 0.332613 -0.003913
vn -0.943055 0.332613 -0.003913
vn -0.943055 0.332613 -0.003913
vn -0.943055 0.332613 -0.003913
vn -0.943055 0.332613 -0.003913
vn -0.943055 0.332613 -0.003913
vn -0.943055 0.332613 -0.003913
vn -0.943055 0.332613 -0.003913
vn -0.943055 0.332613 -0.003913
vn -0.943055 0.332613 -0.003913
vn -0.943055 0.332613 -0.003913
vn -0.943055 0.332613 -0.003913
vn -0.943055 0.332613 -0.003913
vn -0.943055 0.332613 -0.003913
vn -0.943055 0.332613 -0.003913
vn -0.943055 0.332613 -0.003913
vn -0.943055 0.332613 -0.003913
vn -0.943055 0.332613 -0.003913
vn -0.943055 0.332613 -0.003913
vn -0.943055 0.332613 -0.003913
vn -0.943055 0.332613 -0.003913
vn -0.943055 0.332613 -0.003913
vn -0.943055 0.332613 -0.003913
vn -0.943055 0.332613 -0.003913
vn -0.943055 0.332613 -0.003913
vn -0.943055 0.332613 -0.003913
vn -0.943055 0.332613 -0.003913
vn -0.943055 0.332613 -0.003913
vn -0.943055 0.332613 -0.003913
vn -0.943055 0.332613 -0.003913
vn -0.943055 0.332613 -0.003913
vn -0.943055 0.332613 -0.003913
vn -0.943055 0.332613 -0.003913
vn -0.943055 0.332613 -0.003913
vn -0.943055 0.332613 -0.003913
vn -0.943055 0.332613 -0.003913
vn -0.943055 0.332613 -0.003913
vn -0.943055 0.332613 -0.003913
vn -0.943055 0.332613 -0.003913
vn -0.943055 0.332613 -0.003913
vn -0.943055 0.332613 -0.003913
vn -0.943055 0.332613 -0.003913
vn -0.943055 0.332613 -0.003913
vn -0.943055 0.332613 -0.003913
vn -0.943055 0.332613 -0.003913
vn -0.943055 0.332613 -0.003913
vn -0.943055 0.332613 -0.003913
vn -0.943055 0.332613 -0.003913
vn -0.943055 0.332613 -0.003913
vn -0.943055 0.332613 -0.003913
vn -0.943055 0.332613 -0.003913
vn -0.943055 0.332613 -0.003913
vn -0.943055 0.332613 -0.003913
vn -0.943055 0.332613 -0.003913
vn -0.943055 0.332613 -0.003913
vn -0.943055 0.332613 -0.003913
vn -0.943055 0.332613 -0.003913
vn -0.943055 0.332613 -0.003913
vn -0.943055 0.332613 -0.003913
vn -0.943055 0.332613 -0.003913
vn -0.943055 0.332613 -0.003913
vn -0.943055 0.332613 -0.003913
vn -0.943055 0.332613 -0.003913
vn -0.943055 0.332613 -0.003913
vn -0.943055 0.332613 -0.003913
vn -0.943055 0.332613 -0.003913
vn -0.943055 0.332613 -0.003913
vn -0.943055 0.332613 -0.003913
vn -0.943055 0.332613 -0.003913
vn -0.943055 0.332613 -0.003913
vn -0.943055 0.332613 -0.003913
vn -0.943055 0.332613 -0.003913
vn -0.943055 0.332613 -0.003913
vn -0.943055 0.332613 -0.003913
vn -0.943055 0.332613 -0.003913
vn -0.943055 0.332613 -0.003913
vn -0.943055 0.332613 -0.003913
vn -0.943055 0.332613 -0.003913
vn -0.943055 0.332613 -0.003913
vn -0.943055 0.332613 -0.003913
vn -0.943055 0.332613 -0.003913
vn -0.943055 0.332613 -0.003913
vn -0.943055 0.332613 -0.003913
vn -0.943055 0.332613 -0.003913
vn -0.943055 0.332613 -0.003913
vn -0.943055 0.332613 -0.003913
vn -0.943055 0.332613 -0.003913
vn -0.943055 0.332613 -0.003913
vn -0.943055 0.332613 -0.003913
vn -0.943055 0.332613 -0.003913
vn -0.943055 0.332613 -0.003913
vn -0.943055 0.332613 -0.003913
vn -0.943055 0.332613 -0.003913
vn -0.943055 0.332613 -0.003913
vn -0.943055 0.332613 -0.003913
vn -0.943055 0.332613 -0.003913
vn -0.943055 0.332613 -0.003913
vn -0.943055 0.332613 -0.003913
vn -0.943055 0.332613 -0.003913
vn -0.943055 0.332613 -0.003913
vn -0.943055 0.332613 -0.003913
vn -0.943055 0.332613 -0.003913
vn -0.943055 0.332613 -0.003913
vn -0.943055 0.332613 -0.003913
vn -0.943055 0.332613 -0.003913
vn -0.943055 0.332613 -0.003913
vn -0.943055 0.332613 -0.003913
vn -0.943055 0.332613 -0.003913
vn -0.943055 0.332613 -0.003913
vn -0.943055 0.332613 -0.003913
vn -0.943055 0.332613 -0.003913
vn -0.943055 0.332613 -0.003913
vn -0.943055 0.332613 -0.003913
vn -0.943055 0.332613 -0.003913
vn -0.943055 0.332613 -0.003913
vn -0.943055 0.332613 -0.003913
vn -0.943055 0.332613 -0.003913
vn -0.943055 0.332613 -0.003913
vn -0.943055 0.332613 -0.003913
vn -0.943055 0.332613 -0.003913
vn -0.943055 0.332613 -0.003913
vn -0.943055 0.332613 -0.003913
vn -0.943055 0.332613 -0.003913
vn -0.943055 0.332613 -0.003913
vn -0.943055 0.332613 -0.003913
vn -0.943055 0.332613 -0.003913
vn -0.943055 0.332613 -0.003913
vn -0.943055 0.332613 -0.003913
vn -0.943055 0.332613 -0.003913
vn -0.943055 0.332613 -0.003913
vn -0.943055 0.332613 -0.003913
vn -0.943055 0.332613 -0.003913
vn -0.943055 0.332613 -0.003913
vn -0.943055 0.332613 -0.003913
vn -0.943055 0.332613 -0.003913
vn -0.943055 0.332613 -0.003913
vn -0.943055 0.332613 -0.003913
vn -0.943055 0.332613 -0.003913
vn -0.943055 0.332613 -0.003913
vn -0.943055 0.332613 -0.003913
vn -0.943055 0.332613 -0.003913
vn -0.943055 0.332613 -0.003913
vn -0.943055 0.332613 -0.003913
vn -0.943055 0.332613 -0.003913
vn -0.943055 0.332613 -0.003913
vn -0.943055 0.332613 -0.003913
vn -0.943055 0.332613 -0.003913
vn -0.943055 0.332613 -0.003913
vn -0.943055 0.332613 -0.003913
vn -0.943055 0.332613 -0.003913
vn -0.943055 0.332613 -0.003913
vn -0.943055 0.332613 -0.003913
vn -0.943055 0.332613 -0.003913
vn -0.943055 0.332613 -0.003913
vn -0.943055 0.332613 -0.003913
vn -0.943055 0.332613 -0.003913
vn -0.943055 0.332613 -0.003913
vn -0.943055 0.332613 -0.003913
vn -0.943055 0.332613 -0.003913
vn -0.943055 0.332613 -0.003913
vn -0.943055 0.332613 -0.003913
vn -0.943055 0.332613 -0.003913
vn -0.943055 0.332613 -0.003913
vn -0.943055 0.332613 -0.003913
vn -0.943055 0.332613 -0.003913
vn -0.943055 0.332613 -0.003913
vn -0.943055 0.332613 -0.003913
vn -0.943055 0.332613 -0.003913
vn -0.943055 0.332613 -0.003913
vn -0.943055 0.332613 -0.003913
vn -0.943055 0.332613 -0.003913
vn -0.943055 0.332613 -0.003913
vn -0.943055 0.332613 -0.003913
vn -0.943055 0.332613 -0.003913
vn -0.943055 0.332613 -0.003913
vn -0.943055 0.332613 -0.003913
vn -0.943055 0.332613 -0.003913
vn -0.943055 0.332613 -0.003913
vn -0.943055 0.332613 -0.003913
vn -0.943055 0.332613 -0.003913
vn -0.943055 0.332613 -0.003913
vn -0.943055 0.332613 -0.003913
vn -0.943055 0.332613 -0.003913
vn -0.943055 0.332613 -0.003913
vn -0.943055 0.332613 -0.003913
vn -0.943055 0.332613 -0.003913
vn -0.943055 0.332613 -0.003913
vn -0.943055 0.332613 -0.003913
vn -0.943055 0.332613 -0.003913
vn -0.943055 0.332613 -0.003913
vn -0.943055 0.332613 -0.003913
vn -0.943055 0.332613 -0.003913
vn -0.943055 0.332613 -0.003913
vn -0.943055 0.332613 -0.003913
vn -0.943055 0.332613 -0.003913
vn -0.943055 0.332613 -0.003913
vn -0.943055 0.332613 -0.003913
vn -0.943055 0.332613 -0.003913
vn -0.943055 0.332613 -0.003913
vn -0.943055 0.332613 -0.003913
vn -0.943055 0.332613 -0.003913
vn -0.943055 0.332613 -0.003913
vn -0.943055 0.332613 -0.003913
vn -0.943055 0.332613 -0.003913
vn -0.943055 0.332613 -0.003913
vn -0.943055 0.332613 -0.003913
vn -0.943055 0.332613 -0.003913
vn -0.943055 0.332613 -0.003913
vn -0.943055 0.332613 -0.003913
vn -0.943055 0.332613 -0.003913
vn -0.943055 0.332613 -0.003913
vn -0.943055 0.332613 -0.003913
vn -0.943055 0.332613 -0.003913
vn -0.943055 0.332613 -0.003913
vn -0.943055 0.332613 -0.003913
vn -0.943055 0.332613 -0.003913
vn -0.943055 0.332613 -0.003913
vn -0.943055 0.332613 -0.003913
vn -0.943055 0.332613 -0.003913
vn -0.943055 0.332613 -0.003913
vn -0.943055 0.332613 -0.003913
vn -0.943055 0.332613 -0.003913
vn -0.943055 0.332613 -0.003913
vn -0.943055 0.332613 -0.003913
vn -0.943055 0.332613 -0.003913
vn -0.943055 0.332613 -0.003913
vn -0.943055 0.332613 -0.003913
vn -0.943055 0.332613 -0.003913
vn -0.943055 0.332613 -0.003913
vn -0.943055 0.332613 -0.003913
vn -0.943055 0.332613 -0.003913
vn -0.943055 0.332613 -0.003913
vn -0.943055 0.332613 -0.003913
vn -0.943055 0.332613 -0.003913
vn -0.943055 0.332613 -0.003913
vn -0.943055 0.332613 -0.003913
vn -0.943055 0.332613 -0.003913
vn -0.943055 0.332613 -0.003913
vn -0.943055 0.332613 -0.003913
vn -0.943055 0.332613 -0.003913
vn -0.943055 0.332613 -0.003913
vn -0.943055 0.332613 -0.003913
vn -0.943055 0.332613 -0.003913
vn -0.943055 0.332613 -0.003913
vn -0.943055 0.332613 -0.003913
vn -0.943055 0.332613 -0.003913
vn -0.943055 0.332613 -0.003913
vn -0.943055 0.332613 -0.003913
vn -0.943055 0.332613 -0.003913
vn -0.943055 0.332613 -0.003913
vn -0.943055 0.332613 -0.003913
vn -0.943055 0.332613 -0.003913
vn -0.943055 0.332613 -0.003913
vn -0.943055 0.332613 -0.003913
vn -0.943055 0.332613 -0.003913
vn -0.943055 0.332613 -0.003913
vn -0.943055 0.332613 -0.003913
vn -0.943055 0.332613 -0.003913
vn -0.943055 0.332613 -0.003913
vn -0.943055 0.332613 -0.003913
vn -0.943055 0.332613 -0.003913
vn -0.943055 0.332613 -0.003913
vn -0.943055 0.332613 -0.003913
vn -0.943055 0.332613 -0.003913
vn -0.943055 0.332613 -0.003913
vn -0.943055 0.332613 -0.003913
vn -0.943055 0.332613 -0.003913
vn -0.943055 0.332613 -0.003913
vn -0.943055 0.332613 -0.003913
vn -0.943055 0.332613 -0.003913
vn -0.943055 0.332613 -0.003913
vn -0.943055 0.332613 -0.003913
vn -0.943055 0.332613 -0.003913
vn -0.943055 0.332613 -0.003913
vn -0.943055 0.332613 -0.003913
vn -0.943055 0.332613 -0.003913
vn -0.943055 0.332613 -0.003913
vn -0.943055 0.332613 -0.003913
vn -0.943055 0.332613 -0.003913
vn -0.943055 0.332613 -0.003913
vn -0.943055 0.332613 -0.003913
vn -0.943055 0.332613 -0.003913
vn -0.943055 0.332613 -0.003913
vn -0.943055 0.332613 -0.003913
vt 0.027145 0.233887
vt 0.488281 0.233887
vt 0.027145 0.953705
vt 0.488281 0.233887
vt 0.488281 0.953705
vt 0.027145 0.953705
vt 0.027145 0.233887
vt 0.488281 0.233887
vt 0.027145 0.953705
vt 0.488281 0.233887
vt 0.488281 0.953705
vt 0.027145 0.953705
vt 0.027145 0.233887
vt 0.488281 0.233887
vt 0.027145 0.953705
vt 0.488281 0.233887
vt 0.488281 0.953705
vt 0.027145 0.953705
vt 0.027145 0.233887
vt 0.488281 0.233887
vt 0.027145 0.953705
vt 0.488281 0.233887
vt 0.488281 0.953705
vt 0.027145 0.953705
vt 0.027145 0.233887
vt 0.488281 0.233887
vt 0.027145 0.953705
vt 0.488281 0.233887
vt 0.488281 0.953705
vt 0.027145 0.953705
vt 0.027145 0.233887
vt 0.488281 0.233887
vt 0.027145 0.953705
vt 0.488281 0.233887
vt 0.488281 0.953705
vt 0.027145 0.953705
vt 0.530762 0.256348
vt 0.726562 0.256348
vt 0.530762 0.915283
vt 0.726562 0.256348
vt 0.726562 0.915283
vt 0.530762 0.915283
vt 0.020660 0.256348
vt 0.481201 0.256348
vt 0.020660 0.915283
vt 0.481201 0.256348
vt 0.481201 0.915283
vt 0.020660 0.915283
vt 0.021088 0.256348
vt 0.481689 0.256348
vt 0.021088 0.915283
vt 0.481689 0.256348
vt 0.481689 0.915283
vt 0.021088 0.915283
vt 0.019363 0.256348
vt 0.479980 0.256348
vt 0.019363 0.915283
vt 0.479980 0.256348
vt 0.479980 0.915283
vt 0.019363 0.915283
vt 0.974609 0.256348
vt 0.744141 0.256348
vt 0.974609 0.915283
vt 0.744141 0.256348
vt 0.744141 0.915283
vt 0.974609 0.915283
vt 0.532715 0.256348
vt 0.729492 0.256348
vt 0.532715 0.915283
vt 0.729492 0.256348
vt 0.729492 0.915283
vt 0.532715 0.915283
vt 0.729004 0.256348
vt 0.533203 0.256348
vt 0.729004 0.915283
vt 0.533203 0.256348
vt 0.533203 0.915283
vt 0.729004 0.915283
vt 0.729980 0.256348
vt 0.533203 0.256348
vt 0.729980 0.915283
vt 0.533203 0.256348
vt 0.533203 0.915283
vt 0.729980 0.915283
vt 0.742676 0.256348
vt 0.972656 0.256348
vt 0.742676 0.915283
vt 0.972656 0.256348
vt 0.972656 0.915283
vt 0.742676 0.915283
vt 0.760742 0.294434
vt 0.991699 0.296387
vt 0.760742 0.954071
vt 0.991699 0.296387
vt 0.991699 0.955811
vt 0.760742 0.954071
vt 0.023773 0.295898
vt 0.484863 0.295898
vt 0.023773 0.955292
vt 0.484863 0.295898
vt 0.484863 0.955292
vt 0.023773 0.955292
vt 0.522461 0.295898
vt 0.747070 0.295898
vt 0.522461 0.955292
vt 0.747070 0.295898
vt 0.747070 0.955292
vt 0.522461 0.955292
vt 0.522461 0.295898
vt 0.747070 0.295898
vt 0.522461 0.955292
vt 0.747070 0.295898
vt 0.747070 0.955292
vt 0.522461 0.955292
vt 0.024017 0.295898
vt 0.485107 0.295898
vt 0.024017 0.955292
vt 0.485107 0.295898
vt 0.485107 0.955292
vt 0.024017 0.955292
vt 0.022247 0.295898
vt 0.483398 0.295898
vt 0.022247 0.955292
vt 0.483398 0.295898
vt 0.483398 0.955292
vt 0.022247 0.955292
vt 0.024506 0.295898
vt 0.485596 0.295898
vt 0.024506 0.955292
vt 0.485596 0.295898
vt 0.485596 0.955292
vt 0.024506 0.955292
vt 0.023285 0.295898
vt 0.484375 0.295898
vt 0.023285 0.955292
vt 0.484375 0.295898
vt 0.484375 0.955292
vt 0.023285 0.955292
vt 0.533203 0.295898
vt 0.747070 0.295898
vt 0.533203 0.955292
vt 0.747070 0.295898
vt 0.747070 0.955292
vt 0.533203 0.955292
vt 0.024673 0.293457
vt 0.485840 0.293457
vt 0.024673 0.952881
vt 0.485840 0.293457
vt 0.485840 0.952881
vt 0.024673 0.952881
vt 0.760742 0.292480
vt 0.991699 0.292480
vt 0.760742 0.952026
vt 0.991699 0.292480
vt 0.991699 0.952026
vt 0.760742 0.952026
vt 0.762695 0.295898
vt 0.993164 0.295898
vt 0.762695 0.955292
vt 0.993164 0.295898
vt 0.993164 0.955292
vt 0.762695 0.955292
vt 0.761719 0.292480
vt 0.992188 0.292480
vt 0.761719 0.952087
vt 0.992188 0.292480
vt 0.992188 0.952087
vt 0.761719 0.952087
vt 0.521973 0.291016
vt 0.747070 0.291016
vt 0.521973 0.950806
vt 0.747070 0.291016
vt 0.747070 0.950806
vt 0.521973 0.950806
vt 0.763184 0.295898
vt 0.994141 0.295898
vt 0.763184 0.955292
vt 0.994141 0.295898
vt 0.994141 0.955292
vt 0.763184 0.955292
vt 0.747070 0.295898
vt 0.523926 0.295898
vt 0.747070 0.955292
vt 0.523926 0.295898
vt 0.523926 0.955292
vt 0.747070 0.955292
vt 0.747070 0.295898
vt 0.533203 0.295898
vt 0.747070 0.955292
vt 0.533203 0.295898
vt 0.533203 0.955292
vt 0.747070 0.955292
vt 0.747070 0.295898
vt 0.523926 0.295898
vt 0.747070 0.955292
vt 0.523926 0.295898
vt 0.523926 0.955292
vt 0.747070 0.955292
vt 0.762207 0.296387
vt 0.992676 0.296387
vt 0.762207 0.955811
vt 0.992676 0.296387
vt 0.992676 0.955811
vt 0.762207 0.955811
vt 0.747070 0.291016
vt 0.524414 0.291016
vt 0.747070 0.950806
vt 0.524414 0.291016
vt 0.524414 0.950806
vt 0.747070 0.950806
vt 0.761719 0.292480
vt 0.992676 0.292480
vt 0.761719 0.952087
vt 0.992676 0.292480
vt 0.992676 0.952087
vt 0.761719 0.952087
vt 0.760254 0.292480
vt 0.990723 0.292480
vt 0.760254 0.952026
vt 0.990723 0.292480
vt 0.990723 0.952026
vt 0.760254 0.952026
vt 0.536133 0.239746
vt 0.536133 0.896118
vt 0.642090 0.969223
vt 0.639648 0.239746
vt 0.536133 0.239746
vt 0.642090 0.969223
vt 0.639648 0.239746
vt 0.642090 0.969223
vt 0.708984 0.990784
vt 0.708984 0.239746
vt 0.639648 0.239746
vt 0.708984 0.990784
vt 0.708984 0.239746
vt 0.708984 0.990784
vt 0.744629 0.990784
vt 0.744629 0.239746
vt 0.708984 0.239746
vt 0.744629 0.990784
vt 0.532715 0.896118
vt 0.532715 0.239746
vt 0.635742 0.239746
vt 0.638184 0.969223
vt 0.532715 0.896118
vt 0.635742 0.239746
vt 0.638184 0.969223
vt 0.635742 0.239746
vt 0.705078 0.239746
vt 0.705078 0.990784
vt 0.638184 0.969223
vt 0.705078 0.239746
vt 0.705078 0.239746
vt 0.741211 0.239746
vt 0.705078 0.990784
vt 0.741211 0.239746
vt 0.741211 0.990784
vt 0.705078 0.990784
vt 0.484863 0.238281
vt 0.484863 0.868042
vt 0.368652 0.938049
vt 0.371094 0.238281
vt 0.484863 0.238281
vt 0.368652 0.938049
vt 0.371094 0.238281
vt 0.368652 0.938049
vt 0.294922 0.958740
vt 0.294922 0.238281
vt 0.371094 0.238281
vt 0.294922 0.958740
vt 0.294922 0.238281
vt 0.294922 0.958740
vt 0.216309 0.958740
vt 0.216309 0.238281
vt 0.294922 0.238281
vt 0.216309 0.958740
vt 0.216309 0.958740
vt 0.142578 0.938049
vt 0.216309 0.238281
vt 0.142578 0.938049
vt 0.140137 0.238281
vt 0.216309 0.238281
vt 0.142578 0.938049
vt 0.026352 0.868042
vt 0.140137 0.238281
vt 0.026352 0.868042
vt 0.026352 0.238281
vt 0.140137 0.238281
vt 0.534668 0.237793
vt 0.534668 0.895874
vt 0.641113 0.969116
vt 0.638672 0.237793
vt 0.534668 0.237793
vt 0.641113 0.969116
vt 0.638672 0.237793
vt 0.641113 0.969116
vt 0.708496 0.990723
vt 0.708496 0.237793
vt 0.638672 0.237793
vt 0.708496 0.990723
vt 0.708496 0.237793
vt 0.708496 0.990723
vt 0.744629 0.990723
vt 0.744629 0.237793
vt 0.708496 0.237793
vt 0.744629 0.990723
vt 0.532227 0.895874
vt 0.532227 0.237793
vt 0.636230 0.237793
vt 0.638672 0.969116
vt 0.532227 0.895874
vt 0.636230 0.237793
vt 0.638672 0.969116
vt 0.636230 0.237793
vt 0.706055 0.237793
vt 0.706055 0.990723
vt 0.638672 0.969116
vt 0.706055 0.237793
vt 0.706055 0.237793
vt 0.742188 0.237793
vt 0.706055 0.990723
vt 0.742188 0.237793
vt 0.742188 0.990723
vt 0.706055 0.990723
vt 0.484863 0.238281
vt 0.484863 0.868042
vt 0.368652 0.938049
vt 0.371094 0.238281
vt 0.484863 0.238281
vt 0.368652 0.938049
vt 0.371094 0.238281
vt 0.368652 0.938049
vt 0.294922 0.958740
vt 0.294922 0.238281
vt 0.371094 0.238281
vt 0.294922 0.958740
vt 0.294922 0.238281
vt 0.294922 0.958740
vt 0.216309 0.958740
vt 0.216309 0.238281
vt 0.294922 0.238281
vt 0.216309 0.958740
vt 0.216309 0.958740
vt 0.142578 0.938049
vt 0.216309 0.238281
vt 0.142578 0.938049
vt 0.140137 0.238281
vt 0.216309 0.238281
vt 0.142578 0.938049
vt 0.026352 0.868042
vt 0.140137 0.238281
vt 0.026352 0.868042
vt 0.026352 0.238281
vt 0.140137 0.238281
vt 0.533203 0.239746
vt 0.533203 0.930054
vt 0.640137 0.976303
vt 0.637695 0.239746
vt 0.533203 0.239746
vt 0.640137 0.976303
vt 0.637695 0.239746
vt 0.640137 0.976303
vt 0.708008 0.989937
vt 0.708008 0.239746
vt 0.637695 0.239746
vt 0.708008 0.989937
vt 0.708008 0.239746
vt 0.708008 0.989937
vt 0.744141 0.989937
vt 0.744141 0.239746
vt 0.708008 0.239746
vt 0.744141 0.989937
vt 0.532227 0.930054
vt 0.532227 0.239746
vt 0.636719 0.239746
vt 0.639160 0.976303
vt 0.532227 0.930054
vt 0.636719 0.239746
vt 0.639160 0.976303
vt 0.636719 0.239746
vt 0.706543 0.239746
vt 0.706543 0.989937
vt 0.639160 0.976303
vt 0.706543 0.239746
vt 0.706543 0.239746
vt 0.742676 0.239746
vt 0.706543 0.989937
vt 0.742676 0.239746
vt 0.742676 0.989937
vt 0.706543 0.989937
vt 0.488281 0.235840
vt 0.488281 0.865356
vt 0.372070 0.935425
vt 0.374512 0.235840
vt 0.488281 0.235840
vt 0.372070 0.935425
vt 0.374512 0.235840
vt 0.372070 0.935425
vt 0.298340 0.956116
vt 0.298340 0.235840
vt 0.374512 0.235840
vt 0.298340 0.956116
vt 0.298340 0.235840
vt 0.298340 0.956116
vt 0.219604 0.956116
vt 0.219604 0.235840
vt 0.298340 0.235840
vt 0.219604 0.956116
vt 0.219604 0.956116
vt 0.145996 0.935425
vt 0.219604 0.235840
vt 0.145996 0.935425
vt 0.143433 0.235840
vt 0.219604 0.235840
vt 0.145996 0.935425
vt 0.029739 0.865356
vt 0.143433 0.235840
vt 0.029739 0.865356
vt 0.029739 0.235840
vt 0.143433 0.235840
f 1/1/1 2/2/2 3/3/3
f 4/4/4 5/5/5 6/6/6
f 7/7/7 8/8/8 9/9/9
f 10/10/10 11/11/11 12/12/12
f 13/13/13 14/14/14 15/15/15
f 16/16/16 17/17/17 18/18/18
f 19/19/19 20/20/20 21/21/21
f 22/22/22 23/23/23 24/24/24
f 25/25/25 26/26/26 27/27/27
f 28/28/28 29/29/29 30/30/30
f 31/31/31 32/32/32 33/33/33
f 34/34/34 35/35/35 36/36/36
f 37/37/37 38/38/38 39/39/39
f 40/40/40 41/41/41 42/42/42
f 43/43/43 44/44/44 45/45/45
f 46/46/46 47/47/47 48/48/48
f 49/49/49 50/50/50 51/51/51
f 52/52/52 53/53/53 54/54/54
f 55/55/55 56/56/56 57/57/57
f 58/58/58 59/59/59 60/60/60
f 61/61/61 62/62/62 63/63/63
f 64/64/64 65/65/65 66/66/66
f 67/67/67 68/68/68 69/69/69
f 70/70/70 71/71/71 72/72/72
f 73/73/73 74/74/74 75/75/75
f 76/76/76 77/77/77 78/78/78
f 79/79/79 80/80/80 81/81/81
f 82/82/82 83/83/83 84/84/84
f 85/85/85 86/86/86 87/87/87
f 88/88/88 89/89/89 90/90/90
f 91/91/91 92/92/92 93/93/93
f 94/94/94 95/95/95 96/96/96
f 97/97/97 98/98/98 99/99/99
f 100/100/100 101/101/101 102/102/102
f 103/103/103 104/104/104 105/105/105
f 106/106/106 107/107/107 108/108/108
f 109/109/109 110/110/110 111/111/111
f 112/112/112 113/113/113 114/114/114
f 115/115/115 116/116/116 117/117/117
f 118/118/118 119/119/119 120/120/120
f 121/121/121 122/122/122 123/123/123
f 124/124/124 125/125/125 126/126/126
f 127/127/127 128/128/128 129/129/129
f 130/130/130 131/131/131 132/132/132
f 133/133/133 134/134/134 135/135/135
f 136/136/136 137/137/137 138/138/138
f 139/139/139 140/140/140 141/141/141
f 142/142/142 143/143/143 144/144/144
f 145/145/145 146/146/146 147/147/147
f 148/148/148 149/149/149 150/150/150
f 151/151/151 152/152/152 153/153/153
f 154/154/154 155/155/155 156/156/156
f 157/157/157 158/158/158 159/159/159
f 160/160/160 161/161/161 162/162/162
f 163/163/163 164/164/164 165/165/165
f 166/166/166 167/167/167 168/168/168
f 169/169/169 170/170/170 171/171/171
f 172/172/172 173/173/173 174/174/174
f 175/175/175 176/176/176 177/177/177
f 178/178/178 179/179/179 180/180/180
f 181/181/181 182/182/182 183/183/183
f 184/184/184 185/185/185 186/186/186
f 187/187/187 188/188/188 189/189/189
f 190/190/190 191/191/191 192/192/192
f 193/193/193 194/194/194 195/195/195
f 196/196/196 197/197/197 198/198/198
f 199/199/199 200/200/200 201/201/201
f 202/202/202 203/203/203 204/204/204
f 205/205/205 206/206/206 207/207/207
f 208/208/208 209/209/209 210/210/210
f 211/211/211 212/212/212 213/213/213
f 214/214/214 215/215/215 216/216/216
f 217/217/217 218/218/218 219/219/219
f 220/220/220 221/221/221 222/222/222
f 223/223/223 224/224/224 225/225/225
f 226/226/226 227/227/227 228/228/228
f 229/229/229 230/230/230 231/231/231
f 232/232/232 233/233/233 234/234/234
f 235/235/235 236/236/236 237/237/237
f 238/238/238 239/239/239 240/240/240
f 241/241/241 242/242/242 243/243/243
f 244/244/244 245/245/245 246/246/246
f 247/247/247 248/248/248 249/249/249
f 250/250/250 251/251/251 252/252/252
f 253/253/253 254/254/254 255/255/255
f 256/256/256 257/257/257 258/258/258
f 259/259/259 260/260/260 261/261/261
f 262/262/262 263/263/263 264/264/264
f 265/265/265 266/266/266 267/267/267
f 268/268/268 269/269/269 270/270/270
f 271/271/271 272/272/272 273/273/273
f 274/274/274 275/275/275 276/276/276
f 277/277/277 278/278/278 279/279/279
f 280/280/280 281/281/281 282/282/282
f 283/283/283 284/284/284 285/285/285
f 286/286/286 287/287/287 288/288/288
f 289/289/289 290/290/290 291/291/291
f 292/292/292 293/293/293 294/294/294
f 295/295/295 296/296/296 297/297/297
f 298/298/298 299/299/299 300/300/300
f 301/301/301 302/302/302 303/303/303
f 304/304/304 305/305/305 306/306/306
f 307/307/307 308/308/308 309/309/309
f 310/310/310 311/311/311 312/312/312
f 313/313/313 314/314/314 315/315/315
f 316/316/316 317/317/317 318/318/318
f 319/319/319 320/320/320 321/321/321
f 322/322/322 323/323/323 324/324/324
f 325/325/325 326/326/326 327/327/327
f 328/328/328 329/329/329 330/330/330
f 331/331/331 332/332/332 333/333/333
f 334/334/334 335/335/335 336/336/336
f 337/337/337 338/338/338 339/339/339
f 340/340/340 341/341/341 342/342/342
f 343/343/343 344/344/344 345/345/345
f 346/346/346 347/347/347 348/348/348
f 349/349/349 350/350/350 351/351/351
f 352/352/352 353/353/353 354/354/354
f 355/355/355 356/356/356 357/357/357
f 358/358/358 359/359/359 360/360/360
f 361/361/361 362/362/362 363/363/363
f 364/364/364 365/365/365 366/366/366
f 367/367/367 368/368/368 369/369/369
f 370/370/370 371/371/371 372/372/372
f 373/373/373 374/374/374 375/375/375
f 376/376/376 377/377/377 378/378/378
f 379/379/379 380/380/380 381/381/381
f 382/382/382 383/383/383 384/384/384
f 385/385/385 386/386/386 387/387/387
f 388/388/388 389/389/389 390/390/390
f 391/391/391 392/392/392 393/393/393
f 394/394/394 395/395/395 396/396/396
f 397/397/397 398/398/398 399/399/399
f 400/400/400 401/401/401 402/402/402
f 403/403/403 404/404/404 405/405/405
f 406/406/406 407/407/407 408/408/408
f 409/409/409 410/410/410 411/411/411
f 412/412/412 413/413/413 414/414/414
f 415/415/415 416/416/416 417/417/417
f 418/418/418 419/419/419 420/420/420
