# OBJ file
v 5686.107000 -4022.207300 470.836300
v 5638.061000 -3971.597000 470.836240
v 5107.396500 -4472.603500 470.836270
v 5638.061000 -3971.597000 470.836240
v 5092.593300 -4395.743000 470.836200
v 5107.396500 -4472.603500 470.836270
v 5639.945000 -3974.245800 444.159820
v 5639.945000 -3974.245800 441.018500
v 5095.191400 -4398.019000 444.159800
v 5639.945000 -3974.245800 441.018500
v 5095.191400 -4398.019000 441.018460
v 5095.191400 -4398.019000 444.159800
v 5643.382000 -3978.412000 435.092470
v 5686.091000 -4022.233000 435.092440
v 5097.809600 -4402.573700 435.092440
v 5686.091000 -4022.233000 435.092440
v 5107.465300 -4472.590300 435.092400
v 5097.809600 -4402.573700 435.092440
v 5637.073700 -3970.548000 447.052250
v 5092.316400 -4394.321300 447.052220
v 5092.316400 -4394.321300 469.389920
v 5637.073700 -3970.548000 469.389950
v 5637.073700 -3970.548000 447.052250
v 5092.316400 -4394.321300 469.389920
v 5637.073700 -3970.548000 469.389950
v 5092.316400 -4394.321300 469.389920
v 5092.593300 -4395.743000 470.836200
v 5638.061000 -3971.597000 470.836240
v 5637.073700 -3970.548000 469.389950
v 5092.593300 -4395.743000 470.836200
v 5641.499500 -3976.247800 439.572240
v 5096.754000 -4400.025000 439.572200
v 5096.090000 -4399.170400 439.572200
v 5640.839400 -3975.393600 439.572240
v 5641.499500 -3976.247800 439.572240
v 5096.090000 -4399.170400 439.572200
v 5640.839400 -3975.393600 439.572240
v 5096.090000 -4399.170400 439.572200
v 5095.191400 -4398.019000 441.018460
v 5639.945000 -3974.245800 441.018500
v 5640.839400 -3975.393600 439.572240
v 5095.191400 -4398.019000 441.018460
v 5639.945000 -3974.245800 444.159820
v 5095.191400 -4398.019000 444.159800
v 5094.312500 -4396.875500 445.606020
v 5639.058000 -3973.106700 445.606050
v 5639.945000 -3974.245800 444.159820
v 5094.312500 -4396.875500 445.606020
v 5639.058000 -3973.106700 445.606050
v 5094.312500 -4396.875500 445.606020
v 5093.207000 -4395.461000 445.606000
v 5637.960400 -3971.687700 445.606020
v 5639.058000 -3973.106700 445.606050
v 5093.207000 -4395.461000 445.606000
v 5637.960400 -3971.687700 445.606020
v 5093.207000 -4395.461000 445.606000
v 5092.316400 -4394.321300 447.052220
v 5637.073700 -3970.548000 447.052250
v 5637.960400 -3971.687700 445.606020
v 5092.316400 -4394.321300 447.052220
v 5643.382000 -3978.412000 435.092470
v 5097.809600 -4402.573700 435.092440
v 5097.629000 -4401.154000 436.538670
v 5642.382300 -3977.373000 436.538700
v 5643.382000 -3978.412000 435.092470
v 5097.629000 -4401.154000 436.538670
v 5642.382300 -3977.373000 436.538700
v 5097.629000 -4401.154000 436.538670
v 5097.633000 -4401.156700 438.125950
v 5642.386000 -3977.380000 438.125980
v 5642.382300 -3977.373000 436.538700
v 5097.633000 -4401.156700 438.125950
v 5642.386000 -3977.380000 438.125980
v 5097.633000 -4401.156700 438.125950
v 5096.754000 -4400.025000 439.572200
v 5641.499500 -3976.247800 439.572240
v 5642.386000 -3977.380000 438.125980
v 5096.754000 -4400.025000 439.572200
v 5107.396500 -4472.603500 470.836270
v 5107.670000 -4474.022000 469.390000
v 5686.107000 -4022.207300 470.836300
v 5107.670000 -4474.022000 469.390000
v 5687.110000 -4023.260700 469.390050
v 5686.107000 -4022.207300 470.836300
v 5687.110000 -4023.260700 436.538700
v 5687.110000 -4023.260700 469.390050
v 5107.670000 -4474.022000 469.390000
v 5107.670000 -4474.022000 436.538670
v 5687.110000 -4023.260700 436.538700
v 5107.670000 -4474.022000 469.390000
v 5687.110000 -4023.260700 436.538700
v 5107.670000 -4474.022000 436.538670
v 5107.465300 -4472.590300 435.092400
v 5686.091000 -4022.233000 435.092440
v 5687.110000 -4023.260700 436.538700
v 5107.465300 -4472.590300 435.092400
vn -0.003921 0.003921 0.999985
vn -0.003921 0.003921 0.999985
vn -0.003921 0.003921 0.999985
vn -0.003921 0.003921 0.999985
vn -0.003921 0.003921 0.999985
vn -0.003921 0.003921 0.999985
vn -0.611775 0.791022 -0.003897
vn -0.611775 0.791022 -0.003897
vn -0.611775 0.791022 -0.003897
vn -0.611775 0.791022 -0.003897
vn -0.611775 0.791022 -0.003897
vn -0.611775 0.791022 -0.003897
vn -0.003921 0.003921 -0.999985
vn -0.003921 0.003921 -0.999985
vn -0.003921 0.003921 -0.999985
vn -0.003921 0.003921 -0.999985
vn -0.003921 0.003921 -0.999985
vn -0.003921 0.003921 -0.999985
vn -0.611775 0.791022 -0.003897
vn -0.611775 0.791022 -0.003897
vn -0.611775 0.791022 -0.003897
vn -0.611775 0.791022 -0.003897
vn -0.611775 0.791022 -0.003897
vn -0.611775 0.791022 -0.003897
vn -0.611775 0.791022 -0.003897
vn -0.611775 0.791022 -0.003897
vn -0.003921 0.003921 0.999985
vn -0.003921 0.003921 0.999985
vn -0.611775 0.791022 -0.003897
vn -0.003921 0.003921 0.999985
vn -0.003921 0.003921 -0.999985
vn -0.003921 0.003921 -0.999985
vn -0.003921 0.003921 -0.999985
vn -0.003921 0.003921 -0.999985
vn -0.003921 0.003921 -0.999985
vn -0.003921 0.003921 -0.999985
vn -0.003921 0.003921 -0.999985
vn -0.003921 0.003921 -0.999985
vn -0.611775 0.791022 -0.003897
vn -0.611775 0.791022 -0.003897
vn -0.003921 0.003921 -0.999985
vn -0.611775 0.791022 -0.003897
vn -0.611775 0.791022 -0.003897
vn -0.611775 0.791022 -0.003897
vn -0.003921 0.003921 -0.999985
vn -0.003921 0.003921 -0.999985
vn -0.611775 0.791022 -0.003897
vn -0.003921 0.003921 -0.999985
vn -0.003921 0.003921 -0.999985
vn -0.003921 0.003921 -0.999985
vn -0.003921 0.003921 -0.999985
vn -0.003921 0.003921 -0.999985
vn -0.003921 0.003921 -0.999985
vn -0.003921 0.003921 -0.999985
vn -0.003921 0.003921 -0.999985
vn -0.003921 0.003921 -0.999985
vn -0.611775 0.791022 -0.003897
vn -0.611775 0.791022 -0.003897
vn -0.003921 0.003921 -0.999985
vn -0.611775 0.791022 -0.003897
vn -0.003921 0.003921 -0.999985
vn -0.003921 0.003921 -0.999985
vn -0.611775 0.791022 0.003897
vn -0.611775 0.791022 0.003897
vn -0.003921 0.003921 -0.999985
vn -0.611775 0.791022 0.003897
vn -0.611775 0.791022 0.003897
vn -0.611775 0.791022 0.003897
vn -0.611775 0.791022 0.003897
vn -0.611775 0.791022 0.003897
vn -0.611775 0.791022 0.003897
vn -0.611775 0.791022 0.003897
vn -0.611775 0.791022 0.003897
vn -0.611775 0.791022 0.003897
vn -0.003921 0.003921 -0.999985
vn -0.003921 0.003921 -0.999985
vn -0.611775 0.791022 0.003897
vn -0.003921 0.003921 -0.999985
vn -0.003921 0.003921 0.999985
vn 0.610658 -0.791885 -0.003940
vn -0.003921 0.003921 0.999985
vn 0.610658 -0.791885 -0.003940
vn 0.610658 -0.791885 -0.003940
vn -0.003921 0.003921 0.999985
vn 0.610658 -0.791885 -0.003940
vn 0.610658 -0.791885 -0.003940
vn 0.610658 -0.791885 -0.003940
vn 0.610658 -0.791885 -0.003940
vn 0.610658 -0.791885 -0.003940
vn 0.610658 -0.791885 -0.003940
vn 0.610658 -0.791885 -0.003940
vn 0.610658 -0.791885 -0.003940
vn -0.003921 0.003921 -0.999985
vn -0.003921 0.003921 -0.999985
vn 0.610658 -0.791885 -0.003940
vn -0.003921 0.003921 -0.999985
vt 1.595703 0.760864
vt 1.629883 0.413574
vt 5.261719 0.761597
vt 1.629883 0.413574
vt 5.082031 0.413086
vt 5.261719 0.761597
vt 1.630859 0.543701
vt 1.630859 0.527832
vt 5.082031 0.543701
vt 1.630859 0.527832
vt 5.082031 0.527832
vt 5.082031 0.543701
vt -0.630371 0.457031
vt -0.596191 0.760864
vt -4.085938 0.456055
vt -0.596191 0.760864
vt -4.261719 0.761841
vt -4.085938 0.456055
vt 1.630859 0.558105
vt 5.082031 0.558105
vt 5.082031 0.669678
vt 1.630859 0.669678
vt 1.630859 0.558105
vt 5.082031 0.669678
vt 1.630859 0.669678
vt 5.082031 0.669678
vt 5.082031 0.677002
vt 1.629883 0.677002
vt 1.630859 0.669678
vt 5.082031 0.677002
vt -0.631348 0.442871
vt -4.082031 0.442871
vt -4.082031 0.437500
vt -0.631348 0.437500
vt -0.631348 0.442871
vt -4.082031 0.437500
vt -0.631348 0.437500
vt -4.082031 0.437500
vt -4.082031 0.430176
vt -0.631348 0.430176
vt -0.631348 0.437500
vt -4.082031 0.430176
vt -0.631348 0.430176
vt -4.082031 0.430176
vt -4.082031 0.422852
vt -0.631348 0.422852
vt -0.631348 0.430176
vt -4.082031 0.422852
vt -0.631348 0.422852
vt -4.082031 0.422852
vt -4.082031 0.414062
vt -0.631348 0.414062
vt -0.631348 0.422852
vt -4.082031 0.414062
vt -0.631348 0.414062
vt -4.082031 0.414062
vt -4.082031 0.406738
vt -0.631348 0.406738
vt -0.631348 0.414062
vt -4.082031 0.406738
vt 1.629883 0.498535
vt 5.085938 0.498535
vt 5.082031 0.505615
vt 1.630859 0.505615
vt 1.629883 0.498535
vt 5.082031 0.505615
vt 1.630859 0.505615
vt 5.082031 0.505615
vt 5.082031 0.513428
vt 1.630859 0.513428
vt 1.630859 0.505615
vt 5.082031 0.513428
vt 1.630859 0.513428
vt 5.082031 0.513428
vt 5.082031 0.520752
vt 1.630859 0.520752
vt 1.630859 0.513428
vt 5.082031 0.520752
vt -4.261719 0.677002
vt -4.265625 0.669678
vt -0.596191 0.677002
vt -4.265625 0.669678
vt -0.595703 0.669678
vt -0.596191 0.677002
vt -0.595703 0.505615
vt -0.595703 0.669678
vt -4.265625 0.669678
vt -4.265625 0.505615
vt -0.595703 0.505615
vt -4.265625 0.669678
vt -0.595703 0.505615
vt -4.265625 0.505615
vt -4.261719 0.498535
vt -0.596191 0.498535
vt -0.595703 0.505615
vt -4.261719 0.498535
f 1/1/1 2/2/2 3/3/3
f 4/4/4 5/5/5 6/6/6
f 7/7/7 8/8/8 9/9/9
f 10/10/10 11/11/11 12/12/12
f 13/13/13 14/14/14 15/15/15
f 16/16/16 17/17/17 18/18/18
f 19/19/19 20/20/20 21/21/21
f 22/22/22 23/23/23 24/24/24
f 25/25/25 26/26/26 27/27/27
f 28/28/28 29/29/29 30/30/30
f 31/31/31 32/32/32 33/33/33
f 34/34/34 35/35/35 36/36/36
f 37/37/37 38/38/38 39/39/39
f 40/40/40 41/41/41 42/42/42
f 43/43/43 44/44/44 45/45/45
f 46/46/46 47/47/47 48/48/48
f 49/49/49 50/50/50 51/51/51
f 52/52/52 53/53/53 54/54/54
f 55/55/55 56/56/56 57/57/57
f 58/58/58 59/59/59 60/60/60
f 61/61/61 62/62/62 63/63/63
f 64/64/64 65/65/65 66/66/66
f 67/67/67 68/68/68 69/69/69
f 70/70/70 71/71/71 72/72/72
f 73/73/73 74/74/74 75/75/75
f 76/76/76 77/77/77 78/78/78
f 79/79/79 80/80/80 81/81/81
f 82/82/82 83/83/83 84/84/84
f 85/85/85 86/86/86 87/87/87
f 88/88/88 89/89/89 90/90/90
f 91/91/91 92/92/92 93/93/93
f 94/94/94 95/95/95 96/96/96
