# OBJ file
v 2660.791748 -1168.775879 41.537788
v 2660.906738 -1168.449341 41.537926
v 2661.379150 -1168.639648 41.172928
v 2678.109131 -1175.378662 41.172928
v 2678.581299 -1175.568848 41.537926
v 2678.438232 -1175.884033 41.537788
v 2660.953125 -1168.840820 77.519363
v 2661.379150 -1168.639648 77.858231
v 2660.906738 -1168.449341 77.493240
v 2678.581299 -1175.568848 77.493240
v 2678.109131 -1175.378662 77.858231
v 2678.276611 -1175.818970 77.519363
v 2661.814209 -1167.559204 77.858231
v 2661.214844 -1166.958984 78.166946
v 2661.341797 -1167.368896 77.493240
v 2679.016846 -1174.488403 77.493240
v 2679.385986 -1174.278564 78.169998
v 2678.544434 -1174.298218 77.858231
v 2678.544434 -1174.298218 41.172928
v 2679.366455 -1174.269531 40.852257
v 2679.016846 -1174.488403 41.537926
v 2661.341797 -1167.368896 41.537926
v 2661.235352 -1166.966187 40.854935
v 2661.814209 -1167.559204 41.172928
v 2660.555908 -1166.364136 78.750687
v 2660.683350 -1166.774048 78.807083
v 2661.028320 -1166.554321 79.115799
v 2679.771240 -1174.104126 79.115799
v 2679.874023 -1174.504150 78.804031
v 2680.243408 -1174.294312 78.750687
v 2680.243408 -1174.294312 40.129837
v 2679.893799 -1174.513306 40.085403
v 2679.771240 -1174.104126 39.764717
v 2661.028320 -1166.554321 39.764717
v 2660.662598 -1166.766968 40.082726
v 2660.555908 -1166.364136 40.129837
v 2662.567627 -1172.256836 68.481155
v 2662.446533 -1172.208252 68.624710
v 2662.605957 -1172.161621 68.624710
v 2674.965576 -1177.140259 68.624710
v 2675.045410 -1177.283081 68.624710
v 2674.927246 -1177.235474 68.481155
v 2662.446533 -1172.208252 74.451492
v 2662.567627 -1172.256836 74.591995
v 2662.605957 -1172.161621 74.451492
v 2674.965576 -1177.140259 74.451492
v 2674.927246 -1177.235474 74.591995
v 2675.045410 -1177.283081 74.451492
v 2662.173340 -1173.235474 68.481155
v 2662.099609 -1173.316650 68.582718
v 2662.052246 -1173.187012 68.624710
v 2674.651123 -1178.261841 68.624710
v 2674.529297 -1178.323364 68.582718
v 2674.532959 -1178.214233 68.481155
v 2662.052246 -1173.187012 74.451492
v 2662.099609 -1173.316650 74.492630
v 2662.173340 -1173.235474 74.591995
v 2674.532959 -1178.214233 74.591995
v 2674.529297 -1178.323364 74.492630
v 2674.651123 -1178.261841 74.451492
v 2662.881592 -1173.532959 69.313309
v 2663.307861 -1173.218018 69.633377
v 2663.187012 -1173.169312 69.776932
v 2673.961182 -1177.995850 69.470779
v 2673.865967 -1177.470825 69.776932
v 2673.747314 -1177.423218 69.633377
v 2673.831299 -1177.943481 73.778030
v 2673.747314 -1177.423218 73.464920
v 2673.865967 -1177.470825 73.324417
v 2662.748779 -1173.479492 73.623856
v 2663.187012 -1173.169312 73.324417
v 2663.307861 -1173.218018 73.464920
v 2661.943604 -1173.018555 57.509960
v 2674.667236 -1178.143799 57.509960
v 2661.943604 -1173.018555 74.815384
v 2674.667236 -1178.143799 57.509960
v 2674.666992 -1178.143799 74.815384
v 2661.943604 -1173.018555 74.815384
v 2661.974854 -1169.613037 56.001297
v 2677.005127 -1175.667480 56.001293
v 2661.983887 -1172.674072 57.052685
v 2677.005127 -1175.667480 56.001293
v 2674.876953 -1177.867554 57.052685
v 2661.983887 -1172.674072 57.052685
v 2677.484131 -1175.864990 56.379223
v 2677.484131 -1175.864990 75.946121
v 2675.361084 -1178.057983 57.428295
v 2677.484131 -1175.864990 75.946121
v 2675.361084 -1178.057983 74.897049
v 2675.361084 -1178.057983 57.428295
v 2677.005127 -1175.667480 76.324051
v 2661.974854 -1169.613037 76.324051
v 2674.876953 -1177.867554 75.272659
v 2661.974854 -1169.613037 76.324051
v 2661.983887 -1172.674072 75.272659
v 2674.876953 -1177.867554 75.272659
v 2661.492676 -1169.423584 75.946121
v 2661.492676 -1169.423584 56.379227
v 2661.502930 -1172.475708 74.897049
v 2661.492676 -1169.423584 56.379227
v 2661.502930 -1172.475708 57.428295
v 2661.502930 -1172.475708 74.897049
v 2678.109131 -1175.378662 41.172928
v 2661.379150 -1168.639648 41.172928
v 2678.544434 -1174.298218 41.172928
v 2661.379150 -1168.639648 41.172928
v 2661.814209 -1167.559204 41.172928
v 2678.544434 -1174.298218 41.172928
v 2678.581299 -1175.568848 77.493240
v 2678.581299 -1175.568848 41.537926
v 2679.016846 -1174.488403 77.493240
v 2678.581299 -1175.568848 41.537926
v 2679.016846 -1174.488403 41.537926
v 2679.016846 -1174.488403 77.493240
v 2661.379150 -1168.639648 77.858231
v 2678.109131 -1175.378662 77.858231
v 2661.814209 -1167.559204 77.858231
v 2678.109131 -1175.378662 77.858231
v 2678.544434 -1174.298218 77.858231
v 2661.814209 -1167.559204 77.858231
v 2660.906738 -1168.449341 41.537926
v 2660.906738 -1168.449341 77.493240
v 2661.341797 -1167.368896 41.537926
v 2660.906738 -1168.449341 77.493240
v 2661.341797 -1167.368896 77.493240
v 2661.341797 -1167.368896 41.537926
v 2660.791748 -1168.775879 41.537788
v 2661.379150 -1168.639648 41.172928
v 2678.438232 -1175.884033 41.537788
v 2661.379150 -1168.639648 41.172928
v 2678.109131 -1175.378662 41.172928
v 2678.438232 -1175.884033 41.537788
v 2678.438232 -1175.884033 41.537788
v 2678.581299 -1175.568848 41.537926
v 2678.276611 -1175.818970 77.519363
v 2678.581299 -1175.568848 41.537926
v 2678.581299 -1175.568848 77.493240
v 2678.276611 -1175.818970 77.519363
v 2678.276611 -1175.818970 77.519363
v 2678.109131 -1175.378662 77.858231
v 2660.953125 -1168.840820 77.519363
v 2678.109131 -1175.378662 77.858231
v 2661.379150 -1168.639648 77.858231
v 2660.953125 -1168.840820 77.519363
v 2660.953125 -1168.840820 77.519363
v 2660.906738 -1168.449341 77.493240
v 2660.791748 -1168.775879 41.537788
v 2660.906738 -1168.449341 77.493240
v 2660.906738 -1168.449341 41.537926
v 2660.791748 -1168.775879 41.537788
v 2661.379150 -1168.639648 41.172928
v 2660.906738 -1168.449341 41.537926
v 2661.814209 -1167.559204 41.172928
v 2660.906738 -1168.449341 41.537926
v 2661.341797 -1167.368896 41.537926
v 2661.814209 -1167.559204 41.172928
v 2677.484131 -1175.864990 56.379223
v 2677.719482 -1175.594482 55.544262
v 2677.484131 -1175.864990 75.946121
v 2677.719482 -1175.594482 55.544262
v 2677.881104 -1175.659546 76.755203
v 2677.484131 -1175.864990 75.946121
v 2661.492676 -1169.423584 75.946121
v 2661.348877 -1169.000244 76.755203
v 2661.492676 -1169.423584 56.379227
v 2661.348877 -1169.000244 76.755203
v 2661.510254 -1169.065430 55.544266
v 2661.492676 -1169.423584 56.379227
v 2661.492676 -1169.423584 56.379227
v 2661.974854 -1169.613037 56.001297
v 2661.502930 -1172.475708 57.428295
v 2661.974854 -1169.613037 56.001297
v 2661.983887 -1172.674072 57.052685
v 2661.502930 -1172.475708 57.428295
v 2677.005127 -1175.667480 56.001293
v 2677.484131 -1175.864990 56.379223
v 2674.876953 -1177.867554 57.052685
v 2677.484131 -1175.864990 56.379223
v 2675.361084 -1178.057983 57.428295
v 2674.876953 -1177.867554 57.052685
v 2677.484131 -1175.864990 75.946121
v 2677.005127 -1175.667480 76.324051
v 2675.361084 -1178.057983 74.897049
v 2677.005127 -1175.667480 76.324051
v 2674.876953 -1177.867554 75.272659
v 2675.361084 -1178.057983 74.897049
v 2661.974854 -1169.613037 76.324051
v 2661.492676 -1169.423584 75.946121
v 2661.983887 -1172.674072 75.272659
v 2661.492676 -1169.423584 75.946121
v 2661.502930 -1172.475708 74.897049
v 2661.983887 -1172.674072 75.272659
v 2661.814209 -1167.559204 77.858231
v 2661.341797 -1167.368896 77.493240
v 2661.379150 -1168.639648 77.858231
v 2661.341797 -1167.368896 77.493240
v 2660.906738 -1168.449341 77.493240
v 2661.379150 -1168.639648 77.858231
v 2679.016846 -1174.488403 77.493240
v 2678.544434 -1174.298218 77.858231
v 2678.581299 -1175.568848 77.493240
v 2678.544434 -1174.298218 77.858231
v 2678.109131 -1175.378662 77.858231
v 2678.581299 -1175.568848 77.493240
v 2678.544434 -1174.298218 41.172928
v 2679.016846 -1174.488403 41.537926
v 2678.109131 -1175.378662 41.172928
v 2679.016846 -1174.488403 41.537926
v 2678.581299 -1175.568848 41.537926
v 2678.109131 -1175.378662 41.172928
v 2679.366455 -1174.269531 40.852257
v 2678.544434 -1174.298218 41.172928
v 2661.235352 -1166.966187 40.854935
v 2678.544434 -1174.298218 41.172928
v 2661.814209 -1167.559204 41.172928
v 2661.235352 -1166.966187 40.854935
v 2679.385986 -1174.278564 78.169998
v 2679.016846 -1174.488403 77.493240
v 2679.366455 -1174.269531 40.852257
v 2679.016846 -1174.488403 77.493240
v 2679.016846 -1174.488403 41.537926
v 2679.366455 -1174.269531 40.852257
v 2661.214844 -1166.958984 78.166946
v 2661.814209 -1167.559204 77.858231
v 2679.385986 -1174.278564 78.169998
v 2661.814209 -1167.559204 77.858231
v 2678.544434 -1174.298218 77.858231
v 2679.385986 -1174.278564 78.169998
v 2661.235352 -1166.966187 40.854935
v 2661.341797 -1167.368896 41.537926
v 2661.214844 -1166.958984 78.166946
v 2661.341797 -1167.368896 41.537926
v 2661.341797 -1167.368896 77.493240
v 2661.214844 -1166.958984 78.166946
v 2679.771240 -1174.104126 39.764717
v 2679.893799 -1174.513306 40.085403
v 2661.028320 -1166.554321 39.764717
v 2679.893799 -1174.513306 40.085403
v 2660.662598 -1166.766968 40.082726
v 2661.028320 -1166.554321 39.764717
v 2680.243408 -1174.294312 78.750687
v 2679.874023 -1174.504150 78.804031
v 2680.243408 -1174.294312 40.129837
v 2679.874023 -1174.504150 78.804031
v 2679.893799 -1174.513306 40.085403
v 2680.243408 -1174.294312 40.129837
v 2661.028320 -1166.554321 79.115799
v 2660.683350 -1166.774048 78.807083
v 2679.771240 -1174.104126 79.115799
v 2660.683350 -1166.774048 78.807083
v 2679.874023 -1174.504150 78.804031
v 2679.771240 -1174.104126 79.115799
v 2660.555908 -1166.364136 40.129837
v 2660.662598 -1166.766968 40.082726
v 2660.555908 -1166.364136 78.750687
v 2660.662598 -1166.766968 40.082726
v 2660.683350 -1166.774048 78.807083
v 2660.555908 -1166.364136 78.750687
v 2662.605957 -1172.161621 68.624710
v 2662.605957 -1172.161621 74.451492
v 2674.965576 -1177.140259 68.624710
v 2662.605957 -1172.161621 74.451492
v 2674.965576 -1177.140259 74.451492
v 2674.965576 -1177.140259 68.624710
v 2662.567627 -1172.256836 68.481155
v 2674.927246 -1177.235474 68.481155
v 2662.173340 -1173.235474 68.481155
v 2674.927246 -1177.235474 68.481155
v 2674.532959 -1178.214233 68.481155
v 2662.173340 -1173.235474 68.481155
v 2675.045410 -1177.283081 68.624710
v 2675.045410 -1177.283081 74.451492
v 2674.651123 -1178.261841 68.624710
v 2675.045410 -1177.283081 74.451492
v 2674.651123 -1178.261841 74.451492
v 2674.651123 -1178.261841 68.624710
v 2674.927246 -1177.235474 74.591995
v 2662.567627 -1172.256836 74.591995
v 2674.532959 -1178.214233 74.591995
v 2662.567627 -1172.256836 74.591995
v 2662.173340 -1173.235474 74.591995
v 2674.532959 -1178.214233 74.591995
v 2662.446533 -1172.208252 74.451492
v 2662.446533 -1172.208252 68.624710
v 2662.052246 -1173.187012 74.451492
v 2662.446533 -1172.208252 68.624710
v 2662.052246 -1173.187012 68.624710
v 2662.052246 -1173.187012 74.451492
v 2662.881592 -1173.532959 69.313309
v 2673.831299 -1177.943481 69.313309
v 2663.307861 -1173.218018 69.633377
v 2673.831299 -1177.943481 69.313309
v 2673.747314 -1177.423218 69.633377
v 2663.307861 -1173.218018 69.633377
v 2673.961182 -1177.995850 69.470779
v 2673.960938 -1177.995850 73.623856
v 2673.865967 -1177.470825 69.776932
v 2673.960938 -1177.995850 73.623856
v 2673.865967 -1177.470825 73.324417
v 2673.865967 -1177.470825 69.776932
v 2673.831299 -1177.943481 73.778030
v 2662.881592 -1173.532959 73.778030
v 2673.747314 -1177.423218 73.464920
v 2662.881592 -1173.532959 73.778030
v 2663.307861 -1173.218018 73.464920
v 2673.747314 -1177.423218 73.464920
v 2662.748779 -1173.479492 73.623856
v 2662.748779 -1173.479492 69.470779
v 2663.187012 -1173.169312 73.324417
v 2662.748779 -1173.479492 69.470779
v 2663.187012 -1173.169312 69.776932
v 2663.187012 -1173.169312 73.324417
v 2662.605957 -1172.161621 68.624710
v 2662.446533 -1172.208252 68.624710
v 2662.605957 -1172.161621 74.451492
v 2662.446533 -1172.208252 68.624710
v 2662.446533 -1172.208252 74.451492
v 2662.605957 -1172.161621 74.451492
v 2662.605957 -1172.161621 74.451492
v 2662.567627 -1172.256836 74.591995
v 2674.965576 -1177.140259 74.451492
v 2662.567627 -1172.256836 74.591995
v 2674.927246 -1177.235474 74.591995
v 2674.965576 -1177.140259 74.451492
v 2674.965576 -1177.140259 74.451492
v 2675.045410 -1177.283081 74.451492
v 2674.965576 -1177.140259 68.624710
v 2675.045410 -1177.283081 74.451492
v 2675.045410 -1177.283081 68.624710
v 2674.965576 -1177.140259 68.624710
v 2674.965576 -1177.140259 68.624710
v 2674.927246 -1177.235474 68.481155
v 2662.605957 -1172.161621 68.624710
v 2674.927246 -1177.235474 68.481155
v 2662.567627 -1172.256836 68.481155
v 2662.605957 -1172.161621 68.624710
v 2662.099609 -1173.316650 68.582718
v 2662.173340 -1173.235474 68.481155
v 2674.529297 -1178.323364 68.582718
v 2662.173340 -1173.235474 68.481155
v 2674.532959 -1178.214233 68.481155
v 2674.529297 -1178.323364 68.582718
v 2674.529297 -1178.323364 68.582718
v 2674.651123 -1178.261841 68.624710
v 2674.529297 -1178.323364 74.492630
v 2674.651123 -1178.261841 68.624710
v 2674.651123 -1178.261841 74.451492
v 2674.529297 -1178.323364 74.492630
v 2674.529297 -1178.323364 74.492630
v 2674.532959 -1178.214233 74.591995
v 2662.099609 -1173.316650 74.492630
v 2674.532959 -1178.214233 74.591995
v 2662.173340 -1173.235474 74.591995
v 2662.099609 -1173.316650 74.492630
v 2662.099609 -1173.316650 74.492630
v 2662.052246 -1173.187012 74.451492
v 2662.099609 -1173.316650 68.582718
v 2662.052246 -1173.187012 74.451492
v 2662.052246 -1173.187012 68.624710
v 2662.099609 -1173.316650 68.582718
v 2674.927246 -1177.235474 68.481155
v 2675.045410 -1177.283081 68.624710
v 2674.532959 -1178.214233 68.481155
v 2675.045410 -1177.283081 68.624710
v 2674.651123 -1178.261841 68.624710
v 2674.532959 -1178.214233 68.481155
v 2662.173340 -1173.235474 68.481155
v 2662.052246 -1173.187012 68.624710
v 2662.567627 -1172.256836 68.481155
v 2662.052246 -1173.187012 68.624710
v 2662.446533 -1172.208252 68.624710
v 2662.567627 -1172.256836 68.481155
v 2675.045410 -1177.283081 74.451492
v 2674.927246 -1177.235474 74.591995
v 2674.651123 -1178.261841 74.451492
v 2674.927246 -1177.235474 74.591995
v 2674.532959 -1178.214233 74.591995
v 2674.651123 -1178.261841 74.451492
v 2662.567627 -1172.256836 74.591995
v 2662.446533 -1172.208252 74.451492
v 2662.173340 -1173.235474 74.591995
v 2662.446533 -1172.208252 74.451492
v 2662.052246 -1173.187012 74.451492
v 2662.173340 -1173.235474 74.591995
v 3496.837158 -1517.505493 267.088531
v 3498.723389 -1516.730225 265.736267
v 3527.908936 -1530.021240 267.088531
v 3498.723389 -1516.730225 265.736267
v 3527.185059 -1528.194946 265.736267
v 3527.908936 -1530.021240 267.088531
v 3527.908936 -1530.021240 93.630798
v 3527.185059 -1528.194946 94.983093
v 3496.837158 -1517.505493 93.630798
v 3527.185059 -1528.194946 94.983093
v 3498.723633 -1516.730225 94.983093
v 3496.837158 -1517.505493 93.630798
v 2677.719482 -1175.594482 55.544262
v 2677.484131 -1175.864990 56.379223
v 2677.005127 -1175.667480 56.001293
v 2661.510254 -1169.065430 55.544266
v 2677.719482 -1175.594482 55.544262
v 2677.005127 -1175.667480 56.001293
v 2661.974854 -1169.613037 56.001297
v 2661.510254 -1169.065430 55.544266
v 2677.005127 -1175.667480 56.001293
v 2661.510254 -1169.065430 55.544266
v 2661.974854 -1169.613037 56.001297
v 2661.492676 -1169.423584 56.379227
v 2661.348877 -1169.000244 76.755203
v 2661.492676 -1169.423584 75.946121
v 2661.974854 -1169.613037 76.324051
v 2677.881104 -1175.659546 76.755203
v 2661.348877 -1169.000244 76.755203
v 2661.974854 -1169.613037 76.324051
v 2677.005127 -1175.667480 76.324051
v 2677.881104 -1175.659546 76.755203
v 2661.974854 -1169.613037 76.324051
v 2677.881104 -1175.659546 76.755203
v 2677.005127 -1175.667480 76.324051
v 2677.484131 -1175.864990 75.946121
v 3527.908936 -1530.021240 267.088531
v 3527.185059 -1528.194946 265.736267
v 3527.829590 -1528.454346 265.041351
v 3528.553467 -1530.280884 266.393707
v 3527.908936 -1530.021240 267.088531
v 3527.829590 -1528.454346 265.041351
v 3528.553467 -1530.280884 266.393707
v 3527.829590 -1528.454346 265.041351
v 3528.553467 -1530.280884 94.325623
v 3527.829590 -1528.454346 265.041351
v 3527.829590 -1528.454468 95.677917
v 3528.553467 -1530.280884 94.325623
v 3528.553467 -1530.280884 94.325623
v 3527.829590 -1528.454468 95.677917
v 3527.185059 -1528.194946 94.983093
v 3527.908936 -1530.021240 93.630798
v 3528.553467 -1530.280884 94.325623
v 3527.185059 -1528.194946 94.983093
v 3496.837158 -1517.505493 267.088531
v 3496.192871 -1517.245850 266.393707
v 3498.723389 -1516.730225 265.736267
v 3496.192871 -1517.245850 266.393707
v 3498.078857 -1516.470581 265.041351
v 3498.723389 -1516.730225 265.736267
v 3498.078857 -1516.470581 95.677917
v 3498.078857 -1516.470581 265.041351
v 3496.192871 -1517.245850 266.393707
v 3496.192871 -1517.245850 94.325623
v 3498.078857 -1516.470581 95.677917
v 3496.192871 -1517.245850 266.393707
v 3496.192871 -1517.245850 94.325623
v 3496.837158 -1517.505493 93.630798
v 3498.078857 -1516.470581 95.677917
v 3496.837158 -1517.505493 93.630798
v 3498.723633 -1516.730225 94.983093
v 3498.078857 -1516.470581 95.677917
v 2662.748779 -1173.479492 69.470779
v 2662.881592 -1173.532959 69.313309
v 2663.187012 -1173.169312 69.776932
v 2662.574463 -1173.507935 69.146805
v 2662.881592 -1173.532959 69.313309
v 2662.748779 -1173.479492 69.470779
v 2662.881592 -1173.532959 69.313309
v 2662.574463 -1173.507935 69.146805
v 2673.831299 -1177.943481 69.313309
v 2662.574463 -1173.507935 73.940872
v 2662.574463 -1173.507935 69.146805
v 2662.748779 -1173.479492 69.470779
v 2662.574463 -1173.507935 69.146805
v 2674.063965 -1178.136108 69.146805
v 2673.831299 -1177.943481 69.313309
v 2662.748779 -1173.479492 73.623856
v 2662.574463 -1173.507935 73.940872
v 2662.748779 -1173.479492 69.470779
v 2674.063965 -1178.136108 69.146805
v 2673.961182 -1177.995850 69.470779
v 2673.831299 -1177.943481 69.313309
v 2673.831299 -1177.943481 69.313309
v 2673.961182 -1177.995850 69.470779
v 2673.747314 -1177.423218 69.633377
v 2673.961182 -1177.995850 69.470779
v 2674.063965 -1178.136108 69.146805
v 2673.960938 -1177.995850 73.623856
v 2674.063965 -1178.136108 69.146805
v 2674.063965 -1178.136108 73.940872
v 2673.960938 -1177.995850 73.623856
v 2662.574463 -1173.507935 73.940872
v 2662.748779 -1173.479492 73.623856
v 2662.881592 -1173.532959 73.778030
v 2674.063965 -1178.136108 73.940872
v 2662.574463 -1173.507935 73.940872
v 2662.881592 -1173.532959 73.778030
v 2662.881592 -1173.532959 73.778030
v 2662.748779 -1173.479492 73.623856
v 2663.307861 -1173.218018 73.464920
v 2673.831299 -1177.943481 73.778030
v 2674.063965 -1178.136108 73.940872
v 2662.881592 -1173.532959 73.778030
v 2674.063965 -1178.136108 73.940872
v 2673.831299 -1177.943481 73.778030
v 2673.960938 -1177.995850 73.623856
v 2673.960938 -1177.995850 73.623856
v 2673.831299 -1177.943481 73.778030
v 2673.865967 -1177.470825 73.324417
v 2661.983887 -1172.674072 57.052685
v 2661.943604 -1173.018555 57.509960
v 2661.502930 -1172.475708 57.428295
v 2661.502930 -1172.475708 74.897049
v 2661.502930 -1172.475708 57.428295
v 2661.943604 -1173.018555 57.509960
v 2661.943604 -1173.018555 57.509960
v 2661.983887 -1172.674072 57.052685
v 2674.667236 -1178.143799 57.509960
v 2661.943604 -1173.018555 74.815384
v 2661.502930 -1172.475708 74.897049
v 2661.943604 -1173.018555 57.509960
v 2661.983887 -1172.674072 57.052685
v 2674.876953 -1177.867554 57.052685
v 2674.667236 -1178.143799 57.509960
v 2661.502930 -1172.475708 74.897049
v 2661.943604 -1173.018555 74.815384
v 2661.983887 -1172.674072 75.272659
v 2675.361084 -1178.057983 57.428295
v 2674.667236 -1178.143799 57.509960
v 2674.876953 -1177.867554 57.052685
v 2674.876953 -1177.867554 75.272659
v 2661.983887 -1172.674072 75.272659
v 2661.943604 -1173.018555 74.815384
v 2674.667236 -1178.143799 57.509960
v 2675.361084 -1178.057983 57.428295
v 2674.666992 -1178.143799 74.815384
v 2674.666992 -1178.143799 74.815384
v 2674.876953 -1177.867554 75.272659
v 2661.943604 -1173.018555 74.815384
v 2675.361084 -1178.057983 57.428295
v 2675.361084 -1178.057983 74.897049
v 2674.666992 -1178.143799 74.815384
v 2674.876953 -1177.867554 75.272659
v 2674.666992 -1178.143799 74.815384
v 2675.361084 -1178.057983 74.897049
v 2660.791748 -1168.775879 41.537788
v 2678.438232 -1175.884033 41.537788
v 2661.510254 -1169.065430 55.544266
v 2660.791748 -1168.775879 41.537788
v 2661.510254 -1169.065430 55.544266
v 2661.348877 -1169.000244 76.755203
v 2678.438232 -1175.884033 41.537788
v 2677.719482 -1175.594482 55.544262
v 2661.510254 -1169.065430 55.544266
v 2660.953125 -1168.840820 77.519363
v 2660.791748 -1168.775879 41.537788
v 2661.348877 -1169.000244 76.755203
v 2678.438232 -1175.884033 41.537788
v 2678.276611 -1175.818970 77.519363
v 2677.719482 -1175.594482 55.544262
v 2660.953125 -1168.840820 77.519363
v 2661.348877 -1169.000244 76.755203
v 2677.881104 -1175.659546 76.755203
v 2678.276611 -1175.818970 77.519363
v 2677.881104 -1175.659546 76.755203
v 2677.719482 -1175.594482 55.544262
v 2678.276611 -1175.818970 77.519363
v 2660.953125 -1168.840820 77.519363
v 2677.881104 -1175.659546 76.755203
v 2679.366455 -1174.269531 40.852257
v 2661.235352 -1166.966187 40.854935
v 2679.893799 -1174.513306 40.085403
v 2679.366455 -1174.269531 40.852257
v 2679.893799 -1174.513306 40.085403
v 2679.874023 -1174.504150 78.804031
v 2661.235352 -1166.966187 40.854935
v 2660.662598 -1166.766968 40.082726
v 2679.893799 -1174.513306 40.085403
v 2679.385986 -1174.278564 78.169998
v 2679.366455 -1174.269531 40.852257
v 2679.874023 -1174.504150 78.804031
v 2661.235352 -1166.966187 40.854935
v 2661.214844 -1166.958984 78.166946
v 2660.662598 -1166.766968 40.082726
v 2679.385986 -1174.278564 78.169998
v 2679.874023 -1174.504150 78.804031
v 2660.683350 -1166.774048 78.807083
v 2661.214844 -1166.958984 78.166946
v 2660.683350 -1166.774048 78.807083
v 2660.662598 -1166.766968 40.082726
v 2661.214844 -1166.958984 78.166946
v 2679.385986 -1174.278564 78.169998
v 2660.683350 -1166.774048 78.807083
v 2662.099609 -1173.316650 68.582718
v 2674.529297 -1178.323364 68.582718
v 2662.574463 -1173.507935 69.146805
v 2662.099609 -1173.316650 68.582718
v 2662.574463 -1173.507935 69.146805
v 2662.574463 -1173.507935 73.940872
v 2674.529297 -1178.323364 68.582718
v 2674.063965 -1178.136108 69.146805
v 2662.574463 -1173.507935 69.146805
v 2662.099609 -1173.316650 74.492630
v 2662.099609 -1173.316650 68.582718
v 2662.574463 -1173.507935 73.940872
v 2674.529297 -1178.323364 68.582718
v 2674.529297 -1178.323364 74.492630
v 2674.063965 -1178.136108 69.146805
v 2662.099609 -1173.316650 74.492630
v 2662.574463 -1173.507935 73.940872
v 2674.063965 -1178.136108 73.940872
v 2674.529297 -1178.323364 74.492630
v 2674.063965 -1178.136108 73.940872
v 2674.063965 -1178.136108 69.146805
v 2674.529297 -1178.323364 74.492630
v 2662.099609 -1173.316650 74.492630
v 2674.063965 -1178.136108 73.940872
v 3055.269287 -1339.637939 267.088562
v 3057.155518 -1338.862793 265.736298
v 3086.340576 -1352.153809 267.088562
v 3055.269287 -1339.637939 267.088562
v 3054.624756 -1339.378418 266.393738
v 3057.155518 -1338.862793 265.736298
v 3057.155518 -1338.862793 265.736298
v 3085.616943 -1350.327393 265.736298
v 3086.340576 -1352.153809 267.088562
v 3054.624756 -1339.378418 266.393738
v 3056.510986 -1338.603149 265.041382
v 3057.155518 -1338.862793 265.736298
v 3086.340576 -1352.153809 267.088562
v 3085.616943 -1350.327393 265.736298
v 3086.261475 -1350.587036 265.041382
v 3056.510986 -1338.603149 95.677925
v 3056.510986 -1338.603149 265.041382
v 3054.624756 -1339.378418 266.393738
v 3086.985107 -1352.413452 266.393738
v 3086.340576 -1352.153809 267.088562
v 3086.261475 -1350.587036 265.041382
v 3054.624756 -1339.378418 94.325630
v 3056.510986 -1338.603149 95.677925
v 3054.624756 -1339.378418 266.393738
v 3086.985107 -1352.413452 266.393738
v 3086.261475 -1350.587036 265.041382
v 3086.985107 -1352.413452 94.325630
v 3054.624756 -1339.378418 94.325630
v 3055.269287 -1339.637939 93.630806
v 3056.510986 -1338.603149 95.677925
v 3086.261475 -1350.587036 265.041382
v 3086.261475 -1350.587036 95.677925
v 3086.985107 -1352.413452 94.325630
v 3055.269287 -1339.637939 93.630806
v 3057.155518 -1338.862793 94.983101
v 3056.510986 -1338.603149 95.677925
v 3086.985107 -1352.413452 94.325630
v 3086.261475 -1350.587036 95.677925
v 3085.616943 -1350.327393 94.983101
v 3085.616943 -1350.327393 94.983101
v 3057.155518 -1338.862793 94.983101
v 3055.269287 -1339.637939 93.630806
v 3086.340576 -1352.153809 93.630806
v 3086.985107 -1352.413452 94.325630
v 3085.616943 -1350.327393 94.983101
v 3086.340576 -1352.153809 93.630806
v 3085.616943 -1350.327393 94.983101
v 3055.269287 -1339.637939 93.630806
vt 0.031403 0.607910
vt 0.031342 0.605957
vt 0.034119 0.605957
vt 0.012497 0.592285
vt 0.015266 0.592285
vt 0.015228 0.594238
vt 0.428467 0.758667
vt 0.426270 0.756592
vt 0.429199 0.756592
vt 0.420898 0.711670
vt 0.423584 0.711670
vt 0.421631 0.713623
vt 0.088196 0.465820
vt 0.087585 0.461426
vt 0.090942 0.464355
vt 0.017609 0.608398
vt 0.012650 0.606934
vt 0.016495 0.605469
vt 0.425537 0.787476
vt 0.426514 0.783447
vt 0.428711 0.787476
vt 0.498779 0.604980
vt 0.502930 0.604248
vt 0.499756 0.607666
vt 0.080811 0.449219
vt 0.080383 0.451172
vt 0.077759 0.450195
vt 0.014458 0.580811
vt 0.012596 0.582764
vt 0.011665 0.580811
vt 0.048553 0.605957
vt 0.047729 0.607910
vt 0.045776 0.605957
vt 0.079651 0.592285
vt 0.077759 0.594238
vt 0.076904 0.592285
vt 0.020966 0.081543
vt -0.014900 0.133789
vt -0.043152 0.011719
vt 0.020966 0.032227
vt -0.084167 0.113281
vt -0.084167 0.050293
vt 0.031799 0.081543
vt -0.004074 0.133789
vt -0.038940 0.011719
vt 0.020966 0.968201
vt -0.084167 0.950195
vt -0.084167 0.886902
vt 0.020966 0.918579
vt -0.017334 0.929993
vt -0.021851 0.898071
vt 0.031799 0.918579
vt -0.004902 0.929993
vt -0.011024 0.898071
vt 0.031799 0.918579
vt -0.004902 0.929993
vt -0.011024 0.898071
vt 0.020966 0.918579
vt -0.017334 0.929993
vt -0.021851 0.898071
vt 0.034698 0.000000
vt 0.031616 0.000000
vt 0.000000 0.065430
vt 1.000000 0.071777
vt 1.000000 0.065430
vt 0.968262 0.000000
vt 0.964844 1.000000
vt 0.968262 1.000000
vt 1.000000 0.935059
vt 0.000000 0.928711
vt 0.000000 0.935059
vt 0.031616 1.000000
vt 0.147949 0.560547
vt 0.147949 0.492676
vt 0.235718 0.560547
vt 0.147949 0.492676
vt 0.235718 0.492676
vt 0.235718 0.560547
vt 0.309082 0.751343
vt 0.368164 0.751343
vt 0.313477 0.772461
vt 0.368164 0.751343
vt 0.364014 0.772461
vt 0.313477 0.772461
vt 0.366943 0.552490
vt 0.442871 0.552490
vt 0.372070 0.573242
vt 0.442871 0.552490
vt 0.437500 0.573242
vt 0.372070 0.573242
vt 0.319336 0.690430
vt 0.377930 0.690430
vt 0.323486 0.711426
vt 0.377930 0.690430
vt 0.373779 0.711426
vt 0.323486 0.711426
vt 0.352783 0.486816
vt 0.428467 0.486816
vt 0.357910 0.507568
vt 0.428467 0.486816
vt 0.423096 0.507568
vt 0.357910 0.507568
vt 0.178711 0.304199
vt 0.098755 0.304199
vt 0.178711 0.296387
vt 0.098755 0.304199
vt 0.098755 0.296387
vt 0.178711 0.296387
vt 0.641113 0.757568
vt 0.821289 0.757568
vt 0.641113 0.763672
vt 0.821289 0.757568
vt 0.821289 0.763672
vt 0.641113 0.763672
vt 0.378662 0.395508
vt 0.299072 0.395508
vt 0.378662 0.388184
vt 0.299072 0.395508
vt 0.299072 0.388184
vt 0.378662 0.388184
vt 0.641113 0.803223
vt 0.821777 0.803223
vt 0.641113 0.809448
vt 0.821777 0.803223
vt 0.821777 0.809448
vt 0.641113 0.809448
vt 0.096558 0.306152
vt 0.098755 0.304199
vt 0.180908 0.306152
vt 0.098755 0.304199
vt 0.178711 0.304199
vt 0.180908 0.306152
vt 0.821289 0.755737
vt 0.821289 0.757568
vt 0.640625 0.755737
vt 0.821289 0.757568
vt 0.641113 0.757568
vt 0.640625 0.755737
vt 0.297852 0.397949
vt 0.299072 0.395508
vt 0.380127 0.397949
vt 0.299072 0.395508
vt 0.378662 0.395508
vt 0.380127 0.397949
vt 0.821777 0.801392
vt 0.821777 0.803223
vt 0.641113 0.801392
vt 0.821777 0.803223
vt 0.641113 0.803223
vt 0.641113 0.801392
vt 0.639160 0.803223
vt 0.641113 0.803223
vt 0.639160 0.809448
vt 0.641113 0.803223
vt 0.641113 0.809448
vt 0.639160 0.809448
vt 0.366943 0.552490
vt 0.362549 0.550781
vt 0.442871 0.552490
vt 0.362549 0.550781
vt 0.447021 0.550537
vt 0.442871 0.552490
vt 0.352783 0.486816
vt 0.348633 0.484863
vt 0.428467 0.486816
vt 0.348633 0.484863
vt 0.432617 0.484863
vt 0.428467 0.486816
vt 0.307373 0.751831
vt 0.309082 0.751343
vt 0.311523 0.772949
vt 0.309082 0.751343
vt 0.313477 0.772461
vt 0.311523 0.772949
vt 0.368164 0.751343
vt 0.370117 0.751831
vt 0.364014 0.772461
vt 0.370117 0.751831
vt 0.365967 0.772949
vt 0.364014 0.772461
vt 0.442871 0.552490
vt 0.444824 0.552979
vt 0.437500 0.573242
vt 0.444824 0.552979
vt 0.439453 0.573730
vt 0.437500 0.573242
vt 0.377930 0.690430
vt 0.379883 0.690918
vt 0.373779 0.711426
vt 0.379883 0.690918
vt 0.375732 0.711914
vt 0.373779 0.711426
vt 0.823242 0.809448
vt 0.821777 0.809448
vt 0.823242 0.803223
vt 0.821777 0.809448
vt 0.821777 0.803223
vt 0.823242 0.803223
vt 0.641113 0.763672
vt 0.639160 0.763672
vt 0.641113 0.757568
vt 0.639160 0.763672
vt 0.639160 0.757568
vt 0.641113 0.757568
vt 0.823242 0.763672
vt 0.821289 0.763672
vt 0.823242 0.757568
vt 0.821289 0.763672
vt 0.821289 0.757568
vt 0.823242 0.757568
vt 0.182007 0.294434
vt 0.178711 0.296387
vt 0.095398 0.294434
vt 0.178711 0.296387
vt 0.098755 0.296387
vt 0.095398 0.294434
vt 0.637695 0.765503
vt 0.641113 0.763672
vt 0.824707 0.765503
vt 0.641113 0.763672
vt 0.821289 0.763672
vt 0.824707 0.765503
vt 0.382080 0.386230
vt 0.378662 0.388184
vt 0.295654 0.386230
vt 0.378662 0.388184
vt 0.299072 0.388184
vt 0.295654 0.386230
vt 0.637695 0.811279
vt 0.641113 0.809448
vt 0.824707 0.811157
vt 0.641113 0.809448
vt 0.821777 0.809448
vt 0.824707 0.811157
vt 0.195312 0.400879
vt 0.196655 0.403320
vt 0.097412 0.400879
vt 0.196655 0.403320
vt 0.096130 0.403320
vt 0.097412 0.400879
vt 0.638672 0.696289
vt 0.638672 0.694336
vt 0.849609 0.696289
vt 0.638672 0.694336
vt 0.849609 0.694336
vt 0.849609 0.696289
vt 0.192627 0.354980
vt 0.193726 0.357422
vt 0.095276 0.354980
vt 0.193726 0.357422
vt 0.094116 0.357422
vt 0.095276 0.354980
vt 0.634277 0.640869
vt 0.633789 0.638916
vt 0.846191 0.640869
vt 0.633789 0.638916
vt 0.846191 0.638916
vt 0.846191 0.640869
vt 0.979004 0.032227
vt 0.979004 0.968201
vt 0.020966 0.032227
vt 0.979004 0.968201
vt 0.020966 0.968201
vt 0.020966 0.032227
vt 0.020966 0.081543
vt 0.979004 0.081543
vt 0.020966 0.918579
vt 0.979004 0.081543
vt 0.979004 0.918579
vt 0.020966 0.918579
vt 0.031799 0.081543
vt 0.967773 0.081543
vt 0.031799 0.918579
vt 0.967773 0.081543
vt 0.967773 0.918579
vt 0.031799 0.918579
vt 0.020966 0.081543
vt 0.979004 0.081543
vt 0.020966 0.918579
vt 0.979004 0.081543
vt 0.979004 0.918579
vt 0.020966 0.918579
vt 0.031799 0.081543
vt 0.967773 0.081543
vt 0.031799 0.918579
vt 0.967773 0.081543
vt 0.967773 0.918579
vt 0.031799 0.918579
vt 0.034698 0.000000
vt 0.970215 0.000000
vt 0.031616 0.000000
vt 0.970215 0.000000
vt 0.968262 0.000000
vt 0.031616 0.000000
vt 1.000000 0.071777
vt 1.000000 0.947113
vt 1.000000 0.065430
vt 1.000000 0.947113
vt 1.000000 0.935059
vt 1.000000 0.065430
vt 0.964844 1.000000
vt 0.029678 1.000000
vt 0.968262 1.000000
vt 0.029678 1.000000
vt 0.031616 1.000000
vt 0.968262 1.000000
vt 0.000000 0.928711
vt 0.000000 0.053223
vt 0.000000 0.935059
vt 0.000000 0.053223
vt 0.000000 0.065430
vt 0.000000 0.935059
vt 0.967773 -0.001953
vt 0.967773 0.081543
vt 0.031799 -0.001953
vt 0.967773 0.081543
vt 0.031799 0.081543
vt 0.031799 -0.001953
vt 0.979004 0.009766
vt 0.979004 0.081543
vt 0.020966 0.009766
vt 0.979004 0.081543
vt 0.020966 0.081543
vt 0.020966 0.009766
vt 0.967773 -0.001953
vt 0.967773 0.081543
vt 0.031799 -0.001953
vt 0.967773 0.081543
vt 0.031799 0.081543
vt 0.031799 -0.001953
vt 0.979004 0.009766
vt 0.979004 0.081543
vt 0.020966 0.009766
vt 0.979004 0.081543
vt 0.020966 0.081543
vt 0.020966 0.009766
vt 0.014832 0.934753
vt 0.020966 0.918579
vt 0.984863 0.934753
vt 0.020966 0.918579
vt 0.979004 0.918579
vt 0.984863 0.934753
vt 0.022491 0.949341
vt 0.031799 0.918579
vt 0.977051 0.949341
vt 0.031799 0.918579
vt 0.967773 0.918579
vt 0.977051 0.949341
vt 0.014832 0.934753
vt 0.020966 0.918579
vt 0.984863 0.934753
vt 0.020966 0.918579
vt 0.979004 0.918579
vt 0.984863 0.934753
vt 0.022491 0.949341
vt 0.031799 0.918579
vt 0.977051 0.949341
vt 0.031799 0.918579
vt 0.967773 0.918579
vt 0.977051 0.949341
vt 0.146973 0.081543
vt 0.031799 0.081543
vt 0.146973 0.918579
vt 0.031799 0.081543
vt 0.031799 0.918579
vt 0.146973 0.918579
vt 0.852539 0.918579
vt 0.967773 0.918579
vt 0.852539 0.081543
vt 0.967773 0.918579
vt 0.967773 0.081543
vt 0.852539 0.081543
vt 0.136108 0.081543
vt 0.020966 0.081543
vt 0.136108 0.918579
vt 0.020966 0.081543
vt 0.020966 0.918579
vt 0.136108 0.918579
vt 0.146973 0.081543
vt 0.031799 0.081543
vt 0.146973 0.918579
vt 0.031799 0.081543
vt 0.031799 0.918579
vt 0.146973 0.918579
vt 0.840820 0.268066
vt 0.849121 0.258789
vt 1.015625 0.268066
vt 0.849121 0.258789
vt 1.007812 0.258789
vt 1.015625 0.268066
vt 0.065308 0.310547
vt 0.057434 0.319824
vt -0.109619 0.310547
vt 0.057434 0.319824
vt -0.101257 0.319824
vt -0.109619 0.310547
vt 0.290771 0.690918
vt 0.295166 0.691406
vt 0.293213 0.693359
vt 0.290771 0.757446
vt 0.290771 0.690918
vt 0.293213 0.693359
vt 0.293213 0.755005
vt 0.290771 0.757446
vt 0.293213 0.693359
vt 0.290771 0.757446
vt 0.293213 0.755005
vt 0.295166 0.756958
vt 0.378906 0.758057
vt 0.374756 0.756958
vt 0.376709 0.755005
vt 0.378906 0.690430
vt 0.378906 0.758057
vt 0.376709 0.755005
vt 0.376709 0.693359
vt 0.378906 0.690430
vt 0.376709 0.755005
vt 0.378906 0.690430
vt 0.376709 0.693359
vt 0.374756 0.691406
vt 0.923340 0.185547
vt 0.914062 0.193359
vt 0.911621 0.190918
vt 0.919434 0.181641
vt 0.923340 0.185547
vt 0.911621 0.190918
vt 0.919434 0.181641
vt 0.911621 0.190918
vt 0.020660 0.181641
vt 0.911621 0.190918
vt 0.028503 0.190918
vt 0.020660 0.181641
vt 0.020660 0.181641
vt 0.028503 0.190918
vt 0.026184 0.193359
vt 0.016968 0.185547
vt 0.020660 0.181641
vt 0.026184 0.193359
vt 0.923340 0.360352
vt 0.919434 0.363770
vt 0.914062 0.352051
vt 0.919434 0.363770
vt 0.911621 0.354492
vt 0.914062 0.352051
vt 0.028473 0.354492
vt 0.911621 0.354492
vt 0.919434 0.363770
vt 0.020660 0.363770
vt 0.028473 0.354492
vt 0.919434 0.363770
vt 0.020660 0.363770
vt 0.016968 0.360352
vt 0.028473 0.354492
vt 0.016968 0.360352
vt 0.026169 0.352051
vt 0.028473 0.354492
vt 0.000000 0.053223
vt 0.034698 0.000000
vt 0.000000 0.065430
vt 0.000000 0.000000
vt 0.034698 0.000000
vt 0.000000 0.053223
vt 0.034698 0.000000
vt 0.000000 0.000000
vt 0.970215 0.000000
vt 0.000000 1.000000
vt 0.000000 0.000000
vt 0.000000 0.053223
vt 0.000000 0.000000
vt 1.000000 0.000000
vt 0.970215 0.000000
vt 0.000000 0.928711
vt 0.000000 1.000000
vt 0.000000 0.053223
vt 1.000000 0.000000
vt 1.000000 0.071777
vt 0.970215 0.000000
vt 0.970215 0.000000
vt 1.000000 0.071777
vt 0.968262 0.000000
vt 1.000000 0.071777
vt 1.000000 0.000000
vt 1.000000 0.947113
vt 1.000000 0.000000
vt 1.000000 1.000000
vt 1.000000 0.947113
vt 0.000000 1.000000
vt 0.000000 0.928711
vt 0.029678 1.000000
vt 1.000000 1.000000
vt 0.000000 1.000000
vt 0.029678 1.000000
vt 0.029678 1.000000
vt 0.000000 0.928711
vt 0.031616 1.000000
vt 0.964844 1.000000
vt 1.000000 1.000000
vt 0.029678 1.000000
vt 1.000000 1.000000
vt 0.964844 1.000000
vt 1.000000 0.947113
vt 1.000000 0.947113
vt 0.964844 1.000000
vt 1.000000 0.935059
vt 0.144775 0.560791
vt 0.147949 0.560547
vt 0.147339 0.563477
vt 0.236328 0.563477
vt 0.147339 0.563477
vt 0.147949 0.560547
vt 0.147949 0.560547
vt 0.144775 0.560791
vt 0.147949 0.492676
vt 0.235718 0.560547
vt 0.236328 0.563477
vt 0.147949 0.560547
vt 0.144775 0.560791
vt 0.144775 0.492188
vt 0.147949 0.492676
vt 0.236328 0.563477
vt 0.235718 0.560547
vt 0.238892 0.560791
vt 0.147339 0.489746
vt 0.147949 0.492676
vt 0.144775 0.492188
vt 0.238892 0.492188
vt 0.238892 0.560791
vt 0.235718 0.560547
vt 0.147949 0.492676
vt 0.147339 0.489746
vt 0.235718 0.492676
vt 0.235718 0.492676
vt 0.238892 0.492188
vt 0.235718 0.560547
vt 0.147339 0.489746
vt 0.236328 0.489746
vt 0.235718 0.492676
vt 0.238892 0.492188
vt 0.235718 0.492676
vt 0.236328 0.489746
vt 0.192139 0.760376
vt 0.192139 0.687988
vt 0.290771 0.757446
vt 0.192139 0.760376
vt 0.290771 0.757446
vt 0.378906 0.758057
vt 0.192139 0.687988
vt 0.290771 0.690918
vt 0.290771 0.757446
vt 0.383057 0.759644
vt 0.192139 0.760376
vt 0.378906 0.758057
vt 0.192139 0.687988
vt 0.383057 0.688721
vt 0.290771 0.690918
vt 0.383057 0.759644
vt 0.378906 0.758057
vt 0.378906 0.690430
vt 0.383057 0.688721
vt 0.378906 0.690430
vt 0.290771 0.690918
vt 0.383057 0.688721
vt 0.383057 0.759644
vt 0.378906 0.690430
vt 0.364990 0.367188
vt 0.364990 0.284180
vt 0.369385 0.369629
vt 0.364990 0.367188
vt 0.369385 0.369629
vt 0.140869 0.369629
vt 0.364990 0.284180
vt 0.369629 0.281738
vt 0.369385 0.369629
vt 0.144653 0.367188
vt 0.364990 0.367188
vt 0.140869 0.369629
vt 0.364990 0.284180
vt 0.144653 0.284180
vt 0.369629 0.281738
vt 0.144653 0.367188
vt 0.140869 0.369629
vt 0.140869 0.281738
vt 0.144653 0.284180
vt 0.140869 0.281738
vt 0.369629 0.281738
vt 0.144653 0.284180
vt 0.144653 0.367188
vt 0.140869 0.281738
vt 0.000000 0.000000
vt 1.000000 0.000000
vt 0.000000 0.000000
vt 0.000000 0.000000
vt 0.000000 0.000000
vt 0.000000 1.000000
vt 1.000000 0.000000
vt 1.000000 0.000000
vt 0.000000 0.000000
vt 0.000000 1.000000
vt 0.000000 0.000000
vt 0.000000 1.000000
vt 1.000000 0.000000
vt 1.000000 1.000000
vt 1.000000 0.000000
vt 0.000000 1.000000
vt 0.000000 1.000000
vt 1.000000 1.000000
vt 1.000000 1.000000
vt 1.000000 1.000000
vt 1.000000 0.000000
vt 1.000000 1.000000
vt 0.000000 1.000000
vt 1.000000 1.000000
vt 0.936523 0.505371
vt 0.927246 0.497070
vt 0.936523 0.330566
vt 0.936523 0.505371
vt 0.933105 0.508789
vt 0.927246 0.497070
vt 0.927246 0.497070
vt 0.927246 0.338379
vt 0.936523 0.330566
vt 0.933105 0.508789
vt 0.925293 0.499512
vt 0.927246 0.497070
vt 0.936523 0.330566
vt 0.927246 0.338379
vt 0.925293 0.335938
vt 0.041901 0.499512
vt 0.925293 0.499512
vt 0.933105 0.508789
vt 0.933105 0.326660
vt 0.936523 0.330566
vt 0.925293 0.335938
vt 0.034088 0.508789
vt 0.041901 0.499512
vt 0.933105 0.508789
vt 0.933105 0.326660
vt 0.925293 0.335938
vt 0.034088 0.326660
vt 0.034088 0.508789
vt 0.030396 0.505371
vt 0.041901 0.499512
vt 0.925293 0.335938
vt 0.041931 0.335938
vt 0.034088 0.326660
vt 0.030396 0.505371
vt 0.039581 0.497070
vt 0.041901 0.499512
vt 0.034088 0.326660
vt 0.041931 0.335938
vt 0.039612 0.338379
vt 0.039612 0.338379
vt 0.039581 0.497070
vt 0.030396 0.505371
vt 0.030396 0.330566
vt 0.034088 0.326660
vt 0.039612 0.338379
vt 0.030396 0.330566
vt 0.039612 0.338379
vt 0.030396 0.505371
f 1/1/1 2/2/2 3/3/3
f 4/4/4 5/5/5 6/6/6
f 7/7/7 8/8/8 9/9/9
f 10/10/10 11/11/11 12/12/12
f 13/13/13 14/14/14 15/15/15
f 16/16/16 17/17/17 18/18/18
f 19/19/19 20/20/20 21/21/21
f 22/22/22 23/23/23 24/24/24
f 25/25/25 26/26/26 27/27/27
f 28/28/28 29/29/29 30/30/30
f 31/31/31 32/32/32 33/33/33
f 34/34/34 35/35/35 36/36/36
f 37/37/37 38/38/38 39/39/39
f 40/40/40 41/41/41 42/42/42
f 43/43/43 44/44/44 45/45/45
f 46/46/46 47/47/47 48/48/48
f 49/49/49 50/50/50 51/51/51
f 52/52/52 53/53/53 54/54/54
f 55/55/55 56/56/56 57/57/57
f 58/58/58 59/59/59 60/60/60
f 61/61/61 62/62/62 63/63/63
f 64/64/64 65/65/65 66/66/66
f 67/67/67 68/68/68 69/69/69
f 70/70/70 71/71/71 72/72/72
f 73/73/73 74/74/74 75/75/75
f 76/76/76 77/77/77 78/78/78
f 79/79/79 80/80/80 81/81/81
f 82/82/82 83/83/83 84/84/84
f 85/85/85 86/86/86 87/87/87
f 88/88/88 89/89/89 90/90/90
f 91/91/91 92/92/92 93/93/93
f 94/94/94 95/95/95 96/96/96
f 97/97/97 98/98/98 99/99/99
f 100/100/100 101/101/101 102/102/102
f 103/103/103 104/104/104 105/105/105
f 106/106/106 107/107/107 108/108/108
f 109/109/109 110/110/110 111/111/111
f 112/112/112 113/113/113 114/114/114
f 115/115/115 116/116/116 117/117/117
f 118/118/118 119/119/119 120/120/120
f 121/121/121 122/122/122 123/123/123
f 124/124/124 125/125/125 126/126/126
f 127/127/127 128/128/128 129/129/129
f 130/130/130 131/131/131 132/132/132
f 133/133/133 134/134/134 135/135/135
f 136/136/136 137/137/137 138/138/138
f 139/139/139 140/140/140 141/141/141
f 142/142/142 143/143/143 144/144/144
f 145/145/145 146/146/146 147/147/147
f 148/148/148 149/149/149 150/150/150
f 151/151/151 152/152/152 153/153/153
f 154/154/154 155/155/155 156/156/156
f 157/157/157 158/158/158 159/159/159
f 160/160/160 161/161/161 162/162/162
f 163/163/163 164/164/164 165/165/165
f 166/166/166 167/167/167 168/168/168
f 169/169/169 170/170/170 171/171/171
f 172/172/172 173/173/173 174/174/174
f 175/175/175 176/176/176 177/177/177
f 178/178/178 179/179/179 180/180/180
f 181/181/181 182/182/182 183/183/183
f 184/184/184 185/185/185 186/186/186
f 187/187/187 188/188/188 189/189/189
f 190/190/190 191/191/191 192/192/192
f 193/193/193 194/194/194 195/195/195
f 196/196/196 197/197/197 198/198/198
f 199/199/199 200/200/200 201/201/201
f 202/202/202 203/203/203 204/204/204
f 205/205/205 206/206/206 207/207/207
f 208/208/208 209/209/209 210/210/210
f 211/211/211 212/212/212 213/213/213
f 214/214/214 215/215/215 216/216/216
f 217/217/217 218/218/218 219/219/219
f 220/220/220 221/221/221 222/222/222
f 223/223/223 224/224/224 225/225/225
f 226/226/226 227/227/227 228/228/228
f 229/229/229 230/230/230 231/231/231
f 232/232/232 233/233/233 234/234/234
f 235/235/235 236/236/236 237/237/237
f 238/238/238 239/239/239 240/240/240
f 241/241/241 242/242/242 243/243/243
f 244/244/244 245/245/245 246/246/246
f 247/247/247 248/248/248 249/249/249
f 250/250/250 251/251/251 252/252/252
f 253/253/253 254/254/254 255/255/255
f 256/256/256 257/257/257 258/258/258
f 259/259/259 260/260/260 261/261/261
f 262/262/262 263/263/263 264/264/264
f 265/265/265 266/266/266 267/267/267
f 268/268/268 269/269/269 270/270/270
f 271/271/271 272/272/272 273/273/273
f 274/274/274 275/275/275 276/276/276
f 277/277/277 278/278/278 279/279/279
f 280/280/280 281/281/281 282/282/282
f 283/283/283 284/284/284 285/285/285
f 286/286/286 287/287/287 288/288/288
f 289/289/289 290/290/290 291/291/291
f 292/292/292 293/293/293 294/294/294
f 295/295/295 296/296/296 297/297/297
f 298/298/298 299/299/299 300/300/300
f 301/301/301 302/302/302 303/303/303
f 304/304/304 305/305/305 306/306/306
f 307/307/307 308/308/308 309/309/309
f 310/310/310 311/311/311 312/312/312
f 313/313/313 314/314/314 315/315/315
f 316/316/316 317/317/317 318/318/318
f 319/319/319 320/320/320 321/321/321
f 322/322/322 323/323/323 324/324/324
f 325/325/325 326/326/326 327/327/327
f 328/328/328 329/329/329 330/330/330
f 331/331/331 332/332/332 333/333/333
f 334/334/334 335/335/335 336/336/336
f 337/337/337 338/338/338 339/339/339
f 340/340/340 341/341/341 342/342/342
f 343/343/343 344/344/344 345/345/345
f 346/346/346 347/347/347 348/348/348
f 349/349/349 350/350/350 351/351/351
f 352/352/352 353/353/353 354/354/354
f 355/355/355 356/356/356 357/357/357
f 358/358/358 359/359/359 360/360/360
f 361/361/361 362/362/362 363/363/363
f 364/364/364 365/365/365 366/366/366
f 367/367/367 368/368/368 369/369/369
f 370/370/370 371/371/371 372/372/372
f 373/373/373 374/374/374 375/375/375
f 376/376/376 377/377/377 378/378/378
f 379/379/379 380/380/380 381/381/381
f 382/382/382 383/383/383 384/384/384
f 385/385/385 386/386/386 387/387/387
f 388/388/388 389/389/389 390/390/390
f 391/391/391 392/392/392 393/393/393
f 394/394/394 395/395/395 396/396/396
f 397/397/397 398/398/398 399/399/399
f 400/400/400 401/401/401 402/402/402
f 403/403/403 404/404/404 405/405/405
f 406/406/406 407/407/407 408/408/408
f 409/409/409 410/410/410 411/411/411
f 412/412/412 413/413/413 414/414/414
f 415/415/415 416/416/416 417/417/417
f 418/418/418 419/419/419 420/420/420
f 421/421/421 422/422/422 423/423/423
f 424/424/424 425/425/425 426/426/426
f 427/427/427 428/428/428 429/429/429
f 430/430/430 431/431/431 432/432/432
f 433/433/433 434/434/434 435/435/435
f 436/436/436 437/437/437 438/438/438
f 439/439/439 440/440/440 441/441/441
f 442/442/442 443/443/443 444/444/444
f 445/445/445 446/446/446 447/447/447
f 448/448/448 449/449/449 450/450/450
f 451/451/451 452/452/452 453/453/453
f 454/454/454 455/455/455 456/456/456
f 457/457/457 458/458/458 459/459/459
f 460/460/460 461/461/461 462/462/462
f 463/463/463 464/464/464 465/465/465
f 466/466/466 467/467/467 468/468/468
f 469/469/469 470/470/470 471/471/471
f 472/472/472 473/473/473 474/474/474
f 475/475/475 476/476/476 477/477/477
f 478/478/478 479/479/479 480/480/480
f 481/481/481 482/482/482 483/483/483
f 484/484/484 485/485/485 486/486/486
f 487/487/487 488/488/488 489/489/489
f 490/490/490 491/491/491 492/492/492
f 493/493/493 494/494/494 495/495/495
f 496/496/496 497/497/497 498/498/498
f 499/499/499 500/500/500 501/501/501
f 502/502/502 503/503/503 504/504/504
f 505/505/505 506/506/506 507/507/507
f 508/508/508 509/509/509 510/510/510
f 511/511/511 512/512/512 513/513/513
f 514/514/514 515/515/515 516/516/516
f 517/517/517 518/518/518 519/519/519
f 520/520/520 521/521/521 522/522/522
f 523/523/523 524/524/524 525/525/525
f 526/526/526 527/527/527 528/528/528
f 529/529/529 530/530/530 531/531/531
f 532/532/532 533/533/533 534/534/534
f 535/535/535 536/536/536 537/537/537
f 538/538/538 539/539/539 540/540/540
f 541/541/541 542/542/542 543/543/543
f 544/544/544 545/545/545 546/546/546
f 547/547/547 548/548/548 549/549/549
f 550/550/550 551/551/551 552/552/552
f 553/553/553 554/554/554 555/555/555
f 556/556/556 557/557/557 558/558/558
f 559/559/559 560/560/560 561/561/561
f 562/562/562 563/563/563 564/564/564
f 565/565/565 566/566/566 567/567/567
f 568/568/568 569/569/569 570/570/570
f 571/571/571 572/572/572 573/573/573
f 574/574/574 575/575/575 576/576/576
f 577/577/577 578/578/578 579/579/579
f 580/580/580 581/581/581 582/582/582
f 583/583/583 584/584/584 585/585/585
f 586/586/586 587/587/587 588/588/588
f 589/589/589 590/590/590 591/591/591
f 592/592/592 593/593/593 594/594/594
f 595/595/595 596/596/596 597/597/597
f 598/598/598 599/599/599 600/600/600
f 601/601/601 602/602/602 603/603/603
f 604/604/604 605/605/605 606/606/606
f 607/607/607 608/608/608 609/609/609
f 610/610/610 611/611/611 612/612/612
f 613/613/613 614/614/614 615/615/615
f 616/616/616 617/617/617 618/618/618
f 619/619/619 620/620/620 621/621/621
f 622/622/622 623/623/623 624/624/624
f 625/625/625 626/626/626 627/627/627
f 628/628/628 629/629/629 630/630/630
f 631/631/631 632/632/632 633/633/633
f 634/634/634 635/635/635 636/636/636
f 637/637/637 638/638/638 639/639/639
f 640/640/640 641/641/641 642/642/642
f 643/643/643 644/644/644 645/645/645
f 646/646/646 647/647/647 648/648/648
f 649/649/649 650/650/650 651/651/651
f 652/652/652 653/653/653 654/654/654
f 655/655/655 656/656/656 657/657/657
f 658/658/658 659/659/659 660/660/660
