# OBJ file
v 2774.022700 -1242.947500 606.946170
v 2782.418700 -1222.266200 606.946000
v 2783.216600 -1222.587500 607.497560
v 2783.216600 -1222.587500 607.497560
v 2775.120000 -1242.462400 607.497740
v 2774.022700 -1242.947500 606.946170
v 2775.120000 -1242.462400 607.497740
v 2783.216600 -1222.587500 607.497560
v 2783.880100 -1222.855000 608.096400
v 2783.880100 -1222.855000 608.096400
v 2776.033400 -1242.058600 608.096560
v 2775.120000 -1242.462400 607.497740
v 2776.033400 -1242.058600 608.096560
v 2783.880100 -1222.855000 608.096400
v 2784.276400 -1223.014500 608.789860
v 2784.276400 -1223.014500 608.789860
v 2776.578400 -1241.817700 608.790100
v 2776.033400 -1242.058600 608.096560
v 2776.578400 -1241.817700 608.790100
v 2784.276400 -1223.014500 608.789860
v 2784.298300 -1223.023400 609.597500
v 2784.298300 -1223.023400 609.597500
v 2776.609000 -1241.804300 609.597700
v 2776.578400 -1241.817700 608.790100
v 2776.238800 -1241.967900 610.336550
v 2776.609000 -1241.804300 609.597700
v 2784.298300 -1223.023400 609.597500
v 2784.298300 -1223.023400 609.597500
v 2784.029500 -1222.915000 610.336360
v 2776.238800 -1241.967900 610.336550
v 2775.503400 -1242.293000 610.867500
v 2776.238800 -1241.967900 610.336550
v 2784.029500 -1222.915000 610.336360
v 2784.029500 -1222.915000 610.336360
v 2783.494900 -1222.699700 610.867300
v 2775.503400 -1242.293000 610.867500
v 2774.407500 -1242.777300 611.072450
v 2775.503400 -1242.293000 610.867500
v 2783.494900 -1222.699700 610.867300
v 2783.494900 -1222.699700 610.867300
v 2782.698200 -1222.378800 611.072270
v 2774.407500 -1242.777300 611.072450
v 2768.702100 -1245.252700 611.072300
v 2774.407500 -1242.777300 611.072450
v 2782.698200 -1222.378800 611.072270
v 2782.698200 -1222.378800 611.072270
v 2778.581800 -1220.721000 611.072270
v 2768.702100 -1245.252700 611.072300
v 2766.780800 -1245.819200 610.868650
v 2768.702100 -1245.252700 611.072300
v 2778.581800 -1220.721000 611.072270
v 2778.581800 -1220.721000 611.072270
v 2777.125700 -1220.134500 610.868650
v 2766.780800 -1245.819200 610.868650
v 2765.840300 -1246.096400 610.337300
v 2766.780800 -1245.819200 610.868650
v 2777.125700 -1220.134500 610.868650
v 2777.125700 -1220.134500 610.868650
v 2776.413300 -1219.847700 610.337340
v 2765.840300 -1246.096400 610.337300
v 2765.536000 -1246.186300 609.597600
v 2765.840300 -1246.096400 610.337300
v 2776.413300 -1219.847700 610.337340
v 2776.413300 -1219.847700 610.337340
v 2776.176800 -1219.752300 609.597660
v 2765.536000 -1246.186300 609.597600
v 2765.536000 -1246.186300 609.597600
v 2776.176800 -1219.752300 609.597660
v 2776.219500 -1219.769500 608.789860
v 2776.219500 -1219.769500 608.789860
v 2765.606700 -1246.165300 608.789860
v 2765.536000 -1246.186300 609.597600
v 2765.606700 -1246.165300 608.789860
v 2776.219500 -1219.769500 608.789860
v 2776.738300 -1219.978500 608.096400
v 2776.738300 -1219.978500 608.096400
v 2766.266800 -1245.970600 608.096400
v 2765.606700 -1246.165300 608.789860
v 2766.266800 -1245.970600 608.096400
v 2776.738300 -1219.978500 608.096400
v 2777.575400 -1220.315800 607.497500
v 2777.575400 -1220.315800 607.497500
v 2767.372800 -1245.644500 607.497560
v 2766.266800 -1245.970600 608.096400
v 2767.372800 -1245.644500 607.497560
v 2777.575400 -1220.315800 607.497500
v 2778.581800 -1220.721000 606.946040
v 2778.581800 -1220.721000 606.946040
v 2768.702100 -1245.252700 606.946100
v 2767.372800 -1245.644500 607.497560
v 2768.702100 -1245.252700 606.946100
v 2899.664600 -1298.005500 606.946040
v 2900.350800 -1299.209200 607.497600
v 2900.350800 -1299.209200 607.497600
v 2767.372800 -1245.644500 607.497560
v 2768.702100 -1245.252700 606.946100
v 2767.372800 -1245.644500 607.497560
v 2900.350800 -1299.209200 607.497600
v 2900.921900 -1300.211000 608.096400
v 2900.921900 -1300.211000 608.096400
v 2766.266800 -1245.970600 608.096400
v 2767.372800 -1245.644500 607.497560
v 2766.266800 -1245.970600 608.096400
v 2900.921900 -1300.211000 608.096400
v 2901.263000 -1300.808600 608.789900
v 2901.263000 -1300.808600 608.789900
v 2765.606700 -1246.165300 608.789860
v 2766.266800 -1245.970600 608.096400
v 2765.536000 -1246.186300 609.597600
v 2765.606700 -1246.165300 608.789860
v 2901.263000 -1300.808600 608.789900
v 2901.263000 -1300.808600 608.789900
v 2901.299600 -1300.873000 609.597660
v 2765.536000 -1246.186300 609.597600
v 2765.840300 -1246.096400 610.337300
v 2765.536000 -1246.186300 609.597600
v 2901.299600 -1300.873000 609.597660
v 2901.299600 -1300.873000 609.597660
v 2901.142000 -1300.597200 610.337340
v 2765.840300 -1246.096400 610.337300
v 2766.780800 -1245.819200 610.868650
v 2765.840300 -1246.096400 610.337300
v 2901.142000 -1300.597200 610.337340
v 2901.142000 -1300.597200 610.337340
v 2900.656500 -1299.745500 610.868700
v 2766.780800 -1245.819200 610.868650
v 2768.702100 -1245.252700 611.072300
v 2766.780800 -1245.819200 610.868650
v 2900.656500 -1299.745500 610.868700
v 2900.656500 -1299.745500 610.868700
v 2899.664300 -1298.005500 611.072400
v 2768.702100 -1245.252700 611.072300
v 2774.407500 -1242.777300 611.072450
v 2768.702100 -1245.252700 611.072300
v 2899.664300 -1298.005500 611.072400
v 2899.664300 -1298.005500 611.072400
v 2897.267300 -1292.266500 611.072450
v 2774.407500 -1242.777300 611.072450
v 2775.503400 -1242.293000 610.867500
v 2774.407500 -1242.777300 611.072450
v 2897.267300 -1292.266500 611.072450
v 2897.267300 -1292.266500 611.072450
v 2896.813500 -1291.157700 610.867550
v 2775.503400 -1242.293000 610.867500
v 2776.238800 -1241.967900 610.336550
v 2775.503400 -1242.293000 610.867500
v 2896.813500 -1291.157700 610.867550
v 2896.813500 -1291.157700 610.867550
v 2896.508500 -1290.413700 610.336550
v 2776.238800 -1241.967900 610.336550
v 2776.609000 -1241.804300 609.597700
v 2776.238800 -1241.967900 610.336550
v 2896.508500 -1290.413700 610.336550
v 2896.508500 -1290.413700 610.336550
v 2896.355200 -1290.039200 609.597800
v 2776.609000 -1241.804300 609.597700
v 2776.578400 -1241.817700 608.790100
v 2776.609000 -1241.804300 609.597700
v 2896.355200 -1290.039200 609.597800
v 2896.355200 -1290.039200 609.597800
v 2896.368000 -1290.070000 608.790100
v 2776.578400 -1241.817700 608.790100
v 2776.033400 -1242.058600 608.096560
v 2776.578400 -1241.817700 608.790100
v 2896.368000 -1290.070000 608.790100
v 2896.368000 -1290.070000 608.790100
v 2896.593500 -1290.621200 608.096560
v 2776.033400 -1242.058600 608.096560
v 2775.120000 -1242.462400 607.497740
v 2776.033400 -1242.058600 608.096560
v 2896.593500 -1290.621200 608.096560
v 2896.593500 -1290.621200 608.096560
v 2896.972000 -1291.545400 607.497800
v 2775.120000 -1242.462400 607.497740
v 2774.022700 -1242.947500 606.946170
v 2775.120000 -1242.462400 607.497740
v 2896.972000 -1291.545400 607.497800
v 2896.972000 -1291.545400 607.497800
v 2897.427000 -1292.655900 606.946170
v 2774.022700 -1242.947500 606.946170
v 2904.912800 -1271.607900 607.497560
v 2905.710400 -1271.929300 606.946100
v 2897.427000 -1292.655900 606.946170
v 2897.427000 -1292.655900 606.946170
v 2896.972000 -1291.545400 607.497800
v 2904.912800 -1271.607900 607.497560
v 2904.248800 -1271.340500 608.096400
v 2904.912800 -1271.607900 607.497560
v 2896.972000 -1291.545400 607.497800
v 2896.972000 -1291.545400 607.497800
v 2896.593500 -1290.621200 608.096560
v 2904.248800 -1271.340500 608.096400
v 2903.853000 -1271.180900 608.789900
v 2904.248800 -1271.340500 608.096400
v 2896.593500 -1290.621200 608.096560
v 2896.593500 -1290.621200 608.096560
v 2896.368000 -1290.070000 608.790100
v 2903.853000 -1271.180900 608.789900
v 2903.830800 -1271.172000 609.597530
v 2903.853000 -1271.180900 608.789900
v 2896.368000 -1290.070000 608.790100
v 2896.368000 -1290.070000 608.790100
v 2896.355200 -1290.039200 609.597800
v 2903.830800 -1271.172000 609.597530
v 2903.830800 -1271.172000 609.597530
v 2896.355200 -1290.039200 609.597800
v 2896.508500 -1290.413700 610.336550
v 2896.508500 -1290.413700 610.336550
v 2904.099600 -1271.280400 610.336400
v 2903.830800 -1271.172000 609.597530
v 2904.099600 -1271.280400 610.336400
v 2896.508500 -1290.413700 610.336550
v 2896.813500 -1291.157700 610.867550
v 2896.813500 -1291.157700 610.867550
v 2904.634300 -1271.495700 610.867400
v 2904.099600 -1271.280400 610.336400
v 2904.634300 -1271.495700 610.867400
v 2896.813500 -1291.157700 610.867550
v 2897.267300 -1292.266500 611.072450
v 2897.267300 -1292.266500 611.072450
v 2905.431000 -1271.816700 611.072270
v 2904.634300 -1271.495700 610.867400
v 2905.431000 -1271.816700 611.072270
v 2897.267300 -1292.266500 611.072450
v 2899.664300 -1298.005500 611.072400
v 2899.664300 -1298.005500 611.072400
v 2909.547000 -1273.475000 611.072270
v 2905.431000 -1271.816700 611.072270
v 2909.547000 -1273.475000 611.072270
v 2899.664300 -1298.005500 611.072400
v 2900.656500 -1299.745500 610.868700
v 2900.656500 -1299.745500 610.868700
v 2911.003200 -1274.061600 610.868650
v 2909.547000 -1273.475000 611.072270
v 2911.003200 -1274.061600 610.868650
v 2900.656500 -1299.745500 610.868700
v 2901.142000 -1300.597200 610.337340
v 2901.142000 -1300.597200 610.337340
v 2911.715300 -1274.348500 610.337400
v 2911.003200 -1274.061600 610.868650
v 2911.715300 -1274.348500 610.337400
v 2901.142000 -1300.597200 610.337340
v 2901.299600 -1300.873000 609.597660
v 2901.299600 -1300.873000 609.597660
v 2911.952000 -1274.443700 609.597660
v 2911.715300 -1274.348500 610.337400
v 2911.909400 -1274.426500 608.789860
v 2911.952000 -1274.443700 609.597660
v 2901.299600 -1300.873000 609.597660
v 2901.299600 -1300.873000 609.597660
v 2901.263000 -1300.808600 608.789900
v 2911.909400 -1274.426500 608.789860
v 2911.390400 -1274.217500 608.096440
v 2911.909400 -1274.426500 608.789860
v 2901.263000 -1300.808600 608.789900
v 2901.263000 -1300.808600 608.789900
v 2900.921900 -1300.211000 608.096400
v 2911.390400 -1274.217500 608.096440
v 2910.553200 -1273.880400 607.497560
v 2911.390400 -1274.217500 608.096440
v 2900.921900 -1300.211000 608.096400
v 2900.921900 -1300.211000 608.096400
v 2900.350800 -1299.209200 607.497600
v 2910.553200 -1273.880400 607.497560
v 2909.547000 -1273.475000 606.946100
v 2910.553200 -1273.880400 607.497560
v 2900.350800 -1299.209200 607.497600
v 2900.350800 -1299.209200 607.497600
v 2899.664600 -1298.005500 606.946040
v 2909.547000 -1273.475000 606.946100
vn 0.246827 0.419215 -0.873691
vn 0.498308 -0.200108 -0.843591
vn 0.544387 -0.215405 -0.810706
vn 0.544387 -0.215405 -0.810706
vn 0.268560 0.463168 -0.844601
vn 0.246827 0.419215 -0.873691
vn 0.268560 0.463168 -0.844601
vn 0.544387 -0.215405 -0.810706
vn 0.698243 -0.280086 -0.658794
vn 0.698243 -0.280086 -0.658794
vn 0.354768 0.604276 -0.713435
vn 0.268560 0.463168 -0.844601
vn 0.354768 0.604276 -0.713435
vn 0.698243 -0.280086 -0.658794
vn 0.887762 -0.359050 -0.288029
vn 0.887762 -0.359050 -0.288029
vn 0.482940 0.812753 -0.325886
vn 0.354768 0.604276 -0.713435
vn 0.482940 0.812753 -0.325886
vn 0.887762 -0.359050 -0.288029
vn 0.911436 -0.374833 0.169661
vn 0.911436 -0.374833 0.169661
vn 0.499076 0.844893 0.192557
vn 0.482940 0.812753 -0.325886
vn 0.403419 0.677588 0.614921
vn 0.499076 0.844893 0.192557
vn 0.911436 -0.374833 0.169661
vn 0.911436 -0.374833 0.169661
vn 0.763263 -0.312424 0.565527
vn 0.403419 0.677588 0.614921
vn 0.209352 0.351554 0.912459
vn 0.403419 0.677588 0.614921
vn 0.763263 -0.312424 0.565527
vn 0.763263 -0.312424 0.565527
vn 0.438509 -0.177774 0.880969
vn 0.209352 0.351554 0.912459
vn 0.035544 0.019746 0.999173
vn 0.209352 0.351554 0.912459
vn 0.438509 -0.177774 0.880969
vn 0.438509 -0.177774 0.880969
vn 0.027656 -0.011852 0.999547
vn 0.035544 0.019746 0.999173
vn -0.019755 -0.019755 0.999610
vn 0.035544 0.019746 0.999173
vn 0.027656 -0.011852 0.999547
vn 0.027656 -0.011852 0.999547
vn -0.067017 0.027595 0.997370
vn -0.019755 -0.019755 0.999610
vn -0.177420 -0.256273 0.950182
vn -0.019755 -0.019755 0.999610
vn -0.067017 0.027595 0.997370
vn -0.067017 0.027595 0.997370
vn -0.287994 0.114408 0.950774
vn -0.177420 -0.256273 0.950182
vn -0.435690 -0.663347 0.608395
vn -0.177420 -0.256273 0.950182
vn -0.287994 0.114408 0.950774
vn -0.287994 0.114408 0.950774
vn -0.740983 0.301882 0.599843
vn -0.435690 -0.663347 0.608395
vn -0.546537 -0.829636 0.114026
vn -0.435690 -0.663347 0.608395
vn -0.740983 0.301882 0.599843
vn -0.740983 0.301882 0.599843
vn -0.919352 0.371653 0.129100
vn -0.546537 -0.829636 0.114026
vn -0.546537 -0.829636 0.114026
vn -0.919352 0.371653 0.129100
vn -0.864106 0.347988 -0.363628
vn -0.864106 0.347988 -0.363628
vn -0.512207 -0.778086 -0.363628
vn -0.546537 -0.829636 0.114026
vn -0.512207 -0.778086 -0.363628
vn -0.864106 0.347988 -0.363628
vn -0.627324 0.253267 -0.736424
vn -0.627324 0.253267 -0.736424
vn -0.370430 -0.565394 -0.736961
vn -0.512207 -0.778086 -0.363628
vn -0.370430 -0.565394 -0.736961
vn -0.627324 0.253267 -0.736424
vn -0.471410 0.190901 -0.861005
vn -0.471410 0.190901 -0.861005
vn -0.278736 -0.427918 -0.859763
vn -0.370430 -0.565394 -0.736961
vn -0.278736 -0.427918 -0.859763
vn -0.471410 0.190901 -0.861005
vn -0.423171 0.174704 -0.889047
vn -0.423171 0.174704 -0.889047
vn -0.253869 -0.386663 -0.886590
vn -0.278736 -0.427918 -0.859763
vn -0.253869 -0.386663 -0.886590
vn -0.097773 -0.449758 -0.887783
vn -0.106050 -0.498830 -0.860187
vn -0.106050 -0.498830 -0.860187
vn -0.278736 -0.427918 -0.859763
vn -0.253869 -0.386663 -0.886590
vn -0.278736 -0.427918 -0.859763
vn -0.106050 -0.498830 -0.860187
vn -0.136749 -0.660302 -0.738445
vn -0.136749 -0.660302 -0.738445
vn -0.370430 -0.565394 -0.736961
vn -0.278736 -0.427918 -0.859763
vn -0.370430 -0.565394 -0.736961
vn -0.136749 -0.660302 -0.738445
vn -0.184141 -0.912870 -0.364364
vn -0.184141 -0.912870 -0.364364
vn -0.512207 -0.778086 -0.363628
vn -0.370430 -0.565394 -0.736961
vn -0.546537 -0.829636 0.114026
vn -0.512207 -0.778086 -0.363628
vn -0.184141 -0.912870 -0.364364
vn -0.184141 -0.912870 -0.364364
vn -0.193311 -0.974444 0.114408
vn -0.546537 -0.829636 0.114026
vn -0.435690 -0.663347 0.608395
vn -0.546537 -0.829636 0.114026
vn -0.193311 -0.974444 0.114408
vn -0.193311 -0.974444 0.114408
vn -0.153735 -0.776560 0.610999
vn -0.435690 -0.663347 0.608395
vn -0.177420 -0.256273 0.950182
vn -0.435690 -0.663347 0.608395
vn -0.153735 -0.776560 0.610999
vn -0.153735 -0.776560 0.610999
vn -0.067042 -0.303661 0.950419
vn -0.177420 -0.256273 0.950182
vn -0.019755 -0.019755 0.999610
vn -0.177420 -0.256273 0.950182
vn -0.067042 -0.303661 0.950419
vn -0.067042 -0.303661 0.950419
vn -0.011852 -0.027656 0.999547
vn -0.019755 -0.019755 0.999610
vn 0.035544 0.019746 0.999173
vn -0.019755 -0.019755 0.999610
vn -0.011852 -0.027656 0.999547
vn -0.011852 -0.027656 0.999547
vn -0.019740 0.043429 0.998861
vn 0.035544 0.019746 0.999173
vn 0.209352 0.351554 0.912459
vn 0.035544 0.019746 0.999173
vn -0.019740 0.043429 0.998861
vn -0.019740 0.043429 0.998861
vn 0.082745 0.405842 0.910190
vn 0.209352 0.351554 0.912459
vn 0.403419 0.677588 0.614921
vn 0.209352 0.351554 0.912459
vn 0.082745 0.405842 0.910190
vn 0.082745 0.405842 0.910190
vn 0.168263 0.770879 0.614356
vn 0.403419 0.677588 0.614921
vn 0.499076 0.844893 0.192557
vn 0.403419 0.677588 0.614921
vn 0.168263 0.770879 0.614356
vn 0.168263 0.770879 0.614356
vn 0.214983 0.957652 0.191531
vn 0.499076 0.844893 0.192557
vn 0.482940 0.812753 -0.325886
vn 0.499076 0.844893 0.192557
vn 0.214983 0.957652 0.191531
vn 0.214983 0.957652 0.191531
vn 0.206510 0.923452 -0.323403
vn 0.482940 0.812753 -0.325886
vn 0.354768 0.604276 -0.713435
vn 0.482940 0.812753 -0.325886
vn 0.206510 0.923452 -0.323403
vn 0.206510 0.923452 -0.323403
vn 0.152229 0.683078 -0.714304
vn 0.354768 0.604276 -0.713435
vn 0.268560 0.463168 -0.844601
vn 0.354768 0.604276 -0.713435
vn 0.152229 0.683078 -0.714304
vn 0.152229 0.683078 -0.714304
vn 0.112750 0.524871 -0.843681
vn 0.268560 0.463168 -0.844601
vn 0.246827 0.419215 -0.873691
vn 0.268560 0.463168 -0.844601
vn 0.112750 0.524871 -0.843681
vn 0.112750 0.524871 -0.843681
vn 0.097696 0.480663 -0.871446
vn 0.246827 0.419215 -0.873691
vn -0.548929 0.221907 -0.805875
vn -0.509165 0.205998 -0.835653
vn 0.097696 0.480663 -0.871446
vn 0.097696 0.480663 -0.871446
vn 0.112750 0.524871 -0.843681
vn -0.548929 0.221907 -0.805875
vn -0.704654 0.284197 -0.650150
vn -0.548929 0.221907 -0.805875
vn 0.112750 0.524871 -0.843681
vn 0.112750 0.524871 -0.843681
vn 0.152229 0.683078 -0.714304
vn -0.704654 0.284197 -0.650150
vn -0.891037 0.354080 -0.284042
vn -0.704654 0.284197 -0.650150
vn 0.152229 0.683078 -0.714304
vn 0.152229 0.683078 -0.714304
vn 0.206510 0.923452 -0.323403
vn -0.891037 0.354080 -0.284042
vn -0.916662 0.362764 0.167730
vn -0.891037 0.354080 -0.284042
vn 0.206510 0.923452 -0.323403
vn 0.206510 0.923452 -0.323403
vn 0.214983 0.957652 0.191531
vn -0.916662 0.362764 0.167730
vn -0.916662 0.362764 0.167730
vn 0.214983 0.957652 0.191531
vn 0.168263 0.770879 0.614356
vn 0.168263 0.770879 0.614356
vn -0.773108 0.310028 0.553341
vn -0.916662 0.362764 0.167730
vn -0.773108 0.310028 0.553341
vn 0.168263 0.770879 0.614356
vn 0.082745 0.405842 0.910190
vn 0.082745 0.405842 0.910190
vn -0.444858 0.177156 0.877905
vn -0.773108 0.310028 0.553341
vn -0.444858 0.177156 0.877905
vn 0.082745 0.405842 0.910190
vn -0.019740 0.043429 0.998861
vn -0.019740 0.043429 0.998861
vn -0.035544 0.019746 0.999173
vn -0.444858 0.177156 0.877905
vn -0.035544 0.019746 0.999173
vn -0.019740 0.043429 0.998861
vn -0.011852 -0.027656 0.999547
vn -0.011852 -0.027656 0.999547
vn 0.059173 -0.019724 0.998053
vn -0.035544 0.019746 0.999173
vn 0.059173 -0.019724 0.998053
vn -0.011852 -0.027656 0.999547
vn -0.067042 -0.303661 0.950419
vn -0.067042 -0.303661 0.950419
vn 0.280979 -0.106851 0.953747
vn 0.059173 -0.019724 0.998053
vn 0.280979 -0.106851 0.953747
vn -0.067042 -0.303661 0.950419
vn -0.153735 -0.776560 0.610999
vn -0.153735 -0.776560 0.610999
vn 0.739165 -0.296457 0.604771
vn 0.280979 -0.106851 0.953747
vn 0.739165 -0.296457 0.604771
vn -0.153735 -0.776560 0.610999
vn -0.193311 -0.974444 0.114408
vn -0.193311 -0.974444 0.114408
vn 0.920819 -0.367537 0.130416
vn 0.739165 -0.296457 0.604771
vn 0.864465 -0.343418 -0.367102
vn 0.920819 -0.367537 0.130416
vn -0.193311 -0.974444 0.114408
vn -0.193311 -0.974444 0.114408
vn -0.184141 -0.912870 -0.364364
vn 0.864465 -0.343418 -0.367102
vn 0.623789 -0.247162 -0.741484
vn 0.864465 -0.343418 -0.367102
vn -0.184141 -0.912870 -0.364364
vn -0.184141 -0.912870 -0.364364
vn -0.136749 -0.660302 -0.738445
vn 0.623789 -0.247162 -0.741484
vn 0.466001 -0.184051 -0.865430
vn 0.623789 -0.247162 -0.741484
vn -0.136749 -0.660302 -0.738445
vn -0.136749 -0.660302 -0.738445
vn -0.106050 -0.498830 -0.860187
vn 0.466001 -0.184051 -0.865430
vn 0.417323 -0.167709 -0.893149
vn 0.466001 -0.184051 -0.865430
vn -0.106050 -0.498830 -0.860187
vn -0.106050 -0.498830 -0.860187
vn -0.097773 -0.449758 -0.887783
vn 0.417323 -0.167709 -0.893149
vt 0.031616 0.118164
vt -0.079956 0.118164
vt -0.079956 0.112793
vt -0.079956 0.112793
vt 0.027298 0.113281
vt 0.031616 0.118164
vt 0.027298 0.113281
vt -0.079956 0.112793
vt -0.079956 0.108398
vt -0.079956 0.108398
vt 0.023727 0.108398
vt 0.027298 0.113281
vt 0.023727 0.108398
vt -0.079956 0.108398
vt -0.080017 0.104492
vt -0.080017 0.104492
vt 0.021591 0.104492
vt 0.023727 0.108398
vt 0.021591 0.104492
vt -0.080017 0.104492
vt -0.080017 0.100586
vt -0.080017 0.100586
vt 0.021469 0.100098
vt 0.021591 0.104492
vt 0.022919 0.096191
vt 0.021469 0.100098
vt -0.080017 0.100586
vt -0.080017 0.100586
vt -0.080017 0.096680
vt 0.022919 0.096191
vt 0.025803 0.092285
vt 0.022919 0.096191
vt -0.080017 0.096680
vt -0.080017 0.096680
vt -0.079956 0.092773
vt 0.025803 0.092285
vt 0.030106 0.087891
vt 0.025803 0.092285
vt -0.079956 0.092773
vt -0.079956 0.092773
vt -0.079956 0.088379
vt 0.030106 0.087891
vt 0.052277 0.066406
vt 0.030106 0.087891
vt -0.079956 0.088379
vt -0.079956 0.088379
vt -0.079956 0.065918
vt 0.052277 0.066406
vt 0.058502 0.058105
vt 0.052277 0.066406
vt -0.079956 0.065918
vt -0.079956 0.065918
vt -0.079956 0.058105
vt 0.058502 0.058105
vt 0.061523 0.053711
vt 0.058502 0.058105
vt -0.079956 0.058105
vt -0.079956 0.058105
vt -0.079956 0.053711
vt 0.061523 0.053711
vt 0.062500 0.049805
vt 0.061523 0.053711
vt -0.079956 0.053711
vt -0.079956 0.053711
vt -0.079956 0.049805
vt 0.062500 0.049805
vt 0.062500 0.049805
vt -0.079956 0.049805
vt -0.079956 0.045410
vt -0.079956 0.045410
vt 0.062286 0.045410
vt 0.062500 0.049805
vt 0.062286 0.045410
vt -0.079956 0.045410
vt -0.079956 0.041016
vt -0.079956 0.041016
vt 0.060150 0.041016
vt 0.062286 0.045410
vt 0.060150 0.041016
vt -0.079956 0.041016
vt -0.079956 0.035645
vt -0.079956 0.035645
vt 0.056580 0.035645
vt 0.060150 0.041016
vt 0.056580 0.035645
vt -0.079956 0.035645
vt -0.079956 0.029785
vt -0.079956 0.029785
vt 0.052277 0.029785
vt 0.056580 0.035645
vt -0.006321 -0.020508
vt 0.699707 -0.020508
vt 0.705078 -0.015625
vt 0.705078 -0.015625
vt -0.011757 -0.015625
vt -0.006321 -0.020508
vt -0.011757 -0.015625
vt 0.705078 -0.015625
vt 0.709473 -0.010742
vt 0.709473 -0.010742
vt -0.016266 -0.010742
vt -0.011757 -0.015625
vt -0.016266 -0.010742
vt 0.709473 -0.010742
vt 0.712402 -0.006836
vt 0.712402 -0.006836
vt -0.018967 -0.006836
vt -0.016266 -0.010742
vt -0.019257 -0.001953
vt -0.018967 -0.006836
vt 0.712402 -0.006836
vt 0.712402 -0.006836
vt 0.712402 -0.001953
vt -0.019257 -0.001953
vt -0.018021 0.000977
vt -0.019257 -0.001953
vt 0.712402 -0.001953
vt 0.712402 -0.001953
vt 0.711426 0.000977
vt -0.018021 0.000977
vt -0.014175 0.005371
vt -0.018021 0.000977
vt 0.711426 0.000977
vt 0.711426 0.000977
vt 0.707520 0.005371
vt -0.014175 0.005371
vt -0.006321 0.011719
vt -0.014175 0.005371
vt 0.707520 0.005371
vt 0.707520 0.005371
vt 0.699707 0.011719
vt -0.006321 0.011719
vt 0.015511 0.033691
vt -0.006321 0.011719
vt 0.699707 0.011719
vt 0.699707 0.011719
vt 0.677734 0.033691
vt 0.015511 0.033691
vt 0.019684 0.038086
vt 0.015511 0.033691
vt 0.677734 0.033691
vt 0.677734 0.033691
vt 0.673340 0.038086
vt 0.019684 0.038086
vt 0.022491 0.041992
vt 0.019684 0.038086
vt 0.673340 0.038086
vt 0.673340 0.038086
vt 0.670898 0.041992
vt 0.022491 0.041992
vt 0.023911 0.045898
vt 0.022491 0.041992
vt 0.670898 0.041992
vt 0.670898 0.041992
vt 0.669434 0.045898
vt 0.023911 0.045898
vt 0.023788 0.049805
vt 0.023911 0.045898
vt 0.669434 0.045898
vt 0.669434 0.045898
vt 0.669434 0.049805
vt 0.023788 0.049805
vt 0.021713 0.054199
vt 0.023788 0.049805
vt 0.669434 0.049805
vt 0.669434 0.049805
vt 0.671387 0.054199
vt 0.021713 0.054199
vt 0.018234 0.058594
vt 0.021713 0.054199
vt 0.671387 0.054199
vt 0.671387 0.054199
vt 0.674805 0.058594
vt 0.018234 0.058594
vt 0.014046 0.063965
vt 0.018234 0.058594
vt 0.674805 0.058594
vt 0.674805 0.058594
vt 0.679199 0.063965
vt 0.014046 0.063965
vt 0.629883 0.034668
vt 0.629883 0.029785
vt 0.741699 0.029785
vt 0.741699 0.029785
vt 0.737305 0.034668
vt 0.629883 0.034668
vt 0.629883 0.039551
vt 0.629883 0.034668
vt 0.737305 0.034668
vt 0.737305 0.034668
vt 0.733398 0.039062
vt 0.629883 0.039551
vt 0.629883 0.043457
vt 0.629883 0.039551
vt 0.733398 0.039062
vt 0.733398 0.039062
vt 0.731445 0.043457
vt 0.629883 0.043457
vt 0.629883 0.047363
vt 0.629883 0.043457
vt 0.731445 0.043457
vt 0.731445 0.043457
vt 0.731445 0.047363
vt 0.629883 0.047363
vt 0.629883 0.047363
vt 0.731445 0.047363
vt 0.732910 0.051270
vt 0.732910 0.051270
vt 0.629883 0.051270
vt 0.629883 0.047363
vt 0.629883 0.051270
vt 0.732910 0.051270
vt 0.735840 0.055176
vt 0.735840 0.055176
vt 0.629883 0.055176
vt 0.629883 0.051270
vt 0.629883 0.055176
vt 0.735840 0.055176
vt 0.739746 0.059570
vt 0.739746 0.059570
vt 0.629883 0.059570
vt 0.629883 0.055176
vt 0.629883 0.059570
vt 0.739746 0.059570
vt 0.762207 0.081543
vt 0.762207 0.081543
vt 0.629883 0.081543
vt 0.629883 0.059570
vt 0.629883 0.081543
vt 0.762207 0.081543
vt 0.768555 0.089355
vt 0.768555 0.089355
vt 0.629883 0.089355
vt 0.629883 0.081543
vt 0.629883 0.089355
vt 0.768555 0.089355
vt 0.771484 0.094238
vt 0.771484 0.094238
vt 0.629883 0.094238
vt 0.629883 0.089355
vt 0.629883 0.094238
vt 0.771484 0.094238
vt 0.772461 0.098145
vt 0.772461 0.098145
vt 0.629883 0.098145
vt 0.629883 0.094238
vt 0.629883 0.102051
vt 0.629883 0.098145
vt 0.772461 0.098145
vt 0.772461 0.098145
vt 0.771973 0.102051
vt 0.629883 0.102051
vt 0.629883 0.106445
vt 0.629883 0.102051
vt 0.771973 0.102051
vt 0.771973 0.102051
vt 0.770020 0.106445
vt 0.629883 0.106445
vt 0.629883 0.111816
vt 0.629883 0.106445
vt 0.770020 0.106445
vt 0.770020 0.106445
vt 0.766602 0.111816
vt 0.629883 0.111816
vt 0.629883 0.118164
vt 0.629883 0.111816
vt 0.766602 0.111816
vt 0.766602 0.111816
vt 0.762207 0.118164
vt 0.629883 0.118164
f 1/1/1 2/2/2 3/3/3
f 4/4/4 5/5/5 6/6/6
f 7/7/7 8/8/8 9/9/9
f 10/10/10 11/11/11 12/12/12
f 13/13/13 14/14/14 15/15/15
f 16/16/16 17/17/17 18/18/18
f 19/19/19 20/20/20 21/21/21
f 22/22/22 23/23/23 24/24/24
f 25/25/25 26/26/26 27/27/27
f 28/28/28 29/29/29 30/30/30
f 31/31/31 32/32/32 33/33/33
f 34/34/34 35/35/35 36/36/36
f 37/37/37 38/38/38 39/39/39
f 40/40/40 41/41/41 42/42/42
f 43/43/43 44/44/44 45/45/45
f 46/46/46 47/47/47 48/48/48
f 49/49/49 50/50/50 51/51/51
f 52/52/52 53/53/53 54/54/54
f 55/55/55 56/56/56 57/57/57
f 58/58/58 59/59/59 60/60/60
f 61/61/61 62/62/62 63/63/63
f 64/64/64 65/65/65 66/66/66
f 67/67/67 68/68/68 69/69/69
f 70/70/70 71/71/71 72/72/72
f 73/73/73 74/74/74 75/75/75
f 76/76/76 77/77/77 78/78/78
f 79/79/79 80/80/80 81/81/81
f 82/82/82 83/83/83 84/84/84
f 85/85/85 86/86/86 87/87/87
f 88/88/88 89/89/89 90/90/90
f 91/91/91 92/92/92 93/93/93
f 94/94/94 95/95/95 96/96/96
f 97/97/97 98/98/98 99/99/99
f 100/100/100 101/101/101 102/102/102
f 103/103/103 104/104/104 105/105/105
f 106/106/106 107/107/107 108/108/108
f 109/109/109 110/110/110 111/111/111
f 112/112/112 113/113/113 114/114/114
f 115/115/115 116/116/116 117/117/117
f 118/118/118 119/119/119 120/120/120
f 121/121/121 122/122/122 123/123/123
f 124/124/124 125/125/125 126/126/126
f 127/127/127 128/128/128 129/129/129
f 130/130/130 131/131/131 132/132/132
f 133/133/133 134/134/134 135/135/135
f 136/136/136 137/137/137 138/138/138
f 139/139/139 140/140/140 141/141/141
f 142/142/142 143/143/143 144/144/144
f 145/145/145 146/146/146 147/147/147
f 148/148/148 149/149/149 150/150/150
f 151/151/151 152/152/152 153/153/153
f 154/154/154 155/155/155 156/156/156
f 157/157/157 158/158/158 159/159/159
f 160/160/160 161/161/161 162/162/162
f 163/163/163 164/164/164 165/165/165
f 166/166/166 167/167/167 168/168/168
f 169/169/169 170/170/170 171/171/171
f 172/172/172 173/173/173 174/174/174
f 175/175/175 176/176/176 177/177/177
f 178/178/178 179/179/179 180/180/180
f 181/181/181 182/182/182 183/183/183
f 184/184/184 185/185/185 186/186/186
f 187/187/187 188/188/188 189/189/189
f 190/190/190 191/191/191 192/192/192
f 193/193/193 194/194/194 195/195/195
f 196/196/196 197/197/197 198/198/198
f 199/199/199 200/200/200 201/201/201
f 202/202/202 203/203/203 204/204/204
f 205/205/205 206/206/206 207/207/207
f 208/208/208 209/209/209 210/210/210
f 211/211/211 212/212/212 213/213/213
f 214/214/214 215/215/215 216/216/216
f 217/217/217 218/218/218 219/219/219
f 220/220/220 221/221/221 222/222/222
f 223/223/223 224/224/224 225/225/225
f 226/226/226 227/227/227 228/228/228
f 229/229/229 230/230/230 231/231/231
f 232/232/232 233/233/233 234/234/234
f 235/235/235 236/236/236 237/237/237
f 238/238/238 239/239/239 240/240/240
f 241/241/241 242/242/242 243/243/243
f 244/244/244 245/245/245 246/246/246
f 247/247/247 248/248/248 249/249/249
f 250/250/250 251/251/251 252/252/252
f 253/253/253 254/254/254 255/255/255
f 256/256/256 257/257/257 258/258/258
f 259/259/259 260/260/260 261/261/261
f 262/262/262 263/263/263 264/264/264
f 265/265/265 266/266/266 267/267/267
f 268/268/268 269/269/269 270/270/270
