# OBJ file
v 3206.034668 -1390.921265 1563.319824
v 3205.448730 -1392.376099 1563.319824
v 3205.448242 -1392.376099 1507.805664
v 3205.448242 -1392.376099 1507.805664
v 3206.034668 -1390.921265 1507.805664
v 3206.034668 -1390.921265 1563.319824
v 3203.473877 -1391.580566 1563.319824
v 3204.059814 -1390.125732 1563.319824
v 3204.059814 -1390.125732 1507.805786
v 3204.059814 -1390.125732 1507.805786
v 3203.473877 -1391.580566 1507.805786
v 3203.473877 -1391.580566 1563.319824
v 3193.770264 -1388.201050 1563.319824
v 3194.786865 -1385.677246 1563.319824
v 3194.786865 -1385.677246 1507.805664
v 3194.786865 -1385.677246 1507.805664
v 3193.770264 -1388.201050 1507.805664
v 3193.770264 -1388.201050 1563.319824
v 3209.095215 -1357.415771 1562.561157
v 3197.246826 -1386.668823 1562.561401
v 3197.246582 -1386.668823 1560.932495
v 3197.246582 -1386.668823 1560.932495
v 3209.095459 -1357.415771 1560.932373
v 3209.095215 -1357.415771 1562.561157
v 3320.650879 -1436.377075 1560.932617
v 3197.246582 -1386.668823 1560.932495
v 3197.246826 -1386.668823 1562.561401
v 3197.246826 -1386.668823 1562.561401
v 3320.651123 -1436.377075 1562.561279
v 3320.650879 -1436.377075 1560.932617
v 3310.882812 -1433.363892 1563.319824
v 3310.313232 -1434.778564 1563.319824
v 3310.312744 -1434.778564 1507.805664
v 3310.312744 -1434.778564 1507.805664
v 3310.882812 -1433.363892 1507.805664
v 3310.882812 -1433.363892 1563.319824
v 3308.338379 -1433.983032 1563.319824
v 3308.907959 -1432.568359 1563.319824
v 3308.907959 -1432.568359 1507.805786
v 3308.907959 -1432.568359 1507.805786
v 3308.338379 -1433.983032 1507.805786
v 3308.338379 -1433.983032 1563.319824
v 3323.322021 -1437.452393 1563.319824
v 3322.305420 -1439.976196 1563.319824
v 3322.305420 -1439.976196 1507.805786
v 3322.305420 -1439.976196 1507.805786
v 3323.322021 -1437.452393 1507.805786
v 3323.322021 -1437.452393 1563.319824
v 3320.330078 -1439.180542 1563.319946
v 3321.346924 -1436.656738 1563.319946
v 3321.347168 -1436.656738 1507.805786
v 3321.347168 -1436.656738 1507.805786
v 3320.330566 -1439.180664 1507.805786
v 3320.330078 -1439.180542 1563.319946
v 3208.692627 -1357.253540 1560.498047
v 3209.095459 -1357.415771 1560.932373
v 3197.246582 -1386.668823 1560.932495
v 3197.246582 -1386.668823 1560.932495
v 3196.848145 -1386.841431 1560.498291
v 3208.692627 -1357.253540 1560.498047
v 3196.848145 -1386.841431 1560.498291
v 3197.246582 -1386.668823 1560.932495
v 3320.650879 -1436.377075 1560.932617
v 3320.650879 -1436.377075 1560.932617
v 3320.818359 -1436.777832 1560.498291
v 3196.848145 -1386.841431 1560.498291
v 3196.272217 -1386.978394 1555.546265
v 3196.272217 -1386.978271 1553.842285
v 3208.307617 -1357.098755 1553.842285
v 3208.307617 -1357.098755 1553.842285
v 3208.307861 -1357.098755 1555.546265
v 3196.272217 -1386.978394 1555.546265
v 3321.967041 -1439.604980 1555.758789
v 3321.062256 -1437.474121 1555.758789
v 3195.995850 -1387.096191 1555.758911
v 3195.995850 -1387.096191 1555.758911
v 3194.224609 -1388.149292 1555.758789
v 3321.967041 -1439.604980 1555.758789
v 3322.084717 -1439.881714 1555.546265
v 3322.084961 -1439.881714 1553.842285
v 3334.891113 -1408.087769 1553.842285
v 3334.891113 -1408.087769 1553.842285
v 3334.891846 -1408.087769 1555.546265
v 3322.084717 -1439.881714 1555.546265
v 3196.272217 -1386.978394 1509.672241
v 3196.272217 -1386.978271 1507.968262
v 3208.307617 -1357.098755 1507.968384
v 3208.307617 -1357.098755 1507.968384
v 3208.308105 -1357.098755 1509.672241
v 3196.272217 -1386.978394 1509.672241
v 3321.966797 -1439.604980 1509.885010
v 3321.062256 -1437.474121 1509.885010
v 3195.995605 -1387.096191 1509.884888
v 3195.995605 -1387.096191 1509.884888
v 3194.224609 -1388.149292 1509.884888
v 3321.966797 -1439.604980 1509.885010
v 3322.084717 -1439.881714 1509.672363
v 3322.084961 -1439.881714 1507.968384
v 3334.891602 -1408.087769 1507.968384
v 3334.891602 -1408.087769 1507.968384
v 3334.891602 -1408.087769 1509.672363
v 3322.084717 -1439.881714 1509.672363
v 3332.790283 -1407.241089 1560.498169
v 3335.821045 -1408.462158 1560.498047
v 3322.720947 -1441.325928 1560.498169
v 3322.720947 -1441.325928 1560.498169
v 3320.818359 -1436.777832 1560.498291
v 3332.790283 -1407.241089 1560.498169
v 3320.818359 -1436.777832 1560.498291
v 3322.720947 -1441.325928 1560.498169
v 3192.324463 -1388.801270 1560.498169
v 3192.324463 -1388.801270 1560.498169
v 3196.848145 -1386.841431 1560.498291
v 3320.818359 -1436.777832 1560.498291
v 3208.692627 -1357.253540 1560.498047
v 3196.848145 -1386.841431 1560.498291
v 3192.324463 -1388.801270 1560.498169
v 3192.324463 -1388.801270 1560.498169
v 3205.661621 -1356.032715 1560.498047
v 3208.692627 -1357.253540 1560.498047
v 3205.205811 -1392.410522 1507.805542
v 3205.448242 -1392.376099 1507.805664
v 3205.448730 -1392.376099 1563.319824
v 3205.448730 -1392.376099 1563.319824
v 3205.205566 -1392.410522 1563.319824
v 3205.205811 -1392.410522 1507.805542
v 3203.624756 -1391.773926 1507.805664
v 3205.205811 -1392.410522 1507.805542
v 3205.205566 -1392.410522 1563.319824
v 3205.205566 -1392.410522 1563.319824
v 3203.624756 -1391.773804 1563.319824
v 3203.624756 -1391.773926 1507.805664
v 3203.473877 -1391.580566 1507.805786
v 3203.624756 -1391.773926 1507.805664
v 3203.624756 -1391.773804 1563.319824
v 3203.624756 -1391.773804 1563.319824
v 3203.473877 -1391.580566 1563.319824
v 3203.473877 -1391.580566 1507.805786
v 3205.883057 -1390.728149 1563.319824
v 3206.034668 -1390.921265 1563.319824
v 3206.034668 -1390.921265 1507.805664
v 3206.034668 -1390.921265 1507.805664
v 3205.883057 -1390.728149 1507.805542
v 3205.883057 -1390.728149 1563.319824
v 3204.302246 -1390.091431 1563.319824
v 3205.883057 -1390.728149 1563.319824
v 3205.883057 -1390.728149 1507.805542
v 3205.883057 -1390.728149 1507.805542
v 3204.302734 -1390.091553 1507.805664
v 3204.302246 -1390.091431 1563.319824
v 3204.059814 -1390.125732 1563.319824
v 3204.302246 -1390.091431 1563.319824
v 3204.302734 -1390.091553 1507.805664
v 3204.302734 -1390.091553 1507.805664
v 3204.059814 -1390.125732 1507.805786
v 3204.059814 -1390.125732 1563.319824
v 3193.887939 -1388.477661 1507.805664
v 3195.468506 -1389.114380 1507.805786
v 3195.468750 -1389.114380 1563.319824
v 3195.468750 -1389.114380 1563.319824
v 3193.887939 -1388.477661 1563.319824
v 3193.887939 -1388.477661 1507.805664
v 3193.770264 -1388.201050 1507.805664
v 3193.887939 -1388.477661 1507.805664
v 3193.887939 -1388.477661 1563.319824
v 3193.887939 -1388.477661 1563.319824
v 3193.770264 -1388.201050 1563.319824
v 3193.770264 -1388.201050 1507.805664
v 3195.063477 -1385.559570 1563.319824
v 3196.644043 -1386.196289 1563.319824
v 3196.643799 -1386.196289 1507.805786
v 3196.643799 -1386.196289 1507.805786
v 3195.063477 -1385.559570 1507.805664
v 3195.063477 -1385.559570 1563.319824
v 3194.786865 -1385.677246 1563.319824
v 3195.063477 -1385.559570 1563.319824
v 3195.063477 -1385.559570 1507.805664
v 3195.063477 -1385.559570 1507.805664
v 3194.786865 -1385.677246 1507.805664
v 3194.786865 -1385.677246 1563.319824
v 3195.745117 -1388.996582 1563.319824
v 3195.468750 -1389.114380 1563.319824
v 3195.468506 -1389.114380 1507.805786
v 3195.468506 -1389.114380 1507.805786
v 3195.745361 -1388.996582 1507.805664
v 3195.745117 -1388.996582 1563.319824
v 3196.761963 -1386.472778 1563.319824
v 3195.745117 -1388.996582 1563.319824
v 3195.745361 -1388.996582 1507.805664
v 3195.745361 -1388.996582 1507.805664
v 3196.761963 -1386.472778 1507.805664
v 3196.761963 -1386.472778 1563.319824
v 3196.644043 -1386.196289 1563.319824
v 3196.761963 -1386.472778 1563.319824
v 3196.761963 -1386.472778 1507.805664
v 3196.761963 -1386.472778 1507.805664
v 3196.643799 -1386.196289 1507.805786
v 3196.644043 -1386.196289 1563.319824
v 3320.650879 -1436.377075 1560.932617
v 3320.651123 -1436.377075 1562.561279
v 3332.387451 -1407.078857 1562.561157
v 3332.387451 -1407.078857 1562.561157
v 3332.387451 -1407.078857 1560.932373
v 3320.650879 -1436.377075 1560.932617
v 3320.818359 -1436.777832 1560.498291
v 3320.650879 -1436.377075 1560.932617
v 3332.387451 -1407.078857 1560.932373
v 3332.387451 -1407.078857 1560.932373
v 3332.790283 -1407.241089 1560.498169
v 3320.818359 -1436.777832 1560.498291
v 3336.223877 -1408.624512 1560.932373
v 3336.223877 -1408.624512 1562.561157
v 3322.888184 -1441.726685 1562.561279
v 3322.888184 -1441.726685 1562.561279
v 3322.888184 -1441.726685 1560.932495
v 3336.223877 -1408.624512 1560.932373
v 3335.821045 -1408.462158 1560.498047
v 3336.223877 -1408.624512 1560.932373
v 3322.888184 -1441.726685 1560.932495
v 3322.888184 -1441.726685 1560.932495
v 3322.720947 -1441.325928 1560.498169
v 3335.821045 -1408.462158 1560.498047
v 3310.071777 -1434.809692 1507.805786
v 3310.312744 -1434.778564 1507.805664
v 3310.313232 -1434.778564 1563.319824
v 3310.313232 -1434.778564 1563.319824
v 3310.071289 -1434.809692 1563.319946
v 3310.071777 -1434.809692 1507.805786
v 3308.490967 -1434.172974 1507.805786
v 3310.071777 -1434.809692 1507.805786
v 3310.071289 -1434.809692 1563.319946
v 3310.071289 -1434.809692 1563.319946
v 3308.490967 -1434.172974 1563.319824
v 3308.490967 -1434.172974 1507.805786
v 3308.338379 -1433.983032 1507.805786
v 3308.490967 -1434.172974 1507.805786
v 3308.490967 -1434.172974 1563.319824
v 3308.490967 -1434.172974 1563.319824
v 3308.338379 -1433.983032 1563.319824
v 3308.338379 -1433.983032 1507.805786
v 3310.730225 -1433.173950 1563.319946
v 3310.882812 -1433.363892 1563.319824
v 3310.882812 -1433.363892 1507.805664
v 3310.882812 -1433.363892 1507.805664
v 3310.730225 -1433.173950 1507.805786
v 3310.730225 -1433.173950 1563.319946
v 3309.149658 -1432.537354 1563.319824
v 3310.730225 -1433.173950 1563.319946
v 3310.730225 -1433.173950 1507.805786
v 3310.730225 -1433.173950 1507.805786
v 3309.149658 -1432.537354 1507.805786
v 3309.149658 -1432.537354 1563.319824
v 3308.907959 -1432.568359 1563.319824
v 3309.149658 -1432.537354 1563.319824
v 3309.149658 -1432.537354 1507.805786
v 3309.149658 -1432.537354 1507.805786
v 3308.907959 -1432.568359 1507.805786
v 3308.907959 -1432.568359 1563.319824
v 3322.028809 -1440.093994 1507.805786
v 3322.305420 -1439.976196 1507.805786
v 3322.305420 -1439.976196 1563.319824
v 3322.305420 -1439.976196 1563.319824
v 3322.028809 -1440.093994 1563.319824
v 3322.028809 -1440.093994 1507.805786
v 3320.448486 -1439.457275 1507.805664
v 3322.028809 -1440.093994 1507.805786
v 3322.028809 -1440.093994 1563.319824
v 3322.028809 -1440.093994 1563.319824
v 3320.448486 -1439.457275 1563.319824
v 3320.448486 -1439.457275 1507.805664
v 3320.330566 -1439.180664 1507.805786
v 3320.448486 -1439.457275 1507.805664
v 3320.448486 -1439.457275 1563.319824
v 3320.448486 -1439.457275 1563.319824
v 3320.330078 -1439.180542 1563.319946
v 3320.330566 -1439.180664 1507.805786
v 3323.204102 -1437.175781 1563.319824
v 3323.322021 -1437.452393 1563.319824
v 3323.322021 -1437.452393 1507.805786
v 3323.322021 -1437.452393 1507.805786
v 3323.204102 -1437.175781 1507.805786
v 3323.204102 -1437.175781 1563.319824
v 3321.623779 -1436.539185 1563.319824
v 3323.204102 -1437.175781 1563.319824
v 3323.204102 -1437.175781 1507.805786
v 3323.204102 -1437.175781 1507.805786
v 3321.623779 -1436.539185 1507.805664
v 3321.623779 -1436.539185 1563.319824
v 3321.346924 -1436.656738 1563.319946
v 3321.623779 -1436.539185 1563.319824
v 3321.623779 -1436.539185 1507.805664
v 3321.623779 -1436.539185 1507.805664
v 3321.347168 -1436.656738 1507.805786
v 3321.346924 -1436.656738 1563.319946
v 3206.754639 -1356.473145 1555.546143
v 3206.754639 -1356.473022 1553.842285
v 3193.947754 -1388.266968 1553.842285
v 3193.947754 -1388.266968 1553.842285
v 3193.947754 -1388.266968 1555.546143
v 3206.754639 -1356.473145 1555.546143
v 3206.951904 -1356.552612 1555.758789
v 3206.754639 -1356.473145 1555.546143
v 3193.947754 -1388.266968 1555.546143
v 3193.947754 -1388.266968 1555.546143
v 3194.224609 -1388.149292 1555.758789
v 3206.951904 -1356.552612 1555.758789
v 3208.110840 -1357.019287 1555.758789
v 3206.951904 -1356.552612 1555.758789
v 3194.224609 -1388.149292 1555.758789
v 3194.224609 -1388.149292 1555.758789
v 3195.995850 -1387.096191 1555.758911
v 3208.110840 -1357.019287 1555.758789
v 3208.307861 -1357.098755 1555.546265
v 3208.110840 -1357.019287 1555.758789
v 3195.995850 -1387.096191 1555.758911
v 3195.995850 -1387.096191 1555.758911
v 3196.272217 -1386.978394 1555.546265
v 3208.307861 -1357.098755 1555.546265
v 3194.224854 -1388.149048 1553.629639
v 3193.947754 -1388.266968 1553.842285
v 3206.754639 -1356.473022 1553.842285
v 3206.754639 -1356.473022 1553.842285
v 3206.951660 -1356.552612 1553.629639
v 3194.224854 -1388.149048 1553.629639
v 3195.995605 -1387.096191 1553.629639
v 3194.224854 -1388.149048 1553.629639
v 3206.951660 -1356.552612 1553.629639
v 3206.951660 -1356.552612 1553.629639
v 3208.110596 -1357.019287 1553.629639
v 3195.995605 -1387.096191 1553.629639
v 3196.272217 -1386.978271 1553.842285
v 3195.995605 -1387.096191 1553.629639
v 3208.110596 -1357.019287 1553.629639
v 3208.110596 -1357.019287 1553.629639
v 3208.307617 -1357.098755 1553.842285
v 3196.272217 -1386.978271 1553.842285
v 3193.947754 -1388.266968 1555.546143
v 3193.947754 -1388.266968 1553.842285
v 3322.084961 -1439.881714 1553.842285
v 3322.084961 -1439.881714 1553.842285
v 3322.084717 -1439.881714 1555.546265
v 3193.947754 -1388.266968 1555.546143
v 3194.224609 -1388.149292 1555.758789
v 3193.947754 -1388.266968 1555.546143
v 3322.084717 -1439.881714 1555.546265
v 3322.084717 -1439.881714 1555.546265
v 3321.967041 -1439.604980 1555.758789
v 3194.224609 -1388.149292 1555.758789
v 3320.944336 -1437.197510 1555.546265
v 3320.944336 -1437.197510 1553.842285
v 3196.272217 -1386.978271 1553.842285
v 3196.272217 -1386.978271 1553.842285
v 3196.272217 -1386.978394 1555.546265
v 3320.944336 -1437.197510 1555.546265
v 3321.062256 -1437.474121 1555.758789
v 3320.944336 -1437.197510 1555.546265
v 3196.272217 -1386.978394 1555.546265
v 3196.272217 -1386.978394 1555.546265
v 3195.995850 -1387.096191 1555.758911
v 3321.062256 -1437.474121 1555.758789
v 3321.967285 -1439.604980 1553.629639
v 3322.084961 -1439.881714 1553.842285
v 3193.947754 -1388.266968 1553.842285
v 3193.947754 -1388.266968 1553.842285
v 3194.224854 -1388.149048 1553.629639
v 3321.967285 -1439.604980 1553.629639
v 3321.062012 -1437.474121 1553.629639
v 3321.967285 -1439.604980 1553.629639
v 3194.224854 -1388.149048 1553.629639
v 3194.224854 -1388.149048 1553.629639
v 3195.995605 -1387.096191 1553.629639
v 3321.062012 -1437.474121 1553.629639
v 3320.944336 -1437.197510 1553.842285
v 3321.062012 -1437.474121 1553.629639
v 3195.995605 -1387.096191 1553.629639
v 3195.995605 -1387.096191 1553.629639
v 3196.272217 -1386.978271 1553.842285
v 3320.944336 -1437.197510 1553.842285
v 3321.967285 -1439.604980 1553.629639
v 3321.062012 -1437.474121 1553.629639
v 3333.177490 -1407.397217 1553.629517
v 3333.177490 -1407.397217 1553.629517
v 3334.694580 -1408.008301 1553.629639
v 3321.967285 -1439.604980 1553.629639
v 3322.084961 -1439.881714 1553.842285
v 3321.967285 -1439.604980 1553.629639
v 3334.694580 -1408.008301 1553.629639
v 3334.694580 -1408.008301 1553.629639
v 3334.891113 -1408.087769 1553.842285
v 3322.084961 -1439.881714 1553.842285
v 3334.694336 -1408.008301 1555.758789
v 3333.177734 -1407.397217 1555.758911
v 3321.062256 -1437.474121 1555.758789
v 3321.062256 -1437.474121 1555.758789
v 3321.967041 -1439.604980 1555.758789
v 3334.694336 -1408.008301 1555.758789
v 3334.891846 -1408.087769 1555.546265
v 3334.694336 -1408.008301 1555.758789
v 3321.967041 -1439.604980 1555.758789
v 3321.967041 -1439.604980 1555.758789
v 3322.084717 -1439.881714 1555.546265
v 3334.891846 -1408.087769 1555.546265
v 3332.980469 -1407.317749 1553.842407
v 3333.177490 -1407.397217 1553.629517
v 3321.062012 -1437.474121 1553.629639
v 3321.062012 -1437.474121 1553.629639
v 3320.944336 -1437.197510 1553.842285
v 3332.980469 -1407.317749 1553.842407
v 3332.980225 -1407.317871 1555.546265
v 3332.980469 -1407.317749 1553.842407
v 3320.944336 -1437.197510 1553.842285
v 3320.944336 -1437.197510 1553.842285
v 3320.944336 -1437.197510 1555.546265
v 3332.980225 -1407.317871 1555.546265
v 3333.177734 -1407.397217 1555.758911
v 3332.980225 -1407.317871 1555.546265
v 3320.944336 -1437.197510 1555.546265
v 3320.944336 -1437.197510 1555.546265
v 3321.062256 -1437.474121 1555.758789
v 3333.177734 -1407.397217 1555.758911
v 3206.754639 -1356.473145 1509.672363
v 3206.754639 -1356.473022 1507.968384
v 3193.947998 -1388.266968 1507.968384
v 3193.947998 -1388.266968 1507.968384
v 3193.947510 -1388.266968 1509.672241
v 3206.754639 -1356.473145 1509.672363
v 3206.951660 -1356.552612 1509.885010
v 3206.754639 -1356.473145 1509.672363
v 3193.947510 -1388.266968 1509.672241
v 3193.947510 -1388.266968 1509.672241
v 3194.224609 -1388.149292 1509.884888
v 3206.951660 -1356.552612 1509.885010
v 3208.111084 -1357.019287 1509.884888
v 3206.951660 -1356.552612 1509.885010
v 3194.224609 -1388.149292 1509.884888
v 3194.224609 -1388.149292 1509.884888
v 3195.995605 -1387.096191 1509.884888
v 3208.111084 -1357.019287 1509.884888
v 3208.308105 -1357.098755 1509.672241
v 3208.111084 -1357.019287 1509.884888
v 3195.995605 -1387.096191 1509.884888
v 3195.995605 -1387.096191 1509.884888
v 3196.272217 -1386.978394 1509.672241
v 3208.308105 -1357.098755 1509.672241
v 3194.224609 -1388.149048 1507.755615
v 3193.947998 -1388.266968 1507.968384
v 3206.754639 -1356.473022 1507.968384
v 3206.754639 -1356.473022 1507.968384
v 3206.951660 -1356.552490 1507.755737
v 3194.224609 -1388.149048 1507.755615
v 3195.995605 -1387.096191 1507.755737
v 3194.224609 -1388.149048 1507.755615
v 3206.951660 -1356.552490 1507.755737
v 3206.951660 -1356.552490 1507.755737
v 3208.110596 -1357.019287 1507.755737
v 3195.995605 -1387.096191 1507.755737
v 3196.272217 -1386.978271 1507.968262
v 3195.995605 -1387.096191 1507.755737
v 3208.110596 -1357.019287 1507.755737
v 3208.110596 -1357.019287 1507.755737
v 3208.307617 -1357.098755 1507.968384
v 3196.272217 -1386.978271 1507.968262
v 3193.947510 -1388.266968 1509.672241
v 3193.947998 -1388.266968 1507.968384
v 3322.084961 -1439.881714 1507.968384
v 3322.084961 -1439.881714 1507.968384
v 3322.084717 -1439.881714 1509.672363
v 3193.947510 -1388.266968 1509.672241
v 3194.224609 -1388.149292 1509.884888
v 3193.947510 -1388.266968 1509.672241
v 3322.084717 -1439.881714 1509.672363
v 3322.084717 -1439.881714 1509.672363
v 3321.966797 -1439.604980 1509.885010
v 3194.224609 -1388.149292 1509.884888
v 3320.944092 -1437.197510 1509.672241
v 3320.944336 -1437.197510 1507.968384
v 3196.272217 -1386.978271 1507.968262
v 3196.272217 -1386.978271 1507.968262
v 3196.272217 -1386.978394 1509.672241
v 3320.944092 -1437.197510 1509.672241
v 3321.062256 -1437.474121 1509.885010
v 3320.944092 -1437.197510 1509.672241
v 3196.272217 -1386.978394 1509.672241
v 3196.272217 -1386.978394 1509.672241
v 3195.995605 -1387.096191 1509.884888
v 3321.062256 -1437.474121 1509.885010
v 3321.967285 -1439.604980 1507.755737
v 3322.084961 -1439.881714 1507.968384
v 3193.947998 -1388.266968 1507.968384
v 3193.947998 -1388.266968 1507.968384
v 3194.224609 -1388.149048 1507.755615
v 3321.967285 -1439.604980 1507.755737
v 3321.062256 -1437.474121 1507.755859
v 3321.967285 -1439.604980 1507.755737
v 3194.224609 -1388.149048 1507.755615
v 3194.224609 -1388.149048 1507.755615
v 3195.995605 -1387.096191 1507.755737
v 3321.062256 -1437.474121 1507.755859
v 3320.944336 -1437.197510 1507.968384
v 3321.062256 -1437.474121 1507.755859
v 3195.995605 -1387.096191 1507.755737
v 3195.995605 -1387.096191 1507.755737
v 3196.272217 -1386.978271 1507.968262
v 3320.944336 -1437.197510 1507.968384
v 3321.967285 -1439.604980 1507.755737
v 3321.062256 -1437.474121 1507.755859
v 3333.177490 -1407.397217 1507.755737
v 3333.177490 -1407.397217 1507.755737
v 3334.694580 -1408.008301 1507.755737
v 3321.967285 -1439.604980 1507.755737
v 3322.084961 -1439.881714 1507.968384
v 3321.967285 -1439.604980 1507.755737
v 3334.694580 -1408.008301 1507.755737
v 3334.694580 -1408.008301 1507.755737
v 3334.891602 -1408.087769 1507.968384
v 3322.084961 -1439.881714 1507.968384
v 3334.694580 -1408.008301 1509.884888
v 3333.177490 -1407.397217 1509.884888
v 3321.062256 -1437.474121 1509.885010
v 3321.062256 -1437.474121 1509.885010
v 3321.966797 -1439.604980 1509.885010
v 3334.694580 -1408.008301 1509.884888
v 3334.891602 -1408.087769 1509.672363
v 3334.694580 -1408.008301 1509.884888
v 3321.966797 -1439.604980 1509.885010
v 3321.966797 -1439.604980 1509.885010
v 3322.084717 -1439.881714 1509.672363
v 3334.891602 -1408.087769 1509.672363
v 3332.980469 -1407.317749 1507.968384
v 3333.177490 -1407.397217 1507.755737
v 3321.062256 -1437.474121 1507.755859
v 3321.062256 -1437.474121 1507.755859
v 3320.944336 -1437.197510 1507.968384
v 3332.980469 -1407.317749 1507.968384
v 3332.980225 -1407.317871 1509.672363
v 3332.980469 -1407.317749 1507.968384
v 3320.944336 -1437.197510 1507.968384
v 3320.944336 -1437.197510 1507.968384
v 3320.944092 -1437.197510 1509.672241
v 3332.980225 -1407.317871 1509.672363
v 3333.177490 -1407.397217 1509.884888
v 3332.980225 -1407.317871 1509.672363
v 3320.944092 -1437.197510 1509.672241
v 3320.944092 -1437.197510 1509.672241
v 3321.062256 -1437.474121 1509.885010
v 3333.177490 -1407.397217 1509.884888
v 3191.926025 -1388.973999 1562.561279
v 3205.258545 -1355.870483 1562.561157
v 3205.258789 -1355.870483 1560.932373
v 3205.258789 -1355.870483 1560.932373
v 3191.926025 -1388.973999 1560.932495
v 3191.926025 -1388.973999 1562.561279
v 3192.324463 -1388.801270 1560.498169
v 3191.926025 -1388.973999 1560.932495
v 3205.258789 -1355.870483 1560.932373
v 3205.258789 -1355.870483 1560.932373
v 3205.661621 -1356.032715 1560.498047
v 3192.324463 -1388.801270 1560.498169
v 3322.888184 -1441.726685 1562.561279
v 3191.926025 -1388.973999 1562.561279
v 3191.926025 -1388.973999 1560.932495
v 3191.926025 -1388.973999 1560.932495
v 3322.888184 -1441.726685 1560.932495
v 3322.888184 -1441.726685 1562.561279
v 3322.720947 -1441.325928 1560.498169
v 3322.888184 -1441.726685 1560.932495
v 3191.926025 -1388.973999 1560.932495
v 3191.926025 -1388.973999 1560.932495
v 3192.324463 -1388.801270 1560.498169
v 3322.720947 -1441.325928 1560.498169
v 3256.455078 -1411.179688 1555.944092
v 3256.983154 -1410.658569 1556.238770
v 3257.724609 -1410.639526 1555.944092
v 3257.724609 -1410.639526 1555.944092
v 3257.315918 -1411.440430 1555.402100
v 3256.455078 -1411.179688 1555.944092
v 3257.315918 -1411.440430 1555.402100
v 3257.724609 -1410.639526 1555.944092
v 3258.699707 -1410.875488 1555.798706
v 3255.949219 -1412.046143 1555.798584
v 3256.455078 -1411.179688 1555.944092
v 3257.315918 -1411.440430 1555.402100
v 3258.699707 -1410.875488 1555.798706
v 3258.340332 -1411.766968 1555.219604
v 3257.315918 -1411.440430 1555.402100
v 3257.315918 -1411.440430 1555.402100
v 3256.841309 -1412.405273 1555.219604
v 3255.949219 -1412.046143 1555.798584
v 3258.340332 -1411.766968 1555.219604
v 3258.699707 -1410.875488 1555.798706
v 3259.565918 -1411.381226 1555.943970
v 3255.713379 -1413.021118 1555.944092
v 3255.949219 -1412.046143 1555.798584
v 3256.841309 -1412.405273 1555.219604
v 3259.565918 -1411.381226 1555.943970
v 3259.305176 -1412.241821 1555.402222
v 3258.340332 -1411.766968 1555.219604
v 3256.841309 -1412.405273 1555.219604
v 3256.514893 -1413.429810 1555.402100
v 3255.713379 -1413.021118 1555.944092
v 3259.305176 -1412.241821 1555.402222
v 3259.565918 -1411.381226 1555.943970
v 3260.087158 -1411.908936 1556.238770
v 3255.732666 -1413.762695 1556.238770
v 3255.713379 -1413.021118 1555.944092
v 3256.514893 -1413.429810 1555.402100
v 3260.087158 -1411.908936 1556.238770
v 3260.105957 -1412.650391 1555.944092
v 3259.305176 -1412.241821 1555.402222
v 3256.514893 -1413.429810 1555.402100
v 3256.253906 -1414.290405 1555.944092
v 3255.732666 -1413.762695 1556.238770
v 3258.979004 -1413.266357 1555.219604
v 3259.305176 -1412.241821 1555.402222
v 3260.105957 -1412.650391 1555.944092
v 3256.253906 -1414.290405 1555.944092
v 3256.514893 -1413.429810 1555.402100
v 3257.479492 -1413.904541 1555.219604
v 3260.105957 -1412.650391 1555.944092
v 3259.870117 -1413.625366 1555.798706
v 3258.979004 -1413.266357 1555.219604
v 3257.479492 -1413.904541 1555.219604
v 3257.120117 -1414.796143 1555.798706
v 3256.253906 -1414.290405 1555.944092
v 3258.503906 -1414.231201 1555.402222
v 3258.979004 -1413.266357 1555.219604
v 3259.870117 -1413.625366 1555.798706
v 3257.120117 -1414.796143 1555.798706
v 3257.479492 -1413.904541 1555.219604
v 3258.503906 -1414.231201 1555.402222
v 3259.870117 -1413.625366 1555.798706
v 3259.364502 -1414.491699 1555.944092
v 3258.503906 -1414.231201 1555.402222
v 3258.503906 -1414.231201 1555.402222
v 3258.095215 -1415.032104 1555.943970
v 3257.120117 -1414.796143 1555.798706
v 3258.095215 -1415.032104 1555.943970
v 3258.503906 -1414.231201 1555.402222
v 3259.364502 -1414.491699 1555.944092
v 3259.364502 -1414.491699 1555.944092
v 3258.836670 -1415.012939 1556.238770
v 3258.095215 -1415.032104 1555.943970
v 3258.095459 -1415.032104 1559.879883
v 3258.836914 -1415.013062 1559.585327
v 3259.364746 -1414.491699 1559.880005
v 3259.364746 -1414.491699 1559.880005
v 3258.503662 -1414.231201 1560.421875
v 3258.095459 -1415.032104 1559.879883
v 3258.503662 -1414.231201 1560.421875
v 3259.364746 -1414.491699 1559.880005
v 3259.869873 -1413.625366 1560.025513
v 3257.120361 -1414.796143 1560.025513
v 3258.095459 -1415.032104 1559.879883
v 3258.503662 -1414.231201 1560.421875
v 3259.869873 -1413.625366 1560.025513
v 3258.978760 -1413.266357 1560.604370
v 3258.503662 -1414.231201 1560.421875
v 3258.503662 -1414.231201 1560.421875
v 3257.479248 -1413.904541 1560.604370
v 3257.120361 -1414.796143 1560.025513
v 3258.978760 -1413.266357 1560.604370
v 3259.869873 -1413.625366 1560.025513
v 3260.106201 -1412.650391 1559.880005
v 3256.254150 -1414.290405 1559.880005
v 3257.120361 -1414.796143 1560.025513
v 3257.479248 -1413.904541 1560.604370
v 3260.106201 -1412.650391 1559.880005
v 3259.305176 -1412.241699 1560.421875
v 3258.978760 -1413.266357 1560.604370
v 3257.479248 -1413.904541 1560.604370
v 3256.514404 -1413.429810 1560.421753
v 3256.254150 -1414.290405 1559.880005
v 3259.305176 -1412.241699 1560.421875
v 3260.106201 -1412.650391 1559.880005
v 3260.087402 -1411.908936 1559.585327
v 3255.732422 -1413.762695 1559.585205
v 3256.254150 -1414.290405 1559.880005
v 3256.514404 -1413.429810 1560.421753
v 3260.087402 -1411.908936 1559.585327
v 3259.566162 -1411.381226 1559.879883
v 3259.305176 -1412.241699 1560.421875
v 3256.514404 -1413.429810 1560.421753
v 3255.713623 -1413.021118 1559.880005
v 3255.732422 -1413.762695 1559.585205
v 3258.340332 -1411.766968 1560.604370
v 3259.305176 -1412.241699 1560.421875
v 3259.566162 -1411.381226 1559.879883
v 3255.713623 -1413.021118 1559.880005
v 3256.514404 -1413.429810 1560.421753
v 3256.841064 -1412.405273 1560.604370
v 3259.566162 -1411.381226 1559.879883
v 3258.699707 -1410.875488 1560.025513
v 3258.340332 -1411.766968 1560.604370
v 3256.841064 -1412.405273 1560.604370
v 3255.949707 -1412.046143 1560.025391
v 3255.713623 -1413.021118 1559.880005
v 3257.315918 -1411.440430 1560.421753
v 3258.340332 -1411.766968 1560.604370
v 3258.699707 -1410.875488 1560.025513
v 3255.949707 -1412.046143 1560.025391
v 3256.841064 -1412.405273 1560.604370
v 3257.315918 -1411.440430 1560.421753
v 3258.699707 -1410.875488 1560.025513
v 3257.724854 -1410.639526 1559.880005
v 3257.315918 -1411.440430 1560.421753
v 3257.315918 -1411.440430 1560.421753
v 3256.455322 -1411.179688 1559.880005
v 3255.949707 -1412.046143 1560.025391
v 3256.455322 -1411.179688 1559.880005
v 3257.315918 -1411.440430 1560.421753
v 3257.724854 -1410.639526 1559.880005
v 3257.724854 -1410.639526 1559.880005
v 3256.982910 -1410.658569 1559.585205
v 3256.455322 -1411.179688 1559.880005
v 3258.095215 -1415.032104 1555.943970
v 3258.836670 -1415.012939 1556.238770
v 3259.000244 -1415.396606 1556.919434
v 3259.000244 -1415.396606 1556.919434
v 3257.967041 -1415.564575 1556.839722
v 3258.095215 -1415.032104 1555.943970
v 3257.967041 -1415.564575 1556.839722
v 3259.000244 -1415.396606 1556.919434
v 3259.080322 -1415.585815 1557.912109
v 3257.120117 -1414.796143 1555.798706
v 3258.095215 -1415.032104 1555.943970
v 3257.967041 -1415.564575 1556.839722
v 3259.080322 -1415.585815 1557.912109
v 3257.972412 -1415.763672 1557.911987
v 3257.967041 -1415.564575 1556.839722
v 3257.972412 -1415.763672 1557.911987
v 3259.080322 -1415.585815 1557.912109
v 3259.000000 -1415.396606 1558.904541
v 3257.967041 -1415.564575 1556.839722
v 3256.903809 -1415.333130 1556.759644
v 3257.120117 -1414.796143 1555.798706
v 3256.903809 -1415.333130 1556.759644
v 3257.967041 -1415.564575 1556.839722
v 3257.972412 -1415.763672 1557.911987
v 3256.253906 -1414.290405 1555.944092
v 3257.120117 -1414.796143 1555.798706
v 3256.903809 -1415.333130 1556.759644
v 3259.000000 -1415.396606 1558.904541
v 3257.966797 -1415.564575 1558.984497
v 3257.972412 -1415.763672 1557.911987
v 3257.966797 -1415.564575 1558.984497
v 3259.000000 -1415.396606 1558.904541
v 3258.836914 -1415.013062 1559.585327
v 3258.836914 -1415.013062 1559.585327
v 3258.095459 -1415.032104 1559.879883
v 3257.966797 -1415.564575 1558.984497
v 3257.972412 -1415.763672 1557.911987
v 3256.831299 -1415.513062 1557.911987
v 3256.903809 -1415.333130 1556.759644
v 3256.831299 -1415.513062 1557.911987
v 3257.972412 -1415.763672 1557.911987
v 3257.966797 -1415.564575 1558.984497
v 3256.903809 -1415.333130 1556.759644
v 3255.977295 -1414.763184 1556.839600
v 3256.253906 -1414.290405 1555.944092
v 3255.977295 -1414.763184 1556.839600
v 3256.903809 -1415.333130 1556.759644
v 3256.831299 -1415.513062 1557.911987
v 3255.732666 -1413.762695 1556.238770
v 3256.253906 -1414.290405 1555.944092
v 3255.977295 -1414.763184 1556.839600
v 3255.977295 -1414.763184 1556.839600
v 3255.349121 -1413.926025 1556.919434
v 3255.732666 -1413.762695 1556.238770
v 3256.903809 -1415.333252 1559.064331
v 3257.966797 -1415.564575 1558.984497
v 3258.095459 -1415.032104 1559.879883
v 3257.966797 -1415.564575 1558.984497
v 3256.903809 -1415.333252 1559.064331
v 3256.831299 -1415.513062 1557.911987
v 3258.095459 -1415.032104 1559.879883
v 3257.120361 -1414.796143 1560.025513
v 3256.903809 -1415.333252 1559.064331
v 3256.831299 -1415.513062 1557.911987
v 3255.835205 -1414.902710 1557.911987
v 3255.977295 -1414.763184 1556.839600
v 3255.349121 -1413.926025 1556.919434
v 3255.977295 -1414.763184 1556.839600
v 3255.835205 -1414.902710 1557.911987
v 3255.835205 -1414.902710 1557.911987
v 3256.831299 -1415.513062 1557.911987
v 3256.903809 -1415.333252 1559.064331
v 3255.835205 -1414.902710 1557.911987
v 3255.160156 -1414.006470 1557.911987
v 3255.349121 -1413.926025 1556.919434
v 3255.977539 -1414.763184 1558.984375
v 3256.903809 -1415.333252 1559.064331
v 3257.120361 -1414.796143 1560.025513
v 3256.903809 -1415.333252 1559.064331
v 3255.977539 -1414.763184 1558.984375
v 3255.835205 -1414.902710 1557.911987
v 3255.160156 -1414.006470 1557.911987
v 3255.835205 -1414.902710 1557.911987
v 3255.977539 -1414.763184 1558.984375
v 3257.120361 -1414.796143 1560.025513
v 3256.254150 -1414.290405 1559.880005
v 3255.977539 -1414.763184 1558.984375
v 3255.977539 -1414.763184 1558.984375
v 3255.349365 -1413.926025 1558.904541
v 3255.160156 -1414.006470 1557.911987
v 3255.349365 -1413.926025 1558.904541
v 3255.977539 -1414.763184 1558.984375
v 3256.254150 -1414.290405 1559.880005
v 3256.254150 -1414.290405 1559.880005
v 3255.732422 -1413.762695 1559.585205
v 3255.349365 -1413.926025 1558.904541
v 3260.105957 -1412.650391 1555.944092
v 3260.087158 -1411.908936 1556.238770
v 3260.470459 -1411.745728 1556.919434
v 3260.470459 -1411.745728 1556.919434
v 3260.638672 -1412.778809 1556.839600
v 3260.105957 -1412.650391 1555.944092
v 3260.638672 -1412.778809 1556.839600
v 3260.470459 -1411.745728 1556.919434
v 3260.659912 -1411.665039 1557.912109
v 3259.870117 -1413.625366 1555.798706
v 3260.105957 -1412.650391 1555.944092
v 3260.638672 -1412.778809 1556.839600
v 3260.659912 -1411.665039 1557.912109
v 3260.837646 -1412.772949 1557.912109
v 3260.638672 -1412.778809 1556.839600
v 3260.837646 -1412.772949 1557.912109
v 3260.659912 -1411.665039 1557.912109
v 3260.470947 -1411.745728 1558.904541
v 3260.638672 -1412.778809 1556.839600
v 3260.407227 -1413.841797 1556.759766
v 3259.870117 -1413.625366 1555.798706
v 3260.407227 -1413.841797 1556.759766
v 3260.638672 -1412.778809 1556.839600
v 3260.837646 -1412.772949 1557.912109
v 3259.364502 -1414.491699 1555.944092
v 3259.870117 -1413.625366 1555.798706
v 3260.407227 -1413.841797 1556.759766
v 3260.470947 -1411.745728 1558.904541
v 3260.638672 -1412.778809 1558.984375
v 3260.837646 -1412.772949 1557.912109
v 3260.638672 -1412.778809 1558.984375
v 3260.470947 -1411.745728 1558.904541
v 3260.087402 -1411.908936 1559.585327
v 3260.087402 -1411.908936 1559.585327
v 3260.106201 -1412.650391 1559.880005
v 3260.638672 -1412.778809 1558.984375
v 3260.837646 -1412.772949 1557.912109
v 3260.587158 -1413.914185 1557.912109
v 3260.407227 -1413.841797 1556.759766
v 3260.587158 -1413.914185 1557.912109
v 3260.837646 -1412.772949 1557.912109
v 3260.638672 -1412.778809 1558.984375
v 3260.407227 -1413.841797 1556.759766
v 3259.837402 -1414.768311 1556.839600
v 3259.364502 -1414.491699 1555.944092
v 3259.837402 -1414.768311 1556.839600
v 3260.407227 -1413.841797 1556.759766
v 3260.587158 -1413.914185 1557.912109
v 3258.836670 -1415.012939 1556.238770
v 3259.364502 -1414.491699 1555.944092
v 3259.837402 -1414.768311 1556.839600
v 3259.837402 -1414.768311 1556.839600
v 3259.000244 -1415.396606 1556.919434
v 3258.836670 -1415.012939 1556.238770
v 3260.407227 -1413.841797 1559.064331
v 3260.638672 -1412.778809 1558.984375
v 3260.106201 -1412.650391 1559.880005
v 3260.638672 -1412.778809 1558.984375
v 3260.407227 -1413.841797 1559.064331
v 3260.587158 -1413.914185 1557.912109
v 3260.106201 -1412.650391 1559.880005
v 3259.869873 -1413.625366 1560.025513
v 3260.407227 -1413.841797 1559.064331
v 3260.587158 -1413.914185 1557.912109
v 3259.976807 -1414.910522 1557.912109
v 3259.837402 -1414.768311 1556.839600
v 3259.000244 -1415.396606 1556.919434
v 3259.837402 -1414.768311 1556.839600
v 3259.976807 -1414.910522 1557.912109
v 3259.976807 -1414.910522 1557.912109
v 3260.587158 -1413.914185 1557.912109
v 3260.407227 -1413.841797 1559.064331
v 3259.976807 -1414.910522 1557.912109
v 3259.080322 -1415.585815 1557.912109
v 3259.000244 -1415.396606 1556.919434
v 3259.837646 -1414.768311 1558.984375
v 3260.407227 -1413.841797 1559.064331
v 3259.869873 -1413.625366 1560.025513
v 3260.407227 -1413.841797 1559.064331
v 3259.837646 -1414.768311 1558.984375
v 3259.976807 -1414.910522 1557.912109
v 3259.080322 -1415.585815 1557.912109
v 3259.976807 -1414.910522 1557.912109
v 3259.837646 -1414.768311 1558.984375
v 3259.869873 -1413.625366 1560.025513
v 3259.364746 -1414.491699 1559.880005
v 3259.837646 -1414.768311 1558.984375
v 3259.837646 -1414.768311 1558.984375
v 3259.000000 -1415.396606 1558.904541
v 3259.080322 -1415.585815 1557.912109
v 3259.000000 -1415.396606 1558.904541
v 3259.837646 -1414.768311 1558.984375
v 3259.364746 -1414.491699 1559.880005
v 3259.364746 -1414.491699 1559.880005
v 3258.836914 -1415.013062 1559.585327
v 3259.000000 -1415.396606 1558.904541
v 3257.724609 -1410.639526 1555.944092
v 3256.983154 -1410.658569 1556.238770
v 3256.819824 -1410.275146 1556.919434
v 3256.819824 -1410.275146 1556.919434
v 3257.852783 -1410.106934 1556.839600
v 3257.724609 -1410.639526 1555.944092
v 3257.852783 -1410.106934 1556.839600
v 3256.819824 -1410.275146 1556.919434
v 3256.739502 -1410.085815 1557.911987
v 3258.699707 -1410.875488 1555.798706
v 3257.724609 -1410.639526 1555.944092
v 3257.852783 -1410.106934 1556.839600
v 3256.739502 -1410.085815 1557.911987
v 3257.846924 -1409.907837 1557.911987
v 3257.852783 -1410.106934 1556.839600
v 3257.846924 -1409.907837 1557.911987
v 3256.739502 -1410.085815 1557.911987
v 3256.819824 -1410.275146 1558.904541
v 3257.852783 -1410.106934 1556.839600
v 3258.915771 -1410.338501 1556.759644
v 3258.699707 -1410.875488 1555.798706
v 3258.915771 -1410.338501 1556.759644
v 3257.852783 -1410.106934 1556.839600
v 3257.846924 -1409.907837 1557.911987
v 3259.565918 -1411.381226 1555.943970
v 3258.699707 -1410.875488 1555.798706
v 3258.915771 -1410.338501 1556.759644
v 3256.819824 -1410.275146 1558.904541
v 3257.853027 -1410.106934 1558.984375
v 3257.846924 -1409.907837 1557.911987
v 3257.853027 -1410.106934 1558.984375
v 3256.819824 -1410.275146 1558.904541
v 3256.982910 -1410.658569 1559.585205
v 3256.982910 -1410.658569 1559.585205
v 3257.724854 -1410.639526 1559.880005
v 3257.853027 -1410.106934 1558.984375
v 3257.846924 -1409.907837 1557.911987
v 3258.988525 -1410.158447 1557.911987
v 3258.915771 -1410.338501 1556.759644
v 3258.988525 -1410.158447 1557.911987
v 3257.846924 -1409.907837 1557.911987
v 3257.853027 -1410.106934 1558.984375
v 3258.915771 -1410.338501 1556.759644
v 3259.842285 -1410.908325 1556.839722
v 3259.565918 -1411.381226 1555.943970
v 3259.842285 -1410.908325 1556.839722
v 3258.915771 -1410.338501 1556.759644
v 3258.988525 -1410.158447 1557.911987
v 3260.087158 -1411.908936 1556.238770
v 3259.565918 -1411.381226 1555.943970
v 3259.842285 -1410.908325 1556.839722
v 3259.842285 -1410.908325 1556.839722
v 3260.470459 -1411.745728 1556.919434
v 3260.087158 -1411.908936 1556.238770
v 3258.916260 -1410.338501 1559.064331
v 3257.853027 -1410.106934 1558.984375
v 3257.724854 -1410.639526 1559.880005
v 3257.853027 -1410.106934 1558.984375
v 3258.916260 -1410.338501 1559.064331
v 3258.988525 -1410.158447 1557.911987
v 3257.724854 -1410.639526 1559.880005
v 3258.699707 -1410.875488 1560.025513
v 3258.916260 -1410.338501 1559.064331
v 3258.988525 -1410.158447 1557.911987
v 3259.984619 -1410.768921 1557.911987
v 3259.842285 -1410.908325 1556.839722
v 3260.470459 -1411.745728 1556.919434
v 3259.842285 -1410.908325 1556.839722
v 3259.984619 -1410.768921 1557.911987
v 3259.984619 -1410.768921 1557.911987
v 3258.988525 -1410.158447 1557.911987
v 3258.916260 -1410.338501 1559.064331
v 3259.984619 -1410.768921 1557.911987
v 3260.659912 -1411.665039 1557.912109
v 3260.470459 -1411.745728 1556.919434
v 3259.842041 -1410.908325 1558.984497
v 3258.916260 -1410.338501 1559.064331
v 3258.699707 -1410.875488 1560.025513
v 3258.916260 -1410.338501 1559.064331
v 3259.842041 -1410.908325 1558.984497
v 3259.984619 -1410.768921 1557.911987
v 3260.659912 -1411.665039 1557.912109
v 3259.984619 -1410.768921 1557.911987
v 3259.842041 -1410.908325 1558.984497
v 3258.699707 -1410.875488 1560.025513
v 3259.566162 -1411.381226 1559.879883
v 3259.842041 -1410.908325 1558.984497
v 3259.842041 -1410.908325 1558.984497
v 3260.470947 -1411.745728 1558.904541
v 3260.659912 -1411.665039 1557.912109
v 3260.470947 -1411.745728 1558.904541
v 3259.842041 -1410.908325 1558.984497
v 3259.566162 -1411.381226 1559.879883
v 3259.566162 -1411.381226 1559.879883
v 3260.087402 -1411.908936 1559.585327
v 3260.470947 -1411.745728 1558.904541
v 3255.713379 -1413.021118 1555.944092
v 3255.732666 -1413.762695 1556.238770
v 3255.349121 -1413.926025 1556.919434
v 3255.349121 -1413.926025 1556.919434
v 3255.181152 -1412.892822 1556.839600
v 3255.713379 -1413.021118 1555.944092
v 3255.181152 -1412.892822 1556.839600
v 3255.349121 -1413.926025 1556.919434
v 3255.160156 -1414.006470 1557.911987
v 3255.949219 -1412.046143 1555.798584
v 3255.713379 -1413.021118 1555.944092
v 3255.181152 -1412.892822 1556.839600
v 3255.160156 -1414.006470 1557.911987
v 3254.981934 -1412.898560 1557.911987
v 3255.181152 -1412.892822 1556.839600
v 3254.981934 -1412.898560 1557.911987
v 3255.160156 -1414.006470 1557.911987
v 3255.349365 -1413.926025 1558.904541
v 3255.181152 -1412.892822 1556.839600
v 3255.412354 -1411.829834 1556.759644
v 3255.949219 -1412.046143 1555.798584
v 3255.412354 -1411.829834 1556.759644
v 3255.181152 -1412.892822 1556.839600
v 3254.981934 -1412.898560 1557.911987
v 3256.455078 -1411.179688 1555.944092
v 3255.949219 -1412.046143 1555.798584
v 3255.412354 -1411.829834 1556.759644
v 3255.349365 -1413.926025 1558.904541
v 3255.181396 -1412.892822 1558.984375
v 3254.981934 -1412.898560 1557.911987
v 3255.181396 -1412.892822 1558.984375
v 3255.349365 -1413.926025 1558.904541
v 3255.732422 -1413.762695 1559.585205
v 3255.732422 -1413.762695 1559.585205
v 3255.713623 -1413.021118 1559.880005
v 3255.181396 -1412.892822 1558.984375
v 3254.981934 -1412.898560 1557.911987
v 3255.232910 -1411.757324 1557.911987
v 3255.412354 -1411.829834 1556.759644
v 3255.232910 -1411.757324 1557.911987
v 3254.981934 -1412.898560 1557.911987
v 3255.181396 -1412.892822 1558.984375
v 3255.412354 -1411.829834 1556.759644
v 3255.982422 -1410.903320 1556.839600
v 3256.455078 -1411.179688 1555.944092
v 3255.982422 -1410.903320 1556.839600
v 3255.412354 -1411.829834 1556.759644
v 3255.232910 -1411.757324 1557.911987
v 3256.983154 -1410.658569 1556.238770
v 3256.455078 -1411.179688 1555.944092
v 3255.982422 -1410.903320 1556.839600
v 3255.982422 -1410.903320 1556.839600
v 3256.819824 -1410.275146 1556.919434
v 3256.983154 -1410.658569 1556.238770
v 3255.412842 -1411.829834 1559.064209
v 3255.181396 -1412.892822 1558.984375
v 3255.713623 -1413.021118 1559.880005
v 3255.181396 -1412.892822 1558.984375
v 3255.412842 -1411.829834 1559.064209
v 3255.232910 -1411.757324 1557.911987
v 3255.713623 -1413.021118 1559.880005
v 3255.949707 -1412.046143 1560.025391
v 3255.412842 -1411.829834 1559.064209
v 3255.232910 -1411.757324 1557.911987
v 3255.843262 -1410.760986 1557.911987
v 3255.982422 -1410.903320 1556.839600
v 3256.819824 -1410.275146 1556.919434
v 3255.982422 -1410.903320 1556.839600
v 3255.843262 -1410.760986 1557.911987
v 3255.843262 -1410.760986 1557.911987
v 3255.232910 -1411.757324 1557.911987
v 3255.412842 -1411.829834 1559.064209
v 3255.843262 -1410.760986 1557.911987
v 3256.739502 -1410.085815 1557.911987
v 3256.819824 -1410.275146 1556.919434
v 3255.982666 -1410.903320 1558.984375
v 3255.412842 -1411.829834 1559.064209
v 3255.949707 -1412.046143 1560.025391
v 3255.412842 -1411.829834 1559.064209
v 3255.982666 -1410.903320 1558.984375
v 3255.843262 -1410.760986 1557.911987
v 3256.739502 -1410.085815 1557.911987
v 3255.843262 -1410.760986 1557.911987
v 3255.982666 -1410.903320 1558.984375
v 3255.949707 -1412.046143 1560.025391
v 3256.455322 -1411.179688 1559.880005
v 3255.982666 -1410.903320 1558.984375
v 3255.982666 -1410.903320 1558.984375
v 3256.819824 -1410.275146 1558.904541
v 3256.739502 -1410.085815 1557.911987
v 3256.819824 -1410.275146 1558.904541
v 3255.982666 -1410.903320 1558.984375
v 3256.455322 -1411.179688 1559.880005
v 3256.455322 -1411.179688 1559.880005
v 3256.982910 -1410.658569 1559.585205
v 3256.819824 -1410.275146 1558.904541
vt 0.073364 0.234863
vt 0.073364 0.227051
vt 0.362305 0.227051
vt 0.362305 0.227051
vt 0.362305 0.234863
vt 0.073364 0.234863
vt 0.046539 0.141113
vt 0.046539 0.133301
vt 0.335449 0.133301
vt 0.335449 0.133301
vt 0.335449 0.141113
vt 0.046539 0.141113
vt 0.079651 0.541748
vt 0.079651 0.528076
vt 0.368408 0.528076
vt 0.368408 0.528076
vt 0.368408 0.541748
vt 0.079651 0.541748
vt 0.527832 0.419922
vt 0.418701 0.419922
vt 0.418701 0.412109
vt 0.418701 0.412109
vt 0.527832 0.412109
vt 0.527832 0.419922
vt 0.642578 0.916260
vt -0.008598 0.916260
vt -0.008598 0.908264
vt -0.008598 0.908264
vt 0.642578 0.908264
vt 0.642578 0.916260
vt 0.320068 0.141113
vt 0.320068 0.133789
vt 0.608887 0.133789
vt 0.608887 0.133789
vt 0.608887 0.141113
vt 0.320068 0.141113
vt 0.046539 0.126953
vt 0.046539 0.119629
vt 0.335449 0.119629
vt 0.335449 0.119629
vt 0.335449 0.126953
vt 0.046539 0.126953
vt 0.079651 0.502930
vt 0.079651 0.489258
vt 0.368408 0.489258
vt 0.368408 0.489258
vt 0.368408 0.502930
vt 0.079651 0.502930
vt 0.079651 0.522217
vt 0.079651 0.508789
vt 0.368408 0.508789
vt 0.368408 0.508789
vt 0.368408 0.522217
vt 0.079651 0.522217
vt 0.527832 0.408203
vt 0.527832 0.412109
vt 0.418701 0.412109
vt 0.418701 0.412109
vt 0.417236 0.408691
vt 0.527832 0.408203
vt -0.010094 0.919312
vt -0.008598 0.916260
vt 0.642578 0.916260
vt 0.642578 0.916260
vt 0.644043 0.919312
vt -0.010094 0.919312
vt 0.339111 0.126465
vt 0.339111 0.119629
vt 0.477783 0.119629
vt 0.477783 0.119629
vt 0.477783 0.126465
vt 0.339111 0.126465
vt 0.600098 0.646729
vt 0.600098 0.656982
vt 0.064880 0.656982
vt 0.064880 0.656982
vt 0.064880 0.646729
vt 0.600098 0.646729
vt 0.220581 0.066895
vt 0.220581 0.058594
vt 0.389404 0.058594
vt 0.389404 0.058594
vt 0.389404 0.066895
vt 0.220581 0.066895
vt 0.339111 0.126465
vt 0.339111 0.119629
vt 0.477783 0.119629
vt 0.477783 0.119629
vt 0.477783 0.126465
vt 0.339111 0.126465
vt 0.600098 0.646729
vt 0.600098 0.656982
vt 0.064880 0.656982
vt 0.064880 0.656982
vt 0.064880 0.646729
vt 0.600098 0.646729
vt 0.220581 0.066895
vt 0.220581 0.058594
vt 0.389404 0.058594
vt 0.389404 0.058594
vt 0.389404 0.066895
vt 0.220581 0.066895
vt 0.669922 0.319824
vt 0.686523 0.319824
vt 0.687012 0.450684
vt 0.687012 0.450684
vt 0.669922 0.433105
vt 0.669922 0.319824
vt 0.669922 0.433105
vt 0.687012 0.450684
vt -0.015511 0.450684
vt -0.015511 0.450684
vt 0.001803 0.433105
vt 0.669922 0.433105
vt 0.001460 0.319824
vt 0.001803 0.433105
vt -0.015511 0.450684
vt -0.015511 0.450684
vt -0.014877 0.319824
vt 0.001460 0.319824
vt 0.428223 0.369141
vt 0.428223 0.370117
vt 0.135010 0.370117
vt 0.135010 0.370117
vt 0.135010 0.369141
vt 0.428223 0.369141
vt 0.428223 0.360352
vt 0.428223 0.369141
vt 0.135010 0.369141
vt 0.135010 0.369141
vt 0.135010 0.360352
vt 0.428223 0.360352
vt 0.428223 0.359375
vt 0.428223 0.360352
vt 0.135010 0.360352
vt 0.135010 0.360352
vt 0.135010 0.359375
vt 0.428223 0.359375
vt 0.364502 0.281738
vt 0.364502 0.282715
vt 0.071167 0.282715
vt 0.071167 0.282715
vt 0.071167 0.281738
vt 0.364502 0.281738
vt 0.364502 0.273438
vt 0.364502 0.281738
vt 0.071167 0.281738
vt 0.071167 0.281738
vt 0.071167 0.273438
vt 0.364502 0.273438
vt 0.364502 0.271973
vt 0.364502 0.273438
vt 0.071167 0.273438
vt 0.071167 0.273438
vt 0.071167 0.271973
vt 0.364502 0.271973
vt 0.365479 0.257812
vt 0.365479 0.266602
vt 0.070068 0.266602
vt 0.070068 0.266602
vt 0.070068 0.257812
vt 0.365479 0.257812
vt 0.365479 0.256836
vt 0.365479 0.257812
vt 0.070068 0.257812
vt 0.070068 0.257812
vt 0.070068 0.256836
vt 0.365479 0.256836
vt 0.365479 0.242188
vt 0.365479 0.250977
vt 0.070068 0.250977
vt 0.070068 0.250977
vt 0.070068 0.242188
vt 0.365479 0.242188
vt 0.365479 0.241211
vt 0.365479 0.242188
vt 0.070068 0.242188
vt 0.070068 0.242188
vt 0.070068 0.241211
vt 0.365479 0.241211
vt 0.075623 0.548096
vt 0.075623 0.547119
vt 0.372559 0.547119
vt 0.372559 0.547119
vt 0.372559 0.548096
vt 0.075623 0.548096
vt 0.075623 0.562256
vt 0.075623 0.548096
vt 0.372559 0.548096
vt 0.372559 0.548096
vt 0.372559 0.562256
vt 0.075623 0.562256
vt 0.075623 0.563232
vt 0.075623 0.562256
vt 0.372559 0.562256
vt 0.372559 0.562256
vt 0.372559 0.563232
vt 0.075623 0.563232
vt 0.527832 0.395020
vt 0.527832 0.403320
vt 0.418701 0.403320
vt 0.418701 0.403320
vt 0.418701 0.395020
vt 0.527832 0.395020
vt 0.529297 0.392090
vt 0.527832 0.395020
vt 0.418701 0.395020
vt 0.418701 0.395020
vt 0.418701 0.391602
vt 0.529297 0.392090
vt 0.604980 0.072266
vt 0.604980 0.080078
vt 0.475586 0.080078
vt 0.475586 0.080078
vt 0.475586 0.072266
vt 0.604980 0.072266
vt 0.604980 0.068848
vt 0.604980 0.072266
vt 0.475586 0.072266
vt 0.475586 0.072266
vt 0.477051 0.068848
vt 0.604980 0.068848
vt 0.428223 0.342773
vt 0.428223 0.344238
vt 0.135132 0.344238
vt 0.135132 0.344238
vt 0.135132 0.342773
vt 0.428223 0.342773
vt 0.428223 0.334473
vt 0.428223 0.342773
vt 0.135132 0.342773
vt 0.135132 0.342773
vt 0.135132 0.334473
vt 0.428223 0.334473
vt 0.428223 0.333008
vt 0.428223 0.334473
vt 0.135132 0.334473
vt 0.135132 0.334473
vt 0.135132 0.333008
vt 0.428223 0.333008
vt 0.428223 0.385742
vt 0.428223 0.386719
vt 0.135132 0.386719
vt 0.135132 0.386719
vt 0.135132 0.385742
vt 0.428223 0.385742
vt 0.428223 0.376953
vt 0.428223 0.385742
vt 0.135132 0.385742
vt 0.135132 0.385742
vt 0.135132 0.376953
vt 0.428223 0.376953
vt 0.428223 0.375977
vt 0.428223 0.376953
vt 0.135132 0.376953
vt 0.135132 0.376953
vt 0.135132 0.375977
vt 0.428223 0.375977
vt 0.431885 0.402344
vt 0.431885 0.403809
vt 0.131348 0.403809
vt 0.131348 0.403809
vt 0.131348 0.402344
vt 0.431885 0.402344
vt 0.431885 0.393555
vt 0.431885 0.402344
vt 0.131348 0.402344
vt 0.131348 0.402344
vt 0.131348 0.393555
vt 0.431885 0.393555
vt 0.431885 0.392578
vt 0.431885 0.393555
vt 0.131348 0.393555
vt 0.131348 0.393555
vt 0.131348 0.392578
vt 0.431885 0.392578
vt 0.431885 0.418945
vt 0.431885 0.420410
vt 0.131348 0.420410
vt 0.131348 0.420410
vt 0.131348 0.418945
vt 0.431885 0.418945
vt 0.431885 0.410156
vt 0.431885 0.418945
vt 0.131348 0.418945
vt 0.131348 0.418945
vt 0.131348 0.410156
vt 0.431885 0.410156
vt 0.431885 0.409180
vt 0.431885 0.410156
vt 0.131348 0.410156
vt 0.131348 0.410156
vt 0.131348 0.409180
vt 0.431885 0.409180
vt 0.367676 0.520752
vt 0.367676 0.513184
vt 0.515625 0.513184
vt 0.515625 0.513184
vt 0.515625 0.520752
vt 0.367676 0.520752
vt 0.367676 0.521729
vt 0.367676 0.520752
vt 0.515625 0.520752
vt 0.515625 0.520752
vt 0.515625 0.521729
vt 0.367676 0.521729
vt 0.238647 0.080078
vt 0.238647 0.074219
vt 0.371338 0.074219
vt 0.371338 0.074219
vt 0.371338 0.080078
vt 0.238647 0.080078
vt 0.238647 0.081055
vt 0.238647 0.080078
vt 0.371338 0.080078
vt 0.371338 0.080078
vt 0.371338 0.081055
vt 0.238647 0.081055
vt 0.372803 0.533447
vt 0.372803 0.532471
vt 0.510254 0.532471
vt 0.510254 0.532471
vt 0.510254 0.533447
vt 0.372803 0.533447
vt 0.372803 0.539795
vt 0.372803 0.533447
vt 0.510254 0.533447
vt 0.510254 0.533447
vt 0.510254 0.539795
vt 0.372803 0.539795
vt 0.372803 0.540527
vt 0.372803 0.539795
vt 0.510254 0.539795
vt 0.510254 0.539795
vt 0.510254 0.540527
vt 0.372803 0.540527
vt -0.022583 0.844604
vt -0.022583 0.835938
vt 0.687500 0.835938
vt 0.687500 0.835938
vt 0.687500 0.844604
vt -0.022583 0.844604
vt -0.022583 0.845703
vt -0.022583 0.844604
vt 0.687500 0.844604
vt 0.687500 0.844604
vt 0.687500 0.845703
vt -0.022583 0.845703
vt 0.683105 0.873291
vt 0.683105 0.881836
vt -0.017822 0.881836
vt -0.017822 0.881836
vt -0.017822 0.873291
vt 0.683105 0.873291
vt 0.683105 0.872314
vt 0.683105 0.873291
vt -0.017822 0.873291
vt -0.017822 0.873291
vt -0.017822 0.872314
vt 0.683105 0.872314
vt 0.623535 0.616699
vt 0.623535 0.617676
vt 0.041504 0.617676
vt 0.041504 0.617676
vt 0.041504 0.616699
vt 0.623535 0.616699
vt 0.623535 0.605469
vt 0.623535 0.616699
vt 0.041504 0.616699
vt 0.041504 0.616699
vt 0.041504 0.605469
vt 0.623535 0.605469
vt 0.623535 0.604492
vt 0.623535 0.605469
vt 0.041504 0.605469
vt 0.041504 0.605469
vt 0.041504 0.604492
vt 0.623535 0.604492
vt 0.219727 0.096191
vt 0.219727 0.087891
vt 0.390137 0.087891
vt 0.390137 0.087891
vt 0.390137 0.096191
vt 0.219727 0.096191
vt 0.219727 0.097168
vt 0.219727 0.096191
vt 0.390137 0.096191
vt 0.390137 0.096191
vt 0.390137 0.097168
vt 0.219727 0.097168
vt 0.049774 0.096191
vt 0.049774 0.087891
vt 0.220215 0.087891
vt 0.220215 0.087891
vt 0.220215 0.096191
vt 0.049774 0.096191
vt 0.049774 0.097168
vt 0.049774 0.096191
vt 0.220215 0.096191
vt 0.220215 0.096191
vt 0.220215 0.097168
vt 0.049774 0.097168
vt 0.356445 0.553223
vt 0.356445 0.552246
vt 0.526855 0.552246
vt 0.526855 0.552246
vt 0.526855 0.553223
vt 0.356445 0.553223
vt 0.356445 0.561768
vt 0.356445 0.553223
vt 0.526855 0.553223
vt 0.526855 0.553223
vt 0.526855 0.561768
vt 0.356445 0.561768
vt 0.356445 0.562988
vt 0.356445 0.561768
vt 0.526855 0.561768
vt 0.526855 0.561768
vt 0.526855 0.562988
vt 0.356445 0.562988
vt 0.367676 0.520752
vt 0.367676 0.513184
vt 0.515625 0.513184
vt 0.515625 0.513184
vt 0.515625 0.520752
vt 0.367676 0.520752
vt 0.367676 0.521729
vt 0.367676 0.520752
vt 0.515625 0.520752
vt 0.515625 0.520752
vt 0.515625 0.521729
vt 0.367676 0.521729
vt 0.238647 0.080078
vt 0.238647 0.074219
vt 0.371338 0.074219
vt 0.371338 0.074219
vt 0.371338 0.080078
vt 0.238647 0.080078
vt 0.238647 0.081055
vt 0.238647 0.080078
vt 0.371338 0.080078
vt 0.371338 0.080078
vt 0.371338 0.081055
vt 0.238647 0.081055
vt 0.372803 0.533447
vt 0.372803 0.532471
vt 0.510254 0.532471
vt 0.510254 0.532471
vt 0.510254 0.533447
vt 0.372803 0.533447
vt 0.372803 0.539795
vt 0.372803 0.533447
vt 0.510254 0.533447
vt 0.510254 0.533447
vt 0.510254 0.539795
vt 0.372803 0.539795
vt 0.372803 0.540527
vt 0.372803 0.539795
vt 0.510254 0.539795
vt 0.510254 0.539795
vt 0.510254 0.540527
vt 0.372803 0.540527
vt -0.022583 0.844604
vt -0.022583 0.835938
vt 0.687500 0.835938
vt 0.687500 0.835938
vt 0.687500 0.844604
vt -0.022583 0.844604
vt -0.022583 0.845703
vt -0.022583 0.844604
vt 0.687500 0.844604
vt 0.687500 0.844604
vt 0.687500 0.845703
vt -0.022583 0.845703
vt 0.683105 0.873291
vt 0.683105 0.881836
vt -0.017822 0.881836
vt -0.017822 0.881836
vt -0.017822 0.873291
vt 0.683105 0.873291
vt 0.683105 0.872314
vt 0.683105 0.873291
vt -0.017822 0.873291
vt -0.017822 0.873291
vt -0.017822 0.872314
vt 0.683105 0.872314
vt 0.623535 0.616699
vt 0.623535 0.617676
vt 0.041504 0.617676
vt 0.041504 0.617676
vt 0.041504 0.616699
vt 0.623535 0.616699
vt 0.623535 0.605469
vt 0.623535 0.616699
vt 0.041504 0.616699
vt 0.041504 0.616699
vt 0.041504 0.605469
vt 0.623535 0.605469
vt 0.623535 0.604492
vt 0.623535 0.605469
vt 0.041504 0.605469
vt 0.041504 0.605469
vt 0.041504 0.604492
vt 0.623535 0.604492
vt 0.219727 0.096191
vt 0.219727 0.087891
vt 0.390137 0.087891
vt 0.390137 0.087891
vt 0.390137 0.096191
vt 0.219727 0.096191
vt 0.219727 0.097168
vt 0.219727 0.096191
vt 0.390137 0.096191
vt 0.390137 0.096191
vt 0.390137 0.097168
vt 0.219727 0.097168
vt 0.049774 0.096191
vt 0.049774 0.087891
vt 0.220215 0.087891
vt 0.220215 0.087891
vt 0.220215 0.096191
vt 0.049774 0.096191
vt 0.049774 0.097168
vt 0.049774 0.096191
vt 0.220215 0.096191
vt 0.220215 0.096191
vt 0.220215 0.097168
vt 0.049774 0.097168
vt 0.356445 0.553223
vt 0.356445 0.552246
vt 0.526855 0.552246
vt 0.526855 0.552246
vt 0.526855 0.553223
vt 0.356445 0.553223
vt 0.356445 0.561768
vt 0.356445 0.553223
vt 0.526855 0.553223
vt 0.526855 0.553223
vt 0.526855 0.561768
vt 0.356445 0.561768
vt 0.356445 0.562988
vt 0.356445 0.561768
vt 0.526855 0.561768
vt 0.526855 0.561768
vt 0.526855 0.562988
vt 0.356445 0.562988
vt 0.835938 0.020020
vt 0.706543 0.020020
vt 0.706543 0.012207
vt 0.706543 0.012207
vt 0.835938 0.012207
vt 0.835938 0.020020
vt 0.834473 0.008789
vt 0.835938 0.012207
vt 0.706543 0.012207
vt 0.706543 0.012207
vt 0.706543 0.008789
vt 0.834473 0.008789
vt 0.681152 0.772217
vt -0.009758 0.772217
vt -0.009758 0.764160
vt -0.009758 0.764160
vt 0.681152 0.764160
vt 0.681152 0.772217
vt 0.679688 0.761108
vt 0.681152 0.764160
vt -0.009758 0.764160
vt -0.009758 0.764160
vt -0.008263 0.761108
vt 0.679688 0.761108
vt 0.509766 0.505127
vt 0.509766 0.510254
vt 0.504883 0.510254
vt 0.504883 0.510254
vt 0.504883 0.505127
vt 0.509766 0.505127
vt 0.504883 0.505127
vt 0.504883 0.510254
vt 0.500000 0.510254
vt 0.509766 0.500000
vt 0.509766 0.505127
vt 0.504883 0.505127
vt 0.500000 0.510254
vt 0.500000 0.505127
vt 0.504883 0.505127
vt 0.504883 0.505127
vt 0.504883 0.500000
vt 0.509766 0.500000
vt 0.500000 0.505127
vt 0.500000 0.510254
vt 0.494873 0.510254
vt 0.509766 0.495117
vt 0.509766 0.500000
vt 0.504883 0.500000
vt 0.494873 0.510254
vt 0.494873 0.505127
vt 0.500000 0.505127
vt 0.504883 0.500000
vt 0.504883 0.495117
vt 0.509766 0.495117
vt 0.494873 0.505127
vt 0.494873 0.510254
vt 0.489746 0.510254
vt 0.509766 0.490234
vt 0.509766 0.495117
vt 0.504883 0.495117
vt 0.489746 0.510254
vt 0.489746 0.505127
vt 0.494873 0.505127
vt 0.504883 0.495117
vt 0.504883 0.490234
vt 0.509766 0.490234
vt 0.494873 0.500000
vt 0.494873 0.505127
vt 0.489746 0.505127
vt 0.504883 0.490234
vt 0.504883 0.495117
vt 0.500000 0.495117
vt 0.489746 0.505127
vt 0.489746 0.500000
vt 0.494873 0.500000
vt 0.500000 0.495117
vt 0.500000 0.490234
vt 0.504883 0.490234
vt 0.494873 0.495117
vt 0.494873 0.500000
vt 0.489746 0.500000
vt 0.500000 0.490234
vt 0.500000 0.495117
vt 0.494873 0.495117
vt 0.489746 0.500000
vt 0.489746 0.495117
vt 0.494873 0.495117
vt 0.494873 0.495117
vt 0.494873 0.490234
vt 0.500000 0.490234
vt 0.494873 0.490234
vt 0.494873 0.495117
vt 0.489746 0.495117
vt 0.489746 0.495117
vt 0.489746 0.490234
vt 0.494873 0.490234
vt 0.504883 0.490234
vt 0.509766 0.490234
vt 0.509766 0.495117
vt 0.509766 0.495117
vt 0.504883 0.495117
vt 0.504883 0.490234
vt 0.504883 0.495117
vt 0.509766 0.495117
vt 0.509766 0.500000
vt 0.500000 0.490234
vt 0.504883 0.490234
vt 0.504883 0.495117
vt 0.509766 0.500000
vt 0.504883 0.500000
vt 0.504883 0.495117
vt 0.504883 0.495117
vt 0.500000 0.495117
vt 0.500000 0.490234
vt 0.504883 0.500000
vt 0.509766 0.500000
vt 0.509766 0.505127
vt 0.494873 0.490234
vt 0.500000 0.490234
vt 0.500000 0.495117
vt 0.509766 0.505127
vt 0.504883 0.505127
vt 0.504883 0.500000
vt 0.500000 0.495117
vt 0.494873 0.495117
vt 0.494873 0.490234
vt 0.504883 0.505127
vt 0.509766 0.505127
vt 0.509766 0.510254
vt 0.489746 0.490234
vt 0.494873 0.490234
vt 0.494873 0.495117
vt 0.509766 0.510254
vt 0.504883 0.510254
vt 0.504883 0.505127
vt 0.494873 0.495117
vt 0.489746 0.495117
vt 0.489746 0.490234
vt 0.500000 0.505127
vt 0.504883 0.505127
vt 0.504883 0.510254
vt 0.489746 0.495117
vt 0.494873 0.495117
vt 0.494873 0.500000
vt 0.504883 0.510254
vt 0.500000 0.510254
vt 0.500000 0.505127
vt 0.494873 0.500000
vt 0.489746 0.500000
vt 0.489746 0.495117
vt 0.494873 0.505127
vt 0.500000 0.505127
vt 0.500000 0.510254
vt 0.489746 0.500000
vt 0.494873 0.500000
vt 0.494873 0.505127
vt 0.500000 0.510254
vt 0.494873 0.510254
vt 0.494873 0.505127
vt 0.494873 0.505127
vt 0.489746 0.505127
vt 0.489746 0.500000
vt 0.489746 0.505127
vt 0.494873 0.505127
vt 0.494873 0.510254
vt 0.494873 0.510254
vt 0.489746 0.510254
vt 0.489746 0.505127
vt 0.504883 0.489746
vt 0.510254 0.489746
vt 0.510254 0.495117
vt 0.510254 0.495117
vt 0.504883 0.495117
vt 0.504883 0.489746
vt 0.504883 0.495117
vt 0.510254 0.495117
vt 0.510254 0.500000
vt 0.500000 0.489746
vt 0.504883 0.489746
vt 0.504883 0.495117
vt 0.510254 0.500000
vt 0.504883 0.500000
vt 0.504883 0.495117
vt 0.504883 0.500000
vt 0.510254 0.500000
vt 0.510254 0.505371
vt 0.504883 0.495117
vt 0.500000 0.495117
vt 0.500000 0.489746
vt 0.500000 0.495117
vt 0.504883 0.495117
vt 0.504883 0.500000
vt 0.494629 0.489746
vt 0.500000 0.489746
vt 0.500000 0.495117
vt 0.510254 0.505371
vt 0.504883 0.505371
vt 0.504883 0.500000
vt 0.504883 0.505371
vt 0.510254 0.505371
vt 0.510254 0.510498
vt 0.510254 0.510498
vt 0.504883 0.510498
vt 0.504883 0.505371
vt 0.504883 0.500000
vt 0.500000 0.500000
vt 0.500000 0.495117
vt 0.500000 0.500000
vt 0.504883 0.500000
vt 0.504883 0.505371
vt 0.500000 0.495117
vt 0.494629 0.495117
vt 0.494629 0.489746
vt 0.494629 0.495117
vt 0.500000 0.495117
vt 0.500000 0.500000
vt 0.489502 0.489746
vt 0.494629 0.489746
vt 0.494629 0.495117
vt 0.494629 0.495117
vt 0.489502 0.495117
vt 0.489502 0.489746
vt 0.500000 0.505371
vt 0.504883 0.505371
vt 0.504883 0.510498
vt 0.504883 0.505371
vt 0.500000 0.505371
vt 0.500000 0.500000
vt 0.504883 0.510498
vt 0.500000 0.510498
vt 0.500000 0.505371
vt 0.500000 0.500000
vt 0.494629 0.500000
vt 0.494629 0.495117
vt 0.489502 0.495117
vt 0.494629 0.495117
vt 0.494629 0.500000
vt 0.494629 0.500000
vt 0.500000 0.500000
vt 0.500000 0.505371
vt 0.494629 0.500000
vt 0.489502 0.500000
vt 0.489502 0.495117
vt 0.494629 0.505371
vt 0.500000 0.505371
vt 0.500000 0.510498
vt 0.500000 0.505371
vt 0.494629 0.505371
vt 0.494629 0.500000
vt 0.489502 0.500000
vt 0.494629 0.500000
vt 0.494629 0.505371
vt 0.500000 0.510498
vt 0.494629 0.510498
vt 0.494629 0.505371
vt 0.494629 0.505371
vt 0.489502 0.505371
vt 0.489502 0.500000
vt 0.489502 0.505371
vt 0.494629 0.505371
vt 0.494629 0.510498
vt 0.494629 0.510498
vt 0.489502 0.510498
vt 0.489502 0.505371
vt 0.504883 0.489746
vt 0.510254 0.489746
vt 0.510254 0.495117
vt 0.510254 0.495117
vt 0.504883 0.495117
vt 0.504883 0.489746
vt 0.504883 0.495117
vt 0.510254 0.495117
vt 0.510254 0.500000
vt 0.500000 0.489746
vt 0.504883 0.489746
vt 0.504883 0.495117
vt 0.510254 0.500000
vt 0.504883 0.500000
vt 0.504883 0.495117
vt 0.504883 0.500000
vt 0.510254 0.500000
vt 0.510254 0.505371
vt 0.504883 0.495117
vt 0.500000 0.495117
vt 0.500000 0.489746
vt 0.500000 0.495117
vt 0.504883 0.495117
vt 0.504883 0.500000
vt 0.494629 0.489746
vt 0.500000 0.489746
vt 0.500000 0.495117
vt 0.510254 0.505371
vt 0.504883 0.505371
vt 0.504883 0.500000
vt 0.504883 0.505371
vt 0.510254 0.505371
vt 0.510254 0.510498
vt 0.510254 0.510498
vt 0.504883 0.510498
vt 0.504883 0.505371
vt 0.504883 0.500000
vt 0.500000 0.500000
vt 0.500000 0.495117
vt 0.500000 0.500000
vt 0.504883 0.500000
vt 0.504883 0.505371
vt 0.500000 0.495117
vt 0.494629 0.495117
vt 0.494629 0.489746
vt 0.494629 0.495117
vt 0.500000 0.495117
vt 0.500000 0.500000
vt 0.489502 0.489746
vt 0.494629 0.489746
vt 0.494629 0.495117
vt 0.494629 0.495117
vt 0.489502 0.495117
vt 0.489502 0.489746
vt 0.500000 0.505371
vt 0.504883 0.505371
vt 0.504883 0.510498
vt 0.504883 0.505371
vt 0.500000 0.505371
vt 0.500000 0.500000
vt 0.504883 0.510498
vt 0.500000 0.510498
vt 0.500000 0.505371
vt 0.500000 0.500000
vt 0.494629 0.500000
vt 0.494629 0.495117
vt 0.489502 0.495117
vt 0.494629 0.495117
vt 0.494629 0.500000
vt 0.494629 0.500000
vt 0.500000 0.500000
vt 0.500000 0.505371
vt 0.494629 0.500000
vt 0.489502 0.500000
vt 0.489502 0.495117
vt 0.494629 0.505371
vt 0.500000 0.505371
vt 0.500000 0.510498
vt 0.500000 0.505371
vt 0.494629 0.505371
vt 0.494629 0.500000
vt 0.489502 0.500000
vt 0.494629 0.500000
vt 0.494629 0.505371
vt 0.500000 0.510498
vt 0.494629 0.510498
vt 0.494629 0.505371
vt 0.494629 0.505371
vt 0.489502 0.505371
vt 0.489502 0.500000
vt 0.489502 0.505371
vt 0.494629 0.505371
vt 0.494629 0.510498
vt 0.494629 0.510498
vt 0.489502 0.510498
vt 0.489502 0.505371
vt 0.504883 0.489746
vt 0.510254 0.489746
vt 0.510254 0.495117
vt 0.510254 0.495117
vt 0.504883 0.495117
vt 0.504883 0.489746
vt 0.504883 0.495117
vt 0.510254 0.495117
vt 0.510254 0.500000
vt 0.500000 0.489746
vt 0.504883 0.489746
vt 0.504883 0.495117
vt 0.510254 0.500000
vt 0.504883 0.500000
vt 0.504883 0.495117
vt 0.504883 0.500000
vt 0.510254 0.500000
vt 0.510254 0.505371
vt 0.504883 0.495117
vt 0.500000 0.495117
vt 0.500000 0.489746
vt 0.500000 0.495117
vt 0.504883 0.495117
vt 0.504883 0.500000
vt 0.494629 0.489746
vt 0.500000 0.489746
vt 0.500000 0.495117
vt 0.510254 0.505371
vt 0.504883 0.505371
vt 0.504883 0.500000
vt 0.504883 0.505371
vt 0.510254 0.505371
vt 0.510254 0.510498
vt 0.510254 0.510498
vt 0.504883 0.510498
vt 0.504883 0.505371
vt 0.504883 0.500000
vt 0.500000 0.500000
vt 0.500000 0.495117
vt 0.500000 0.500000
vt 0.504883 0.500000
vt 0.504883 0.505371
vt 0.500000 0.495117
vt 0.494629 0.495117
vt 0.494629 0.489746
vt 0.494629 0.495117
vt 0.500000 0.495117
vt 0.500000 0.500000
vt 0.489502 0.489746
vt 0.494629 0.489746
vt 0.494629 0.495117
vt 0.494629 0.495117
vt 0.489502 0.495117
vt 0.489502 0.489746
vt 0.500000 0.505371
vt 0.504883 0.505371
vt 0.504883 0.510498
vt 0.504883 0.505371
vt 0.500000 0.505371
vt 0.500000 0.500000
vt 0.504883 0.510498
vt 0.500000 0.510498
vt 0.500000 0.505371
vt 0.500000 0.500000
vt 0.494629 0.500000
vt 0.494629 0.495117
vt 0.489502 0.495117
vt 0.494629 0.495117
vt 0.494629 0.500000
vt 0.494629 0.500000
vt 0.500000 0.500000
vt 0.500000 0.505371
vt 0.494629 0.500000
vt 0.489502 0.500000
vt 0.489502 0.495117
vt 0.494629 0.505371
vt 0.500000 0.505371
vt 0.500000 0.510498
vt 0.500000 0.505371
vt 0.494629 0.505371
vt 0.494629 0.500000
vt 0.489502 0.500000
vt 0.494629 0.500000
vt 0.494629 0.505371
vt 0.500000 0.510498
vt 0.494629 0.510498
vt 0.494629 0.505371
vt 0.494629 0.505371
vt 0.489502 0.505371
vt 0.489502 0.500000
vt 0.489502 0.505371
vt 0.494629 0.505371
vt 0.494629 0.510498
vt 0.494629 0.510498
vt 0.489502 0.510498
vt 0.489502 0.505371
vt 0.504883 0.489746
vt 0.510254 0.489746
vt 0.510254 0.495117
vt 0.510254 0.495117
vt 0.504883 0.495117
vt 0.504883 0.489746
vt 0.504883 0.495117
vt 0.510254 0.495117
vt 0.510254 0.500000
vt 0.500000 0.489746
vt 0.504883 0.489746
vt 0.504883 0.495117
vt 0.510254 0.500000
vt 0.504883 0.500000
vt 0.504883 0.495117
vt 0.504883 0.500000
vt 0.510254 0.500000
vt 0.510254 0.505371
vt 0.504883 0.495117
vt 0.500000 0.495117
vt 0.500000 0.489746
vt 0.500000 0.495117
vt 0.504883 0.495117
vt 0.504883 0.500000
vt 0.494629 0.489746
vt 0.500000 0.489746
vt 0.500000 0.495117
vt 0.510254 0.505371
vt 0.504883 0.505371
vt 0.504883 0.500000
vt 0.504883 0.505371
vt 0.510254 0.505371
vt 0.510254 0.510498
vt 0.510254 0.510498
vt 0.504883 0.510498
vt 0.504883 0.505371
vt 0.504883 0.500000
vt 0.500000 0.500000
vt 0.500000 0.495117
vt 0.500000 0.500000
vt 0.504883 0.500000
vt 0.504883 0.505371
vt 0.500000 0.495117
vt 0.494629 0.495117
vt 0.494629 0.489746
vt 0.494629 0.495117
vt 0.500000 0.495117
vt 0.500000 0.500000
vt 0.489502 0.489746
vt 0.494629 0.489746
vt 0.494629 0.495117
vt 0.494629 0.495117
vt 0.489502 0.495117
vt 0.489502 0.489746
vt 0.500000 0.505371
vt 0.504883 0.505371
vt 0.504883 0.510498
vt 0.504883 0.505371
vt 0.500000 0.505371
vt 0.500000 0.500000
vt 0.504883 0.510498
vt 0.500000 0.510498
vt 0.500000 0.505371
vt 0.500000 0.500000
vt 0.494629 0.500000
vt 0.494629 0.495117
vt 0.489502 0.495117
vt 0.494629 0.495117
vt 0.494629 0.500000
vt 0.494629 0.500000
vt 0.500000 0.500000
vt 0.500000 0.505371
vt 0.494629 0.500000
vt 0.489502 0.500000
vt 0.489502 0.495117
vt 0.494629 0.505371
vt 0.500000 0.505371
vt 0.500000 0.510498
vt 0.500000 0.505371
vt 0.494629 0.505371
vt 0.494629 0.500000
vt 0.489502 0.500000
vt 0.494629 0.500000
vt 0.494629 0.505371
vt 0.500000 0.510498
vt 0.494629 0.510498
vt 0.494629 0.505371
vt 0.494629 0.505371
vt 0.489502 0.505371
vt 0.489502 0.500000
vt 0.489502 0.505371
vt 0.494629 0.505371
vt 0.494629 0.510498
vt 0.494629 0.510498
vt 0.489502 0.510498
vt 0.489502 0.505371
f 1/1/1 2/2/2 3/3/3
f 4/4/4 5/5/5 6/6/6
f 7/7/7 8/8/8 9/9/9
f 10/10/10 11/11/11 12/12/12
f 13/13/13 14/14/14 15/15/15
f 16/16/16 17/17/17 18/18/18
f 19/19/19 20/20/20 21/21/21
f 22/22/22 23/23/23 24/24/24
f 25/25/25 26/26/26 27/27/27
f 28/28/28 29/29/29 30/30/30
f 31/31/31 32/32/32 33/33/33
f 34/34/34 35/35/35 36/36/36
f 37/37/37 38/38/38 39/39/39
f 40/40/40 41/41/41 42/42/42
f 43/43/43 44/44/44 45/45/45
f 46/46/46 47/47/47 48/48/48
f 49/49/49 50/50/50 51/51/51
f 52/52/52 53/53/53 54/54/54
f 55/55/55 56/56/56 57/57/57
f 58/58/58 59/59/59 60/60/60
f 61/61/61 62/62/62 63/63/63
f 64/64/64 65/65/65 66/66/66
f 67/67/67 68/68/68 69/69/69
f 70/70/70 71/71/71 72/72/72
f 73/73/73 74/74/74 75/75/75
f 76/76/76 77/77/77 78/78/78
f 79/79/79 80/80/80 81/81/81
f 82/82/82 83/83/83 84/84/84
f 85/85/85 86/86/86 87/87/87
f 88/88/88 89/89/89 90/90/90
f 91/91/91 92/92/92 93/93/93
f 94/94/94 95/95/95 96/96/96
f 97/97/97 98/98/98 99/99/99
f 100/100/100 101/101/101 102/102/102
f 103/103/103 104/104/104 105/105/105
f 106/106/106 107/107/107 108/108/108
f 109/109/109 110/110/110 111/111/111
f 112/112/112 113/113/113 114/114/114
f 115/115/115 116/116/116 117/117/117
f 118/118/118 119/119/119 120/120/120
f 121/121/121 122/122/122 123/123/123
f 124/124/124 125/125/125 126/126/126
f 127/127/127 128/128/128 129/129/129
f 130/130/130 131/131/131 132/132/132
f 133/133/133 134/134/134 135/135/135
f 136/136/136 137/137/137 138/138/138
f 139/139/139 140/140/140 141/141/141
f 142/142/142 143/143/143 144/144/144
f 145/145/145 146/146/146 147/147/147
f 148/148/148 149/149/149 150/150/150
f 151/151/151 152/152/152 153/153/153
f 154/154/154 155/155/155 156/156/156
f 157/157/157 158/158/158 159/159/159
f 160/160/160 161/161/161 162/162/162
f 163/163/163 164/164/164 165/165/165
f 166/166/166 167/167/167 168/168/168
f 169/169/169 170/170/170 171/171/171
f 172/172/172 173/173/173 174/174/174
f 175/175/175 176/176/176 177/177/177
f 178/178/178 179/179/179 180/180/180
f 181/181/181 182/182/182 183/183/183
f 184/184/184 185/185/185 186/186/186
f 187/187/187 188/188/188 189/189/189
f 190/190/190 191/191/191 192/192/192
f 193/193/193 194/194/194 195/195/195
f 196/196/196 197/197/197 198/198/198
f 199/199/199 200/200/200 201/201/201
f 202/202/202 203/203/203 204/204/204
f 205/205/205 206/206/206 207/207/207
f 208/208/208 209/209/209 210/210/210
f 211/211/211 212/212/212 213/213/213
f 214/214/214 215/215/215 216/216/216
f 217/217/217 218/218/218 219/219/219
f 220/220/220 221/221/221 222/222/222
f 223/223/223 224/224/224 225/225/225
f 226/226/226 227/227/227 228/228/228
f 229/229/229 230/230/230 231/231/231
f 232/232/232 233/233/233 234/234/234
f 235/235/235 236/236/236 237/237/237
f 238/238/238 239/239/239 240/240/240
f 241/241/241 242/242/242 243/243/243
f 244/244/244 245/245/245 246/246/246
f 247/247/247 248/248/248 249/249/249
f 250/250/250 251/251/251 252/252/252
f 253/253/253 254/254/254 255/255/255
f 256/256/256 257/257/257 258/258/258
f 259/259/259 260/260/260 261/261/261
f 262/262/262 263/263/263 264/264/264
f 265/265/265 266/266/266 267/267/267
f 268/268/268 269/269/269 270/270/270
f 271/271/271 272/272/272 273/273/273
f 274/274/274 275/275/275 276/276/276
f 277/277/277 278/278/278 279/279/279
f 280/280/280 281/281/281 282/282/282
f 283/283/283 284/284/284 285/285/285
f 286/286/286 287/287/287 288/288/288
f 289/289/289 290/290/290 291/291/291
f 292/292/292 293/293/293 294/294/294
f 295/295/295 296/296/296 297/297/297
f 298/298/298 299/299/299 300/300/300
f 301/301/301 302/302/302 303/303/303
f 304/304/304 305/305/305 306/306/306
f 307/307/307 308/308/308 309/309/309
f 310/310/310 311/311/311 312/312/312
f 313/313/313 314/314/314 315/315/315
f 316/316/316 317/317/317 318/318/318
f 319/319/319 320/320/320 321/321/321
f 322/322/322 323/323/323 324/324/324
f 325/325/325 326/326/326 327/327/327
f 328/328/328 329/329/329 330/330/330
f 331/331/331 332/332/332 333/333/333
f 334/334/334 335/335/335 336/336/336
f 337/337/337 338/338/338 339/339/339
f 340/340/340 341/341/341 342/342/342
f 343/343/343 344/344/344 345/345/345
f 346/346/346 347/347/347 348/348/348
f 349/349/349 350/350/350 351/351/351
f 352/352/352 353/353/353 354/354/354
f 355/355/355 356/356/356 357/357/357
f 358/358/358 359/359/359 360/360/360
f 361/361/361 362/362/362 363/363/363
f 364/364/364 365/365/365 366/366/366
f 367/367/367 368/368/368 369/369/369
f 370/370/370 371/371/371 372/372/372
f 373/373/373 374/374/374 375/375/375
f 376/376/376 377/377/377 378/378/378
f 379/379/379 380/380/380 381/381/381
f 382/382/382 383/383/383 384/384/384
f 385/385/385 386/386/386 387/387/387
f 388/388/388 389/389/389 390/390/390
f 391/391/391 392/392/392 393/393/393
f 394/394/394 395/395/395 396/396/396
f 397/397/397 398/398/398 399/399/399
f 400/400/400 401/401/401 402/402/402
f 403/403/403 404/404/404 405/405/405
f 406/406/406 407/407/407 408/408/408
f 409/409/409 410/410/410 411/411/411
f 412/412/412 413/413/413 414/414/414
f 415/415/415 416/416/416 417/417/417
f 418/418/418 419/419/419 420/420/420
f 421/421/421 422/422/422 423/423/423
f 424/424/424 425/425/425 426/426/426
f 427/427/427 428/428/428 429/429/429
f 430/430/430 431/431/431 432/432/432
f 433/433/433 434/434/434 435/435/435
f 436/436/436 437/437/437 438/438/438
f 439/439/439 440/440/440 441/441/441
f 442/442/442 443/443/443 444/444/444
f 445/445/445 446/446/446 447/447/447
f 448/448/448 449/449/449 450/450/450
f 451/451/451 452/452/452 453/453/453
f 454/454/454 455/455/455 456/456/456
f 457/457/457 458/458/458 459/459/459
f 460/460/460 461/461/461 462/462/462
f 463/463/463 464/464/464 465/465/465
f 466/466/466 467/467/467 468/468/468
f 469/469/469 470/470/470 471/471/471
f 472/472/472 473/473/473 474/474/474
f 475/475/475 476/476/476 477/477/477
f 478/478/478 479/479/479 480/480/480
f 481/481/481 482/482/482 483/483/483
f 484/484/484 485/485/485 486/486/486
f 487/487/487 488/488/488 489/489/489
f 490/490/490 491/491/491 492/492/492
f 493/493/493 494/494/494 495/495/495
f 496/496/496 497/497/497 498/498/498
f 499/499/499 500/500/500 501/501/501
f 502/502/502 503/503/503 504/504/504
f 505/505/505 506/506/506 507/507/507
f 508/508/508 509/509/509 510/510/510
f 511/511/511 512/512/512 513/513/513
f 514/514/514 515/515/515 516/516/516
f 517/517/517 518/518/518 519/519/519
f 520/520/520 521/521/521 522/522/522
f 523/523/523 524/524/524 525/525/525
f 526/526/526 527/527/527 528/528/528
f 529/529/529 530/530/530 531/531/531
f 532/532/532 533/533/533 534/534/534
f 535/535/535 536/536/536 537/537/537
f 538/538/538 539/539/539 540/540/540
f 541/541/541 542/542/542 543/543/543
f 544/544/544 545/545/545 546/546/546
f 547/547/547 548/548/548 549/549/549
f 550/550/550 551/551/551 552/552/552
f 553/553/553 554/554/554 555/555/555
f 556/556/556 557/557/557 558/558/558
f 559/559/559 560/560/560 561/561/561
f 562/562/562 563/563/563 564/564/564
f 565/565/565 566/566/566 567/567/567
f 568/568/568 569/569/569 570/570/570
f 571/571/571 572/572/572 573/573/573
f 574/574/574 575/575/575 576/576/576
f 577/577/577 578/578/578 579/579/579
f 580/580/580 581/581/581 582/582/582
f 583/583/583 584/584/584 585/585/585
f 586/586/586 587/587/587 588/588/588
f 589/589/589 590/590/590 591/591/591
f 592/592/592 593/593/593 594/594/594
f 595/595/595 596/596/596 597/597/597
f 598/598/598 599/599/599 600/600/600
f 601/601/601 602/602/602 603/603/603
f 604/604/604 605/605/605 606/606/606
f 607/607/607 608/608/608 609/609/609
f 610/610/610 611/611/611 612/612/612
f 613/613/613 614/614/614 615/615/615
f 616/616/616 617/617/617 618/618/618
f 619/619/619 620/620/620 621/621/621
f 622/622/622 623/623/623 624/624/624
f 625/625/625 626/626/626 627/627/627
f 628/628/628 629/629/629 630/630/630
f 631/631/631 632/632/632 633/633/633
f 634/634/634 635/635/635 636/636/636
f 637/637/637 638/638/638 639/639/639
f 640/640/640 641/641/641 642/642/642
f 643/643/643 644/644/644 645/645/645
f 646/646/646 647/647/647 648/648/648
f 649/649/649 650/650/650 651/651/651
f 652/652/652 653/653/653 654/654/654
f 655/655/655 656/656/656 657/657/657
f 658/658/658 659/659/659 660/660/660
f 661/661/661 662/662/662 663/663/663
f 664/664/664 665/665/665 666/666/666
f 667/667/667 668/668/668 669/669/669
f 670/670/670 671/671/671 672/672/672
f 673/673/673 674/674/674 675/675/675
f 676/676/676 677/677/677 678/678/678
f 679/679/679 680/680/680 681/681/681
f 682/682/682 683/683/683 684/684/684
f 685/685/685 686/686/686 687/687/687
f 688/688/688 689/689/689 690/690/690
f 691/691/691 692/692/692 693/693/693
f 694/694/694 695/695/695 696/696/696
f 697/697/697 698/698/698 699/699/699
f 700/700/700 701/701/701 702/702/702
f 703/703/703 704/704/704 705/705/705
f 706/706/706 707/707/707 708/708/708
f 709/709/709 710/710/710 711/711/711
f 712/712/712 713/713/713 714/714/714
f 715/715/715 716/716/716 717/717/717
f 718/718/718 719/719/719 720/720/720
f 721/721/721 722/722/722 723/723/723
f 724/724/724 725/725/725 726/726/726
f 727/727/727 728/728/728 729/729/729
f 730/730/730 731/731/731 732/732/732
f 733/733/733 734/734/734 735/735/735
f 736/736/736 737/737/737 738/738/738
f 739/739/739 740/740/740 741/741/741
f 742/742/742 743/743/743 744/744/744
f 745/745/745 746/746/746 747/747/747
f 748/748/748 749/749/749 750/750/750
f 751/751/751 752/752/752 753/753/753
f 754/754/754 755/755/755 756/756/756
f 757/757/757 758/758/758 759/759/759
f 760/760/760 761/761/761 762/762/762
f 763/763/763 764/764/764 765/765/765
f 766/766/766 767/767/767 768/768/768
f 769/769/769 770/770/770 771/771/771
f 772/772/772 773/773/773 774/774/774
f 775/775/775 776/776/776 777/777/777
f 778/778/778 779/779/779 780/780/780
f 781/781/781 782/782/782 783/783/783
f 784/784/784 785/785/785 786/786/786
f 787/787/787 788/788/788 789/789/789
f 790/790/790 791/791/791 792/792/792
f 793/793/793 794/794/794 795/795/795
f 796/796/796 797/797/797 798/798/798
f 799/799/799 800/800/800 801/801/801
f 802/802/802 803/803/803 804/804/804
f 805/805/805 806/806/806 807/807/807
f 808/808/808 809/809/809 810/810/810
f 811/811/811 812/812/812 813/813/813
f 814/814/814 815/815/815 816/816/816
f 817/817/817 818/818/818 819/819/819
f 820/820/820 821/821/821 822/822/822
f 823/823/823 824/824/824 825/825/825
f 826/826/826 827/827/827 828/828/828
f 829/829/829 830/830/830 831/831/831
f 832/832/832 833/833/833 834/834/834
f 835/835/835 836/836/836 837/837/837
f 838/838/838 839/839/839 840/840/840
f 841/841/841 842/842/842 843/843/843
f 844/844/844 845/845/845 846/846/846
f 847/847/847 848/848/848 849/849/849
f 850/850/850 851/851/851 852/852/852
f 853/853/853 854/854/854 855/855/855
f 856/856/856 857/857/857 858/858/858
f 859/859/859 860/860/860 861/861/861
f 862/862/862 863/863/863 864/864/864
f 865/865/865 866/866/866 867/867/867
f 868/868/868 869/869/869 870/870/870
f 871/871/871 872/872/872 873/873/873
f 874/874/874 875/875/875 876/876/876
f 877/877/877 878/878/878 879/879/879
f 880/880/880 881/881/881 882/882/882
f 883/883/883 884/884/884 885/885/885
f 886/886/886 887/887/887 888/888/888
f 889/889/889 890/890/890 891/891/891
f 892/892/892 893/893/893 894/894/894
f 895/895/895 896/896/896 897/897/897
f 898/898/898 899/899/899 900/900/900
f 901/901/901 902/902/902 903/903/903
f 904/904/904 905/905/905 906/906/906
f 907/907/907 908/908/908 909/909/909
f 910/910/910 911/911/911 912/912/912
f 913/913/913 914/914/914 915/915/915
f 916/916/916 917/917/917 918/918/918
f 919/919/919 920/920/920 921/921/921
f 922/922/922 923/923/923 924/924/924
f 925/925/925 926/926/926 927/927/927
f 928/928/928 929/929/929 930/930/930
f 931/931/931 932/932/932 933/933/933
f 934/934/934 935/935/935 936/936/936
f 937/937/937 938/938/938 939/939/939
f 940/940/940 941/941/941 942/942/942
f 943/943/943 944/944/944 945/945/945
f 946/946/946 947/947/947 948/948/948
f 949/949/949 950/950/950 951/951/951
f 952/952/952 953/953/953 954/954/954
f 955/955/955 956/956/956 957/957/957
f 958/958/958 959/959/959 960/960/960
f 961/961/961 962/962/962 963/963/963
f 964/964/964 965/965/965 966/966/966
f 967/967/967 968/968/968 969/969/969
f 970/970/970 971/971/971 972/972/972
f 973/973/973 974/974/974 975/975/975
f 976/976/976 977/977/977 978/978/978
f 979/979/979 980/980/980 981/981/981
f 982/982/982 983/983/983 984/984/984
f 985/985/985 986/986/986 987/987/987
f 988/988/988 989/989/989 990/990/990
f 991/991/991 992/992/992 993/993/993
f 994/994/994 995/995/995 996/996/996
f 997/997/997 998/998/998 999/999/999
f 1000/1000/1000 1001/1001/1001 1002/1002/1002
f 1003/1003/1003 1004/1004/1004 1005/1005/1005
f 1006/1006/1006 1007/1007/1007 1008/1008/1008
f 1009/1009/1009 1010/1010/1010 1011/1011/1011
f 1012/1012/1012 1013/1013/1013 1014/1014/1014
f 1015/1015/1015 1016/1016/1016 1017/1017/1017
f 1018/1018/1018 1019/1019/1019 1020/1020/1020
f 1021/1021/1021 1022/1022/1022 1023/1023/1023
f 1024/1024/1024 1025/1025/1025 1026/1026/1026
f 1027/1027/1027 1028/1028/1028 1029/1029/1029
f 1030/1030/1030 1031/1031/1031 1032/1032/1032
f 1033/1033/1033 1034/1034/1034 1035/1035/1035
f 1036/1036/1036 1037/1037/1037 1038/1038/1038
f 1039/1039/1039 1040/1040/1040 1041/1041/1041
f 1042/1042/1042 1043/1043/1043 1044/1044/1044
f 1045/1045/1045 1046/1046/1046 1047/1047/1047
f 1048/1048/1048 1049/1049/1049 1050/1050/1050
f 1051/1051/1051 1052/1052/1052 1053/1053/1053
f 1054/1054/1054 1055/1055/1055 1056/1056/1056
f 1057/1057/1057 1058/1058/1058 1059/1059/1059
f 1060/1060/1060 1061/1061/1061 1062/1062/1062
f 1063/1063/1063 1064/1064/1064 1065/1065/1065
f 1066/1066/1066 1067/1067/1067 1068/1068/1068
f 1069/1069/1069 1070/1070/1070 1071/1071/1071
f 1072/1072/1072 1073/1073/1073 1074/1074/1074
f 1075/1075/1075 1076/1076/1076 1077/1077/1077
f 1078/1078/1078 1079/1079/1079 1080/1080/1080
f 1081/1081/1081 1082/1082/1082 1083/1083/1083
f 1084/1084/1084 1085/1085/1085 1086/1086/1086
f 1087/1087/1087 1088/1088/1088 1089/1089/1089
f 1090/1090/1090 1091/1091/1091 1092/1092/1092
f 1093/1093/1093 1094/1094/1094 1095/1095/1095
f 1096/1096/1096 1097/1097/1097 1098/1098/1098
