# OBJ file
v 3197.246800 -1386.668800 1562.561400
v 3209.095200 -1357.415800 1562.561200
v 3209.893000 -1357.737000 1563.112700
v 3209.893000 -1357.737000 1563.112700
v 3198.344500 -1386.183500 1563.112800
v 3197.246800 -1386.668800 1562.561400
v 3198.344500 -1386.183500 1563.112800
v 3209.893000 -1357.737000 1563.112700
v 3210.557400 -1358.004500 1563.711500
v 3210.557400 -1358.004500 1563.711500
v 3199.257800 -1385.779800 1563.711700
v 3198.344500 -1386.183500 1563.112800
v 3199.257800 -1385.779800 1563.711700
v 3210.557400 -1358.004500 1563.711500
v 3210.953000 -1358.164100 1564.405000
v 3210.953000 -1358.164100 1564.405000
v 3199.802500 -1385.538800 1564.405200
v 3199.257800 -1385.779800 1563.711700
v 3199.802500 -1385.538800 1564.405200
v 3210.953000 -1358.164100 1564.405000
v 3210.975300 -1358.173000 1565.212600
v 3210.975300 -1358.173000 1565.212600
v 3199.832800 -1385.525500 1565.212800
v 3199.802500 -1385.538800 1564.405200
v 3199.463000 -1385.689100 1565.951800
v 3199.832800 -1385.525500 1565.212800
v 3210.975300 -1358.173000 1565.212600
v 3210.975300 -1358.173000 1565.212600
v 3210.706500 -1358.064600 1565.951400
v 3199.463000 -1385.689100 1565.951800
v 3198.727500 -1386.014000 1566.482700
v 3199.463000 -1385.689100 1565.951800
v 3210.706500 -1358.064600 1565.951400
v 3210.706500 -1358.064600 1565.951400
v 3210.171900 -1357.849400 1566.482400
v 3198.727500 -1386.014000 1566.482700
v 3197.631600 -1386.498700 1566.687600
v 3198.727500 -1386.014000 1566.482700
v 3210.171900 -1357.849400 1566.482400
v 3210.171900 -1357.849400 1566.482400
v 3209.374800 -1357.528400 1566.687500
v 3197.631600 -1386.498700 1566.687600
v 3191.925800 -1388.974000 1566.687500
v 3197.631600 -1386.498700 1566.687600
v 3209.374800 -1357.528400 1566.687500
v 3209.374800 -1357.528400 1566.687500
v 3205.258500 -1355.870500 1566.687400
v 3191.925800 -1388.974000 1566.687500
v 3190.004600 -1389.540400 1566.483800
v 3191.925800 -1388.974000 1566.687500
v 3205.258500 -1355.870500 1566.687400
v 3205.258500 -1355.870500 1566.687400
v 3203.802000 -1355.284000 1566.483800
v 3190.004600 -1389.540400 1566.483800
v 3189.065000 -1389.817700 1565.952500
v 3190.004600 -1389.540400 1566.483800
v 3203.802000 -1355.284000 1566.483800
v 3203.802000 -1355.284000 1566.483800
v 3203.090300 -1354.997100 1565.952400
v 3189.065000 -1389.817700 1565.952500
v 3188.760000 -1389.907500 1565.212900
v 3189.065000 -1389.817700 1565.952500
v 3203.090300 -1354.997100 1565.952400
v 3203.090300 -1354.997100 1565.952400
v 3202.853800 -1354.902000 1565.212800
v 3188.760000 -1389.907500 1565.212900
v 3188.760000 -1389.907500 1565.212900
v 3202.853800 -1354.902000 1565.212800
v 3202.896200 -1354.919100 1564.405000
v 3202.896200 -1354.919100 1564.405000
v 3188.831000 -1389.886600 1564.405200
v 3188.760000 -1389.907500 1565.212900
v 3188.831000 -1389.886600 1564.405200
v 3202.896200 -1354.919100 1564.405000
v 3203.415300 -1355.128000 1563.711500
v 3203.415300 -1355.128000 1563.711500
v 3189.490700 -1389.691900 1563.711700
v 3188.831000 -1389.886600 1564.405200
v 3189.490700 -1389.691900 1563.711700
v 3203.415300 -1355.128000 1563.711500
v 3204.252200 -1355.465300 1563.112700
v 3204.252200 -1355.465300 1563.112700
v 3190.597000 -1389.365800 1563.112700
v 3189.490700 -1389.691900 1563.711700
v 3190.597000 -1389.365800 1563.112700
v 3204.252200 -1355.465300 1563.112700
v 3205.258500 -1355.870500 1562.561200
v 3205.258500 -1355.870500 1562.561200
v 3191.926000 -1388.974000 1562.561300
v 3190.597000 -1389.365800 1563.112700
v 3191.926000 -1388.974000 1562.561300
v 3322.888200 -1441.726700 1562.561300
v 3323.575000 -1442.930500 1563.112700
v 3323.575000 -1442.930500 1563.112700
v 3190.597000 -1389.365800 1563.112700
v 3191.926000 -1388.974000 1562.561300
v 3190.597000 -1389.365800 1563.112700
v 3323.575000 -1442.930500 1563.112700
v 3324.146200 -1443.932100 1563.711500
v 3324.146200 -1443.932100 1563.711500
v 3189.490700 -1389.691900 1563.711700
v 3190.597000 -1389.365800 1563.112700
v 3189.490700 -1389.691900 1563.711700
v 3324.146200 -1443.932100 1563.711500
v 3324.486800 -1444.529900 1564.405000
v 3324.486800 -1444.529900 1564.405000
v 3188.831000 -1389.886600 1564.405200
v 3189.490700 -1389.691900 1563.711700
v 3188.760000 -1389.907500 1565.212900
v 3188.831000 -1389.886600 1564.405200
v 3324.486800 -1444.529900 1564.405000
v 3324.486800 -1444.529900 1564.405000
v 3324.523400 -1444.594200 1565.212800
v 3188.760000 -1389.907500 1565.212900
v 3189.065000 -1389.817700 1565.952500
v 3188.760000 -1389.907500 1565.212900
v 3324.523400 -1444.594200 1565.212800
v 3324.523400 -1444.594200 1565.212800
v 3324.366200 -1444.318400 1565.952600
v 3189.065000 -1389.817700 1565.952500
v 3190.004600 -1389.540400 1566.483800
v 3189.065000 -1389.817700 1565.952500
v 3324.366200 -1444.318400 1565.952600
v 3324.366200 -1444.318400 1565.952600
v 3323.880900 -1443.466800 1566.483800
v 3190.004600 -1389.540400 1566.483800
v 3191.925800 -1388.974000 1566.687500
v 3190.004600 -1389.540400 1566.483800
v 3323.880900 -1443.466800 1566.483800
v 3323.880900 -1443.466800 1566.483800
v 3322.888200 -1441.726700 1566.687500
v 3191.925800 -1388.974000 1566.687500
v 3197.631600 -1386.498700 1566.687600
v 3191.925800 -1388.974000 1566.687500
v 3322.888200 -1441.726700 1566.687500
v 3322.888200 -1441.726700 1566.687500
v 3320.491500 -1435.987700 1566.687600
v 3197.631600 -1386.498700 1566.687600
v 3198.727500 -1386.014000 1566.482700
v 3197.631600 -1386.498700 1566.687600
v 3320.491500 -1435.987700 1566.687600
v 3320.491500 -1435.987700 1566.687600
v 3320.037600 -1434.878800 1566.482700
v 3198.727500 -1386.014000 1566.482700
v 3199.463000 -1385.689100 1565.951800
v 3198.727500 -1386.014000 1566.482700
v 3320.037600 -1434.878800 1566.482700
v 3320.037600 -1434.878800 1566.482700
v 3319.732700 -1434.134800 1565.951700
v 3199.463000 -1385.689100 1565.951800
v 3199.832800 -1385.525500 1565.212800
v 3199.463000 -1385.689100 1565.951800
v 3319.732700 -1434.134800 1565.951700
v 3319.732700 -1434.134800 1565.951700
v 3319.579300 -1433.760500 1565.212800
v 3199.832800 -1385.525500 1565.212800
v 3199.802500 -1385.538800 1564.405200
v 3199.832800 -1385.525500 1565.212800
v 3319.579300 -1433.760500 1565.212800
v 3319.579300 -1433.760500 1565.212800
v 3319.591800 -1433.791000 1564.405300
v 3199.802500 -1385.538800 1564.405200
v 3199.257800 -1385.779800 1563.711700
v 3199.802500 -1385.538800 1564.405200
v 3319.591800 -1433.791000 1564.405300
v 3319.591800 -1433.791000 1564.405300
v 3319.817900 -1434.342500 1563.711800
v 3199.257800 -1385.779800 1563.711700
v 3198.344500 -1386.183500 1563.112800
v 3199.257800 -1385.779800 1563.711700
v 3319.817900 -1434.342500 1563.711800
v 3319.817900 -1434.342500 1563.711800
v 3320.196300 -1435.266500 1563.112800
v 3198.344500 -1386.183500 1563.112800
v 3197.246800 -1386.668800 1562.561400
v 3198.344500 -1386.183500 1563.112800
v 3320.196300 -1435.266500 1563.112800
v 3320.196300 -1435.266500 1563.112800
v 3320.651100 -1436.377100 1562.561300
v 3197.246800 -1386.668800 1562.561400
v 3331.589800 -1406.757400 1563.112500
v 3332.387500 -1407.078900 1562.561200
v 3320.651100 -1436.377100 1562.561300
v 3320.651100 -1436.377100 1562.561300
v 3320.196300 -1435.266500 1563.112800
v 3331.589800 -1406.757400 1563.112500
v 3330.925800 -1406.490000 1563.711500
v 3331.589800 -1406.757400 1563.112500
v 3320.196300 -1435.266500 1563.112800
v 3320.196300 -1435.266500 1563.112800
v 3319.817900 -1434.342500 1563.711800
v 3330.925800 -1406.490000 1563.711500
v 3330.529500 -1406.330400 1564.405000
v 3330.925800 -1406.490000 1563.711500
v 3319.817900 -1434.342500 1563.711800
v 3319.817900 -1434.342500 1563.711800
v 3319.591800 -1433.791000 1564.405300
v 3330.529500 -1406.330400 1564.405000
v 3330.507300 -1406.321500 1565.212600
v 3330.529500 -1406.330400 1564.405000
v 3319.591800 -1433.791000 1564.405300
v 3319.591800 -1433.791000 1564.405300
v 3319.579300 -1433.760500 1565.212800
v 3330.507300 -1406.321500 1565.212600
v 3330.507300 -1406.321500 1565.212600
v 3319.579300 -1433.760500 1565.212800
v 3319.732700 -1434.134800 1565.951700
v 3319.732700 -1434.134800 1565.951700
v 3330.776600 -1406.429900 1565.951500
v 3330.507300 -1406.321500 1565.212600
v 3330.776600 -1406.429900 1565.951500
v 3319.732700 -1434.134800 1565.951700
v 3320.037600 -1434.878800 1566.482700
v 3320.037600 -1434.878800 1566.482700
v 3331.311000 -1406.645300 1566.482400
v 3330.776600 -1406.429900 1565.951500
v 3331.311000 -1406.645300 1566.482400
v 3320.037600 -1434.878800 1566.482700
v 3320.491500 -1435.987700 1566.687600
v 3320.491500 -1435.987700 1566.687600
v 3332.107700 -1406.966200 1566.687400
v 3331.311000 -1406.645300 1566.482400
v 3332.107700 -1406.966200 1566.687400
v 3320.491500 -1435.987700 1566.687600
v 3322.888200 -1441.726700 1566.687500
v 3322.888200 -1441.726700 1566.687500
v 3336.224000 -1408.624500 1566.687400
v 3332.107700 -1406.966200 1566.687400
v 3336.224000 -1408.624500 1566.687400
v 3322.888200 -1441.726700 1566.687500
v 3323.880900 -1443.466800 1566.483800
v 3323.880900 -1443.466800 1566.483800
v 3337.680000 -1409.211000 1566.484000
v 3336.224000 -1408.624500 1566.687400
v 3337.680000 -1409.211000 1566.484000
v 3323.880900 -1443.466800 1566.483800
v 3324.366200 -1444.318400 1565.952600
v 3324.366200 -1444.318400 1565.952600
v 3338.392800 -1409.498000 1565.952400
v 3337.680000 -1409.211000 1566.484000
v 3338.392800 -1409.498000 1565.952400
v 3324.366200 -1444.318400 1565.952600
v 3324.523400 -1444.594200 1565.212800
v 3324.523400 -1444.594200 1565.212800
v 3338.629000 -1409.593300 1565.212800
v 3338.392800 -1409.498000 1565.952400
v 3338.586200 -1409.576000 1564.405200
v 3338.629000 -1409.593300 1565.212800
v 3324.523400 -1444.594200 1565.212800
v 3324.523400 -1444.594200 1565.212800
v 3324.486800 -1444.529900 1564.405000
v 3338.586200 -1409.576000 1564.405200
v 3338.067600 -1409.367200 1563.711500
v 3338.586200 -1409.576000 1564.405200
v 3324.486800 -1444.529900 1564.405000
v 3324.486800 -1444.529900 1564.405000
v 3324.146200 -1443.932100 1563.711500
v 3338.067600 -1409.367200 1563.711500
v 3337.229700 -1409.029900 1563.112700
v 3338.067600 -1409.367200 1563.711500
v 3324.146200 -1443.932100 1563.711500
v 3324.146200 -1443.932100 1563.711500
v 3323.575000 -1442.930500 1563.112700
v 3337.229700 -1409.029900 1563.112700
v 3336.223900 -1408.624500 1562.561200
v 3337.229700 -1409.029900 1563.112700
v 3323.575000 -1442.930500 1563.112700
v 3323.575000 -1442.930500 1563.112700
v 3322.888200 -1441.726700 1562.561300
v 3336.223900 -1408.624500 1562.561200
vn 0.270252 0.387753 -0.881256
vn 0.498308 -0.200108 -0.843591
vn 0.544387 -0.215405 -0.810706
vn 0.544387 -0.215405 -0.810706
vn 0.293123 0.426006 -0.855920
vn 0.270252 0.387753 -0.881256
vn 0.293123 0.426006 -0.855920
vn 0.544387 -0.215405 -0.810706
vn 0.698243 -0.280086 -0.658794
vn 0.698243 -0.280086 -0.658794
vn 0.385957 0.565290 -0.729030
vn 0.293123 0.426006 -0.855920
vn 0.385957 0.565290 -0.729030
vn 0.698243 -0.280086 -0.658794
vn 0.885724 -0.358226 -0.295241
vn 0.885724 -0.358226 -0.295241
vn 0.536752 0.771825 -0.340857
vn 0.385957 0.565290 -0.729030
vn 0.536752 0.771825 -0.340857
vn 0.885724 -0.358226 -0.295241
vn 0.914115 -0.368020 0.170160
vn 0.914115 -0.368020 0.170160
vn 0.555157 0.807143 0.200801
vn 0.536752 0.771825 -0.340857
vn 0.436012 0.640270 0.632414
vn 0.555157 0.807143 0.200801
vn 0.914115 -0.368020 0.170160
vn 0.914115 -0.368020 0.170160
vn 0.769922 -0.311917 0.556713
vn 0.436012 0.640270 0.632414
vn 0.224564 0.326997 0.917956
vn 0.436012 0.640270 0.632414
vn 0.769922 -0.311917 0.556713
vn 0.769922 -0.311917 0.556713
vn 0.435475 -0.176544 0.882720
vn 0.224564 0.326997 0.917956
vn 0.035544 0.019746 0.999173
vn 0.224564 0.326997 0.917956
vn 0.435475 -0.176544 0.882720
vn 0.435475 -0.176544 0.882720
vn 0.027656 -0.011852 0.999547
vn 0.035544 0.019746 0.999173
vn -0.019755 -0.019755 0.999610
vn 0.035544 0.019746 0.999173
vn 0.027656 -0.011852 0.999547
vn 0.027656 -0.011852 0.999547
vn -0.067017 0.027595 0.997370
vn -0.019755 -0.019755 0.999610
vn -0.176783 -0.239640 0.954631
vn -0.019755 -0.019755 0.999610
vn -0.067017 0.027595 0.997370
vn -0.067017 0.027595 0.997370
vn -0.285848 0.113556 0.951523
vn -0.176783 -0.239640 0.954631
vn -0.467754 -0.624982 0.624982
vn -0.176783 -0.239640 0.954631
vn -0.285848 0.113556 0.951523
vn -0.285848 0.113556 0.951523
vn -0.740983 0.301882 0.599843
vn -0.467754 -0.624982 0.624982
vn -0.592403 -0.796409 0.121619
vn -0.467754 -0.624982 0.624982
vn -0.740983 0.301882 0.599843
vn -0.740983 0.301882 0.599843
vn -0.919352 0.371653 0.129100
vn -0.592403 -0.796409 0.121619
vn -0.592403 -0.796409 0.121619
vn -0.919352 0.371653 0.129100
vn -0.864106 0.347988 -0.363628
vn -0.864106 0.347988 -0.363628
vn -0.553001 -0.741256 -0.380433
vn -0.592403 -0.796409 0.121619
vn -0.553001 -0.741256 -0.380433
vn -0.864106 0.347988 -0.363628
vn -0.627324 0.253267 -0.736424
vn -0.627324 0.253267 -0.736424
vn -0.394113 -0.526786 -0.753108
vn -0.553001 -0.741256 -0.380433
vn -0.394113 -0.526786 -0.753108
vn -0.627324 0.253267 -0.736424
vn -0.471410 0.190901 -0.861005
vn -0.471410 0.190901 -0.861005
vn -0.292926 -0.394474 -0.870968
vn -0.394113 -0.526786 -0.753108
vn -0.292926 -0.394474 -0.870968
vn -0.471410 0.190901 -0.861005
vn -0.423171 0.174704 -0.889047
vn -0.423171 0.174704 -0.889047
vn -0.269640 -0.355613 -0.894893
vn -0.292926 -0.394474 -0.870968
vn -0.269640 -0.355613 -0.894893
vn -0.066425 -0.441531 -0.894784
vn -0.066352 -0.487883 -0.870383
vn -0.066352 -0.487883 -0.870383
vn -0.292926 -0.394474 -0.870968
vn -0.269640 -0.355613 -0.894893
vn -0.292926 -0.394474 -0.870968
vn -0.066352 -0.487883 -0.870383
vn -0.089754 -0.651693 -0.753154
vn -0.089754 -0.651693 -0.753154
vn -0.394113 -0.526786 -0.753108
vn -0.292926 -0.394474 -0.870968
vn -0.394113 -0.526786 -0.753108
vn -0.089754 -0.651693 -0.753154
vn -0.121912 -0.916308 -0.381467
vn -0.121912 -0.916308 -0.381467
vn -0.553001 -0.741256 -0.380433
vn -0.394113 -0.526786 -0.753108
vn -0.592403 -0.796409 0.121619
vn -0.553001 -0.741256 -0.380433
vn -0.121912 -0.916308 -0.381467
vn -0.121912 -0.916308 -0.381467
vn -0.130392 -0.983867 0.122490
vn -0.592403 -0.796409 0.121619
vn -0.467754 -0.624982 0.624982
vn -0.592403 -0.796409 0.121619
vn -0.130392 -0.983867 0.122490
vn -0.130392 -0.983867 0.122490
vn -0.106698 -0.770594 0.628331
vn -0.467754 -0.624982 0.624982
vn -0.176783 -0.239640 0.954631
vn -0.467754 -0.624982 0.624982
vn -0.106698 -0.770594 0.628331
vn -0.106698 -0.770594 0.628331
vn -0.043214 -0.294639 0.954631
vn -0.176783 -0.239640 0.954631
vn -0.019755 -0.019755 0.999610
vn -0.176783 -0.239640 0.954631
vn -0.043214 -0.294639 0.954631
vn -0.043214 -0.294639 0.954631
vn -0.011852 -0.027656 0.999547
vn -0.019755 -0.019755 0.999610
vn 0.035544 0.019746 0.999173
vn -0.019755 -0.019755 0.999610
vn -0.011852 -0.027656 0.999547
vn -0.011852 -0.027656 0.999547
vn -0.019740 0.043429 0.998861
vn 0.035544 0.019746 0.999173
vn 0.224564 0.326997 0.917956
vn 0.035544 0.019746 0.999173
vn -0.019740 0.043429 0.998861
vn -0.019740 0.043429 0.998861
vn 0.059147 0.390372 0.918755
vn 0.224564 0.326997 0.917956
vn 0.436012 0.640270 0.632414
vn 0.224564 0.326997 0.917956
vn 0.059147 0.390372 0.918755
vn 0.059147 0.390372 0.918755
vn 0.113934 0.766109 0.632531
vn 0.436012 0.640270 0.632414
vn 0.555157 0.807143 0.200801
vn 0.436012 0.640270 0.632414
vn 0.113934 0.766109 0.632531
vn 0.113934 0.766109 0.632531
vn 0.152817 0.967839 0.199837
vn 0.555157 0.807143 0.200801
vn 0.536752 0.771825 -0.340857
vn 0.555157 0.807143 0.200801
vn 0.152817 0.967839 0.199837
vn 0.152817 0.967839 0.199837
vn 0.145007 0.928826 -0.340962
vn 0.536752 0.771825 -0.340857
vn 0.385957 0.565290 -0.729030
vn 0.536752 0.771825 -0.340857
vn 0.145007 0.928826 -0.340962
vn 0.145007 0.928826 -0.340962
vn 0.105396 0.675313 -0.729962
vn 0.385957 0.565290 -0.729030
vn 0.293123 0.426006 -0.855920
vn 0.385957 0.565290 -0.729030
vn 0.105396 0.675313 -0.729962
vn 0.105396 0.675313 -0.729962
vn 0.074249 0.511926 -0.855815
vn 0.293123 0.426006 -0.855920
vn 0.270252 0.387753 -0.881256
vn 0.293123 0.426006 -0.855920
vn 0.074249 0.511926 -0.855815
vn 0.074249 0.511926 -0.855815
vn 0.066641 0.466487 -0.882014
vn 0.270252 0.387753 -0.881256
vn -0.548929 0.221907 -0.805875
vn -0.503373 0.206812 -0.838955
vn 0.066641 0.466487 -0.882014
vn 0.066641 0.466487 -0.882014
vn 0.074249 0.511926 -0.855815
vn -0.548929 0.221907 -0.805875
vn -0.704654 0.284197 -0.650150
vn -0.548929 0.221907 -0.805875
vn 0.074249 0.511926 -0.855815
vn 0.074249 0.511926 -0.855815
vn 0.105396 0.675313 -0.729962
vn -0.704654 0.284197 -0.650150
vn -0.887403 0.355743 -0.293195
vn -0.704654 0.284197 -0.650150
vn 0.105396 0.675313 -0.729962
vn 0.105396 0.675313 -0.729962
vn 0.145007 0.928826 -0.340962
vn -0.887403 0.355743 -0.293195
vn -0.916662 0.362764 0.167730
vn -0.887403 0.355743 -0.293195
vn 0.145007 0.928826 -0.340962
vn 0.145007 0.928826 -0.340962
vn 0.152817 0.967839 0.199837
vn -0.916662 0.362764 0.167730
vn -0.916662 0.362764 0.167730
vn 0.152817 0.967839 0.199837
vn 0.113934 0.766109 0.632531
vn 0.113934 0.766109 0.632531
vn -0.769748 0.308681 0.558752
vn -0.916662 0.362764 0.167730
vn -0.769748 0.308681 0.558752
vn 0.113934 0.766109 0.632531
vn 0.059147 0.390372 0.918755
vn 0.059147 0.390372 0.918755
vn -0.441801 0.175938 0.879692
vn -0.769748 0.308681 0.558752
vn -0.441801 0.175938 0.879692
vn 0.059147 0.390372 0.918755
vn -0.019740 0.043429 0.998861
vn -0.019740 0.043429 0.998861
vn -0.035544 0.019746 0.999173
vn -0.441801 0.175938 0.879692
vn -0.035544 0.019746 0.999173
vn -0.019740 0.043429 0.998861
vn -0.011852 -0.027656 0.999547
vn -0.011852 -0.027656 0.999547
vn 0.059173 -0.019724 0.998053
vn -0.035544 0.019746 0.999173
vn 0.059173 -0.019724 0.998053
vn -0.011852 -0.027656 0.999547
vn -0.043214 -0.294639 0.954631
vn -0.043214 -0.294639 0.954631
vn 0.278873 -0.106051 0.954454
vn 0.059173 -0.019724 0.998053
vn 0.278873 -0.106051 0.954454
vn -0.043214 -0.294639 0.954631
vn -0.106698 -0.770594 0.628331
vn -0.106698 -0.770594 0.628331
vn 0.739165 -0.296457 0.604771
vn 0.278873 -0.106051 0.954454
vn 0.739165 -0.296457 0.604771
vn -0.106698 -0.770594 0.628331
vn -0.130392 -0.983867 0.122490
vn -0.130392 -0.983867 0.122490
vn 0.920819 -0.367537 0.130416
vn 0.739165 -0.296457 0.604771
vn 0.864465 -0.343418 -0.367102
vn 0.920819 -0.367537 0.130416
vn -0.130392 -0.983867 0.122490
vn -0.130392 -0.983867 0.122490
vn -0.121912 -0.916308 -0.381467
vn 0.864465 -0.343418 -0.367102
vn 0.623789 -0.247162 -0.741484
vn 0.864465 -0.343418 -0.367102
vn -0.121912 -0.916308 -0.381467
vn -0.121912 -0.916308 -0.381467
vn -0.089754 -0.651693 -0.753154
vn 0.623789 -0.247162 -0.741484
vn 0.466001 -0.184051 -0.865430
vn 0.623789 -0.247162 -0.741484
vn -0.089754 -0.651693 -0.753154
vn -0.089754 -0.651693 -0.753154
vn -0.066352 -0.487883 -0.870383
vn 0.466001 -0.184051 -0.865430
vn 0.417323 -0.167709 -0.893149
vn 0.466001 -0.184051 -0.865430
vn -0.066352 -0.487883 -0.870383
vn -0.066352 -0.487883 -0.870383
vn -0.066425 -0.441531 -0.894784
vn 0.417323 -0.167709 -0.893149
vt 0.031616 0.118164
vt -0.079956 0.118164
vt -0.079956 0.112793
vt -0.079956 0.112793
vt 0.027298 0.113281
vt 0.031616 0.118164
vt 0.027298 0.113281
vt -0.079956 0.112793
vt -0.079956 0.108398
vt -0.079956 0.108398
vt 0.023727 0.108398
vt 0.027298 0.113281
vt 0.023727 0.108398
vt -0.079956 0.108398
vt -0.080017 0.104492
vt -0.080017 0.104492
vt 0.021591 0.104492
vt 0.023727 0.108398
vt 0.021591 0.104492
vt -0.080017 0.104492
vt -0.080017 0.100586
vt -0.080017 0.100586
vt 0.021469 0.100098
vt 0.021591 0.104492
vt 0.022919 0.096191
vt 0.021469 0.100098
vt -0.080017 0.100586
vt -0.080017 0.100586
vt -0.080017 0.096680
vt 0.022919 0.096191
vt 0.025803 0.092285
vt 0.022919 0.096191
vt -0.080017 0.096680
vt -0.080017 0.096680
vt -0.079956 0.092773
vt 0.025803 0.092285
vt 0.030106 0.087891
vt 0.025803 0.092285
vt -0.079956 0.092773
vt -0.079956 0.092773
vt -0.079956 0.088379
vt 0.030106 0.087891
vt 0.052277 0.066406
vt 0.030106 0.087891
vt -0.079956 0.088379
vt -0.079956 0.088379
vt -0.079956 0.065918
vt 0.052277 0.066406
vt 0.058502 0.058105
vt 0.052277 0.066406
vt -0.079956 0.065918
vt -0.079956 0.065918
vt -0.079956 0.058105
vt 0.058502 0.058105
vt 0.061523 0.053711
vt 0.058502 0.058105
vt -0.079956 0.058105
vt -0.079956 0.058105
vt -0.079956 0.053711
vt 0.061523 0.053711
vt 0.062500 0.049805
vt 0.061523 0.053711
vt -0.079956 0.053711
vt -0.079956 0.053711
vt -0.079956 0.049805
vt 0.062500 0.049805
vt 0.062500 0.049805
vt -0.079956 0.049805
vt -0.079956 0.045410
vt -0.079956 0.045410
vt 0.062286 0.045410
vt 0.062500 0.049805
vt 0.062286 0.045410
vt -0.079956 0.045410
vt -0.079956 0.041016
vt -0.079956 0.041016
vt 0.060150 0.041016
vt 0.062286 0.045410
vt 0.060150 0.041016
vt -0.079956 0.041016
vt -0.079956 0.035645
vt -0.079956 0.035645
vt 0.056580 0.035645
vt 0.060150 0.041016
vt 0.056580 0.035645
vt -0.079956 0.035645
vt -0.079956 0.029785
vt -0.079956 0.029785
vt 0.052277 0.029785
vt 0.056580 0.035645
vt -0.006321 -0.020508
vt 0.699707 -0.020508
vt 0.705078 -0.015625
vt 0.705078 -0.015625
vt -0.011757 -0.015625
vt -0.006321 -0.020508
vt -0.011757 -0.015625
vt 0.705078 -0.015625
vt 0.709473 -0.010742
vt 0.709473 -0.010742
vt -0.016266 -0.010742
vt -0.011757 -0.015625
vt -0.016266 -0.010742
vt 0.709473 -0.010742
vt 0.712402 -0.006836
vt 0.712402 -0.006836
vt -0.018967 -0.006836
vt -0.016266 -0.010742
vt -0.019257 -0.001953
vt -0.018967 -0.006836
vt 0.712402 -0.006836
vt 0.712402 -0.006836
vt 0.712402 -0.001953
vt -0.019257 -0.001953
vt -0.018021 0.000977
vt -0.019257 -0.001953
vt 0.712402 -0.001953
vt 0.712402 -0.001953
vt 0.711426 0.000977
vt -0.018021 0.000977
vt -0.014175 0.005371
vt -0.018021 0.000977
vt 0.711426 0.000977
vt 0.711426 0.000977
vt 0.707520 0.005371
vt -0.014175 0.005371
vt -0.006321 0.011719
vt -0.014175 0.005371
vt 0.707520 0.005371
vt 0.707520 0.005371
vt 0.699707 0.011719
vt -0.006321 0.011719
vt 0.015511 0.033691
vt -0.006321 0.011719
vt 0.699707 0.011719
vt 0.699707 0.011719
vt 0.677734 0.033691
vt 0.015511 0.033691
vt 0.019684 0.038086
vt 0.015511 0.033691
vt 0.677734 0.033691
vt 0.677734 0.033691
vt 0.673340 0.038086
vt 0.019684 0.038086
vt 0.022491 0.041992
vt 0.019684 0.038086
vt 0.673340 0.038086
vt 0.673340 0.038086
vt 0.670898 0.041992
vt 0.022491 0.041992
vt 0.023911 0.045898
vt 0.022491 0.041992
vt 0.670898 0.041992
vt 0.670898 0.041992
vt 0.669434 0.045898
vt 0.023911 0.045898
vt 0.023788 0.049805
vt 0.023911 0.045898
vt 0.669434 0.045898
vt 0.669434 0.045898
vt 0.669434 0.049805
vt 0.023788 0.049805
vt 0.021713 0.054199
vt 0.023788 0.049805
vt 0.669434 0.049805
vt 0.669434 0.049805
vt 0.671387 0.054199
vt 0.021713 0.054199
vt 0.018234 0.058594
vt 0.021713 0.054199
vt 0.671387 0.054199
vt 0.671387 0.054199
vt 0.674805 0.058594
vt 0.018234 0.058594
vt 0.014046 0.063965
vt 0.018234 0.058594
vt 0.674805 0.058594
vt 0.674805 0.058594
vt 0.679199 0.063965
vt 0.014046 0.063965
vt 0.629883 0.034668
vt 0.629883 0.029785
vt 0.741699 0.029785
vt 0.741699 0.029785
vt 0.737305 0.034668
vt 0.629883 0.034668
vt 0.629883 0.039551
vt 0.629883 0.034668
vt 0.737305 0.034668
vt 0.737305 0.034668
vt 0.733398 0.039062
vt 0.629883 0.039551
vt 0.629883 0.043457
vt 0.629883 0.039551
vt 0.733398 0.039062
vt 0.733398 0.039062
vt 0.731445 0.043457
vt 0.629883 0.043457
vt 0.629883 0.047363
vt 0.629883 0.043457
vt 0.731445 0.043457
vt 0.731445 0.043457
vt 0.731445 0.047363
vt 0.629883 0.047363
vt 0.629883 0.047363
vt 0.731445 0.047363
vt 0.732910 0.051270
vt 0.732910 0.051270
vt 0.629883 0.051270
vt 0.629883 0.047363
vt 0.629883 0.051270
vt 0.732910 0.051270
vt 0.735840 0.055176
vt 0.735840 0.055176
vt 0.629883 0.055176
vt 0.629883 0.051270
vt 0.629883 0.055176
vt 0.735840 0.055176
vt 0.739746 0.059570
vt 0.739746 0.059570
vt 0.629883 0.059570
vt 0.629883 0.055176
vt 0.629883 0.059570
vt 0.739746 0.059570
vt 0.762207 0.081543
vt 0.762207 0.081543
vt 0.629883 0.081543
vt 0.629883 0.059570
vt 0.629883 0.081543
vt 0.762207 0.081543
vt 0.768555 0.089355
vt 0.768555 0.089355
vt 0.629883 0.089355
vt 0.629883 0.081543
vt 0.629883 0.089355
vt 0.768555 0.089355
vt 0.771484 0.094238
vt 0.771484 0.094238
vt 0.629883 0.094238
vt 0.629883 0.089355
vt 0.629883 0.094238
vt 0.771484 0.094238
vt 0.772461 0.098145
vt 0.772461 0.098145
vt 0.629883 0.098145
vt 0.629883 0.094238
vt 0.629883 0.102051
vt 0.629883 0.098145
vt 0.772461 0.098145
vt 0.772461 0.098145
vt 0.771973 0.102051
vt 0.629883 0.102051
vt 0.629883 0.106445
vt 0.629883 0.102051
vt 0.771973 0.102051
vt 0.771973 0.102051
vt 0.770020 0.106445
vt 0.629883 0.106445
vt 0.629883 0.111816
vt 0.629883 0.106445
vt 0.770020 0.106445
vt 0.770020 0.106445
vt 0.766602 0.111816
vt 0.629883 0.111816
vt 0.629883 0.118164
vt 0.629883 0.111816
vt 0.766602 0.111816
vt 0.766602 0.111816
vt 0.762207 0.118164
vt 0.629883 0.118164
f 1/1/1 2/2/2 3/3/3
f 4/4/4 5/5/5 6/6/6
f 7/7/7 8/8/8 9/9/9
f 10/10/10 11/11/11 12/12/12
f 13/13/13 14/14/14 15/15/15
f 16/16/16 17/17/17 18/18/18
f 19/19/19 20/20/20 21/21/21
f 22/22/22 23/23/23 24/24/24
f 25/25/25 26/26/26 27/27/27
f 28/28/28 29/29/29 30/30/30
f 31/31/31 32/32/32 33/33/33
f 34/34/34 35/35/35 36/36/36
f 37/37/37 38/38/38 39/39/39
f 40/40/40 41/41/41 42/42/42
f 43/43/43 44/44/44 45/45/45
f 46/46/46 47/47/47 48/48/48
f 49/49/49 50/50/50 51/51/51
f 52/52/52 53/53/53 54/54/54
f 55/55/55 56/56/56 57/57/57
f 58/58/58 59/59/59 60/60/60
f 61/61/61 62/62/62 63/63/63
f 64/64/64 65/65/65 66/66/66
f 67/67/67 68/68/68 69/69/69
f 70/70/70 71/71/71 72/72/72
f 73/73/73 74/74/74 75/75/75
f 76/76/76 77/77/77 78/78/78
f 79/79/79 80/80/80 81/81/81
f 82/82/82 83/83/83 84/84/84
f 85/85/85 86/86/86 87/87/87
f 88/88/88 89/89/89 90/90/90
f 91/91/91 92/92/92 93/93/93
f 94/94/94 95/95/95 96/96/96
f 97/97/97 98/98/98 99/99/99
f 100/100/100 101/101/101 102/102/102
f 103/103/103 104/104/104 105/105/105
f 106/106/106 107/107/107 108/108/108
f 109/109/109 110/110/110 111/111/111
f 112/112/112 113/113/113 114/114/114
f 115/115/115 116/116/116 117/117/117
f 118/118/118 119/119/119 120/120/120
f 121/121/121 122/122/122 123/123/123
f 124/124/124 125/125/125 126/126/126
f 127/127/127 128/128/128 129/129/129
f 130/130/130 131/131/131 132/132/132
f 133/133/133 134/134/134 135/135/135
f 136/136/136 137/137/137 138/138/138
f 139/139/139 140/140/140 141/141/141
f 142/142/142 143/143/143 144/144/144
f 145/145/145 146/146/146 147/147/147
f 148/148/148 149/149/149 150/150/150
f 151/151/151 152/152/152 153/153/153
f 154/154/154 155/155/155 156/156/156
f 157/157/157 158/158/158 159/159/159
f 160/160/160 161/161/161 162/162/162
f 163/163/163 164/164/164 165/165/165
f 166/166/166 167/167/167 168/168/168
f 169/169/169 170/170/170 171/171/171
f 172/172/172 173/173/173 174/174/174
f 175/175/175 176/176/176 177/177/177
f 178/178/178 179/179/179 180/180/180
f 181/181/181 182/182/182 183/183/183
f 184/184/184 185/185/185 186/186/186
f 187/187/187 188/188/188 189/189/189
f 190/190/190 191/191/191 192/192/192
f 193/193/193 194/194/194 195/195/195
f 196/196/196 197/197/197 198/198/198
f 199/199/199 200/200/200 201/201/201
f 202/202/202 203/203/203 204/204/204
f 205/205/205 206/206/206 207/207/207
f 208/208/208 209/209/209 210/210/210
f 211/211/211 212/212/212 213/213/213
f 214/214/214 215/215/215 216/216/216
f 217/217/217 218/218/218 219/219/219
f 220/220/220 221/221/221 222/222/222
f 223/223/223 224/224/224 225/225/225
f 226/226/226 227/227/227 228/228/228
f 229/229/229 230/230/230 231/231/231
f 232/232/232 233/233/233 234/234/234
f 235/235/235 236/236/236 237/237/237
f 238/238/238 239/239/239 240/240/240
f 241/241/241 242/242/242 243/243/243
f 244/244/244 245/245/245 246/246/246
f 247/247/247 248/248/248 249/249/249
f 250/250/250 251/251/251 252/252/252
f 253/253/253 254/254/254 255/255/255
f 256/256/256 257/257/257 258/258/258
f 259/259/259 260/260/260 261/261/261
f 262/262/262 263/263/263 264/264/264
f 265/265/265 266/266/266 267/267/267
f 268/268/268 269/269/269 270/270/270
