# OBJ file
v 2338.056600 -1038.291900 166.992740
v 2228.766400 -994.268800 166.992740
v 2338.056600 -1038.291900 169.055820
v 2228.766400 -994.268800 166.992740
v 2228.766400 -994.268800 169.055820
v 2338.056600 -1038.291900 169.055820
v 2338.056600 -1038.291900 166.992740
v 2340.130100 -1043.249900 166.992650
v 2228.766400 -994.268800 166.992740
v 2340.130100 -1043.249900 166.992650
v 2223.835200 -996.405300 166.992650
v 2228.766400 -994.268800 166.992740
v 2223.835200 -996.405300 166.992650
v 2340.130100 -1043.249900 166.992650
v 2340.293700 -1043.641400 167.416960
v 2223.445800 -996.574000 167.416960
v 2223.835200 -996.405300 166.992650
v 2340.293700 -1043.641400 167.416960
v 2223.445800 -996.574000 167.416960
v 2340.293700 -1043.641400 167.416960
v 2223.445800 -996.574000 169.055710
v 2340.293700 -1043.641400 167.416960
v 2340.293700 -1043.641400 169.055710
v 2223.445800 -996.574000 169.055710
v 2236.581000 -973.353300 169.055650
v 2228.421000 -993.453740 169.055800
v 2236.581000 -973.353300 166.992570
v 2228.421000 -993.453740 169.055800
v 2228.421000 -993.453740 166.992720
v 2236.581000 -973.353300 166.992570
v 2228.421000 -993.453740 169.055800
v 2228.766400 -994.268800 169.055820
v 2228.421000 -993.453740 166.992720
v 2236.581000 -973.353300 166.992570
v 2228.421000 -993.453740 166.992720
v 2233.138000 -971.966500 166.992570
v 2228.766400 -994.268800 169.055820
v 2228.766400 -994.268800 166.992740
v 2228.421000 -993.453740 166.992720
v 2228.421000 -993.453740 166.992720
v 2228.766400 -994.268800 166.992740
v 2223.488000 -995.589700 166.992650
v 2228.421000 -993.453740 166.992720
v 2223.488000 -995.589700 166.992650
v 2233.138000 -971.966500 166.992570
v 2228.766400 -994.268800 166.992740
v 2223.835200 -996.405300 166.992650
v 2223.488000 -995.589700 166.992650
v 2223.835200 -996.405300 166.992650
v 2223.445800 -996.574000 167.416960
v 2223.488000 -995.589700 166.992650
v 2223.488000 -995.589700 166.992650
v 2223.098400 -995.758240 167.416960
v 2233.138000 -971.966500 166.992570
v 2223.445800 -996.574000 167.416960
v 2223.098400 -995.758240 167.416960
v 2223.488000 -995.589700 166.992650
v 2223.098400 -995.758240 167.416960
v 2232.744100 -971.808040 167.416900
v 2233.138000 -971.966500 166.992570
v 2232.744100 -971.808040 167.416900
v 2223.098400 -995.758240 167.416960
v 2232.744100 -971.808040 169.055650
v 2223.098400 -995.758240 167.416960
v 2223.098400 -995.758240 169.055710
v 2232.744100 -971.808040 169.055650
v 2223.098400 -995.758240 167.416960
v 2223.445800 -996.574000 167.416960
v 2223.098400 -995.758240 169.055710
v 2223.445800 -996.574000 167.416960
v 2223.445800 -996.574000 169.055710
v 2223.098400 -995.758240 169.055710
v 2346.921600 -1017.799400 169.055650
v 2346.921600 -1017.799400 166.992570
v 2338.870800 -1037.944000 169.055800
v 2338.056600 -1038.291900 166.992740
v 2338.056600 -1038.291900 169.055820
v 2338.870800 -1037.944000 169.055800
v 2346.921600 -1017.799400 166.992570
v 2338.870800 -1037.944000 166.992720
v 2338.870800 -1037.944000 169.055800
v 2338.870800 -1037.944000 166.992720
v 2338.056600 -1038.291900 166.992740
v 2338.870800 -1037.944000 169.055800
v 2346.921600 -1017.799400 166.992570
v 2350.364700 -1019.186500 166.992570
v 2338.870800 -1037.944000 166.992720
v 2340.130100 -1043.249900 166.992650
v 2338.056600 -1038.291900 166.992740
v 2338.870800 -1037.944000 166.992720
v 2350.364700 -1019.186500 166.992570
v 2340.945800 -1042.902600 166.992650
v 2338.870800 -1037.944000 166.992720
v 2340.945800 -1042.902600 166.992650
v 2340.130100 -1043.249900 166.992650
v 2338.870800 -1037.944000 166.992720
v 2350.364700 -1019.186500 166.992570
v 2350.758300 -1019.345100 167.416900
v 2340.945800 -1042.902600 166.992650
v 2340.130100 -1043.249900 166.992650
v 2340.945800 -1042.902600 166.992650
v 2341.109600 -1043.294200 167.416960
v 2350.758300 -1019.345100 167.416900
v 2341.109600 -1043.294200 167.416960
v 2340.945800 -1042.902600 166.992650
v 2340.293700 -1043.641400 167.416960
v 2340.130100 -1043.249900 166.992650
v 2341.109600 -1043.294200 167.416960
v 2350.758300 -1019.345100 167.416900
v 2350.758300 -1019.345100 169.055650
v 2341.109600 -1043.294200 167.416960
v 2340.293700 -1043.641400 167.416960
v 2341.109600 -1043.294200 167.416960
v 2340.293700 -1043.641400 169.055710
v 2350.758300 -1019.345100 169.055650
v 2341.109600 -1043.294200 169.055710
v 2341.109600 -1043.294200 167.416960
v 2341.109600 -1043.294200 167.416960
v 2341.109600 -1043.294200 169.055710
v 2340.293700 -1043.641400 169.055710
vn -0.003921 0.003921 -0.999985
vn -0.003921 0.003921 -0.999985
vn 0.372063 0.928199 -0.003916
vn -0.003921 0.003921 -0.999985
vn 0.372063 0.928199 -0.003916
vn 0.372063 0.928199 -0.003916
vn -0.003921 0.003921 -0.999985
vn -0.003921 0.003921 -0.999985
vn -0.003921 0.003921 -0.999985
vn -0.003921 0.003921 -0.999985
vn -0.003921 0.003921 -0.999985
vn -0.003921 0.003921 -0.999985
vn -0.003921 0.003921 -0.999985
vn -0.003921 0.003921 -0.999985
vn -0.381538 -0.924345 -0.003933
vn -0.381538 -0.924345 -0.003933
vn -0.003921 0.003921 -0.999985
vn -0.381538 -0.924345 -0.003933
vn -0.381538 -0.924345 -0.003933
vn -0.381538 -0.924345 -0.003933
vn -0.381538 -0.924345 -0.003933
vn -0.381538 -0.924345 -0.003933
vn -0.381538 -0.924345 -0.003933
vn -0.381538 -0.924345 -0.003933
vn 0.927103 -0.374786 -0.003945
vn 0.927103 -0.374786 -0.003945
vn -0.003921 0.003921 -0.999985
vn 0.927103 -0.374786 -0.003945
vn -0.003921 0.003921 -0.999985
vn -0.003921 0.003921 -0.999985
vn 0.927103 -0.374786 -0.003945
vn 0.372063 0.928199 -0.003916
vn -0.003921 0.003921 -0.999985
vn -0.003921 0.003921 -0.999985
vn -0.003921 0.003921 -0.999985
vn -0.003921 0.003921 -0.999985
vn 0.372063 0.928199 -0.003916
vn -0.003921 0.003921 -0.999985
vn -0.003921 0.003921 -0.999985
vn -0.003921 0.003921 -0.999985
vn -0.003921 0.003921 -0.999985
vn -0.003921 0.003921 -0.999985
vn -0.003921 0.003921 -0.999985
vn -0.003921 0.003921 -0.999985
vn -0.003921 0.003921 -0.999985
vn -0.003921 0.003921 -0.999985
vn -0.003921 0.003921 -0.999985
vn -0.003921 0.003921 -0.999985
vn -0.003921 0.003921 -0.999985
vn -0.381538 -0.924345 -0.003933
vn -0.003921 0.003921 -0.999985
vn -0.003921 0.003921 -0.999985
vn -0.925478 0.378782 -0.003905
vn -0.003921 0.003921 -0.999985
vn -0.381538 -0.924345 -0.003933
vn -0.925478 0.378782 -0.003905
vn -0.003921 0.003921 -0.999985
vn -0.925478 0.378782 -0.003905
vn -0.925478 0.378782 -0.003905
vn -0.003921 0.003921 -0.999985
vn -0.925478 0.378782 -0.003905
vn -0.925478 0.378782 -0.003905
vn -0.925478 0.378782 -0.003905
vn -0.925478 0.378782 -0.003905
vn -0.925478 0.378782 -0.003905
vn -0.925478 0.378782 -0.003905
vn -0.925478 0.378782 -0.003905
vn -0.381538 -0.924345 -0.003933
vn -0.925478 0.378782 -0.003905
vn -0.381538 -0.924345 -0.003933
vn -0.381538 -0.924345 -0.003933
vn -0.925478 0.378782 -0.003905
vn -0.928199 0.372063 -0.003916
vn -0.003921 0.003921 -0.999985
vn -0.928199 0.372063 -0.003916
vn -0.003921 0.003921 -0.999985
vn 0.372063 0.928199 -0.003916
vn -0.928199 0.372063 -0.003916
vn -0.003921 0.003921 -0.999985
vn -0.003921 0.003921 -0.999985
vn -0.928199 0.372063 -0.003916
vn -0.003921 0.003921 -0.999985
vn -0.003921 0.003921 -0.999985
vn -0.928199 0.372063 -0.003916
vn -0.003921 0.003921 -0.999985
vn -0.003921 0.003921 -0.999985
vn -0.003921 0.003921 -0.999985
vn -0.003921 0.003921 -0.999985
vn -0.003921 0.003921 -0.999985
vn -0.003921 0.003921 -0.999985
vn -0.003921 0.003921 -0.999985
vn -0.003921 0.003921 -0.999985
vn -0.003921 0.003921 -0.999985
vn -0.003921 0.003921 -0.999985
vn -0.003921 0.003921 -0.999985
vn -0.003921 0.003921 -0.999985
vn -0.003921 0.003921 -0.999985
vn 0.927103 -0.374786 -0.003945
vn -0.003921 0.003921 -0.999985
vn -0.003921 0.003921 -0.999985
vn -0.003921 0.003921 -0.999985
vn 0.927103 -0.374786 -0.003945
vn 0.927103 -0.374786 -0.003945
vn 0.927103 -0.374786 -0.003945
vn -0.003921 0.003921 -0.999985
vn -0.381538 -0.924345 -0.003933
vn -0.003921 0.003921 -0.999985
vn 0.927103 -0.374786 -0.003945
vn 0.927103 -0.374786 -0.003945
vn 0.927103 -0.374786 -0.003945
vn 0.927103 -0.374786 -0.003945
vn -0.381538 -0.924345 -0.003933
vn 0.927103 -0.374786 -0.003945
vn -0.381538 -0.924345 -0.003933
vn 0.927103 -0.374786 -0.003945
vn 0.927103 -0.374786 -0.003945
vn 0.927103 -0.374786 -0.003945
vn 0.927103 -0.374786 -0.003945
vn 0.927103 -0.374786 -0.003945
vn -0.381538 -0.924345 -0.003933
vt 0.794434 0.161133
vt 0.205444 0.161133
vt 0.794434 0.150879
vt 0.205444 0.161133
vt 0.205444 0.150879
vt 0.794434 0.150879
vt 0.794434 0.037109
vt 0.812988 0.056641
vt 0.205444 0.037109
vt 0.812988 0.056641
vt 0.186523 0.056641
vt 0.205444 0.037109
vt 0.186523 0.056641
vt 0.812988 0.056641
vt 0.814453 0.059082
vt 0.185059 0.059082
vt 0.186523 0.056641
vt 0.814453 0.059082
vt 0.185059 0.059082
vt 0.814453 0.059082
vt 0.185059 0.067383
vt 0.814453 0.059082
vt 0.814453 0.067383
vt 0.185059 0.067383
vt 0.042969 0.436523
vt 0.150635 0.436523
vt 0.043030 0.447266
vt 0.150635 0.436523
vt 0.151245 0.447266
vt 0.043030 0.447266
vt 0.150635 0.436523
vt 0.154663 0.436035
vt 0.151245 0.447266
vt 0.043030 0.447266
vt 0.151245 0.447266
vt 0.043152 0.465820
vt 0.154663 0.436035
vt 0.155273 0.445312
vt 0.151245 0.447266
vt 0.151245 0.447266
vt 0.155273 0.445312
vt 0.170288 0.466309
vt 0.151245 0.447266
vt 0.170288 0.466309
vt 0.043152 0.465820
vt 0.155273 0.445312
vt 0.173950 0.463867
vt 0.170288 0.466309
vt 0.173950 0.463867
vt 0.175537 0.467285
vt 0.170288 0.466309
vt 0.170288 0.466309
vt 0.171631 0.468750
vt 0.043152 0.465820
vt 0.175537 0.467285
vt 0.171631 0.468750
vt 0.170288 0.466309
vt 0.171631 0.468750
vt 0.043213 0.468750
vt 0.043152 0.465820
vt 0.043213 0.468750
vt 0.171631 0.468750
vt 0.043365 0.476562
vt 0.171631 0.468750
vt 0.172363 0.476562
vt 0.043365 0.476562
vt 0.171631 0.468750
vt 0.175537 0.467285
vt 0.172363 0.476562
vt 0.175537 0.467285
vt 0.176758 0.475098
vt 0.172363 0.476562
vt 0.177979 0.234375
vt 0.177856 0.245117
vt 0.070190 0.234375
vt 0.065613 0.243164
vt 0.066101 0.233887
vt 0.070190 0.234375
vt 0.177856 0.245117
vt 0.069519 0.245117
vt 0.070190 0.234375
vt 0.069519 0.245117
vt 0.065613 0.243164
vt 0.070190 0.234375
vt 0.177856 0.245117
vt 0.177734 0.263672
vt 0.069519 0.245117
vt 0.046967 0.261719
vt 0.065613 0.243164
vt 0.069519 0.245117
vt 0.177734 0.263672
vt 0.050537 0.264160
vt 0.069519 0.245117
vt 0.050537 0.264160
vt 0.046967 0.261719
vt 0.069519 0.245117
vt 0.177734 0.263672
vt 0.177612 0.266602
vt 0.050537 0.264160
vt 0.046967 0.261719
vt 0.050537 0.264160
vt 0.049255 0.266602
vt 0.177612 0.266602
vt 0.049255 0.266602
vt 0.050537 0.264160
vt 0.045380 0.265137
vt 0.046967 0.261719
vt 0.049255 0.266602
vt 0.177612 0.266602
vt 0.177490 0.274414
vt 0.049255 0.266602
vt 0.045380 0.265137
vt 0.049255 0.266602
vt 0.044128 0.272949
vt 0.177490 0.274414
vt 0.048492 0.274414
vt 0.049255 0.266602
vt 0.049255 0.266602
vt 0.048492 0.274414
vt 0.044128 0.272949
f 1/1/1 2/2/2 3/3/3
f 4/4/4 5/5/5 6/6/6
f 7/7/7 8/8/8 9/9/9
f 10/10/10 11/11/11 12/12/12
f 13/13/13 14/14/14 15/15/15
f 16/16/16 17/17/17 18/18/18
f 19/19/19 20/20/20 21/21/21
f 22/22/22 23/23/23 24/24/24
f 25/25/25 26/26/26 27/27/27
f 28/28/28 29/29/29 30/30/30
f 31/31/31 32/32/32 33/33/33
f 34/34/34 35/35/35 36/36/36
f 37/37/37 38/38/38 39/39/39
f 40/40/40 41/41/41 42/42/42
f 43/43/43 44/44/44 45/45/45
f 46/46/46 47/47/47 48/48/48
f 49/49/49 50/50/50 51/51/51
f 52/52/52 53/53/53 54/54/54
f 55/55/55 56/56/56 57/57/57
f 58/58/58 59/59/59 60/60/60
f 61/61/61 62/62/62 63/63/63
f 64/64/64 65/65/65 66/66/66
f 67/67/67 68/68/68 69/69/69
f 70/70/70 71/71/71 72/72/72
f 73/73/73 74/74/74 75/75/75
f 76/76/76 77/77/77 78/78/78
f 79/79/79 80/80/80 81/81/81
f 82/82/82 83/83/83 84/84/84
f 85/85/85 86/86/86 87/87/87
f 88/88/88 89/89/89 90/90/90
f 91/91/91 92/92/92 93/93/93
f 94/94/94 95/95/95 96/96/96
f 97/97/97 98/98/98 99/99/99
f 100/100/100 101/101/101 102/102/102
f 103/103/103 104/104/104 105/105/105
f 106/106/106 107/107/107 108/108/108
f 109/109/109 110/110/110 111/111/111
f 112/112/112 113/113/113 114/114/114
f 115/115/115 116/116/116 117/117/117
f 118/118/118 119/119/119 120/120/120
