# OBJ file
v 2527.321000 -1063.442100 1066.685400
v 2527.321000 -1063.442100 886.980400
v 2579.666700 -1084.298800 886.980400
v 2579.666700 -1084.298800 886.980400
v 2579.666700 -1084.298800 1066.685400
v 2527.321000 -1063.442100 1066.685400
v 2633.626700 -1105.798800 1066.685400
v 2580.974600 -1084.820100 1066.685400
v 2580.974600 -1084.820100 886.980400
v 2580.974600 -1084.820100 886.980400
v 2633.627000 -1105.798800 886.980400
v 2633.626700 -1105.798800 1066.685400
vn -0.374786 -0.927103 -0.003945
vn -0.374786 -0.927103 -0.003945
vn -0.374786 -0.927103 -0.003945
vn -0.374786 -0.927103 -0.003945
vn -0.374786 -0.927103 -0.003945
vn -0.374786 -0.927103 -0.003945
vn -0.374786 -0.927103 -0.003945
vn -0.374786 -0.927103 -0.003945
vn -0.374786 -0.927103 -0.003945
vn -0.374786 -0.927103 -0.003945
vn -0.374786 -0.927103 -0.003945
vn -0.374786 -0.927103 -0.003945
vt 0.251221 0.988487
vt 0.251221 0.225098
vt 0.497803 0.225098
vt 0.497803 0.225098
vt 0.497803 0.988487
vt 0.251221 0.988487
vt 0.249146 0.988487
vt 0.002602 0.988487
vt 0.002602 0.225098
vt 0.002602 0.225098
vt 0.249146 0.225098
vt 0.249146 0.988487
f 1/1/1 2/2/2 3/3/3
f 4/4/4 5/5/5 6/6/6
f 7/7/7 8/8/8 9/9/9
f 10/10/10 11/11/11 12/12/12
