# OBJ file
v 1591.854000 2949.992000 319.142670
v 1620.583300 2998.465600 319.142670
v 1591.854100 2949.992000 139.437620
v 1620.583300 2998.465600 319.142670
v 1620.583500 2998.465600 139.437620
v 1591.854100 2949.992000 139.437620
v 1562.238600 2900.023200 139.437600
v 1562.238300 2900.023400 319.142670
v 1591.136100 2948.780800 139.437620
v 1562.238300 2900.023400 319.142670
v 1591.136100 2948.780800 319.142670
v 1591.136100 2948.780800 139.437620
v 1746.274800 3208.317100 319.142670
v 1775.004300 3256.790800 319.142670
v 1746.274800 3208.317100 139.437620
v 1775.004300 3256.790800 319.142670
v 1775.004200 3256.790800 139.437620
v 1746.274800 3208.317100 139.437620
v 1716.659400 3158.348400 139.437620
v 1716.659400 3158.348600 319.142670
v 1745.557300 3207.106200 139.437620
v 1716.659400 3158.348600 319.142670
v 1745.557000 3207.106200 319.142670
v 1745.557300 3207.106200 139.437620
v 1746.274800 3208.317400 739.976300
v 1775.004300 3256.790800 739.976300
v 1746.274800 3208.317400 560.271300
v 1775.004300 3256.790800 739.976300
v 1775.004200 3256.790800 560.271300
v 1746.274800 3208.317400 560.271300
v 1716.659400 3158.348400 560.271300
v 1716.659400 3158.348600 739.976300
v 1745.557300 3207.106200 560.271300
v 1716.659400 3158.348600 739.976300
v 1745.557000 3207.106200 739.976300
v 1745.557300 3207.106200 560.271300
v 1591.854000 2949.992000 739.976300
v 1620.583300 2998.465600 739.976300
v 1591.854000 2949.992000 560.271300
v 1620.583300 2998.465600 739.976300
v 1620.583300 2998.465600 560.271300
v 1591.854000 2949.992000 560.271300
v 1562.238600 2900.023200 560.271300
v 1562.238300 2900.023400 739.976300
v 1591.136100 2948.780800 560.271300
v 1562.238300 2900.023400 739.976300
v 1591.136100 2948.781000 739.976300
v 1591.136100 2948.780800 560.271300
v 1746.274800 3208.317400 1066.685500
v 1775.004300 3256.790800 1066.685500
v 1746.274800 3208.317400 886.980650
v 1775.004300 3256.790800 1066.685500
v 1775.004200 3256.790800 886.980650
v 1746.274800 3208.317400 886.980650
v 1716.659400 3158.348400 886.980650
v 1716.659400 3158.348600 1066.685500
v 1745.557000 3207.106200 886.980650
v 1716.659400 3158.348600 1066.685500
v 1745.557000 3207.106200 1066.685500
v 1745.557000 3207.106200 886.980650
v 1591.854000 2949.992000 1066.685500
v 1620.583300 2998.465600 1066.685500
v 1591.854000 2949.992000 886.980650
v 1620.583300 2998.465600 1066.685500
v 1620.583300 2998.465600 886.980650
v 1591.854000 2949.992000 886.980650
v 1562.238600 2900.023200 886.980650
v 1562.238300 2900.023400 1066.685500
v 1591.136100 2948.780800 886.980650
v 1562.238300 2900.023400 1066.685500
v 1591.136100 2948.781000 1066.685500
v 1591.136100 2948.780800 886.980650
v 1746.274800 3208.317400 1410.064300
v 1775.004300 3256.790800 1410.064300
v 1746.274800 3208.317400 1230.359400
v 1775.004300 3256.790800 1410.064300
v 1775.004200 3256.790800 1230.359400
v 1746.274800 3208.317400 1230.359400
v 1716.659400 3158.348400 1230.359300
v 1716.659400 3158.348600 1410.064300
v 1745.557000 3207.106200 1230.359400
v 1716.659400 3158.348600 1410.064300
v 1745.557000 3207.106000 1410.064300
v 1745.557000 3207.106200 1230.359400
v 1591.854000 2949.992000 1410.064300
v 1620.583300 2998.465600 1410.064300
v 1591.854000 2949.992000 1230.359400
v 1620.583300 2998.465600 1410.064300
v 1620.583300 2998.465600 1230.359400
v 1591.854000 2949.992000 1230.359400
v 1562.238600 2900.023200 1230.359300
v 1562.238300 2900.023400 1410.064300
v 1591.136100 2948.780800 1230.359400
v 1562.238300 2900.023400 1410.064300
v 1591.136100 2948.780800 1410.064300
v 1591.136100 2948.780800 1230.359400
v 1281.782100 2431.283400 739.976260
v 1310.511400 2479.756800 739.976260
v 1281.782100 2431.283400 560.271240
v 1310.511400 2479.756800 739.976260
v 1310.511200 2479.757000 560.271240
v 1281.782100 2431.283400 560.271240
v 1252.166500 2381.314500 560.271240
v 1252.166700 2381.315000 739.976260
v 1281.064200 2430.072300 560.271240
v 1252.166700 2381.315000 739.976260
v 1281.064200 2430.072300 739.976260
v 1281.064200 2430.072300 560.271240
v 1131.383400 2179.686500 739.976260
v 1160.112800 2228.160200 739.976260
v 1131.383400 2179.686500 560.271240
v 1160.112800 2228.160200 739.976260
v 1160.112800 2228.160200 560.271240
v 1131.383400 2179.686500 560.271240
v 1101.768000 2129.717800 560.271240
v 1101.768000 2129.718000 739.976260
v 1130.665500 2178.475300 560.271240
v 1101.768000 2129.718000 739.976260
v 1130.665500 2178.475600 739.976260
v 1130.665500 2178.475300 560.271240
v 1282.098600 2431.812700 1066.685500
v 1310.827900 2480.286400 1066.685500
v 1282.098600 2431.812700 886.980600
v 1310.827900 2480.286400 1066.685500
v 1310.827900 2480.286400 886.980600
v 1282.098600 2431.812700 886.980600
v 1252.483200 2381.844000 886.980600
v 1252.482900 2381.844200 1066.685500
v 1281.380700 2430.601600 886.980600
v 1252.482900 2381.844200 1066.685500
v 1281.380700 2430.601800 1066.685500
v 1281.380700 2430.601600 886.980600
v 1131.383400 2179.686500 1066.685500
v 1160.112800 2228.160200 1066.685500
v 1131.383400 2179.686500 886.980600
v 1160.112800 2228.160200 1066.685500
v 1160.112800 2228.160200 886.980600
v 1131.383400 2179.686500 886.980600
v 1101.768000 2129.717800 886.980600
v 1101.768000 2129.718000 1066.685500
v 1130.665500 2178.475600 886.980600
v 1101.768000 2129.718000 1066.685500
v 1130.665500 2178.475600 1066.685500
v 1130.665500 2178.475600 886.980600
v 1282.118500 2431.846200 1410.064300
v 1310.848000 2480.319800 1410.064300
v 1282.118500 2431.846200 1230.359400
v 1310.848000 2480.319800 1410.064300
v 1310.848000 2480.319800 1230.359400
v 1282.118500 2431.846200 1230.359400
v 1252.503000 2381.877400 1230.359300
v 1252.503200 2381.877700 1410.064300
v 1281.400800 2430.635000 1230.359400
v 1252.503200 2381.877700 1410.064300
v 1281.400600 2430.635000 1410.064300
v 1281.400800 2430.635000 1230.359400
v 1131.383400 2179.686800 1410.064300
v 1160.112800 2228.160200 1410.064300
v 1131.383400 2179.686800 1230.359400
v 1160.112800 2228.160200 1410.064300
v 1160.112800 2228.160200 1230.359400
v 1131.383400 2179.686800 1230.359400
v 1101.768000 2129.717800 1230.359300
v 1101.768000 2129.718000 1410.064300
v 1130.665500 2178.475600 1230.359400
v 1101.768000 2129.718000 1410.064300
v 1130.665500 2178.475300 1410.064300
v 1130.665500 2178.475600 1230.359400
v 1413.018000 2702.858600 1401.488600
v 1441.747200 2751.332300 1401.488600
v 1413.017800 2702.858600 1221.783700
v 1441.747200 2751.332300 1401.488600
v 1441.747200 2751.332300 1221.783700
v 1413.017800 2702.858600 1221.783700
v 1383.402300 2652.890000 1221.783600
v 1383.402300 2652.890000 1401.488600
v 1412.299900 2701.647500 1221.783700
v 1383.402300 2652.890000 1401.488600
v 1412.299900 2701.647200 1401.488600
v 1412.299900 2701.647500 1221.783700
v 1413.018000 2702.858600 1059.083600
v 1441.747200 2751.332300 1059.083600
v 1413.017800 2702.858600 879.378600
v 1441.747200 2751.332300 1059.083600
v 1441.747200 2751.332300 879.378600
v 1413.017800 2702.858600 879.378600
v 1383.402300 2652.890000 879.378540
v 1383.402300 2652.890000 1059.083600
v 1412.299900 2701.647500 879.378600
v 1383.402300 2652.890000 1059.083600
v 1412.299900 2701.647200 1059.083600
v 1412.299900 2701.647500 879.378600
v 1413.018000 2702.858600 738.873840
v 1441.747200 2751.332300 738.873900
v 1413.017800 2702.858600 559.168900
v 1441.747200 2751.332300 738.873900
v 1441.747200 2751.332300 559.168900
v 1413.017800 2702.858600 559.168900
v 1383.402300 2652.890000 559.168800
v 1383.402300 2652.890000 738.873840
v 1412.299900 2701.647500 559.168900
v 1383.402300 2652.890000 738.873840
v 1412.299900 2701.647200 738.873840
v 1412.299900 2701.647500 559.168900
vn -0.860222 0.509905 -0.003892
vn -0.860222 0.509905 -0.003892
vn -0.860222 0.509905 -0.003892
vn -0.860222 0.509905 -0.003892
vn -0.860222 0.509905 -0.003892
vn -0.860222 0.509905 -0.003892
vn -0.860222 0.509905 -0.003892
vn -0.860222 0.509905 -0.003892
vn -0.860222 0.509905 -0.003892
vn -0.860222 0.509905 -0.003892
vn -0.860222 0.509905 -0.003892
vn -0.860222 0.509905 -0.003892
vn -0.860222 0.509905 -0.003892
vn -0.860222 0.509905 -0.003892
vn -0.860222 0.509905 -0.003892
vn -0.860222 0.509905 -0.003892
vn -0.860222 0.509905 -0.003892
vn -0.860222 0.509905 -0.003892
vn -0.860222 0.509905 -0.003892
vn -0.860222 0.509905 -0.003892
vn -0.860222 0.509905 -0.003892
vn -0.860222 0.509905 -0.003892
vn -0.860222 0.509905 -0.003892
vn -0.860222 0.509905 -0.003892
vn -0.860222 0.509905 -0.003892
vn -0.860222 0.509905 -0.003892
vn -0.860222 0.509905 -0.003892
vn -0.860222 0.509905 -0.003892
vn -0.860222 0.509905 -0.003892
vn -0.860222 0.509905 -0.003892
vn -0.860222 0.509905 -0.003892
vn -0.860222 0.509905 -0.003892
vn -0.860222 0.509905 -0.003892
vn -0.860222 0.509905 -0.003892
vn -0.860222 0.509905 -0.003892
vn -0.860222 0.509905 -0.003892
vn -0.860222 0.509905 -0.003892
vn -0.860222 0.509905 -0.003892
vn -0.860222 0.509905 -0.003892
vn -0.860222 0.509905 -0.003892
vn -0.860222 0.509905 -0.003892
vn -0.860222 0.509905 -0.003892
vn -0.860222 0.509905 -0.003892
vn -0.860222 0.509905 -0.003892
vn -0.860222 0.509905 -0.003892
vn -0.860222 0.509905 -0.003892
vn -0.860222 0.509905 -0.003892
vn -0.860222 0.509905 -0.003892
vn -0.860222 0.509905 -0.003892
vn -0.860222 0.509905 -0.003892
vn -0.860222 0.509905 -0.003892
vn -0.860222 0.509905 -0.003892
vn -0.860222 0.509905 -0.003892
vn -0.860222 0.509905 -0.003892
vn -0.860222 0.509905 -0.003892
vn -0.860222 0.509905 -0.003892
vn -0.860222 0.509905 -0.003892
vn -0.860222 0.509905 -0.003892
vn -0.860222 0.509905 -0.003892
vn -0.860222 0.509905 -0.003892
vn -0.860222 0.509905 -0.003892
vn -0.860222 0.509905 -0.003892
vn -0.860222 0.509905 -0.003892
vn -0.860222 0.509905 -0.003892
vn -0.860222 0.509905 -0.003892
vn -0.860222 0.509905 -0.003892
vn -0.860222 0.509905 -0.003892
vn -0.860222 0.509905 -0.003892
vn -0.860222 0.509905 -0.003892
vn -0.860222 0.509905 -0.003892
vn -0.860222 0.509905 -0.003892
vn -0.860222 0.509905 -0.003892
vn -0.860222 0.509905 -0.003892
vn -0.860222 0.509905 -0.003892
vn -0.860222 0.509905 -0.003892
vn -0.860222 0.509905 -0.003892
vn -0.860222 0.509905 -0.003892
vn -0.860222 0.509905 -0.003892
vn -0.860222 0.509905 -0.003892
vn -0.860222 0.509905 -0.003892
vn -0.860222 0.509905 -0.003892
vn -0.860222 0.509905 -0.003892
vn -0.860222 0.509905 -0.003892
vn -0.860222 0.509905 -0.003892
vn -0.860222 0.509905 -0.003892
vn -0.860222 0.509905 -0.003892
vn -0.860222 0.509905 -0.003892
vn -0.860222 0.509905 -0.003892
vn -0.860222 0.509905 -0.003892
vn -0.860222 0.509905 -0.003892
vn -0.860222 0.509905 -0.003892
vn -0.860222 0.509905 -0.003892
vn -0.860222 0.509905 -0.003892
vn -0.860222 0.509905 -0.003892
vn -0.860222 0.509905 -0.003892
vn -0.860222 0.509905 -0.003892
vn -0.860222 0.509905 -0.003892
vn -0.860222 0.509905 -0.003892
vn -0.860222 0.509905 -0.003892
vn -0.860222 0.509905 -0.003892
vn -0.860222 0.509905 -0.003892
vn -0.860222 0.509905 -0.003892
vn -0.860222 0.509905 -0.003892
vn -0.860222 0.509905 -0.003892
vn -0.860222 0.509905 -0.003892
vn -0.860222 0.509905 -0.003892
vn -0.860222 0.509905 -0.003892
vn -0.860222 0.509905 -0.003892
vn -0.860222 0.509905 -0.003892
vn -0.860222 0.509905 -0.003892
vn -0.860222 0.509905 -0.003892
vn -0.860222 0.509905 -0.003892
vn -0.860222 0.509905 -0.003892
vn -0.860222 0.509905 -0.003892
vn -0.860222 0.509905 -0.003892
vn -0.860222 0.509905 -0.003892
vn -0.860222 0.509905 -0.003892
vn -0.860222 0.509905 -0.003892
vn -0.860222 0.509905 -0.003892
vn -0.860222 0.509905 -0.003892
vn -0.860222 0.509905 -0.003892
vn -0.860222 0.509905 -0.003892
vn -0.860222 0.509905 -0.003892
vn -0.860222 0.509905 -0.003892
vn -0.860222 0.509905 -0.003892
vn -0.860222 0.509905 -0.003892
vn -0.860222 0.509905 -0.003892
vn -0.860222 0.509905 -0.003892
vn -0.860222 0.509905 -0.003892
vn -0.860222 0.509905 -0.003892
vn -0.860222 0.509905 -0.003892
vn -0.860222 0.509905 -0.003892
vn -0.860222 0.509905 -0.003892
vn -0.860222 0.509905 -0.003892
vn -0.860222 0.509905 -0.003892
vn -0.860222 0.509905 -0.003892
vn -0.860222 0.509905 -0.003892
vn -0.860222 0.509905 -0.003892
vn -0.860222 0.509905 -0.003892
vn -0.860222 0.509905 -0.003892
vn -0.860222 0.509905 -0.003892
vn -0.860222 0.509905 -0.003892
vn -0.860222 0.509905 -0.003892
vn -0.860222 0.509905 -0.003892
vn -0.860222 0.509905 -0.003892
vn -0.860222 0.509905 -0.003892
vn -0.860222 0.509905 -0.003892
vn -0.860222 0.509905 -0.003892
vn -0.860222 0.509905 -0.003892
vn -0.860222 0.509905 -0.003892
vn -0.860222 0.509905 -0.003892
vn -0.860222 0.509905 -0.003892
vn -0.860222 0.509905 -0.003892
vn -0.860222 0.509905 -0.003892
vn -0.860222 0.509905 -0.003892
vn -0.860222 0.509905 -0.003892
vn -0.860222 0.509905 -0.003892
vn -0.860222 0.509905 -0.003892
vn -0.860222 0.509905 -0.003892
vn -0.860222 0.509905 -0.003892
vn -0.860222 0.509905 -0.003892
vn -0.860222 0.509905 -0.003892
vn -0.860222 0.509905 -0.003892
vn -0.860222 0.509905 -0.003892
vn -0.860222 0.509905 -0.003892
vn -0.860222 0.509905 -0.003892
vn -0.860222 0.509905 -0.003892
vn -0.860222 0.509905 -0.003892
vn -0.860222 0.509905 -0.003892
vn -0.860222 0.509905 -0.003892
vn -0.860222 0.509905 -0.003892
vn -0.860222 0.509905 -0.003892
vn -0.860222 0.509905 -0.003892
vn -0.860222 0.509905 -0.003892
vn -0.860222 0.509905 -0.003892
vn -0.860222 0.509905 -0.003892
vn -0.860222 0.509905 -0.003892
vn -0.860222 0.509905 -0.003892
vn -0.860222 0.509905 -0.003892
vn -0.860222 0.509905 -0.003892
vn -0.860222 0.509905 -0.003892
vn -0.860222 0.509905 -0.003892
vn -0.860222 0.509905 -0.003892
vn -0.860222 0.509905 -0.003892
vn -0.860222 0.509905 -0.003892
vn -0.860222 0.509905 -0.003892
vn -0.860222 0.509905 -0.003892
vn -0.860222 0.509905 -0.003892
vn -0.860222 0.509905 -0.003892
vn -0.860222 0.509905 -0.003892
vn -0.860222 0.509905 -0.003892
vn -0.860222 0.509905 -0.003892
vn -0.860222 0.509905 -0.003892
vn -0.860222 0.509905 -0.003892
vn -0.860222 0.509905 -0.003892
vn -0.860222 0.509905 -0.003892
vn -0.860222 0.509905 -0.003892
vn -0.860222 0.509905 -0.003892
vn -0.860222 0.509905 -0.003892
vn -0.860222 0.509905 -0.003892
vn -0.860222 0.509905 -0.003892
vn -0.860222 0.509905 -0.003892
vn -0.860222 0.509905 -0.003892
vn -0.860222 0.509905 -0.003892
vt 0.497803 0.988487
vt 0.251221 0.988487
vt 0.497803 0.225098
vt 0.251221 0.988487
vt 0.251221 0.225098
vt 0.497803 0.225098
vt 0.249146 0.225098
vt 0.249146 0.988487
vt 0.002602 0.225098
vt 0.249146 0.988487
vt 0.002602 0.988487
vt 0.002602 0.225098
vt 0.497803 0.988487
vt 0.251221 0.988487
vt 0.497803 0.225098
vt 0.251221 0.988487
vt 0.251221 0.225098
vt 0.497803 0.225098
vt 0.249146 0.225098
vt 0.249146 0.988487
vt 0.002602 0.225098
vt 0.249146 0.988487
vt 0.002602 0.988487
vt 0.002602 0.225098
vt 0.497803 0.988487
vt 0.251221 0.988487
vt 0.497803 0.225098
vt 0.251221 0.988487
vt 0.251221 0.225098
vt 0.497803 0.225098
vt 0.249146 0.225098
vt 0.249146 0.988487
vt 0.002602 0.225098
vt 0.249146 0.988487
vt 0.002602 0.988487
vt 0.002602 0.225098
vt 0.497803 0.988487
vt 0.251221 0.988487
vt 0.497803 0.225098
vt 0.251221 0.988487
vt 0.251221 0.225098
vt 0.497803 0.225098
vt 0.249146 0.225098
vt 0.249146 0.988487
vt 0.002602 0.225098
vt 0.249146 0.988487
vt 0.002602 0.988487
vt 0.002602 0.225098
vt 0.497803 0.988487
vt 0.251221 0.988487
vt 0.497803 0.225098
vt 0.251221 0.988487
vt 0.251221 0.225098
vt 0.497803 0.225098
vt 0.249146 0.225098
vt 0.249146 0.988487
vt 0.002602 0.225098
vt 0.249146 0.988487
vt 0.002602 0.988487
vt 0.002602 0.225098
vt 0.497803 0.988487
vt 0.251221 0.988487
vt 0.497803 0.225098
vt 0.251221 0.988487
vt 0.251221 0.225098
vt 0.497803 0.225098
vt 0.249146 0.225098
vt 0.249146 0.988487
vt 0.002602 0.225098
vt 0.249146 0.988487
vt 0.002602 0.988487
vt 0.002602 0.225098
vt 0.497803 0.988487
vt 0.251221 0.988487
vt 0.497803 0.225098
vt 0.251221 0.988487
vt 0.251221 0.225098
vt 0.497803 0.225098
vt 0.249146 0.225098
vt 0.249146 0.988487
vt 0.002602 0.225098
vt 0.249146 0.988487
vt 0.002602 0.988487
vt 0.002602 0.225098
vt 0.497803 0.988487
vt 0.251221 0.988487
vt 0.497803 0.225098
vt 0.251221 0.988487
vt 0.251221 0.225098
vt 0.497803 0.225098
vt 0.249146 0.225098
vt 0.249146 0.988487
vt 0.002602 0.225098
vt 0.249146 0.988487
vt 0.002602 0.988487
vt 0.002602 0.225098
vt 0.497803 0.988487
vt 0.251221 0.988487
vt 0.497803 0.225098
vt 0.251221 0.988487
vt 0.251221 0.225098
vt 0.497803 0.225098
vt 0.249146 0.225098
vt 0.249146 0.988487
vt 0.002602 0.225098
vt 0.249146 0.988487
vt 0.002602 0.988487
vt 0.002602 0.225098
vt 0.497803 0.988487
vt 0.251221 0.988487
vt 0.497803 0.225098
vt 0.251221 0.988487
vt 0.251221 0.225098
vt 0.497803 0.225098
vt 0.249146 0.225098
vt 0.249146 0.988487
vt 0.002602 0.225098
vt 0.249146 0.988487
vt 0.002602 0.988487
vt 0.002602 0.225098
vt 0.497803 0.988487
vt 0.251221 0.988487
vt 0.497803 0.225098
vt 0.251221 0.988487
vt 0.251221 0.225098
vt 0.497803 0.225098
vt 0.249146 0.225098
vt 0.249146 0.988487
vt 0.002602 0.225098
vt 0.249146 0.988487
vt 0.002602 0.988487
vt 0.002602 0.225098
vt 0.497803 0.988487
vt 0.251221 0.988487
vt 0.497803 0.225098
vt 0.251221 0.988487
vt 0.251221 0.225098
vt 0.497803 0.225098
vt 0.249146 0.225098
vt 0.249146 0.988487
vt 0.002602 0.225098
vt 0.249146 0.988487
vt 0.002602 0.988487
vt 0.002602 0.225098
vt 0.497803 0.988487
vt 0.251221 0.988487
vt 0.497803 0.225098
vt 0.251221 0.988487
vt 0.251221 0.225098
vt 0.497803 0.225098
vt 0.249146 0.225098
vt 0.249146 0.988487
vt 0.002602 0.225098
vt 0.249146 0.988487
vt 0.002602 0.988487
vt 0.002602 0.225098
vt 0.497803 0.988487
vt 0.251221 0.988487
vt 0.497803 0.225098
vt 0.251221 0.988487
vt 0.251221 0.225098
vt 0.497803 0.225098
vt 0.249146 0.225098
vt 0.249146 0.988487
vt 0.002602 0.225098
vt 0.249146 0.988487
vt 0.002602 0.988487
vt 0.002602 0.225098
vt 0.497803 0.988487
vt 0.251221 0.988487
vt 0.497803 0.225098
vt 0.251221 0.988487
vt 0.251221 0.225098
vt 0.497803 0.225098
vt 0.249146 0.225098
vt 0.249146 0.988487
vt 0.002602 0.225098
vt 0.249146 0.988487
vt 0.002602 0.988487
vt 0.002602 0.225098
vt 0.497803 0.988487
vt 0.251221 0.988487
vt 0.497803 0.225098
vt 0.251221 0.988487
vt 0.251221 0.225098
vt 0.497803 0.225098
vt 0.249146 0.225098
vt 0.249146 0.988487
vt 0.002602 0.225098
vt 0.249146 0.988487
vt 0.002602 0.988487
vt 0.002602 0.225098
vt 0.497803 0.988487
vt 0.251221 0.988487
vt 0.497803 0.225098
vt 0.251221 0.988487
vt 0.251221 0.225098
vt 0.497803 0.225098
vt 0.249146 0.225098
vt 0.249146 0.988487
vt 0.002602 0.225098
vt 0.249146 0.988487
vt 0.002602 0.988487
vt 0.002602 0.225098
f 1/1/1 2/2/2 3/3/3
f 4/4/4 5/5/5 6/6/6
f 7/7/7 8/8/8 9/9/9
f 10/10/10 11/11/11 12/12/12
f 13/13/13 14/14/14 15/15/15
f 16/16/16 17/17/17 18/18/18
f 19/19/19 20/20/20 21/21/21
f 22/22/22 23/23/23 24/24/24
f 25/25/25 26/26/26 27/27/27
f 28/28/28 29/29/29 30/30/30
f 31/31/31 32/32/32 33/33/33
f 34/34/34 35/35/35 36/36/36
f 37/37/37 38/38/38 39/39/39
f 40/40/40 41/41/41 42/42/42
f 43/43/43 44/44/44 45/45/45
f 46/46/46 47/47/47 48/48/48
f 49/49/49 50/50/50 51/51/51
f 52/52/52 53/53/53 54/54/54
f 55/55/55 56/56/56 57/57/57
f 58/58/58 59/59/59 60/60/60
f 61/61/61 62/62/62 63/63/63
f 64/64/64 65/65/65 66/66/66
f 67/67/67 68/68/68 69/69/69
f 70/70/70 71/71/71 72/72/72
f 73/73/73 74/74/74 75/75/75
f 76/76/76 77/77/77 78/78/78
f 79/79/79 80/80/80 81/81/81
f 82/82/82 83/83/83 84/84/84
f 85/85/85 86/86/86 87/87/87
f 88/88/88 89/89/89 90/90/90
f 91/91/91 92/92/92 93/93/93
f 94/94/94 95/95/95 96/96/96
f 97/97/97 98/98/98 99/99/99
f 100/100/100 101/101/101 102/102/102
f 103/103/103 104/104/104 105/105/105
f 106/106/106 107/107/107 108/108/108
f 109/109/109 110/110/110 111/111/111
f 112/112/112 113/113/113 114/114/114
f 115/115/115 116/116/116 117/117/117
f 118/118/118 119/119/119 120/120/120
f 121/121/121 122/122/122 123/123/123
f 124/124/124 125/125/125 126/126/126
f 127/127/127 128/128/128 129/129/129
f 130/130/130 131/131/131 132/132/132
f 133/133/133 134/134/134 135/135/135
f 136/136/136 137/137/137 138/138/138
f 139/139/139 140/140/140 141/141/141
f 142/142/142 143/143/143 144/144/144
f 145/145/145 146/146/146 147/147/147
f 148/148/148 149/149/149 150/150/150
f 151/151/151 152/152/152 153/153/153
f 154/154/154 155/155/155 156/156/156
f 157/157/157 158/158/158 159/159/159
f 160/160/160 161/161/161 162/162/162
f 163/163/163 164/164/164 165/165/165
f 166/166/166 167/167/167 168/168/168
f 169/169/169 170/170/170 171/171/171
f 172/172/172 173/173/173 174/174/174
f 175/175/175 176/176/176 177/177/177
f 178/178/178 179/179/179 180/180/180
f 181/181/181 182/182/182 183/183/183
f 184/184/184 185/185/185 186/186/186
f 187/187/187 188/188/188 189/189/189
f 190/190/190 191/191/191 192/192/192
f 193/193/193 194/194/194 195/195/195
f 196/196/196 197/197/197 198/198/198
f 199/199/199 200/200/200 201/201/201
f 202/202/202 203/203/203 204/204/204
