# OBJ file
v 1620.583400 2998.465300 739.976300
v 1620.583400 2998.465300 560.271300
v 1591.854000 2949.992000 560.271300
v 1591.854000 2949.992000 560.271300
v 1591.854000 2949.992000 739.976300
v 1620.583400 2998.465300 739.976300
v 1562.238500 2900.023200 739.976300
v 1591.136200 2948.780500 739.976300
v 1591.136200 2948.780800 560.271300
v 1591.136200 2948.780800 560.271300
v 1562.238500 2900.023200 560.271300
v 1562.238500 2900.023200 739.976300
vn -0.860222 0.509905 -0.003892
vn -0.860222 0.509905 -0.003892
vn -0.860222 0.509905 -0.003892
vn -0.860222 0.509905 -0.003892
vn -0.860222 0.509905 -0.003892
vn -0.860222 0.509905 -0.003892
vn -0.860222 0.509905 -0.003892
vn -0.860222 0.509905 -0.003892
vn -0.860222 0.509905 -0.003892
vn -0.860222 0.509905 -0.003892
vn -0.860222 0.509905 -0.003892
vn -0.860222 0.509905 -0.003892
vt 0.251221 0.988487
vt 0.251221 0.225098
vt 0.497803 0.225098
vt 0.497803 0.225098
vt 0.497803 0.988487
vt 0.251221 0.988487
vt 0.249146 0.988487
vt 0.002602 0.988487
vt 0.002602 0.225098
vt 0.002602 0.225098
vt 0.249146 0.225098
vt 0.249146 0.988487
f 1/1/1 2/2/2 3/3/3
f 4/4/4 5/5/5 6/6/6
f 7/7/7 8/8/8 9/9/9
f 10/10/10 11/11/11 12/12/12
