# OBJ file
v 1310.511500 2479.756600 739.976260
v 1310.511500 2479.756600 560.271240
v 1281.782100 2431.283200 560.271240
v 1281.782100 2431.283200 560.271240
v 1281.782200 2431.283400 739.976260
v 1310.511500 2479.756600 739.976260
v 1252.166700 2381.314700 739.976260
v 1281.064200 2430.072000 739.976260
v 1281.064300 2430.072300 560.271240
v 1281.064300 2430.072300 560.271240
v 1252.166600 2381.314500 560.271240
v 1252.166700 2381.314700 739.976260
vn -0.860222 0.509905 -0.003892
vn -0.860222 0.509905 -0.003892
vn -0.860222 0.509905 -0.003892
vn -0.860222 0.509905 -0.003892
vn -0.860222 0.509905 -0.003892
vn -0.860222 0.509905 -0.003892
vn -0.860222 0.509905 -0.003892
vn -0.860222 0.509905 -0.003892
vn -0.860222 0.509905 -0.003892
vn -0.860222 0.509905 -0.003892
vn -0.860222 0.509905 -0.003892
vn -0.860222 0.509905 -0.003892
vt 0.251221 0.988487
vt 0.251221 0.225098
vt 0.497803 0.225098
vt 0.497803 0.225098
vt 0.497803 0.988487
vt 0.251221 0.988487
vt 0.249146 0.988487
vt 0.002602 0.988487
vt 0.002602 0.225098
vt 0.002602 0.225098
vt 0.249146 0.225098
vt 0.249146 0.988487
f 1/1/1 2/2/2 3/3/3
f 4/4/4 5/5/5 6/6/6
f 7/7/7 8/8/8 9/9/9
f 10/10/10 11/11/11 12/12/12
