# OBJ file
v 1680.505600 3181.177500 1061.946500
v 1662.085200 3155.319300 1061.946500
v 1665.134400 3153.147500 1061.946500
v 1665.134400 3153.147500 1061.946500
v 1683.554800 3179.005400 1061.946500
v 1680.505600 3181.177500 1061.946500
v 1665.134400 3153.147500 1061.946500
v 1665.134400 3153.147500 1055.939000
v 1683.554800 3179.005400 1055.939000
v 1683.554800 3179.005400 1055.939000
v 1683.554800 3179.005400 1061.946500
v 1665.134400 3153.147500 1061.946500
v 1680.505600 3181.177500 1061.946500
v 1680.505600 3181.177500 1055.939100
v 1662.085200 3155.319300 1055.939000
v 1662.085200 3155.319300 1055.939000
v 1662.085200 3155.319300 1061.946500
v 1680.505600 3181.177500 1061.946500
v 1680.505600 3181.177500 1061.946500
v 1683.554800 3179.005400 1061.946500
v 1683.554800 3179.005400 1055.939000
v 1683.554800 3179.005400 1055.939000
v 1680.505600 3181.177500 1055.939100
v 1680.505600 3181.177500 1061.946500
v 1665.134400 3153.147500 1061.946500
v 1662.085200 3155.319300 1061.946500
v 1662.085200 3155.319300 1055.939000
v 1662.085200 3155.319300 1055.939000
v 1665.134400 3153.147500 1055.939000
v 1665.134400 3153.147500 1061.946500
v 1680.505600 3181.177500 1055.939100
v 1683.554800 3179.005400 1055.939000
v 1665.134400 3153.147500 1055.939000
v 1665.134400 3153.147500 1055.939000
v 1662.085200 3155.319300 1055.939000
v 1680.505600 3181.177500 1055.939100
v 1683.220100 3178.870000 893.225300
v 1680.463000 3180.833700 893.225300
v 1680.462900 3180.833700 1056.210200
v 1680.462900 3180.833700 1056.210200
v 1683.219800 3178.870000 1056.210200
v 1683.220100 3178.870000 893.225300
v 1683.220100 3178.870000 893.225300
v 1683.219800 3178.870000 1056.210200
v 1680.395500 3174.905000 1056.210200
v 1680.395500 3174.905000 1056.210200
v 1680.395500 3174.905000 893.225300
v 1683.220100 3178.870000 893.225300
v 1680.462900 3180.833700 1056.210200
v 1680.463000 3180.833700 893.225300
v 1677.638500 3176.869100 893.225300
v 1677.638500 3176.869100 893.225300
v 1677.638500 3176.869100 1056.210200
v 1680.462900 3180.833700 1056.210200
v 1677.638500 3176.869100 893.225300
v 1680.395500 3174.905000 893.225300
v 1680.395500 3174.905000 1056.210200
v 1680.395500 3174.905000 1056.210200
v 1677.638500 3176.869100 1056.210200
v 1677.638500 3176.869100 893.225300
v 1665.611000 3158.279300 1055.804200
v 1678.382300 3176.207500 1055.804200
v 1678.382300 3176.207500 893.417700
v 1678.382300 3176.207500 893.417700
v 1665.611200 3158.279300 893.417660
v 1665.611000 3158.279300 1055.804200
v 1662.231100 3155.240500 893.225300
v 1664.988200 3153.276400 893.225300
v 1664.988200 3153.276400 1056.210200
v 1664.988200 3153.276400 1056.210200
v 1662.231000 3155.240500 1056.210200
v 1662.231100 3155.240500 893.225300
v 1662.231100 3155.240500 893.225300
v 1662.231000 3155.240500 1056.210200
v 1665.055500 3159.205000 1056.210200
v 1665.055500 3159.205000 1056.210200
v 1665.055500 3159.205000 893.225300
v 1662.231100 3155.240500 893.225300
v 1664.988200 3153.276400 1056.210200
v 1664.988200 3153.276400 893.225300
v 1667.812600 3157.241500 893.225300
v 1667.812600 3157.241500 893.225300
v 1667.812600 3157.241500 1056.210200
v 1664.988200 3153.276400 1056.210200
v 1667.812600 3157.241500 893.225300
v 1665.055500 3159.205000 893.225300
v 1665.055500 3159.205000 1056.210200
v 1665.055500 3159.205000 1056.210200
v 1667.812600 3157.241500 1056.210200
v 1667.812600 3157.241500 893.225300
v 1680.505600 3181.177500 893.199300
v 1662.085200 3155.319300 893.199300
v 1665.134400 3153.147500 893.199300
v 1665.134400 3153.147500 893.199300
v 1683.554800 3179.005400 893.199300
v 1680.505600 3181.177500 893.199300
v 1665.134400 3153.147500 893.199300
v 1665.134400 3153.147500 887.191800
v 1683.554800 3179.005400 887.191800
v 1683.554800 3179.005400 887.191800
v 1683.554800 3179.005400 893.199300
v 1665.134400 3153.147500 893.199300
v 1680.505600 3181.177500 893.199300
v 1680.505600 3181.177500 887.191830
v 1662.085200 3155.319300 887.191800
v 1662.085200 3155.319300 887.191800
v 1662.085200 3155.319300 893.199300
v 1680.505600 3181.177500 893.199300
v 1680.505600 3181.177500 893.199300
v 1683.554800 3179.005400 893.199300
v 1683.554800 3179.005400 887.191800
v 1683.554800 3179.005400 887.191800
v 1680.505600 3181.177500 887.191830
v 1680.505600 3181.177500 893.199300
v 1665.134400 3153.147500 893.199300
v 1662.085200 3155.319300 893.199300
v 1662.085200 3155.319300 887.191800
v 1662.085200 3155.319300 887.191800
v 1665.134400 3153.147500 887.191800
v 1665.134400 3153.147500 893.199300
v 1680.505600 3181.177500 887.191830
v 1683.554800 3179.005400 887.191800
v 1665.134400 3153.147500 887.191800
v 1665.134400 3153.147500 887.191800
v 1662.085200 3155.319300 887.191800
v 1680.505600 3181.177500 887.191830
v 1662.086800 3155.321300 1061.946500
v 1643.666500 3129.463400 1061.946500
v 1646.715600 3127.291500 1061.946500
v 1646.715600 3127.291500 1061.946500
v 1665.136000 3153.149400 1061.946500
v 1662.086800 3155.321300 1061.946500
v 1646.715600 3127.291500 1061.946500
v 1646.715600 3127.291500 1055.939000
v 1665.136000 3153.149400 1055.939000
v 1665.136000 3153.149400 1055.939000
v 1665.136000 3153.149400 1061.946500
v 1646.715600 3127.291500 1061.946500
v 1662.086800 3155.321300 1061.946500
v 1662.086800 3155.321300 1055.939100
v 1643.666500 3129.463400 1055.939000
v 1643.666500 3129.463400 1055.939000
v 1643.666500 3129.463400 1061.946500
v 1662.086800 3155.321300 1061.946500
v 1662.086800 3155.321300 1061.946500
v 1665.136000 3153.149400 1061.946500
v 1665.136000 3153.149400 1055.939000
v 1665.136000 3153.149400 1055.939000
v 1662.086800 3155.321300 1055.939100
v 1662.086800 3155.321300 1061.946500
v 1646.715600 3127.291500 1061.946500
v 1643.666500 3129.463400 1061.946500
v 1643.666500 3129.463400 1055.939000
v 1643.666500 3129.463400 1055.939000
v 1646.715600 3127.291500 1055.939000
v 1646.715600 3127.291500 1061.946500
v 1662.086800 3155.321300 1055.939100
v 1665.136000 3153.149400 1055.939000
v 1646.715600 3127.291500 1055.939000
v 1646.715600 3127.291500 1055.939000
v 1643.666500 3129.463400 1055.939000
v 1662.086800 3155.321300 1055.939100
v 1664.801400 3153.014000 893.225300
v 1662.044100 3154.977800 893.225300
v 1662.044100 3154.977800 1056.210200
v 1662.044100 3154.977800 1056.210200
v 1664.801100 3153.014000 1056.210200
v 1664.801400 3153.014000 893.225300
v 1664.801400 3153.014000 893.225300
v 1664.801100 3153.014000 1056.210200
v 1661.976800 3149.049000 1056.210200
v 1661.976800 3149.049000 1056.210200
v 1661.976800 3149.049000 893.225300
v 1664.801400 3153.014000 893.225300
v 1662.044100 3154.977800 1056.210200
v 1662.044100 3154.977800 893.225300
v 1659.219700 3151.013000 893.225300
v 1659.219700 3151.013000 893.225300
v 1659.219700 3151.013000 1056.210200
v 1662.044100 3154.977800 1056.210200
v 1659.219700 3151.013000 893.225300
v 1661.976800 3149.049000 893.225300
v 1661.976800 3149.049000 1056.210200
v 1661.976800 3149.049000 1056.210200
v 1659.219700 3151.013000 1056.210200
v 1659.219700 3151.013000 893.225300
v 1647.147100 3132.360000 1055.804200
v 1659.918500 3150.288300 1055.804200
v 1659.918500 3150.288300 893.417700
v 1659.918500 3150.288300 893.417700
v 1647.147100 3132.360000 893.417660
v 1647.147100 3132.360000 1055.804200
v 1643.957600 3129.588400 893.225300
v 1646.714600 3127.624500 893.225300
v 1646.714600 3127.624500 1056.210200
v 1646.714600 3127.624500 1056.210200
v 1643.957600 3129.588400 1056.210200
v 1643.957600 3129.588400 893.225300
v 1643.957600 3129.588400 893.225300
v 1643.957600 3129.588400 1056.210200
v 1646.782200 3133.553200 1056.210200
v 1646.782200 3133.553200 1056.210200
v 1646.782200 3133.553200 893.225300
v 1643.957600 3129.588400 893.225300
v 1646.714600 3127.624500 1056.210200
v 1646.714600 3127.624500 893.225300
v 1649.539200 3131.589400 893.225300
v 1649.539200 3131.589400 893.225300
v 1649.539200 3131.589400 1056.210200
v 1646.714600 3127.624500 1056.210200
v 1649.539200 3131.589400 893.225300
v 1646.782200 3133.553200 893.225300
v 1646.782200 3133.553200 1056.210200
v 1646.782200 3133.553200 1056.210200
v 1649.539200 3131.589400 1056.210200
v 1649.539200 3131.589400 893.225300
v 1662.086800 3155.321300 893.199300
v 1643.666500 3129.463400 893.199300
v 1646.715600 3127.291500 893.199300
v 1646.715600 3127.291500 893.199300
v 1665.136000 3153.149400 893.199300
v 1662.086800 3155.321300 893.199300
v 1646.715600 3127.291500 893.199300
v 1646.715600 3127.291500 887.191800
v 1665.136000 3153.149400 887.191800
v 1665.136000 3153.149400 887.191800
v 1665.136000 3153.149400 893.199300
v 1646.715600 3127.291500 893.199300
v 1662.086800 3155.321300 893.199300
v 1662.086800 3155.321300 887.191830
v 1643.666500 3129.463400 887.191800
v 1643.666500 3129.463400 887.191800
v 1643.666500 3129.463400 893.199300
v 1662.086800 3155.321300 893.199300
v 1662.086800 3155.321300 893.199300
v 1665.136000 3153.149400 893.199300
v 1665.136000 3153.149400 887.191800
v 1665.136000 3153.149400 887.191800
v 1662.086800 3155.321300 887.191830
v 1662.086800 3155.321300 893.199300
v 1646.715600 3127.291500 893.199300
v 1643.666500 3129.463400 893.199300
v 1643.666500 3129.463400 887.191800
v 1643.666500 3129.463400 887.191800
v 1646.715600 3127.291500 887.191800
v 1646.715600 3127.291500 893.199300
v 1662.086800 3155.321300 887.191830
v 1665.136000 3153.149400 887.191800
v 1646.715600 3127.291500 887.191800
v 1646.715600 3127.291500 887.191800
v 1643.666500 3129.463400 887.191800
v 1662.086800 3155.321300 887.191830
vn -0.003921 0.003921 0.999985
vn -0.003921 0.003921 0.999985
vn -0.003921 0.003921 0.999985
vn -0.003921 0.003921 0.999985
vn -0.003921 0.003921 0.999985
vn -0.003921 0.003921 0.999985
vn 0.815321 -0.578996 -0.003939
vn 0.815321 -0.578996 -0.003939
vn 0.815321 -0.578996 -0.003939
vn 0.815321 -0.578996 -0.003939
vn 0.815321 -0.578996 -0.003939
vn 0.815321 -0.578996 -0.003939
vn -0.814253 0.580496 -0.003896
vn -0.814253 0.580496 -0.003896
vn -0.814253 0.580496 -0.003896
vn -0.814253 0.580496 -0.003896
vn -0.814253 0.580496 -0.003896
vn -0.814253 0.580496 -0.003896
vn 0.575295 0.817937 -0.003914
vn 0.575295 0.817937 -0.003914
vn 0.575295 0.817937 -0.003914
vn 0.575295 0.817937 -0.003914
vn 0.575295 0.817937 -0.003914
vn 0.575295 0.817937 -0.003914
vn -0.584197 -0.811603 -0.003921
vn -0.584197 -0.811603 -0.003921
vn -0.584197 -0.811603 -0.003921
vn -0.584197 -0.811603 -0.003921
vn -0.584197 -0.811603 -0.003921
vn -0.584197 -0.811603 -0.003921
vn -0.003921 0.003921 -0.999985
vn -0.003921 0.003921 -0.999985
vn -0.003921 0.003921 -0.999985
vn -0.003921 0.003921 -0.999985
vn -0.003921 0.003921 -0.999985
vn -0.003921 0.003921 -0.999985
vn 0.575295 0.817937 -0.003914
vn 0.575295 0.817937 -0.003914
vn 0.575295 0.817937 -0.003914
vn 0.575295 0.817937 -0.003914
vn 0.575295 0.817937 -0.003914
vn 0.575295 0.817937 -0.003914
vn 0.815321 -0.578996 -0.003939
vn 0.815321 -0.578996 -0.003939
vn 0.815321 -0.578996 -0.003939
vn 0.815321 -0.578996 -0.003939
vn 0.815321 -0.578996 -0.003939
vn 0.815321 -0.578996 -0.003939
vn -0.814253 0.580496 -0.003896
vn -0.814253 0.580496 -0.003896
vn -0.814253 0.580496 -0.003896
vn -0.814253 0.580496 -0.003896
vn -0.814253 0.580496 -0.003896
vn -0.814253 0.580496 -0.003896
vn -0.584197 -0.811603 -0.003921
vn -0.584197 -0.811603 -0.003921
vn -0.584197 -0.811603 -0.003921
vn -0.584197 -0.811603 -0.003921
vn -0.584197 -0.811603 -0.003921
vn -0.584197 -0.811603 -0.003921
vn -0.814253 0.580496 -0.003896
vn -0.814253 0.580496 -0.003896
vn -0.814253 0.580496 -0.003896
vn -0.814253 0.580496 -0.003896
vn -0.814253 0.580496 -0.003896
vn -0.814253 0.580496 -0.003896
vn -0.584197 -0.811603 -0.003921
vn -0.584197 -0.811603 -0.003921
vn -0.584197 -0.811603 -0.003921
vn -0.584197 -0.811603 -0.003921
vn -0.584197 -0.811603 -0.003921
vn -0.584197 -0.811603 -0.003921
vn -0.814253 0.580496 -0.003896
vn -0.814253 0.580496 -0.003896
vn -0.814253 0.580496 -0.003896
vn -0.814253 0.580496 -0.003896
vn -0.814253 0.580496 -0.003896
vn -0.814253 0.580496 -0.003896
vn 0.815321 -0.578996 -0.003939
vn 0.815321 -0.578996 -0.003939
vn 0.815321 -0.578996 -0.003939
vn 0.815321 -0.578996 -0.003939
vn 0.815321 -0.578996 -0.003939
vn 0.815321 -0.578996 -0.003939
vn 0.575295 0.817937 -0.003914
vn 0.575295 0.817937 -0.003914
vn 0.575295 0.817937 -0.003914
vn 0.575295 0.817937 -0.003914
vn 0.575295 0.817937 -0.003914
vn 0.575295 0.817937 -0.003914
vn -0.003921 0.003921 0.999985
vn -0.003921 0.003921 0.999985
vn -0.003921 0.003921 0.999985
vn -0.003921 0.003921 0.999985
vn -0.003921 0.003921 0.999985
vn -0.003921 0.003921 0.999985
vn 0.815321 -0.578996 -0.003939
vn 0.815321 -0.578996 -0.003939
vn 0.815321 -0.578996 -0.003939
vn 0.815321 -0.578996 -0.003939
vn 0.815321 -0.578996 -0.003939
vn 0.815321 -0.578996 -0.003939
vn -0.814253 0.580496 -0.003896
vn -0.814253 0.580496 -0.003896
vn -0.814253 0.580496 -0.003896
vn -0.814253 0.580496 -0.003896
vn -0.814253 0.580496 -0.003896
vn -0.814253 0.580496 -0.003896
vn 0.575295 0.817937 -0.003914
vn 0.575295 0.817937 -0.003914
vn 0.575295 0.817937 -0.003914
vn 0.575295 0.817937 -0.003914
vn 0.575295 0.817937 -0.003914
vn 0.575295 0.817937 -0.003914
vn -0.584197 -0.811603 -0.003921
vn -0.584197 -0.811603 -0.003921
vn -0.584197 -0.811603 -0.003921
vn -0.584197 -0.811603 -0.003921
vn -0.584197 -0.811603 -0.003921
vn -0.584197 -0.811603 -0.003921
vn -0.003921 0.003921 -0.999985
vn -0.003921 0.003921 -0.999985
vn -0.003921 0.003921 -0.999985
vn -0.003921 0.003921 -0.999985
vn -0.003921 0.003921 -0.999985
vn -0.003921 0.003921 -0.999985
vn -0.003921 0.003921 0.999985
vn -0.003921 0.003921 0.999985
vn -0.003921 0.003921 0.999985
vn -0.003921 0.003921 0.999985
vn -0.003921 0.003921 0.999985
vn -0.003921 0.003921 0.999985
vn 0.815321 -0.578996 -0.003939
vn 0.815321 -0.578996 -0.003939
vn 0.815321 -0.578996 -0.003939
vn 0.815321 -0.578996 -0.003939
vn 0.815321 -0.578996 -0.003939
vn 0.815321 -0.578996 -0.003939
vn -0.814253 0.580496 -0.003896
vn -0.814253 0.580496 -0.003896
vn -0.814253 0.580496 -0.003896
vn -0.814253 0.580496 -0.003896
vn -0.814253 0.580496 -0.003896
vn -0.814253 0.580496 -0.003896
vn 0.575295 0.817937 -0.003914
vn 0.575295 0.817937 -0.003914
vn 0.575295 0.817937 -0.003914
vn 0.575295 0.817937 -0.003914
vn 0.575295 0.817937 -0.003914
vn 0.575295 0.817937 -0.003914
vn -0.584197 -0.811603 -0.003921
vn -0.584197 -0.811603 -0.003921
vn -0.584197 -0.811603 -0.003921
vn -0.584197 -0.811603 -0.003921
vn -0.584197 -0.811603 -0.003921
vn -0.584197 -0.811603 -0.003921
vn -0.003921 0.003921 -0.999985
vn -0.003921 0.003921 -0.999985
vn -0.003921 0.003921 -0.999985
vn -0.003921 0.003921 -0.999985
vn -0.003921 0.003921 -0.999985
vn -0.003921 0.003921 -0.999985
vn 0.575295 0.817937 -0.003914
vn 0.575295 0.817937 -0.003914
vn 0.575295 0.817937 -0.003914
vn 0.575295 0.817937 -0.003914
vn 0.575295 0.817937 -0.003914
vn 0.575295 0.817937 -0.003914
vn 0.815321 -0.578996 -0.003939
vn 0.815321 -0.578996 -0.003939
vn 0.815321 -0.578996 -0.003939
vn 0.815321 -0.578996 -0.003939
vn 0.815321 -0.578996 -0.003939
vn 0.815321 -0.578996 -0.003939
vn -0.814253 0.580496 -0.003896
vn -0.814253 0.580496 -0.003896
vn -0.814253 0.580496 -0.003896
vn -0.814253 0.580496 -0.003896
vn -0.814253 0.580496 -0.003896
vn -0.814253 0.580496 -0.003896
vn -0.584197 -0.811603 -0.003921
vn -0.584197 -0.811603 -0.003921
vn -0.584197 -0.811603 -0.003921
vn -0.584197 -0.811603 -0.003921
vn -0.584197 -0.811603 -0.003921
vn -0.584197 -0.811603 -0.003921
vn -0.814253 0.580496 -0.003896
vn -0.814253 0.580496 -0.003896
vn -0.814253 0.580496 -0.003896
vn -0.814253 0.580496 -0.003896
vn -0.814253 0.580496 -0.003896
vn -0.814253 0.580496 -0.003896
vn -0.584197 -0.811603 -0.003921
vn -0.584197 -0.811603 -0.003921
vn -0.584197 -0.811603 -0.003921
vn -0.584197 -0.811603 -0.003921
vn -0.584197 -0.811603 -0.003921
vn -0.584197 -0.811603 -0.003921
vn -0.814253 0.580496 -0.003896
vn -0.814253 0.580496 -0.003896
vn -0.814253 0.580496 -0.003896
vn -0.814253 0.580496 -0.003896
vn -0.814253 0.580496 -0.003896
vn -0.814253 0.580496 -0.003896
vn 0.815321 -0.578996 -0.003939
vn 0.815321 -0.578996 -0.003939
vn 0.815321 -0.578996 -0.003939
vn 0.815321 -0.578996 -0.003939
vn 0.815321 -0.578996 -0.003939
vn 0.815321 -0.578996 -0.003939
vn 0.575295 0.817937 -0.003914
vn 0.575295 0.817937 -0.003914
vn 0.575295 0.817937 -0.003914
vn 0.575295 0.817937 -0.003914
vn 0.575295 0.817937 -0.003914
vn 0.575295 0.817937 -0.003914
vn -0.003921 0.003921 0.999985
vn -0.003921 0.003921 0.999985
vn -0.003921 0.003921 0.999985
vn -0.003921 0.003921 0.999985
vn -0.003921 0.003921 0.999985
vn -0.003921 0.003921 0.999985
vn 0.815321 -0.578996 -0.003939
vn 0.815321 -0.578996 -0.003939
vn 0.815321 -0.578996 -0.003939
vn 0.815321 -0.578996 -0.003939
vn 0.815321 -0.578996 -0.003939
vn 0.815321 -0.578996 -0.003939
vn -0.814253 0.580496 -0.003896
vn -0.814253 0.580496 -0.003896
vn -0.814253 0.580496 -0.003896
vn -0.814253 0.580496 -0.003896
vn -0.814253 0.580496 -0.003896
vn -0.814253 0.580496 -0.003896
vn 0.575295 0.817937 -0.003914
vn 0.575295 0.817937 -0.003914
vn 0.575295 0.817937 -0.003914
vn 0.575295 0.817937 -0.003914
vn 0.575295 0.817937 -0.003914
vn 0.575295 0.817937 -0.003914
vn -0.584197 -0.811603 -0.003921
vn -0.584197 -0.811603 -0.003921
vn -0.584197 -0.811603 -0.003921
vn -0.584197 -0.811603 -0.003921
vn -0.584197 -0.811603 -0.003921
vn -0.584197 -0.811603 -0.003921
vn -0.003921 0.003921 -0.999985
vn -0.003921 0.003921 -0.999985
vn -0.003921 0.003921 -0.999985
vn -0.003921 0.003921 -0.999985
vn -0.003921 0.003921 -0.999985
vn -0.003921 0.003921 -0.999985
vt 0.327881 0.353027
vt 0.327881 0.432129
vt 0.318604 0.432129
vt 0.318604 0.432129
vt 0.318604 0.353027
vt 0.327881 0.353027
vt 0.315430 0.432129
vt 0.300537 0.432129
vt 0.300537 0.352539
vt 0.300537 0.352539
vt 0.315430 0.352539
vt 0.315430 0.432129
vt 0.270020 0.352051
vt 0.284912 0.352051
vt 0.284912 0.431641
vt 0.284912 0.431641
vt 0.270020 0.431641
vt 0.270020 0.352051
vt 0.269775 0.345215
vt 0.269775 0.335938
vt 0.284912 0.335938
vt 0.284912 0.335938
vt 0.284912 0.345215
vt 0.269775 0.345215
vt 0.288086 0.345215
vt 0.288086 0.335938
vt 0.303223 0.335938
vt 0.303223 0.335938
vt 0.303223 0.345215
vt 0.288086 0.345215
vt 0.287842 0.352539
vt 0.297363 0.352539
vt 0.297363 0.432129
vt 0.297363 0.432129
vt 0.287842 0.432129
vt 0.287842 0.352539
vt 0.858398 0.978256
vt 0.848633 0.978256
vt 0.848633 0.570801
vt 0.848633 0.570801
vt 0.858398 0.570801
vt 0.858398 0.978256
vt 0.812012 0.571289
vt 0.812012 0.978668
vt 0.799805 0.978668
vt 0.799805 0.978668
vt 0.799805 0.571289
vt 0.812012 0.571289
vt 0.845215 0.572021
vt 0.845215 0.979340
vt 0.833008 0.979340
vt 0.833008 0.979340
vt 0.833008 0.572021
vt 0.845215 0.572021
vt 0.827637 0.980072
vt 0.817871 0.980072
vt 0.817871 0.572754
vt 0.817871 0.572754
vt 0.827637 0.572754
vt 0.827637 0.980072
vt 0.377197 0.011230
vt 0.432373 0.011230
vt 0.432373 0.416992
vt 0.432373 0.416992
vt 0.377197 0.416992
vt 0.377197 0.011230
vt 0.858398 0.978256
vt 0.848633 0.978256
vt 0.848633 0.570801
vt 0.848633 0.570801
vt 0.858398 0.570801
vt 0.858398 0.978256
vt 0.812012 0.571289
vt 0.812012 0.978668
vt 0.799805 0.978668
vt 0.799805 0.978668
vt 0.799805 0.571289
vt 0.812012 0.571289
vt 0.845215 0.572021
vt 0.845215 0.979340
vt 0.833008 0.979340
vt 0.833008 0.979340
vt 0.833008 0.572021
vt 0.845215 0.572021
vt 0.827637 0.980072
vt 0.817871 0.980072
vt 0.817871 0.572754
vt 0.817871 0.572754
vt 0.827637 0.572754
vt 0.827637 0.980072
vt 0.327881 0.353027
vt 0.327881 0.432129
vt 0.318604 0.432129
vt 0.318604 0.432129
vt 0.318604 0.353027
vt 0.327881 0.353027
vt 0.315430 0.432129
vt 0.300537 0.432129
vt 0.300537 0.352539
vt 0.300537 0.352539
vt 0.315430 0.352539
vt 0.315430 0.432129
vt 0.270020 0.352051
vt 0.284912 0.352051
vt 0.284912 0.431641
vt 0.284912 0.431641
vt 0.270020 0.431641
vt 0.270020 0.352051
vt 0.269775 0.345215
vt 0.269775 0.335938
vt 0.284912 0.335938
vt 0.284912 0.335938
vt 0.284912 0.345215
vt 0.269775 0.345215
vt 0.288086 0.345215
vt 0.288086 0.335938
vt 0.303223 0.335938
vt 0.303223 0.335938
vt 0.303223 0.345215
vt 0.288086 0.345215
vt 0.287842 0.352539
vt 0.297363 0.352539
vt 0.297363 0.432129
vt 0.297363 0.432129
vt 0.287842 0.432129
vt 0.287842 0.352539
vt 0.327881 0.353027
vt 0.327881 0.432129
vt 0.318604 0.432129
vt 0.318604 0.432129
vt 0.318604 0.353027
vt 0.327881 0.353027
vt 0.315430 0.432129
vt 0.300537 0.432129
vt 0.300537 0.352539
vt 0.300537 0.352539
vt 0.315430 0.352539
vt 0.315430 0.432129
vt 0.270020 0.352051
vt 0.284912 0.352051
vt 0.284912 0.431641
vt 0.284912 0.431641
vt 0.270020 0.431641
vt 0.270020 0.352051
vt 0.269775 0.345215
vt 0.269775 0.335938
vt 0.284912 0.335938
vt 0.284912 0.335938
vt 0.284912 0.345215
vt 0.269775 0.345215
vt 0.288086 0.345215
vt 0.288086 0.335938
vt 0.303223 0.335938
vt 0.303223 0.335938
vt 0.303223 0.345215
vt 0.288086 0.345215
vt 0.287842 0.352539
vt 0.297363 0.352539
vt 0.297363 0.432129
vt 0.297363 0.432129
vt 0.287842 0.432129
vt 0.287842 0.352539
vt 0.858398 0.978256
vt 0.848633 0.978256
vt 0.848633 0.570801
vt 0.848633 0.570801
vt 0.858398 0.570801
vt 0.858398 0.978256
vt 0.812012 0.571289
vt 0.812012 0.978668
vt 0.799805 0.978668
vt 0.799805 0.978668
vt 0.799805 0.571289
vt 0.812012 0.571289
vt 0.845215 0.572021
vt 0.845215 0.979340
vt 0.833008 0.979340
vt 0.833008 0.979340
vt 0.833008 0.572021
vt 0.845215 0.572021
vt 0.827637 0.980072
vt 0.817871 0.980072
vt 0.817871 0.572754
vt 0.817871 0.572754
vt 0.827637 0.572754
vt 0.827637 0.980072
vt 0.377197 0.011230
vt 0.432373 0.011230
vt 0.432373 0.416992
vt 0.432373 0.416992
vt 0.377197 0.416992
vt 0.377197 0.011230
vt 0.858398 0.978256
vt 0.848633 0.978256
vt 0.848633 0.570801
vt 0.848633 0.570801
vt 0.858398 0.570801
vt 0.858398 0.978256
vt 0.812012 0.571289
vt 0.812012 0.978668
vt 0.799805 0.978668
vt 0.799805 0.978668
vt 0.799805 0.571289
vt 0.812012 0.571289
vt 0.845215 0.572021
vt 0.845215 0.979340
vt 0.833008 0.979340
vt 0.833008 0.979340
vt 0.833008 0.572021
vt 0.845215 0.572021
vt 0.827637 0.980072
vt 0.817871 0.980072
vt 0.817871 0.572754
vt 0.817871 0.572754
vt 0.827637 0.572754
vt 0.827637 0.980072
vt 0.327881 0.353027
vt 0.327881 0.432129
vt 0.318604 0.432129
vt 0.318604 0.432129
vt 0.318604 0.353027
vt 0.327881 0.353027
vt 0.315430 0.432129
vt 0.300537 0.432129
vt 0.300537 0.352539
vt 0.300537 0.352539
vt 0.315430 0.352539
vt 0.315430 0.432129
vt 0.270020 0.352051
vt 0.284912 0.352051
vt 0.284912 0.431641
vt 0.284912 0.431641
vt 0.270020 0.431641
vt 0.270020 0.352051
vt 0.269775 0.345215
vt 0.269775 0.335938
vt 0.284912 0.335938
vt 0.284912 0.335938
vt 0.284912 0.345215
vt 0.269775 0.345215
vt 0.288086 0.345215
vt 0.288086 0.335938
vt 0.303223 0.335938
vt 0.303223 0.335938
vt 0.303223 0.345215
vt 0.288086 0.345215
vt 0.287842 0.352539
vt 0.297363 0.352539
vt 0.297363 0.432129
vt 0.297363 0.432129
vt 0.287842 0.432129
vt 0.287842 0.352539
f 1/1/1 2/2/2 3/3/3
f 4/4/4 5/5/5 6/6/6
f 7/7/7 8/8/8 9/9/9
f 10/10/10 11/11/11 12/12/12
f 13/13/13 14/14/14 15/15/15
f 16/16/16 17/17/17 18/18/18
f 19/19/19 20/20/20 21/21/21
f 22/22/22 23/23/23 24/24/24
f 25/25/25 26/26/26 27/27/27
f 28/28/28 29/29/29 30/30/30
f 31/31/31 32/32/32 33/33/33
f 34/34/34 35/35/35 36/36/36
f 37/37/37 38/38/38 39/39/39
f 40/40/40 41/41/41 42/42/42
f 43/43/43 44/44/44 45/45/45
f 46/46/46 47/47/47 48/48/48
f 49/49/49 50/50/50 51/51/51
f 52/52/52 53/53/53 54/54/54
f 55/55/55 56/56/56 57/57/57
f 58/58/58 59/59/59 60/60/60
f 61/61/61 62/62/62 63/63/63
f 64/64/64 65/65/65 66/66/66
f 67/67/67 68/68/68 69/69/69
f 70/70/70 71/71/71 72/72/72
f 73/73/73 74/74/74 75/75/75
f 76/76/76 77/77/77 78/78/78
f 79/79/79 80/80/80 81/81/81
f 82/82/82 83/83/83 84/84/84
f 85/85/85 86/86/86 87/87/87
f 88/88/88 89/89/89 90/90/90
f 91/91/91 92/92/92 93/93/93
f 94/94/94 95/95/95 96/96/96
f 97/97/97 98/98/98 99/99/99
f 100/100/100 101/101/101 102/102/102
f 103/103/103 104/104/104 105/105/105
f 106/106/106 107/107/107 108/108/108
f 109/109/109 110/110/110 111/111/111
f 112/112/112 113/113/113 114/114/114
f 115/115/115 116/116/116 117/117/117
f 118/118/118 119/119/119 120/120/120
f 121/121/121 122/122/122 123/123/123
f 124/124/124 125/125/125 126/126/126
f 127/127/127 128/128/128 129/129/129
f 130/130/130 131/131/131 132/132/132
f 133/133/133 134/134/134 135/135/135
f 136/136/136 137/137/137 138/138/138
f 139/139/139 140/140/140 141/141/141
f 142/142/142 143/143/143 144/144/144
f 145/145/145 146/146/146 147/147/147
f 148/148/148 149/149/149 150/150/150
f 151/151/151 152/152/152 153/153/153
f 154/154/154 155/155/155 156/156/156
f 157/157/157 158/158/158 159/159/159
f 160/160/160 161/161/161 162/162/162
f 163/163/163 164/164/164 165/165/165
f 166/166/166 167/167/167 168/168/168
f 169/169/169 170/170/170 171/171/171
f 172/172/172 173/173/173 174/174/174
f 175/175/175 176/176/176 177/177/177
f 178/178/178 179/179/179 180/180/180
f 181/181/181 182/182/182 183/183/183
f 184/184/184 185/185/185 186/186/186
f 187/187/187 188/188/188 189/189/189
f 190/190/190 191/191/191 192/192/192
f 193/193/193 194/194/194 195/195/195
f 196/196/196 197/197/197 198/198/198
f 199/199/199 200/200/200 201/201/201
f 202/202/202 203/203/203 204/204/204
f 205/205/205 206/206/206 207/207/207
f 208/208/208 209/209/209 210/210/210
f 211/211/211 212/212/212 213/213/213
f 214/214/214 215/215/215 216/216/216
f 217/217/217 218/218/218 219/219/219
f 220/220/220 221/221/221 222/222/222
f 223/223/223 224/224/224 225/225/225
f 226/226/226 227/227/227 228/228/228
f 229/229/229 230/230/230 231/231/231
f 232/232/232 233/233/233 234/234/234
f 235/235/235 236/236/236 237/237/237
f 238/238/238 239/239/239 240/240/240
f 241/241/241 242/242/242 243/243/243
f 244/244/244 245/245/245 246/246/246
f 247/247/247 248/248/248 249/249/249
f 250/250/250 251/251/251 252/252/252
