# OBJ file
v 965.666000 1826.040000 1762.149900
v 965.666000 1826.039900 1954.542200
v 1000.143900 1868.799200 1762.149900
v 965.666000 1826.039900 1954.542200
v 1000.143900 1868.799200 1954.542500
v 1000.143900 1868.799200 1762.149900
v 1000.143900 1868.799200 1954.542500
v 1033.708700 1910.426400 1954.542500
v 1000.143900 1868.799200 1762.149900
v 1033.708700 1910.426400 1954.542500
v 1033.708700 1910.426400 1762.149700
v 1000.143900 1868.799200 1762.149900
v 777.547600 1592.735600 1762.149900
v 777.547500 1592.735600 1954.542500
v 811.016970 1634.244300 1762.149900
v 777.547500 1592.735600 1954.542500
v 811.016970 1634.244300 1954.542500
v 811.016970 1634.244300 1762.149900
v 811.016970 1634.244300 1954.542500
v 845.716250 1677.278400 1954.542500
v 811.016970 1634.244300 1762.149900
v 845.716250 1677.278400 1954.542500
v 845.716250 1677.278400 1762.149900
v 811.016970 1634.244300 1762.149900
v 589.204160 1359.152300 1762.149900
v 589.204200 1359.152200 1954.542200
v 623.681800 1401.911400 1762.149900
v 589.204200 1359.152200 1954.542200
v 623.681800 1401.911400 1954.542500
v 623.681800 1401.911400 1762.149900
v 623.681800 1401.911400 1954.542500
v 657.246950 1443.538500 1954.542500
v 623.681800 1401.911400 1762.149900
v 657.246950 1443.538500 1954.542500
v 657.246950 1443.538500 1762.149700
v 623.681800 1401.911400 1762.149900
v 400.679300 1125.343900 1762.149800
v 400.679230 1125.343900 1954.542400
v 435.157040 1168.102900 1762.149900
v 400.679230 1125.343900 1954.542400
v 435.157040 1168.102900 1954.542400
v 435.157040 1168.102900 1762.149900
v 435.157040 1168.102900 1954.542400
v 468.721920 1209.730100 1954.542400
v 435.157040 1168.102900 1762.149900
v 468.721920 1209.730100 1954.542400
v 468.721920 1209.730100 1762.149900
v 435.157040 1168.102900 1762.149900
v 325.592250 1175.888400 1409.113900
v 325.592200 1175.888400 1628.270600
v 363.982940 1223.500600 1409.113900
v 325.592200 1175.888400 1628.270600
v 363.982940 1223.500600 1628.270600
v 363.982940 1223.500600 1409.113900
v 363.982940 1223.500600 1628.270600
v 401.978180 1270.622100 1628.270600
v 363.982940 1223.500600 1409.113900
v 401.978180 1270.622100 1628.270600
v 401.978180 1270.622100 1409.113900
v 363.982940 1223.500600 1409.113900
v 513.929300 1409.463900 1409.113900
v 513.929200 1409.464000 1628.270600
v 552.320200 1457.075900 1409.113900
v 513.929200 1409.464000 1628.270600
v 552.320200 1457.075900 1628.270600
v 552.320200 1457.075900 1409.113900
v 552.320200 1457.075900 1628.270600
v 590.315300 1504.197800 1628.270600
v 552.320200 1457.075900 1409.113900
v 590.315300 1504.197800 1628.270600
v 590.315300 1504.197800 1409.113900
v 552.320200 1457.075900 1409.113900
v 702.122400 1642.861000 1409.113900
v 702.122250 1642.860800 1628.270600
v 740.513100 1690.472900 1409.113900
v 702.122250 1642.860800 1628.270600
v 740.513100 1690.472900 1628.270600
v 740.513100 1690.472900 1409.113900
v 740.513100 1690.472900 1628.270600
v 778.508300 1737.594500 1628.270600
v 740.513100 1690.472900 1409.113900
v 778.508300 1737.594500 1628.270600
v 778.508300 1737.594500 1409.113900
v 740.513100 1690.472900 1409.113900
v 890.731930 1876.774200 1409.113600
v 890.731800 1876.774300 1628.270400
v 929.122800 1924.386100 1409.113600
v 890.731800 1876.774300 1628.270400
v 929.122800 1924.386100 1628.270400
v 929.122800 1924.386100 1409.113600
v 929.122800 1924.386100 1628.270400
v 967.118000 1971.508000 1628.270400
v 929.122800 1924.386100 1409.113600
v 967.118000 1971.508000 1628.270400
v 967.118000 1971.508000 1409.113600
v 929.122800 1924.386100 1409.113600
v 702.122300 1642.860700 1097.880100
v 702.122100 1642.860800 1317.036900
v 740.513060 1690.472800 1097.880100
v 702.122100 1642.860800 1317.036900
v 740.513060 1690.472800 1317.036900
v 740.513060 1690.472800 1097.880100
v 740.513060 1690.472800 1317.036900
v 778.508300 1737.594500 1317.036900
v 740.513060 1690.472800 1097.880100
v 778.508300 1737.594500 1317.036900
v 778.508300 1737.594500 1097.880200
v 740.513060 1690.472800 1097.880100
v 513.929260 1409.463700 1097.880200
v 513.929100 1409.463900 1317.037000
v 552.319800 1457.075700 1097.880200
v 513.929100 1409.463900 1317.037000
v 552.319800 1457.075700 1317.037000
v 552.319800 1457.075700 1097.880200
v 552.319800 1457.075700 1317.037000
v 590.314940 1504.197500 1317.037000
v 552.319800 1457.075700 1097.880200
v 590.314940 1504.197500 1317.037000
v 590.314940 1504.197500 1097.880400
v 552.319800 1457.075700 1097.880200
v 325.592130 1175.888500 1097.880100
v 325.592070 1175.888300 1317.036900
v 363.982850 1223.500600 1097.880100
v 325.592070 1175.888300 1317.036900
v 363.982850 1223.500500 1317.036900
v 363.982850 1223.500600 1097.880100
v 363.982850 1223.500500 1317.036900
v 401.978120 1270.622100 1317.036900
v 363.982850 1223.500600 1097.880100
v 401.978120 1270.622100 1317.036900
v 401.978120 1270.622200 1097.880200
v 363.982850 1223.500600 1097.880100
v 325.592070 1175.888300 799.242500
v 325.592000 1175.888400 1018.399400
v 363.982800 1223.500500 799.242500
v 325.592000 1175.888400 1018.399400
v 363.982800 1223.500500 1018.399200
v 363.982800 1223.500500 799.242500
v 363.982800 1223.500500 1018.399200
v 401.978030 1270.622200 1018.399400
v 363.982800 1223.500500 799.242500
v 401.978030 1270.622200 1018.399400
v 401.978030 1270.622200 799.242500
v 363.982800 1223.500500 799.242500
v 515.712600 1411.675500 799.242430
v 515.712500 1411.675700 1018.399200
v 554.103300 1459.287700 799.242430
v 515.712500 1411.675700 1018.399200
v 554.103300 1459.287700 1018.399200
v 554.103300 1459.287700 799.242430
v 554.103300 1459.287700 1018.399200
v 592.098500 1506.409500 1018.399300
v 554.103300 1459.287700 799.242430
v 592.098500 1506.409500 1018.399300
v 592.098500 1506.409500 799.242430
v 554.103300 1459.287700 799.242430
v 890.731930 1876.774300 799.242550
v 890.731800 1876.774300 1018.399400
v 929.122560 1924.386500 799.242550
v 890.731800 1876.774300 1018.399400
v 929.122560 1924.386400 1018.399300
v 929.122560 1924.386500 799.242550
v 929.122560 1924.386400 1018.399300
v 967.118000 1971.508000 1018.399400
v 929.122560 1924.386500 799.242550
v 967.118000 1971.508000 1018.399400
v 967.118000 1971.508200 799.242550
v 929.122560 1924.386500 799.242550
v 890.731930 1876.774000 499.087650
v 890.731800 1876.774400 718.244450
v 929.122560 1924.386200 499.087650
v 890.731800 1876.774400 718.244450
v 929.122560 1924.386500 718.244450
v 929.122560 1924.386200 499.087650
v 929.122560 1924.386500 718.244450
v 967.118000 1971.508200 718.244450
v 929.122560 1924.386200 499.087650
v 967.118000 1971.508200 718.244450
v 967.118000 1971.508200 499.087650
v 929.122560 1924.386200 499.087650
v 513.929140 1409.463700 499.087500
v 513.929100 1409.464000 718.244300
v 552.319800 1457.075900 499.087500
v 513.929100 1409.464000 718.244300
v 552.319800 1457.075800 718.244300
v 552.319800 1457.075900 499.087500
v 552.319800 1457.075800 718.244300
v 590.315060 1504.197600 718.244300
v 552.319800 1457.075900 499.087500
v 590.315060 1504.197600 718.244300
v 590.315200 1504.197500 499.087500
v 552.319800 1457.075900 499.087500
v 702.122500 1642.861100 799.242550
v 702.122400 1642.860800 1018.399400
v 740.513100 1690.473000 799.242550
v 702.122400 1642.860800 1018.399400
v 740.513100 1690.472900 1018.399300
v 740.513100 1690.473000 799.242550
v 740.513100 1690.472900 1018.399300
v 778.508240 1737.594500 1018.399400
v 740.513100 1690.473000 799.242550
v 778.508240 1737.594500 1018.399400
v 778.508240 1737.594600 799.242550
v 740.513100 1690.473000 799.242550
v 890.732060 1876.774200 1097.880400
v 890.731800 1876.774300 1317.037100
v 929.122800 1924.386100 1097.880400
v 890.731800 1876.774300 1317.037100
v 929.122800 1924.386100 1317.037100
v 929.122800 1924.386100 1097.880400
v 929.122800 1924.386100 1317.037100
v 967.118000 1971.508000 1317.037100
v 929.122800 1924.386100 1097.880400
v 967.118000 1971.508000 1317.037100
v 967.118000 1971.508000 1097.880500
v 929.122800 1924.386100 1097.880400
v 325.592300 1175.888500 499.087500
v 325.592220 1175.888500 718.244260
v 363.982900 1223.500600 499.087500
v 325.592220 1175.888500 718.244260
v 363.982900 1223.500600 718.244260
v 363.982900 1223.500600 499.087500
v 363.982900 1223.500600 718.244260
v 401.978100 1270.622000 718.244140
v 363.982900 1223.500600 499.087500
v 401.978100 1270.622000 718.244140
v 401.978100 1270.622000 499.087500
v 363.982900 1223.500600 499.087500
v 702.122300 1642.860800 499.087650
v 702.122100 1642.861000 718.244300
v 740.512940 1690.473000 499.087650
v 702.122100 1642.861000 718.244300
v 740.513060 1690.472900 718.244300
v 740.512940 1690.473000 499.087650
v 740.513060 1690.472900 718.244300
v 778.508300 1737.594500 718.244300
v 740.512940 1690.473000 499.087650
v 778.508300 1737.594500 718.244300
v 778.508300 1737.594600 499.087650
v 740.512940 1690.473000 499.087650
v 498.579280 1429.184000 349.990800
v 569.817100 1517.533000 349.990840
v 498.579380 1429.184000 127.184920
v 569.817100 1517.533000 349.990840
v 569.817100 1517.532800 127.184930
v 498.579380 1429.184000 127.184920
vn -0.777421 0.628969 -0.003907
vn -0.777421 0.628969 -0.003907
vn -0.777421 0.628969 -0.003907
vn -0.777421 0.628969 -0.003907
vn -0.777421 0.628969 -0.003907
vn -0.777421 0.628969 -0.003907
vn -0.777421 0.628969 -0.003907
vn -0.777421 0.628969 -0.003907
vn -0.777421 0.628969 -0.003907
vn -0.777421 0.628969 -0.003907
vn -0.777421 0.628969 -0.003907
vn -0.777421 0.628969 -0.003907
vn -0.777421 0.628969 -0.003907
vn -0.777421 0.628969 -0.003907
vn -0.777421 0.628969 -0.003907
vn -0.777421 0.628969 -0.003907
vn -0.777421 0.628969 -0.003907
vn -0.777421 0.628969 -0.003907
vn -0.777421 0.628969 -0.003907
vn -0.777421 0.628969 -0.003907
vn -0.777421 0.628969 -0.003907
vn -0.777421 0.628969 -0.003907
vn -0.777421 0.628969 -0.003907
vn -0.777421 0.628969 -0.003907
vn -0.777421 0.628969 -0.003907
vn -0.777421 0.628969 -0.003907
vn -0.777421 0.628969 -0.003907
vn -0.777421 0.628969 -0.003907
vn -0.777421 0.628969 -0.003907
vn -0.777421 0.628969 -0.003907
vn -0.777421 0.628969 -0.003907
vn -0.777421 0.628969 -0.003907
vn -0.777421 0.628969 -0.003907
vn -0.777421 0.628969 -0.003907
vn -0.777421 0.628969 -0.003907
vn -0.777421 0.628969 -0.003907
vn -0.777421 0.628969 -0.003907
vn -0.777421 0.628969 -0.003907
vn -0.777421 0.628969 -0.003907
vn -0.777421 0.628969 -0.003907
vn -0.777421 0.628969 -0.003907
vn -0.777421 0.628969 -0.003907
vn -0.777421 0.628969 -0.003907
vn -0.777421 0.628969 -0.003907
vn -0.777421 0.628969 -0.003907
vn -0.777421 0.628969 -0.003907
vn -0.777421 0.628969 -0.003907
vn -0.777421 0.628969 -0.003907
vn -0.777421 0.628969 -0.003907
vn -0.777421 0.628969 -0.003907
vn -0.777421 0.628969 -0.003907
vn -0.777421 0.628969 -0.003907
vn -0.777421 0.628969 -0.003907
vn -0.777421 0.628969 -0.003907
vn -0.777421 0.628969 -0.003907
vn -0.777421 0.628969 -0.003907
vn -0.777421 0.628969 -0.003907
vn -0.777421 0.628969 -0.003907
vn -0.777421 0.628969 -0.003907
vn -0.777421 0.628969 -0.003907
vn -0.777421 0.628969 -0.003907
vn -0.777421 0.628969 -0.003907
vn -0.777421 0.628969 -0.003907
vn -0.777421 0.628969 -0.003907
vn -0.777421 0.628969 -0.003907
vn -0.777421 0.628969 -0.003907
vn -0.777421 0.628969 -0.003907
vn -0.777421 0.628969 -0.003907
vn -0.777421 0.628969 -0.003907
vn -0.777421 0.628969 -0.003907
vn -0.777421 0.628969 -0.003907
vn -0.777421 0.628969 -0.003907
vn -0.777421 0.628969 -0.003907
vn -0.777421 0.628969 -0.003907
vn -0.777421 0.628969 -0.003907
vn -0.777421 0.628969 -0.003907
vn -0.777421 0.628969 -0.003907
vn -0.777421 0.628969 -0.003907
vn -0.777421 0.628969 -0.003907
vn -0.777421 0.628969 -0.003907
vn -0.777421 0.628969 -0.003907
vn -0.777421 0.628969 -0.003907
vn -0.777421 0.628969 -0.003907
vn -0.777421 0.628969 -0.003907
vn -0.777421 0.628969 -0.003907
vn -0.777421 0.628969 -0.003907
vn -0.777421 0.628969 -0.003907
vn -0.777421 0.628969 -0.003907
vn -0.777421 0.628969 -0.003907
vn -0.777421 0.628969 -0.003907
vn -0.777421 0.628969 -0.003907
vn -0.777421 0.628969 -0.003907
vn -0.777421 0.628969 -0.003907
vn -0.777421 0.628969 -0.003907
vn -0.777421 0.628969 -0.003907
vn -0.777421 0.628969 -0.003907
vn -0.777421 0.628969 -0.003907
vn -0.777421 0.628969 -0.003907
vn -0.777421 0.628969 -0.003907
vn -0.777421 0.628969 -0.003907
vn -0.777421 0.628969 -0.003907
vn -0.777421 0.628969 -0.003907
vn -0.777421 0.628969 -0.003907
vn -0.777421 0.628969 -0.003907
vn -0.777421 0.628969 -0.003907
vn -0.777421 0.628969 -0.003907
vn -0.777421 0.628969 -0.003907
vn -0.777421 0.628969 -0.003907
vn -0.777421 0.628969 -0.003907
vn -0.777421 0.628969 -0.003907
vn -0.777421 0.628969 -0.003907
vn -0.777421 0.628969 -0.003907
vn -0.777421 0.628969 -0.003907
vn -0.777421 0.628969 -0.003907
vn -0.777421 0.628969 -0.003907
vn -0.777421 0.628969 -0.003907
vn -0.777421 0.628969 -0.003907
vn -0.777421 0.628969 -0.003907
vn -0.777421 0.628969 -0.003907
vn -0.777421 0.628969 -0.003907
vn -0.777421 0.628969 -0.003907
vn -0.777421 0.628969 -0.003907
vn -0.777421 0.628969 -0.003907
vn -0.777421 0.628969 -0.003907
vn -0.777421 0.628969 -0.003907
vn -0.777421 0.628969 -0.003907
vn -0.777421 0.628969 -0.003907
vn -0.777421 0.628969 -0.003907
vn -0.777421 0.628969 -0.003907
vn -0.777421 0.628969 -0.003907
vn -0.777421 0.628969 -0.003907
vn -0.777421 0.628969 -0.003907
vn -0.777421 0.628969 -0.003907
vn -0.777421 0.628969 -0.003907
vn -0.777421 0.628969 -0.003907
vn -0.777421 0.628969 -0.003907
vn -0.777421 0.628969 -0.003907
vn -0.777421 0.628969 -0.003907
vn -0.777421 0.628969 -0.003907
vn -0.777421 0.628969 -0.003907
vn -0.777421 0.628969 -0.003907
vn -0.777421 0.628969 -0.003907
vn -0.777421 0.628969 -0.003907
vn -0.777421 0.628969 -0.003907
vn -0.777421 0.628969 -0.003907
vn -0.777421 0.628969 -0.003907
vn -0.777421 0.628969 -0.003907
vn -0.777421 0.628969 -0.003907
vn -0.777421 0.628969 -0.003907
vn -0.777421 0.628969 -0.003907
vn -0.777421 0.628969 -0.003907
vn -0.777421 0.628969 -0.003907
vn -0.777421 0.628969 -0.003907
vn -0.777421 0.628969 -0.003907
vn -0.777421 0.628969 -0.003907
vn -0.777421 0.628969 -0.003907
vn -0.777421 0.628969 -0.003907
vn -0.777421 0.628969 -0.003907
vn -0.777421 0.628969 -0.003907
vn -0.777421 0.628969 -0.003907
vn -0.777421 0.628969 -0.003907
vn -0.777421 0.628969 -0.003907
vn -0.777421 0.628969 -0.003907
vn -0.777421 0.628969 -0.003907
vn -0.777421 0.628969 -0.003907
vn -0.777421 0.628969 -0.003907
vn -0.777421 0.628969 -0.003907
vn -0.777421 0.628969 -0.003907
vn -0.777421 0.628969 -0.003907
vn -0.777421 0.628969 -0.003907
vn -0.777421 0.628969 -0.003907
vn -0.777421 0.628969 -0.003907
vn -0.777421 0.628969 -0.003907
vn -0.777421 0.628969 -0.003907
vn -0.777421 0.628969 -0.003907
vn -0.777421 0.628969 -0.003907
vn -0.777421 0.628969 -0.003907
vn -0.777421 0.628969 -0.003907
vn -0.777421 0.628969 -0.003907
vn -0.777421 0.628969 -0.003907
vn -0.777421 0.628969 -0.003907
vn -0.777421 0.628969 -0.003907
vn -0.777421 0.628969 -0.003907
vn -0.777421 0.628969 -0.003907
vn -0.777421 0.628969 -0.003907
vn -0.777421 0.628969 -0.003907
vn -0.777421 0.628969 -0.003907
vn -0.777421 0.628969 -0.003907
vn -0.777421 0.628969 -0.003907
vn -0.777421 0.628969 -0.003907
vn -0.777421 0.628969 -0.003907
vn -0.777421 0.628969 -0.003907
vn -0.777421 0.628969 -0.003907
vn -0.777421 0.628969 -0.003907
vn -0.777421 0.628969 -0.003907
vn -0.777421 0.628969 -0.003907
vn -0.777421 0.628969 -0.003907
vn -0.777421 0.628969 -0.003907
vn -0.777421 0.628969 -0.003907
vn -0.777421 0.628969 -0.003907
vn -0.777421 0.628969 -0.003907
vn -0.777421 0.628969 -0.003907
vn -0.777421 0.628969 -0.003907
vn -0.777421 0.628969 -0.003907
vn -0.777421 0.628969 -0.003907
vn -0.777421 0.628969 -0.003907
vn -0.777421 0.628969 -0.003907
vn -0.777421 0.628969 -0.003907
vn -0.777421 0.628969 -0.003907
vn -0.777421 0.628969 -0.003907
vn -0.777421 0.628969 -0.003907
vn -0.777421 0.628969 -0.003907
vn -0.777421 0.628969 -0.003907
vn -0.777421 0.628969 -0.003907
vn -0.777421 0.628969 -0.003907
vn -0.777421 0.628969 -0.003907
vn -0.777421 0.628969 -0.003907
vn -0.777421 0.628969 -0.003907
vn -0.777421 0.628969 -0.003907
vn -0.777421 0.628969 -0.003907
vn -0.777421 0.628969 -0.003907
vn -0.777421 0.628969 -0.003907
vn -0.777421 0.628969 -0.003907
vn -0.777421 0.628969 -0.003907
vn -0.777421 0.628969 -0.003907
vn -0.777421 0.628969 -0.003907
vn -0.777421 0.628969 -0.003907
vn -0.777421 0.628969 -0.003907
vn -0.777421 0.628969 -0.003907
vn -0.777421 0.628969 -0.003907
vn -0.777421 0.628969 -0.003907
vn -0.777421 0.628969 -0.003907
vn -0.777421 0.628969 -0.003907
vn -0.777421 0.628969 -0.003907
vn -0.777421 0.628969 -0.003907
vn -0.777421 0.628969 -0.003907
vn -0.777421 0.628969 -0.003907
vn -0.777421 0.628969 -0.003907
vn -0.777421 0.628969 -0.003907
vn -0.777421 0.628969 -0.003907
vn -0.777421 0.628969 -0.003907
vn -0.777421 0.628969 -0.003907
vn -0.777421 0.628969 -0.003907
vn -0.777421 0.628969 -0.003907
vn -0.777421 0.628969 -0.003907
vn -0.777421 0.628969 -0.003907
vt 0.001966 0.222168
vt 0.001966 0.999208
vt 0.252197 0.222168
vt 0.001966 0.999208
vt 0.252197 0.999208
vt 0.252197 0.222168
vt 0.503418 0.999208
vt 0.252197 0.999208
vt 0.503418 0.222168
vt 0.252197 0.999208
vt 0.252197 0.222168
vt 0.503418 0.222168
vt 0.504883 0.191406
vt 0.504883 0.989738
vt 0.747070 0.191406
vt 0.504883 0.989738
vt 0.747070 0.989738
vt 0.747070 0.191406
vt 0.747070 0.989548
vt 0.504883 0.989548
vt 0.747070 0.191895
vt 0.504883 0.989548
vt 0.504883 0.191895
vt 0.747070 0.191895
vt 0.001966 0.222168
vt 0.001966 0.999208
vt 0.252197 0.222168
vt 0.001966 0.999208
vt 0.252197 0.999208
vt 0.252197 0.222168
vt 0.503418 0.999208
vt 0.252197 0.999208
vt 0.503418 0.222168
vt 0.252197 0.999208
vt 0.252197 0.222168
vt 0.503418 0.222168
vt 0.001966 0.222168
vt 0.001966 0.999208
vt 0.252197 0.222168
vt 0.001966 0.999208
vt 0.252197 0.999208
vt 0.252197 0.222168
vt 0.503418 0.999208
vt 0.252197 0.999208
vt 0.503418 0.222168
vt 0.252197 0.999208
vt 0.252197 0.222168
vt 0.503418 0.222168
vt 0.001966 0.222168
vt 0.001966 0.999208
vt 0.252197 0.222168
vt 0.001966 0.999208
vt 0.252197 0.999208
vt 0.252197 0.222168
vt 0.503418 0.999208
vt 0.252197 0.999208
vt 0.503418 0.222168
vt 0.252197 0.999208
vt 0.252197 0.222168
vt 0.503418 0.222168
vt 0.001966 0.222168
vt 0.001966 0.999208
vt 0.252197 0.222168
vt 0.001966 0.999208
vt 0.252197 0.999208
vt 0.252197 0.222168
vt 0.503418 0.999208
vt 0.252197 0.999208
vt 0.503418 0.222168
vt 0.252197 0.999208
vt 0.252197 0.222168
vt 0.503418 0.222168
vt 0.001966 0.222168
vt 0.001966 0.999208
vt 0.252197 0.222168
vt 0.001966 0.999208
vt 0.252197 0.999208
vt 0.252197 0.222168
vt 0.503418 0.999208
vt 0.252197 0.999208
vt 0.503418 0.222168
vt 0.252197 0.999208
vt 0.252197 0.222168
vt 0.503418 0.222168
vt 0.502930 0.177246
vt 0.502930 0.989822
vt 0.752930 0.177246
vt 0.502930 0.989822
vt 0.752930 0.989822
vt 0.752930 0.177246
vt 1.000977 0.989822
vt 0.750488 0.989822
vt 1.000977 0.177246
vt 0.750488 0.989822
vt 0.750488 0.177246
vt 1.000977 0.177246
vt 0.001966 0.222168
vt 0.001966 0.999208
vt 0.252197 0.222168
vt 0.001966 0.999208
vt 0.252197 0.999208
vt 0.252197 0.222168
vt 0.503418 0.999208
vt 0.252197 0.999208
vt 0.503418 0.222168
vt 0.252197 0.999208
vt 0.252197 0.222168
vt 0.503418 0.222168
vt 0.496338 0.222168
vt 0.496338 0.999208
vt 0.746582 0.222168
vt 0.496338 0.999208
vt 0.746582 0.999208
vt 0.746582 0.222168
vt 0.748535 0.999208
vt 0.497559 0.999208
vt 0.748535 0.222168
vt 0.497559 0.999208
vt 0.497559 0.222168
vt 0.748535 0.222168
vt 0.001966 0.222168
vt 0.001966 0.999208
vt 0.252197 0.222168
vt 0.001966 0.999208
vt 0.252197 0.999208
vt 0.252197 0.222168
vt 0.503418 0.999208
vt 0.252197 0.999208
vt 0.503418 0.222168
vt 0.252197 0.999208
vt 0.252197 0.222168
vt 0.503418 0.222168
vt 0.748047 0.201660
vt 0.748047 0.999208
vt 1.004883 0.201660
vt 0.748047 0.999208
vt 1.004883 0.999208
vt 1.004883 0.201660
vt 1.003906 0.999208
vt 0.746582 0.999208
vt 1.003906 0.201660
vt 0.746582 0.999208
vt 0.746582 0.201660
vt 1.003906 0.201660
vt 0.001966 0.222168
vt 0.001966 0.999208
vt 0.252197 0.222168
vt 0.001966 0.999208
vt 0.252197 0.999208
vt 0.252197 0.222168
vt 0.503418 0.999208
vt 0.252197 0.999208
vt 0.503418 0.222168
vt 0.252197 0.999208
vt 0.252197 0.222168
vt 0.503418 0.222168
vt 0.001966 0.222168
vt 0.001966 0.999208
vt 0.252197 0.222168
vt 0.001966 0.999208
vt 0.252197 0.999208
vt 0.252197 0.222168
vt 0.503418 0.999208
vt 0.252197 0.999208
vt 0.503418 0.222168
vt 0.252197 0.999208
vt 0.252197 0.222168
vt 0.503418 0.222168
vt 0.001966 0.222168
vt 0.001966 0.999208
vt 0.252197 0.222168
vt 0.001966 0.999208
vt 0.252197 0.999208
vt 0.252197 0.222168
vt 0.503418 0.999208
vt 0.252197 0.999208
vt 0.503418 0.222168
vt 0.252197 0.999208
vt 0.252197 0.222168
vt 0.503418 0.222168
vt 0.001966 0.222168
vt 0.001966 0.999208
vt 0.252197 0.222168
vt 0.001966 0.999208
vt 0.252197 0.999208
vt 0.252197 0.222168
vt 0.503418 0.999208
vt 0.252197 0.999208
vt 0.503418 0.222168
vt 0.252197 0.999208
vt 0.252197 0.222168
vt 0.503418 0.222168
vt 0.496338 0.222168
vt 0.496338 0.999208
vt 0.746582 0.222168
vt 0.496338 0.999208
vt 0.746582 0.999208
vt 0.746582 0.222168
vt 0.748535 0.999208
vt 0.497559 0.999208
vt 0.748535 0.222168
vt 0.497559 0.999208
vt 0.497559 0.222168
vt 0.748535 0.222168
vt 0.496338 0.222168
vt 0.496338 0.999208
vt 0.746582 0.222168
vt 0.496338 0.999208
vt 0.746582 0.999208
vt 0.746582 0.222168
vt 0.748535 0.999208
vt 0.497559 0.999208
vt 0.748535 0.222168
vt 0.497559 0.999208
vt 0.497559 0.222168
vt 0.748535 0.222168
vt 0.496338 0.222168
vt 0.496338 0.999208
vt 0.746582 0.222168
vt 0.496338 0.999208
vt 0.746582 0.999208
vt 0.746582 0.222168
vt 0.748535 0.999208
vt 0.497559 0.999208
vt 0.748535 0.222168
vt 0.497559 0.999208
vt 0.497559 0.222168
vt 0.748535 0.222168
vt 0.748047 0.201660
vt 0.748047 0.999208
vt 1.004883 0.201660
vt 0.748047 0.999208
vt 1.004883 0.999208
vt 1.004883 0.201660
vt 1.003906 0.999208
vt 0.746582 0.999208
vt 1.003906 0.201660
vt 0.746582 0.999208
vt 0.746582 0.201660
vt 1.003906 0.201660
vt 0.498535 0.993542
vt 0.251709 0.993542
vt 0.498535 0.504883
vt 0.251709 0.993542
vt 0.251709 0.504883
vt 0.498535 0.504883
f 1/1/1 2/2/2 3/3/3
f 4/4/4 5/5/5 6/6/6
f 7/7/7 8/8/8 9/9/9
f 10/10/10 11/11/11 12/12/12
f 13/13/13 14/14/14 15/15/15
f 16/16/16 17/17/17 18/18/18
f 19/19/19 20/20/20 21/21/21
f 22/22/22 23/23/23 24/24/24
f 25/25/25 26/26/26 27/27/27
f 28/28/28 29/29/29 30/30/30
f 31/31/31 32/32/32 33/33/33
f 34/34/34 35/35/35 36/36/36
f 37/37/37 38/38/38 39/39/39
f 40/40/40 41/41/41 42/42/42
f 43/43/43 44/44/44 45/45/45
f 46/46/46 47/47/47 48/48/48
f 49/49/49 50/50/50 51/51/51
f 52/52/52 53/53/53 54/54/54
f 55/55/55 56/56/56 57/57/57
f 58/58/58 59/59/59 60/60/60
f 61/61/61 62/62/62 63/63/63
f 64/64/64 65/65/65 66/66/66
f 67/67/67 68/68/68 69/69/69
f 70/70/70 71/71/71 72/72/72
f 73/73/73 74/74/74 75/75/75
f 76/76/76 77/77/77 78/78/78
f 79/79/79 80/80/80 81/81/81
f 82/82/82 83/83/83 84/84/84
f 85/85/85 86/86/86 87/87/87
f 88/88/88 89/89/89 90/90/90
f 91/91/91 92/92/92 93/93/93
f 94/94/94 95/95/95 96/96/96
f 97/97/97 98/98/98 99/99/99
f 100/100/100 101/101/101 102/102/102
f 103/103/103 104/104/104 105/105/105
f 106/106/106 107/107/107 108/108/108
f 109/109/109 110/110/110 111/111/111
f 112/112/112 113/113/113 114/114/114
f 115/115/115 116/116/116 117/117/117
f 118/118/118 119/119/119 120/120/120
f 121/121/121 122/122/122 123/123/123
f 124/124/124 125/125/125 126/126/126
f 127/127/127 128/128/128 129/129/129
f 130/130/130 131/131/131 132/132/132
f 133/133/133 134/134/134 135/135/135
f 136/136/136 137/137/137 138/138/138
f 139/139/139 140/140/140 141/141/141
f 142/142/142 143/143/143 144/144/144
f 145/145/145 146/146/146 147/147/147
f 148/148/148 149/149/149 150/150/150
f 151/151/151 152/152/152 153/153/153
f 154/154/154 155/155/155 156/156/156
f 157/157/157 158/158/158 159/159/159
f 160/160/160 161/161/161 162/162/162
f 163/163/163 164/164/164 165/165/165
f 166/166/166 167/167/167 168/168/168
f 169/169/169 170/170/170 171/171/171
f 172/172/172 173/173/173 174/174/174
f 175/175/175 176/176/176 177/177/177
f 178/178/178 179/179/179 180/180/180
f 181/181/181 182/182/182 183/183/183
f 184/184/184 185/185/185 186/186/186
f 187/187/187 188/188/188 189/189/189
f 190/190/190 191/191/191 192/192/192
f 193/193/193 194/194/194 195/195/195
f 196/196/196 197/197/197 198/198/198
f 199/199/199 200/200/200 201/201/201
f 202/202/202 203/203/203 204/204/204
f 205/205/205 206/206/206 207/207/207
f 208/208/208 209/209/209 210/210/210
f 211/211/211 212/212/212 213/213/213
f 214/214/214 215/215/215 216/216/216
f 217/217/217 218/218/218 219/219/219
f 220/220/220 221/221/221 222/222/222
f 223/223/223 224/224/224 225/225/225
f 226/226/226 227/227/227 228/228/228
f 229/229/229 230/230/230 231/231/231
f 232/232/232 233/233/233 234/234/234
f 235/235/235 236/236/236 237/237/237
f 238/238/238 239/239/239 240/240/240
f 241/241/241 242/242/242 243/243/243
f 244/244/244 245/245/245 246/246/246
