# OBJ file
v -46.056477 518.488100 82.645100
v -46.026550 518.543600 82.731340
v -57.760430 496.779700 100.681020
v -46.026550 518.543600 82.731340
v -57.730500 496.835240 100.767250
v -57.760430 496.779700 100.681020
v -23.048326 561.162800 52.606450
v -23.021135 561.213200 52.696620
v -36.210670 536.749400 70.227776
v -23.021135 561.213200 52.696620
v -36.183483 536.799800 70.317955
v -36.210670 536.749400 70.227776
v -47.535545 515.744750 68.001350
v -47.560430 515.698600 68.094440
v -59.510426 493.533840 53.786106
v -47.560430 515.698600 68.094440
v -59.535310 493.487700 53.879192
v -59.510426 493.533840 53.786106
v -25.425577 556.753540 100.509350
v -25.454070 556.700600 100.597700
v -37.553684 534.258400 83.145480
v -25.454070 556.700600 100.597700
v -37.582180 534.205570 83.233850
v -37.553684 534.258400 83.145480
v -47.562410 515.705500 78.318690
v -47.549187 515.729900 78.356640
v -59.266354 493.997070 96.354610
v -47.549187 515.729900 78.356640
v -59.253130 494.021500 96.392560
v -59.266354 493.997070 96.354610
v -24.416784 558.635130 48.082410
v -24.404768 558.657300 48.122093
v -37.579132 534.221740 65.703735
v -24.404768 558.657300 48.122093
v -37.567116 534.243960 65.743420
v -37.579132 534.221740 65.703735
v -46.291466 518.062800 63.331505
v -46.302370 518.042500 63.372467
v -58.266346 495.851930 49.116260
v -46.302370 518.042500 63.372467
v -58.277250 495.831540 49.157223
v -58.266346 495.851930 49.116260
v -24.000471 559.407300 96.075950
v -24.012964 559.384030 96.114840
v -36.128582 536.912200 78.712080
v -24.012964 559.384030 96.114840
v -36.141070 536.888900 78.750980
v -36.128582 536.912200 78.712080
v -42.979600 512.806100 77.802910
v -54.683548 491.097750 95.838840
v -58.842197 493.339940 95.838840
v -47.138252 515.048300 77.802910
v -42.979600 512.806100 77.802910
v -58.842197 493.339940 95.838840
v -47.138252 515.048300 77.802910
v -58.842197 493.339940 95.838840
v -59.446026 493.665470 95.838840
v -47.742080 515.373840 77.802920
v -47.138252 515.048300 77.802910
v -59.446026 493.665470 95.838840
v -47.742080 515.373840 77.802920
v -59.446026 493.665470 95.838840
v -59.253130 494.021500 96.392560
v -47.549187 515.729900 78.356640
v -47.742080 515.373840 77.802920
v -59.253130 494.021500 96.392560
v -19.817583 555.766200 47.543076
v -32.979930 531.352840 65.164406
v -37.138584 533.595000 65.164400
v -23.976236 558.008300 47.543076
v -19.817583 555.766200 47.543076
v -37.138584 533.595000 65.164400
v -23.976236 558.008300 47.543076
v -37.138584 533.595000 65.164400
v -37.742413 533.920530 65.164406
v -24.580069 558.333860 47.543076
v -23.976236 558.008300 47.543076
v -37.742413 533.920530 65.164406
v -24.580069 558.333860 47.543076
v -37.742413 533.920530 65.164406
v -37.567116 534.243960 65.743420
v -24.404768 558.657300 48.122093
v -24.580069 558.333860 47.543076
v -37.567116 534.243960 65.743420
v -41.380814 515.771500 62.774784
v -53.355698 493.560580 48.559544
v -57.514350 495.802760 48.559544
v -45.539467 518.013700 62.774790
v -41.380814 515.771500 62.774784
v -57.514350 495.802760 48.559544
v -45.539467 518.013700 62.774790
v -57.514350 495.802760 48.559544
v -58.118176 496.128330 48.559540
v -46.143295 518.339230 62.774784
v -45.539467 518.013700 62.774790
v -58.118176 496.128330 48.559540
v -46.143295 518.339230 62.774784
v -58.118176 496.128330 48.559540
v -58.277250 495.831540 49.157223
v -46.302370 518.042500 63.372467
v -46.143295 518.339230 62.774784
v -58.277250 495.831540 49.157223
v -19.068240 557.156000 95.547420
v -31.196346 534.660950 78.183556
v -35.355003 536.903100 78.183556
v -23.226889 559.398200 95.547420
v -19.068240 557.156000 95.547420
v -35.355003 536.903100 78.183556
v -23.226889 559.398200 95.547420
v -35.355003 536.903100 78.183556
v -35.958830 537.228640 78.183556
v -23.830720 559.723700 95.547420
v -23.226889 559.398200 95.547420
v -35.958830 537.228640 78.183556
v -23.830720 559.723700 95.547420
v -35.958830 537.228640 78.183556
v -36.141070 536.888900 78.750980
v -24.012964 559.384030 96.114840
v -23.830720 559.723700 95.547420
v -36.141070 536.888900 78.750980
v -46.056477 518.488100 82.645100
v -57.760430 496.779700 100.681020
v -57.568253 497.136100 101.234740
v -45.864304 518.844540 83.198830
v -46.056477 518.488100 82.645100
v -57.568253 497.136100 101.234740
v -45.864304 518.844540 83.198830
v -57.568253 497.136100 101.234740
v -56.964424 496.810640 101.234750
v -45.260475 518.519000 83.198820
v -45.864304 518.844540 83.198830
v -56.964424 496.810640 101.234750
v -45.260475 518.519000 83.198820
v -56.964424 496.810640 101.234750
v -52.616530 494.466460 101.234750
v -40.912582 516.174800 83.198820
v -45.260475 518.519000 83.198820
v -52.616530 494.466460 101.234750
v -23.048326 561.162800 52.606450
v -36.210670 536.749400 70.227776
v -36.036087 537.073200 70.806790
v -22.873743 561.486600 53.185467
v -23.048326 561.162800 52.606450
v -36.036087 537.073200 70.806790
v -22.873743 561.486600 53.185467
v -36.036087 537.073200 70.806790
v -35.432260 536.747600 70.806800
v -22.269915 561.161000 53.185470
v -22.873743 561.486600 53.185467
v -35.432260 536.747600 70.806800
v -22.269915 561.161000 53.185470
v -35.432260 536.747600 70.806800
v -31.084370 534.403440 70.806800
v -17.922022 558.816830 53.185467
v -22.269915 561.161000 53.185470
v -31.084370 534.403440 70.806800
v -47.535545 515.744750 68.001350
v -59.510426 493.533840 53.786106
v -59.670216 493.237500 54.383793
v -47.695335 515.448400 68.599030
v -47.535545 515.744750 68.001350
v -59.670216 493.237500 54.383793
v -47.695335 515.448400 68.599030
v -59.670216 493.237500 54.383793
v -59.066387 492.911930 54.383790
v -47.091507 515.122860 68.599030
v -47.695335 515.448400 68.599030
v -59.066387 492.911930 54.383790
v -47.091507 515.122860 68.599030
v -59.066387 492.911930 54.383790
v -54.718500 490.567780 54.383790
v -42.743614 512.778700 68.599030
v -47.091507 515.122860 68.599030
v -54.718500 490.567780 54.383790
v -25.425577 556.753540 100.509350
v -37.553684 534.258400 83.145480
v -37.736645 533.919100 83.712900
v -25.608534 556.414200 101.076750
v -25.425577 556.753540 100.509350
v -37.736645 533.919100 83.712900
v -25.608534 556.414200 101.076750
v -37.736645 533.919100 83.712900
v -37.132816 533.593570 83.712900
v -25.004710 556.088600 101.076760
v -25.608534 556.414200 101.076750
v -37.132816 533.593570 83.712900
v -25.004710 556.088600 101.076760
v -37.132816 533.593570 83.712900
v -32.784924 531.249400 83.712900
v -20.656813 553.744450 101.076750
v -25.004710 556.088600 101.076760
v -32.784924 531.249400 83.712900
v -47.562410 515.705500 78.318690
v -59.266354 493.997070 96.354610
v -59.073463 494.353180 96.908340
v -47.369514 516.061500 78.872410
v -47.562410 515.705500 78.318690
v -59.073463 494.353180 96.908340
v -47.369514 516.061500 78.872410
v -59.073463 494.353180 96.908340
v -59.557884 494.790280 97.120110
v -47.853935 516.498700 79.084200
v -47.369514 516.061500 78.872410
v -59.557884 494.790280 97.120110
v -47.853935 516.498700 79.084200
v -59.557884 494.790280 97.120110
v -59.873990 495.075560 97.258310
v -48.170044 516.783940 79.222390
v -47.853935 516.498700 79.084200
v -59.873990 495.075560 97.258310
v -48.170044 516.783940 79.222390
v -59.873990 495.075560 97.258310
v -60.358410 495.512660 97.470090
v -48.654465 517.221070 79.434166
v -48.170044 516.783940 79.222390
v -60.358410 495.512660 97.470090
v -48.654465 517.221070 79.434166
v -60.358410 495.512660 97.470090
v -60.166240 495.869100 98.023820
v -48.462290 517.577500 79.987900
v -48.654465 517.221070 79.434166
v -60.166240 495.869100 98.023820
v -48.462290 517.577500 79.987900
v -60.166240 495.869100 98.023820
v -59.793446 496.560600 99.097980
v -48.089500 518.269000 81.062070
v -48.462290 517.577500 79.987900
v -59.793446 496.560600 99.097980
v -48.089500 518.269000 81.062070
v -59.793446 496.560600 99.097980
v -59.601276 496.917020 99.651726
v -47.897330 518.625400 81.615800
v -48.089500 518.269000 81.062070
v -59.601276 496.917020 99.651726
v -47.897330 518.625400 81.615800
v -59.601276 496.917020 99.651726
v -58.969807 496.752200 99.863060
v -47.265860 518.460600 81.827150
v -47.897330 518.625400 81.615800
v -58.969807 496.752200 99.863060
v -47.265860 518.460600 81.827150
v -58.969807 496.752200 99.863060
v -58.554134 496.643650 100.002190
v -46.850190 518.352050 81.966260
v -47.265860 518.460600 81.827150
v -58.554134 496.643650 100.002190
v -46.850190 518.352050 81.966260
v -58.554134 496.643650 100.002190
v -57.922672 496.478760 100.213540
v -46.218727 518.187130 82.177610
v -46.850190 518.352050 81.966260
v -57.922672 496.478760 100.213540
v -46.218727 518.187130 82.177610
v -57.922672 496.478760 100.213540
v -57.730500 496.835240 100.767250
v -46.026550 518.543600 82.731340
v -46.218727 518.187130 82.177610
v -57.730500 496.835240 100.767250
v -24.416784 558.635130 48.082410
v -37.579132 534.221740 65.703735
v -37.403835 534.545170 66.282760
v -24.241484 558.958560 48.661430
v -24.416784 558.635130 48.082410
v -37.403835 534.545170 66.282760
v -24.241484 558.958560 48.661430
v -37.403835 534.545170 66.282760
v -37.894980 534.969850 66.504200
v -24.732637 559.383240 48.882890
v -24.241484 558.958560 48.661430
v -37.894980 534.969850 66.504200
v -24.732637 559.383240 48.882890
v -37.894980 534.969850 66.504200
v -38.215480 535.246950 66.648720
v -25.053133 559.660300 49.027390
v -24.732637 559.383240 48.882890
v -38.215480 535.246950 66.648720
v -25.053133 559.660300 49.027390
v -38.215480 535.246950 66.648720
v -38.706630 535.671600 66.870170
v -25.544287 560.084960 49.248840
v -25.053133 559.660300 49.027390
v -38.706630 535.671600 66.870170
v -25.544287 560.084960 49.248840
v -38.706630 535.671600 66.870170
v -38.532050 535.995400 67.449190
v -25.369707 560.408750 49.827860
v -25.544287 560.084960 49.248840
v -38.532050 535.995400 67.449190
v -25.369707 560.408750 49.827860
v -38.532050 535.995400 67.449190
v -38.193394 536.623540 68.572440
v -25.031046 561.037000 50.951107
v -25.369707 560.408750 49.827860
v -38.193394 536.623540 68.572440
v -25.031046 561.037000 50.951107
v -38.193394 536.623540 68.572440
v -38.018814 536.947400 69.151460
v -24.856470 561.360700 51.530132
v -25.031046 561.037000 50.951107
v -38.018814 536.947400 69.151460
v -24.856470 561.360700 51.530132
v -38.018814 536.947400 69.151460
v -37.394070 536.770100 69.372460
v -24.231718 561.183400 51.751125
v -24.856470 561.360700 51.530132
v -37.394070 536.770100 69.372460
v -24.231718 561.183400 51.751125
v -37.394070 536.770100 69.372460
v -36.982810 536.653300 69.517940
v -23.820467 561.066700 51.896606
v -24.231718 561.183400 51.751125
v -36.982810 536.653300 69.517940
v -23.820467 561.066700 51.896606
v -36.982810 536.653300 69.517940
v -36.358063 536.476000 69.738930
v -23.195719 560.889340 52.117603
v -23.820467 561.066700 51.896606
v -36.358063 536.476000 69.738930
v -23.195719 560.889340 52.117603
v -36.358063 536.476000 69.738930
v -36.183483 536.799800 70.317955
v -23.021135 561.213200 52.696620
v -23.195719 560.889340 52.117603
v -36.183483 536.799800 70.317955
v -46.291466 518.062800 63.331505
v -58.266346 495.851930 49.116260
v -58.425420 495.555150 49.713943
v -46.450542 517.766050 63.929188
v -46.291466 518.062800 63.331505
v -58.425420 495.555150 49.713943
v -46.450542 517.766050 63.929188
v -58.425420 495.555150 49.713943
v -59.044456 495.742580 49.942530
v -47.069576 517.953500 64.157776
v -46.450542 517.766050 63.929188
v -59.044456 495.742580 49.942530
v -47.069576 517.953500 64.157776
v -59.044456 495.742580 49.942530
v -59.448402 495.864900 50.091700
v -47.473526 518.075800 64.306940
v -47.069576 517.953500 64.157776
v -59.448402 495.864900 50.091700
v -47.473526 518.075800 64.306940
v -59.448402 495.864900 50.091700
v -60.067436 496.052340 50.320286
v -48.092560 518.263240 64.535520
v -47.473526 518.075800 64.306940
v -60.067436 496.052340 50.320286
v -48.092560 518.263240 64.535520
v -60.067436 496.052340 50.320286
v -60.227230 495.755980 50.917970
v -48.252354 517.966900 65.133210
v -48.092560 518.263240 64.535520
v -60.227230 495.755980 50.917970
v -48.252354 517.966900 65.133210
v -60.227230 495.755980 50.917970
v -60.537220 495.181060 52.077415
v -48.562340 517.391970 66.292656
v -48.252354 517.966900 65.133210
v -60.537220 495.181060 52.077415
v -48.562340 517.391970 66.292656
v -60.537220 495.181060 52.077415
v -60.697018 494.884700 52.675106
v -48.722137 517.095640 66.890335
v -48.562340 517.391970 66.292656
v -60.697018 494.884700 52.675106
v -48.722137 517.095640 66.890335
v -60.697018 494.884700 52.675106
v -60.199890 494.470670 52.903220
v -48.225010 516.681600 67.118460
v -48.722137 517.095640 66.890335
v -60.199890 494.470670 52.903220
v -48.225010 516.681600 67.118460
v -60.199890 494.470670 52.903220
v -59.872646 494.198120 53.053387
v -47.897770 516.409000 67.268620
v -48.225010 516.681600 67.118460
v -59.872646 494.198120 53.053387
v -47.897770 516.409000 67.268620
v -59.872646 494.198120 53.053387
v -59.375520 493.784100 53.281506
v -47.400642 515.995000 67.496750
v -47.897770 516.409000 67.268620
v -59.375520 493.784100 53.281506
v -47.400642 515.995000 67.496750
v -59.375520 493.784100 53.281506
v -59.535310 493.487700 53.879192
v -47.560430 515.698600 68.094440
v -47.400642 515.995000 67.496750
v -59.535310 493.487700 53.879192
v -24.000471 559.407300 96.075950
v -36.128582 536.912200 78.712080
v -36.310820 536.572500 79.279500
v -24.182714 559.067570 96.643364
v -24.000471 559.407300 96.075950
v -36.310820 536.572500 79.279500
v -24.182714 559.067570 96.643364
v -36.310820 536.572500 79.279500
v -36.938720 536.743470 79.496510
v -24.810614 559.238600 96.860374
v -24.182714 559.067570 96.643364
v -36.938720 536.743470 79.496510
v -24.810614 559.238600 96.860374
v -36.938720 536.743470 79.496510
v -37.348450 536.855100 79.638130
v -25.220343 559.350160 97.001990
v -24.810614 559.238600 96.860374
v -37.348450 536.855100 79.638130
v -25.220343 559.350160 97.001990
v -37.348450 536.855100 79.638130
v -37.976345 537.026100 79.855150
v -25.848234 559.521240 97.219010
v -25.220343 559.350160 97.001990
v -37.976345 537.026100 79.855150
v -25.848234 559.521240 97.219010
v -37.976345 537.026100 79.855150
v -38.159310 536.686770 80.422560
v -26.031199 559.181800 97.786420
v -25.848234 559.521240 97.219010
v -38.159310 536.686770 80.422560
v -26.031199 559.181800 97.786420
v -38.159310 536.686770 80.422560
v -38.514244 536.028440 81.523310
v -26.386137 558.523560 98.887170
v -26.031199 559.181800 97.786420
v -38.514244 536.028440 81.523310
v -26.386137 558.523560 98.887170
v -38.514244 536.028440 81.523310
v -38.697212 535.689150 82.090730
v -26.569101 558.184200 99.454590
v -26.386137 558.523560 98.887170
v -38.697212 535.689150 82.090730
v -26.569101 558.184200 99.454590
v -38.697212 535.689150 82.090730
v -38.208923 535.258670 82.307300
v -26.080824 557.753800 99.671165
v -26.569101 558.184200 99.454590
v -38.208923 535.258670 82.307300
v -26.080824 557.753800 99.671165
v -38.208923 535.258670 82.307300
v -37.887505 534.975340 82.449860
v -25.759401 557.470400 99.813720
v -26.080824 557.753800 99.671165
v -37.887505 534.975340 82.449860
v -25.759401 557.470400 99.813720
v -37.887505 534.975340 82.449860
v -37.399216 534.544900 82.666430
v -25.271116 557.040040 100.030290
v -25.759401 557.470400 99.813720
v -37.399216 534.544900 82.666430
v -25.271116 557.040040 100.030290
v -37.399216 534.544900 82.666430
v -37.582180 534.205570 83.233850
v -25.454070 556.700600 100.597700
v -25.271116 557.040040 100.030290
v -37.582180 534.205570 83.233850
vn 0.878941 -0.476914 -0.003941
vn 0.878941 -0.476914 -0.003941
vn 0.878941 -0.476914 -0.003941
vn 0.878941 -0.476914 -0.003941
vn 0.878941 -0.476914 -0.003941
vn 0.878941 -0.476914 -0.003941
vn 0.878941 -0.476914 -0.003941
vn 0.878941 -0.476914 -0.003941
vn 0.878941 -0.476914 -0.003941
vn 0.878941 -0.476914 -0.003941
vn 0.878941 -0.476914 -0.003941
vn 0.878941 -0.476914 -0.003941
vn 0.878941 -0.476914 -0.003941
vn 0.878941 -0.476914 -0.003941
vn 0.878941 -0.476914 -0.003941
vn 0.878941 -0.476914 -0.003941
vn 0.878941 -0.476914 -0.003941
vn 0.878941 -0.476914 -0.003941
vn 0.878941 -0.476914 -0.003941
vn 0.878941 -0.476914 -0.003941
vn 0.878941 -0.476914 -0.003941
vn 0.878941 -0.476914 -0.003941
vn 0.878941 -0.476914 -0.003941
vn 0.878941 -0.476914 -0.003941
vn 0.878941 -0.476914 -0.003941
vn 0.878941 -0.476914 -0.003941
vn 0.878941 -0.476914 -0.003941
vn 0.878941 -0.476914 -0.003941
vn 0.878941 -0.476914 -0.003941
vn 0.878941 -0.476914 -0.003941
vn 0.878941 -0.476914 -0.003941
vn 0.878941 -0.476914 -0.003941
vn 0.878941 -0.476914 -0.003941
vn 0.878941 -0.476914 -0.003941
vn 0.878941 -0.476914 -0.003941
vn 0.878941 -0.476914 -0.003941
vn 0.882237 -0.470790 -0.003956
vn 0.882237 -0.470790 -0.003956
vn 0.882237 -0.470790 -0.003956
vn 0.882237 -0.470790 -0.003956
vn 0.882237 -0.470790 -0.003956
vn 0.882237 -0.470790 -0.003956
vn 0.882237 -0.470790 -0.003956
vn 0.882237 -0.470790 -0.003956
vn 0.882237 -0.470790 -0.003956
vn 0.882237 -0.470790 -0.003956
vn 0.882237 -0.470790 -0.003956
vn 0.882237 -0.470790 -0.003956
vn -0.285586 -0.512490 -0.809812
vn -0.285586 -0.512490 -0.809812
vn -0.285586 -0.512490 -0.809812
vn -0.285586 -0.512490 -0.809812
vn -0.285586 -0.512490 -0.809812
vn -0.285586 -0.512490 -0.809812
vn -0.285586 -0.512490 -0.809812
vn -0.285586 -0.512490 -0.809812
vn -0.820205 -0.027211 -0.571422
vn -0.820205 -0.027211 -0.571422
vn -0.285586 -0.512490 -0.809812
vn -0.820205 -0.027211 -0.571422
vn -0.820205 -0.027211 -0.571422
vn -0.820205 -0.027211 -0.571422
vn -0.877441 0.479668 -0.003900
vn -0.877441 0.479668 -0.003900
vn -0.820205 -0.027211 -0.571422
vn -0.877441 0.479668 -0.003900
vn -0.254024 -0.465060 -0.848051
vn -0.254024 -0.465060 -0.848051
vn -0.254024 -0.465060 -0.848051
vn -0.254024 -0.465060 -0.848051
vn -0.254024 -0.465060 -0.848051
vn -0.254024 -0.465060 -0.848051
vn -0.254024 -0.465060 -0.848051
vn -0.254024 -0.465060 -0.848051
vn -0.801399 0.003909 -0.598117
vn -0.801399 0.003909 -0.598117
vn -0.254024 -0.465060 -0.848051
vn -0.801399 0.003909 -0.598117
vn -0.801399 0.003909 -0.598117
vn -0.801399 0.003909 -0.598117
vn -0.877441 0.479668 -0.003900
vn -0.877441 0.479668 -0.003900
vn -0.801399 0.003909 -0.598117
vn -0.877441 0.479668 -0.003900
vn 0.230478 0.433610 -0.871127
vn 0.230478 0.433610 -0.871127
vn 0.230478 0.433610 -0.871127
vn 0.230478 0.433610 -0.871127
vn 0.230478 0.433610 -0.871127
vn 0.230478 0.433610 -0.871127
vn 0.230478 0.433610 -0.871127
vn 0.230478 0.433610 -0.871127
vn -0.454751 0.641315 -0.617994
vn -0.454751 0.641315 -0.617994
vn 0.230478 0.433610 -0.871127
vn -0.454751 0.641315 -0.617994
vn -0.454751 0.641315 -0.617994
vn -0.454751 0.641315 -0.617994
vn -0.880716 0.473629 -0.003914
vn -0.880716 0.473629 -0.003914
vn -0.454751 0.641315 -0.617994
vn -0.880716 0.473629 -0.003914
vn 0.262515 0.497603 -0.826727
vn 0.262515 0.497603 -0.826727
vn 0.262515 0.497603 -0.826727
vn 0.262515 0.497603 -0.826727
vn 0.262515 0.497603 -0.826727
vn 0.262515 0.497603 -0.826727
vn 0.262515 0.497603 -0.826727
vn 0.262515 0.497603 -0.826727
vn -0.432897 0.682496 -0.588896
vn -0.432897 0.682496 -0.588896
vn 0.262515 0.497603 -0.826727
vn -0.432897 0.682496 -0.588896
vn -0.432897 0.682496 -0.588896
vn -0.432897 0.682496 -0.588896
vn -0.880716 0.473629 -0.003914
vn -0.880716 0.473629 -0.003914
vn -0.432897 0.682496 -0.588896
vn -0.880716 0.473629 -0.003914
vn -0.877441 0.479668 -0.003900
vn -0.877441 0.479668 -0.003900
vn -0.425356 0.706326 0.565841
vn -0.425356 0.706326 0.565841
vn -0.877441 0.479668 -0.003900
vn -0.425356 0.706326 0.565841
vn -0.425356 0.706326 0.565841
vn -0.425356 0.706326 0.565841
vn 0.279011 0.522655 0.805596
vn 0.279011 0.522655 0.805596
vn -0.425356 0.706326 0.565841
vn 0.279011 0.522655 0.805596
vn 0.279011 0.522655 0.805596
vn 0.279011 0.522655 0.805596
vn 0.279011 0.522655 0.805596
vn 0.279011 0.522655 0.805596
vn 0.279011 0.522655 0.805596
vn 0.279011 0.522655 0.805596
vn -0.877441 0.479668 -0.003900
vn -0.877441 0.479668 -0.003900
vn -0.443868 0.671694 0.593134
vn -0.443868 0.671694 0.593134
vn -0.877441 0.479668 -0.003900
vn -0.443868 0.671694 0.593134
vn -0.443868 0.671694 0.593134
vn -0.443868 0.671694 0.593134
vn 0.247421 0.475204 0.844372
vn 0.247421 0.475204 0.844372
vn -0.443868 0.671694 0.593134
vn 0.247421 0.475204 0.844372
vn 0.247421 0.475204 0.844372
vn 0.247421 0.475204 0.844372
vn 0.247421 0.475204 0.844372
vn 0.247421 0.475204 0.844372
vn 0.247421 0.475204 0.844372
vn 0.247421 0.475204 0.844372
vn -0.877441 0.479668 -0.003900
vn -0.877441 0.479668 -0.003900
vn -0.787594 0.035265 0.615185
vn -0.787594 0.035265 0.615185
vn -0.877441 0.479668 -0.003900
vn -0.787594 0.035265 0.615185
vn -0.787594 0.035265 0.615185
vn -0.787594 0.035265 0.615185
vn -0.240293 -0.429377 0.870571
vn -0.240293 -0.429377 0.870571
vn -0.787594 0.035265 0.615185
vn -0.240293 -0.429377 0.870571
vn -0.240293 -0.429377 0.870571
vn -0.240293 -0.429377 0.870571
vn -0.240293 -0.429377 0.870571
vn -0.240293 -0.429377 0.870571
vn -0.240293 -0.429377 0.870571
vn -0.240293 -0.429377 0.870571
vn -0.877441 0.479668 -0.003900
vn -0.877441 0.479668 -0.003900
vn -0.811553 -0.011762 0.584161
vn -0.811553 -0.011762 0.584161
vn -0.877441 0.479668 -0.003900
vn -0.811553 -0.011762 0.584161
vn -0.811553 -0.011762 0.584161
vn -0.811553 -0.011762 0.584161
vn -0.272604 -0.493847 0.825713
vn -0.272604 -0.493847 0.825713
vn -0.811553 -0.011762 0.584161
vn -0.272604 -0.493847 0.825713
vn -0.272604 -0.493847 0.825713
vn -0.272604 -0.493847 0.825713
vn -0.272604 -0.493847 0.825713
vn -0.272604 -0.493847 0.825713
vn -0.272604 -0.493847 0.825713
vn -0.272604 -0.493847 0.825713
vn -0.877441 0.479668 -0.003900
vn -0.877441 0.479668 -0.003900
vn -0.886320 0.113230 -0.449017
vn -0.886320 0.113230 -0.449017
vn -0.877441 0.479668 -0.003900
vn -0.886320 0.113230 -0.449017
vn -0.886320 0.113230 -0.449017
vn -0.886320 0.113230 -0.449017
vn -0.597752 -0.293016 -0.746213
vn -0.597752 -0.293016 -0.746213
vn -0.886320 0.113230 -0.449017
vn -0.597752 -0.293016 -0.746213
vn -0.597752 -0.293016 -0.746213
vn -0.597752 -0.293016 -0.746213
vn -0.597752 -0.293016 -0.746213
vn -0.597752 -0.293016 -0.746213
vn -0.597752 -0.293016 -0.746213
vn -0.597752 -0.293016 -0.746213
vn -0.597752 -0.293016 -0.746213
vn -0.597752 -0.293016 -0.746213
vn -0.887078 0.105511 -0.449401
vn -0.887078 0.105511 -0.449401
vn -0.597752 -0.293016 -0.746213
vn -0.887078 0.105511 -0.449401
vn -0.887078 0.105511 -0.449401
vn -0.887078 0.105511 -0.449401
vn -0.877441 0.479668 -0.003900
vn -0.877441 0.479668 -0.003900
vn -0.887078 0.105511 -0.449401
vn -0.877441 0.479668 -0.003900
vn -0.877441 0.479668 -0.003900
vn -0.877441 0.479668 -0.003900
vn -0.877441 0.479668 -0.003900
vn -0.877441 0.479668 -0.003900
vn -0.877441 0.479668 -0.003900
vn -0.877441 0.479668 -0.003900
vn -0.877441 0.479668 -0.003900
vn -0.877441 0.479668 -0.003900
vn -0.576568 0.686391 0.443212
vn -0.576568 0.686391 0.443212
vn -0.877441 0.479668 -0.003900
vn -0.576568 0.686391 0.443212
vn -0.576568 0.686391 0.443212
vn -0.576568 0.686391 0.443212
vn -0.082545 0.664289 0.742904
vn -0.082545 0.664289 0.742904
vn -0.576568 0.686391 0.443212
vn -0.082545 0.664289 0.742904
vn -0.082545 0.664289 0.742904
vn -0.082545 0.664289 0.742904
vn -0.082545 0.664289 0.742904
vn -0.082545 0.664289 0.742904
vn -0.082545 0.664289 0.742904
vn -0.082545 0.664289 0.742904
vn -0.082545 0.664289 0.742904
vn -0.082545 0.664289 0.742904
vn -0.576568 0.686391 0.443212
vn -0.576568 0.686391 0.443212
vn -0.082545 0.664289 0.742904
vn -0.576568 0.686391 0.443212
vn -0.576568 0.686391 0.443212
vn -0.576568 0.686391 0.443212
vn -0.877441 0.479668 -0.003900
vn -0.877441 0.479668 -0.003900
vn -0.576568 0.686391 0.443212
vn -0.877441 0.479668 -0.003900
vn -0.877441 0.479668 -0.003900
vn -0.877441 0.479668 -0.003900
vn -0.870702 0.136657 -0.472444
vn -0.870702 0.136657 -0.472444
vn -0.877441 0.479668 -0.003900
vn -0.870702 0.136657 -0.472444
vn -0.870702 0.136657 -0.472444
vn -0.870702 0.136657 -0.472444
vn -0.575789 -0.246767 -0.779470
vn -0.575789 -0.246767 -0.779470
vn -0.870702 0.136657 -0.472444
vn -0.575789 -0.246767 -0.779470
vn -0.575789 -0.246767 -0.779470
vn -0.575789 -0.246767 -0.779470
vn -0.575789 -0.246767 -0.779470
vn -0.575789 -0.246767 -0.779470
vn -0.575789 -0.246767 -0.779470
vn -0.575789 -0.246767 -0.779470
vn -0.575789 -0.246767 -0.779470
vn -0.575789 -0.246767 -0.779470
vn -0.870702 0.136657 -0.472444
vn -0.870702 0.136657 -0.472444
vn -0.575789 -0.246767 -0.779470
vn -0.870702 0.136657 -0.472444
vn -0.870702 0.136657 -0.472444
vn -0.870702 0.136657 -0.472444
vn -0.877441 0.479668 -0.003900
vn -0.877441 0.479668 -0.003900
vn -0.870702 0.136657 -0.472444
vn -0.877441 0.479668 -0.003900
vn -0.877441 0.479668 -0.003900
vn -0.877441 0.479668 -0.003900
vn -0.877441 0.479668 -0.003900
vn -0.877441 0.479668 -0.003900
vn -0.877441 0.479668 -0.003900
vn -0.877441 0.479668 -0.003900
vn -0.877441 0.479668 -0.003900
vn -0.877441 0.479668 -0.003900
vn -0.589902 0.660222 0.464890
vn -0.589902 0.660222 0.464890
vn -0.877441 0.479668 -0.003900
vn -0.589902 0.660222 0.464890
vn -0.589902 0.660222 0.464890
vn -0.589902 0.660222 0.464890
vn -0.106050 0.624519 0.773776
vn -0.106050 0.624519 0.773776
vn -0.589902 0.660222 0.464890
vn -0.106050 0.624519 0.773776
vn -0.106050 0.624519 0.773776
vn -0.106050 0.624519 0.773776
vn -0.106050 0.624519 0.773776
vn -0.106050 0.624519 0.773776
vn -0.106050 0.624519 0.773776
vn -0.106050 0.624519 0.773776
vn -0.106050 0.624519 0.773776
vn -0.106050 0.624519 0.773776
vn -0.589902 0.660222 0.464890
vn -0.589902 0.660222 0.464890
vn -0.106050 0.624519 0.773776
vn -0.589902 0.660222 0.464890
vn -0.589902 0.660222 0.464890
vn -0.589902 0.660222 0.464890
vn -0.877441 0.479668 -0.003900
vn -0.877441 0.479668 -0.003900
vn -0.589902 0.660222 0.464890
vn -0.877441 0.479668 -0.003900
vn -0.880716 0.473629 -0.003914
vn -0.880716 0.473629 -0.003914
vn -0.602338 0.633427 -0.485757
vn -0.602338 0.633427 -0.485757
vn -0.880716 0.473629 -0.003914
vn -0.602338 0.633427 -0.485757
vn -0.602338 0.633427 -0.485757
vn -0.602338 0.633427 -0.485757
vn -0.120657 0.579933 -0.805679
vn -0.120657 0.579933 -0.805679
vn -0.602338 0.633427 -0.485757
vn -0.120657 0.579933 -0.805679
vn -0.120657 0.579933 -0.805679
vn -0.120657 0.579933 -0.805679
vn -0.120657 0.579933 -0.805679
vn -0.120657 0.579933 -0.805679
vn -0.120657 0.579933 -0.805679
vn -0.120657 0.579933 -0.805679
vn -0.120657 0.579933 -0.805679
vn -0.120657 0.579933 -0.805679
vn -0.602338 0.633427 -0.485757
vn -0.602338 0.633427 -0.485757
vn -0.120657 0.579933 -0.805679
vn -0.602338 0.633427 -0.485757
vn -0.602338 0.633427 -0.485757
vn -0.602338 0.633427 -0.485757
vn -0.877441 0.479668 -0.003900
vn -0.877441 0.479668 -0.003900
vn -0.602338 0.633427 -0.485757
vn -0.877441 0.479668 -0.003900
vn -0.877441 0.479668 -0.003900
vn -0.877441 0.479668 -0.003900
vn -0.877441 0.479668 -0.003900
vn -0.877441 0.479668 -0.003900
vn -0.877441 0.479668 -0.003900
vn -0.877441 0.479668 -0.003900
vn -0.877441 0.479668 -0.003900
vn -0.877441 0.479668 -0.003900
vn -0.862525 0.160016 0.480048
vn -0.862525 0.160016 0.480048
vn -0.877441 0.479668 -0.003900
vn -0.862525 0.160016 0.480048
vn -0.862525 0.160016 0.480048
vn -0.862525 0.160016 0.480048
vn -0.553341 -0.215842 0.804503
vn -0.553341 -0.215842 0.804503
vn -0.862525 0.160016 0.480048
vn -0.553341 -0.215842 0.804503
vn -0.553341 -0.215842 0.804503
vn -0.553341 -0.215842 0.804503
vn -0.553341 -0.215842 0.804503
vn -0.553341 -0.215842 0.804503
vn -0.553341 -0.215842 0.804503
vn -0.553341 -0.215842 0.804503
vn -0.553341 -0.215842 0.804503
vn -0.553341 -0.215842 0.804503
vn -0.862525 0.160016 0.480048
vn -0.862525 0.160016 0.480048
vn -0.553341 -0.215842 0.804503
vn -0.862525 0.160016 0.480048
vn -0.862525 0.160016 0.480048
vn -0.862525 0.160016 0.480048
vn -0.877441 0.479668 -0.003900
vn -0.877441 0.479668 -0.003900
vn -0.862525 0.160016 0.480048
vn -0.877441 0.479668 -0.003900
vn -0.880716 0.473629 -0.003914
vn -0.880716 0.473629 -0.003914
vn -0.581734 0.667628 -0.464606
vn -0.581734 0.667628 -0.464606
vn -0.880716 0.473629 -0.003914
vn -0.581734 0.667628 -0.464606
vn -0.581734 0.667628 -0.464606
vn -0.581734 0.667628 -0.464606
vn -0.097893 0.638264 -0.763568
vn -0.097893 0.638264 -0.763568
vn -0.581734 0.667628 -0.464606
vn -0.097893 0.638264 -0.763568
vn -0.097893 0.638264 -0.763568
vn -0.097893 0.638264 -0.763568
vn -0.097893 0.638264 -0.763568
vn -0.097893 0.638264 -0.763568
vn -0.097893 0.638264 -0.763568
vn -0.097893 0.638264 -0.763568
vn -0.097893 0.638264 -0.763568
vn -0.097893 0.638264 -0.763568
vn -0.581734 0.667628 -0.464606
vn -0.581734 0.667628 -0.464606
vn -0.097893 0.638264 -0.763568
vn -0.581734 0.667628 -0.464606
vn -0.581734 0.667628 -0.464606
vn -0.581734 0.667628 -0.464606
vn -0.877441 0.479668 -0.003900
vn -0.877441 0.479668 -0.003900
vn -0.581734 0.667628 -0.464606
vn -0.877441 0.479668 -0.003900
vn -0.877441 0.479668 -0.003900
vn -0.877441 0.479668 -0.003900
vn -0.877441 0.479668 -0.003900
vn -0.877441 0.479668 -0.003900
vn -0.877441 0.479668 -0.003900
vn -0.877441 0.479668 -0.003900
vn -0.877441 0.479668 -0.003900
vn -0.877441 0.479668 -0.003900
vn -0.880662 0.121336 0.457944
vn -0.880662 0.121336 0.457944
vn -0.877441 0.479668 -0.003900
vn -0.880662 0.121336 0.457944
vn -0.880662 0.121336 0.457944
vn -0.880662 0.121336 0.457944
vn -0.588006 -0.272298 0.761645
vn -0.588006 -0.272298 0.761645
vn -0.880662 0.121336 0.457944
vn -0.588006 -0.272298 0.761645
vn -0.588006 -0.272298 0.761645
vn -0.588006 -0.272298 0.761645
vn -0.588006 -0.272298 0.761645
vn -0.588006 -0.272298 0.761645
vn -0.588006 -0.272298 0.761645
vn -0.588006 -0.272298 0.761645
vn -0.588006 -0.272298 0.761645
vn -0.588006 -0.272298 0.761645
vn -0.880662 0.121336 0.457944
vn -0.880662 0.121336 0.457944
vn -0.588006 -0.272298 0.761645
vn -0.880662 0.121336 0.457944
vn -0.880662 0.121336 0.457944
vn -0.880662 0.121336 0.457944
vn -0.877441 0.479668 -0.003900
vn -0.877441 0.479668 -0.003900
vn -0.880662 0.121336 0.457944
vn -0.877441 0.479668 -0.003900
vt 0.937500 0.783447
vt 0.937500 0.783936
vt 0.787109 0.783814
vt 0.937500 0.783936
vt 0.787109 0.784424
vt 0.787109 0.783814
vt 0.727051 0.812256
vt 0.727051 0.812744
vt 0.565430 0.812744
vt 0.727051 0.812744
vt 0.565430 0.813232
vt 0.565430 0.812744
vt 0.490234 0.854248
vt 0.490234 0.854736
vt 0.347656 0.854126
vt 0.490234 0.854736
vt 0.347656 0.854614
vt 0.347656 0.854126
vt 0.858398 0.617432
vt 0.858398 0.617920
vt 0.706543 0.617432
vt 0.858398 0.617920
vt 0.706543 0.617920
vt 0.706543 0.617432
vt 0.937988 0.821899
vt 0.937988 0.822144
vt 0.787598 0.822266
vt 0.937988 0.822144
vt 0.787598 0.822510
vt 0.787598 0.822266
vt 0.727539 0.850708
vt 0.727539 0.850952
vt 0.565430 0.851196
vt 0.727539 0.850952
vt 0.565430 0.851440
vt 0.565430 0.851196
vt 0.489990 0.892578
vt 0.489990 0.892822
vt 0.347412 0.892456
vt 0.489990 0.892822
vt 0.347412 0.892700
vt 0.347412 0.892456
vt 0.858398 0.656006
vt 0.858398 0.656250
vt 0.706543 0.656006
vt 0.858398 0.656250
vt 0.706543 0.656250
vt 0.706543 0.656006
vt 0.937988 0.852173
vt 0.787598 0.852539
vt 0.787598 0.829224
vt 0.937988 0.828857
vt 0.937988 0.852173
vt 0.787598 0.829224
vt 0.937988 0.828857
vt 0.787598 0.829224
vt 0.787598 0.825928
vt 0.937988 0.825439
vt 0.937988 0.828857
vt 0.787598 0.825928
vt 0.937988 0.825439
vt 0.787598 0.825928
vt 0.787598 0.822510
vt 0.937988 0.822144
vt 0.937988 0.825439
vt 0.787598 0.822510
vt 0.727539 0.880920
vt 0.565918 0.881348
vt 0.565430 0.858154
vt 0.727539 0.857666
vt 0.727539 0.880920
vt 0.565430 0.858154
vt 0.727539 0.857666
vt 0.565430 0.858154
vt 0.565430 0.854736
vt 0.727539 0.854248
vt 0.727539 0.857666
vt 0.565430 0.854736
vt 0.727539 0.854248
vt 0.565430 0.854736
vt 0.565430 0.851440
vt 0.727539 0.850952
vt 0.727539 0.854248
vt 0.565430 0.851440
vt 0.489990 0.922852
vt 0.347412 0.922668
vt 0.347412 0.899414
vt 0.489990 0.899536
vt 0.489990 0.922852
vt 0.347412 0.899414
vt 0.489990 0.899536
vt 0.347412 0.899414
vt 0.347412 0.896057
vt 0.489990 0.896179
vt 0.489990 0.899536
vt 0.347412 0.896057
vt 0.489990 0.896179
vt 0.347412 0.896057
vt 0.347412 0.892700
vt 0.489990 0.892822
vt 0.489990 0.896179
vt 0.347412 0.892700
vt 0.858398 0.686279
vt 0.706543 0.686279
vt 0.706543 0.662842
vt 0.858398 0.663086
vt 0.858398 0.686279
vt 0.706543 0.662842
vt 0.858398 0.663086
vt 0.706543 0.662842
vt 0.706543 0.659668
vt 0.858398 0.659668
vt 0.858398 0.663086
vt 0.706543 0.659668
vt 0.858398 0.659668
vt 0.706543 0.659668
vt 0.706543 0.656250
vt 0.858398 0.656250
vt 0.858398 0.659668
vt 0.706543 0.656250
vt 0.937500 0.783447
vt 0.787109 0.783814
vt 0.787109 0.780518
vt 0.937500 0.780029
vt 0.937500 0.783447
vt 0.787109 0.780518
vt 0.937500 0.780029
vt 0.787109 0.780518
vt 0.787109 0.777100
vt 0.937500 0.776733
vt 0.937500 0.780029
vt 0.787109 0.777100
vt 0.937500 0.776733
vt 0.787109 0.777100
vt 0.787109 0.752808
vt 0.937500 0.752441
vt 0.937500 0.776733
vt 0.787109 0.752808
vt 0.727051 0.812256
vt 0.565430 0.812744
vt 0.565430 0.809326
vt 0.727051 0.808960
vt 0.727051 0.812256
vt 0.565430 0.809326
vt 0.727051 0.808960
vt 0.565430 0.809326
vt 0.565430 0.806030
vt 0.727051 0.805542
vt 0.727051 0.808960
vt 0.565430 0.806030
vt 0.727051 0.805542
vt 0.565430 0.806030
vt 0.565430 0.781616
vt 0.727051 0.781250
vt 0.727051 0.805542
vt 0.565430 0.781616
vt 0.490234 0.854248
vt 0.347656 0.854126
vt 0.347656 0.850708
vt 0.490234 0.850830
vt 0.490234 0.854248
vt 0.347656 0.850708
vt 0.490234 0.850830
vt 0.347656 0.850708
vt 0.347656 0.847290
vt 0.490234 0.847412
vt 0.490234 0.850830
vt 0.347656 0.847290
vt 0.490234 0.847412
vt 0.347656 0.847290
vt 0.347656 0.822998
vt 0.490234 0.823120
vt 0.490234 0.847412
vt 0.347656 0.822998
vt 0.858398 0.617432
vt 0.706543 0.617432
vt 0.706543 0.614014
vt 0.858398 0.614014
vt 0.858398 0.617432
vt 0.706543 0.614014
vt 0.858398 0.614014
vt 0.706543 0.614014
vt 0.706543 0.610596
vt 0.858398 0.610596
vt 0.858398 0.614014
vt 0.706543 0.610596
vt 0.858398 0.610596
vt 0.706543 0.610596
vt 0.706543 0.586182
vt 0.858398 0.586426
vt 0.858398 0.610596
vt 0.706543 0.586182
vt 0.937988 0.821899
vt 0.787598 0.822266
vt 0.787598 0.818970
vt 0.937988 0.818481
vt 0.937988 0.821899
vt 0.787598 0.818970
vt 0.937988 0.818481
vt 0.787598 0.818970
vt 0.787598 0.815552
vt 0.937988 0.815186
vt 0.937988 0.818481
vt 0.787598 0.815552
vt 0.937988 0.815186
vt 0.787598 0.815552
vt 0.787109 0.813354
vt 0.937988 0.812988
vt 0.937988 0.815186
vt 0.787109 0.813354
vt 0.937988 0.812988
vt 0.787109 0.813354
vt 0.787109 0.809936
vt 0.937500 0.809570
vt 0.937988 0.812988
vt 0.787109 0.809936
vt 0.937500 0.809570
vt 0.787109 0.809936
vt 0.787109 0.806641
vt 0.937500 0.806274
vt 0.937500 0.809570
vt 0.787109 0.806641
vt 0.937500 0.806274
vt 0.787109 0.806641
vt 0.787109 0.800049
vt 0.937500 0.799683
vt 0.937500 0.806274
vt 0.787109 0.800049
vt 0.937500 0.799683
vt 0.787109 0.800049
vt 0.787109 0.796753
vt 0.937500 0.796265
vt 0.937500 0.799683
vt 0.787109 0.796753
vt 0.937500 0.796265
vt 0.787109 0.796753
vt 0.787109 0.793335
vt 0.937500 0.792969
vt 0.937500 0.796265
vt 0.787109 0.793335
vt 0.937500 0.792969
vt 0.787109 0.793335
vt 0.787109 0.791138
vt 0.937500 0.790771
vt 0.937500 0.792969
vt 0.787109 0.791138
vt 0.937500 0.790771
vt 0.787109 0.791138
vt 0.787109 0.787720
vt 0.937500 0.787354
vt 0.937500 0.790771
vt 0.787109 0.787720
vt 0.937500 0.787354
vt 0.787109 0.787720
vt 0.787109 0.784424
vt 0.937500 0.783936
vt 0.937500 0.787354
vt 0.787109 0.784424
vt 0.727539 0.850708
vt 0.565430 0.851196
vt 0.565430 0.847778
vt 0.727539 0.847290
vt 0.727539 0.850708
vt 0.565430 0.847778
vt 0.727539 0.847290
vt 0.565430 0.847778
vt 0.565430 0.844482
vt 0.727539 0.843994
vt 0.727539 0.847290
vt 0.565430 0.844482
vt 0.727539 0.843994
vt 0.565430 0.844482
vt 0.565430 0.842285
vt 0.727539 0.841797
vt 0.727539 0.843994
vt 0.565430 0.842285
vt 0.727539 0.841797
vt 0.565430 0.842285
vt 0.565430 0.838867
vt 0.727539 0.838379
vt 0.727539 0.841797
vt 0.565430 0.838867
vt 0.727539 0.838379
vt 0.565430 0.838867
vt 0.565430 0.835449
vt 0.727051 0.835083
vt 0.727539 0.838379
vt 0.565430 0.835449
vt 0.727051 0.835083
vt 0.565430 0.835449
vt 0.565430 0.828979
vt 0.727051 0.828491
vt 0.727051 0.835083
vt 0.565430 0.828979
vt 0.727051 0.828491
vt 0.565430 0.828979
vt 0.565430 0.825561
vt 0.727051 0.825073
vt 0.727051 0.828491
vt 0.565430 0.825561
vt 0.727051 0.825073
vt 0.565430 0.825561
vt 0.565430 0.822266
vt 0.727051 0.821777
vt 0.727051 0.825073
vt 0.565430 0.822266
vt 0.727051 0.821777
vt 0.565430 0.822266
vt 0.565430 0.819946
vt 0.727051 0.819580
vt 0.727051 0.821777
vt 0.565430 0.819946
vt 0.727051 0.819580
vt 0.565430 0.819946
vt 0.565430 0.816650
vt 0.727051 0.816162
vt 0.727051 0.819580
vt 0.565430 0.816650
vt 0.727051 0.816162
vt 0.565430 0.816650
vt 0.565430 0.813232
vt 0.727051 0.812744
vt 0.727051 0.816162
vt 0.565430 0.813232
vt 0.489990 0.892578
vt 0.347412 0.892456
vt 0.347412 0.889099
vt 0.489990 0.889221
vt 0.489990 0.892578
vt 0.347412 0.889099
vt 0.489990 0.889221
vt 0.347412 0.889099
vt 0.347412 0.885742
vt 0.489990 0.885864
vt 0.489990 0.889221
vt 0.347412 0.885742
vt 0.489990 0.885864
vt 0.347412 0.885742
vt 0.347412 0.883545
vt 0.489990 0.883667
vt 0.489990 0.885864
vt 0.347412 0.883545
vt 0.489990 0.883667
vt 0.347412 0.883545
vt 0.347412 0.880188
vt 0.489990 0.880310
vt 0.489990 0.883667
vt 0.347412 0.880188
vt 0.489990 0.880310
vt 0.347412 0.880188
vt 0.347412 0.876770
vt 0.489990 0.876892
vt 0.489990 0.880310
vt 0.347412 0.876770
vt 0.489990 0.876892
vt 0.347412 0.876770
vt 0.347412 0.870239
vt 0.489990 0.870361
vt 0.489990 0.876892
vt 0.347412 0.870239
vt 0.489990 0.870361
vt 0.347412 0.870239
vt 0.347412 0.866943
vt 0.489990 0.867065
vt 0.489990 0.870361
vt 0.347412 0.866943
vt 0.489990 0.867065
vt 0.347412 0.866943
vt 0.347656 0.863525
vt 0.489990 0.863647
vt 0.489990 0.867065
vt 0.347656 0.863525
vt 0.489990 0.863647
vt 0.347656 0.863525
vt 0.347656 0.861328
vt 0.489990 0.861450
vt 0.489990 0.863647
vt 0.347656 0.861328
vt 0.489990 0.861450
vt 0.347656 0.861328
vt 0.347656 0.857910
vt 0.490234 0.858032
vt 0.489990 0.861450
vt 0.347656 0.857910
vt 0.490234 0.858032
vt 0.347656 0.857910
vt 0.347656 0.854614
vt 0.490234 0.854736
vt 0.490234 0.858032
vt 0.347656 0.854614
vt 0.858398 0.656006
vt 0.706543 0.656006
vt 0.706543 0.652588
vt 0.858398 0.652588
vt 0.858398 0.656006
vt 0.706543 0.652588
vt 0.858398 0.652588
vt 0.706543 0.652588
vt 0.706543 0.649170
vt 0.858398 0.649170
vt 0.858398 0.652588
vt 0.706543 0.649170
vt 0.858398 0.649170
vt 0.706543 0.649170
vt 0.706543 0.646973
vt 0.858398 0.646973
vt 0.858398 0.649170
vt 0.706543 0.646973
vt 0.858398 0.646973
vt 0.706543 0.646973
vt 0.706543 0.643555
vt 0.858398 0.643555
vt 0.858398 0.646973
vt 0.706543 0.643555
vt 0.858398 0.643555
vt 0.706543 0.643555
vt 0.706543 0.640137
vt 0.858398 0.640381
vt 0.858398 0.643555
vt 0.706543 0.640137
vt 0.858398 0.640381
vt 0.706543 0.640137
vt 0.706543 0.633545
vt 0.858398 0.633789
vt 0.858398 0.640381
vt 0.706543 0.633545
vt 0.858398 0.633789
vt 0.706543 0.633545
vt 0.706543 0.630371
vt 0.858398 0.630371
vt 0.858398 0.633789
vt 0.706543 0.630371
vt 0.858398 0.630371
vt 0.706543 0.630371
vt 0.706543 0.626953
vt 0.858398 0.626953
vt 0.858398 0.630371
vt 0.706543 0.626953
vt 0.858398 0.626953
vt 0.706543 0.626953
vt 0.706543 0.624756
vt 0.858398 0.624756
vt 0.858398 0.626953
vt 0.706543 0.624756
vt 0.858398 0.624756
vt 0.706543 0.624756
vt 0.706543 0.621338
vt 0.858398 0.621338
vt 0.858398 0.624756
vt 0.706543 0.621338
vt 0.858398 0.621338
vt 0.706543 0.621338
vt 0.706543 0.617920
vt 0.858398 0.617920
vt 0.858398 0.621338
vt 0.706543 0.617920
f 1/1/1 2/2/2 3/3/3
f 4/4/4 5/5/5 6/6/6
f 7/7/7 8/8/8 9/9/9
f 10/10/10 11/11/11 12/12/12
f 13/13/13 14/14/14 15/15/15
f 16/16/16 17/17/17 18/18/18
f 19/19/19 20/20/20 21/21/21
f 22/22/22 23/23/23 24/24/24
f 25/25/25 26/26/26 27/27/27
f 28/28/28 29/29/29 30/30/30
f 31/31/31 32/32/32 33/33/33
f 34/34/34 35/35/35 36/36/36
f 37/37/37 38/38/38 39/39/39
f 40/40/40 41/41/41 42/42/42
f 43/43/43 44/44/44 45/45/45
f 46/46/46 47/47/47 48/48/48
f 49/49/49 50/50/50 51/51/51
f 52/52/52 53/53/53 54/54/54
f 55/55/55 56/56/56 57/57/57
f 58/58/58 59/59/59 60/60/60
f 61/61/61 62/62/62 63/63/63
f 64/64/64 65/65/65 66/66/66
f 67/67/67 68/68/68 69/69/69
f 70/70/70 71/71/71 72/72/72
f 73/73/73 74/74/74 75/75/75
f 76/76/76 77/77/77 78/78/78
f 79/79/79 80/80/80 81/81/81
f 82/82/82 83/83/83 84/84/84
f 85/85/85 86/86/86 87/87/87
f 88/88/88 89/89/89 90/90/90
f 91/91/91 92/92/92 93/93/93
f 94/94/94 95/95/95 96/96/96
f 97/97/97 98/98/98 99/99/99
f 100/100/100 101/101/101 102/102/102
f 103/103/103 104/104/104 105/105/105
f 106/106/106 107/107/107 108/108/108
f 109/109/109 110/110/110 111/111/111
f 112/112/112 113/113/113 114/114/114
f 115/115/115 116/116/116 117/117/117
f 118/118/118 119/119/119 120/120/120
f 121/121/121 122/122/122 123/123/123
f 124/124/124 125/125/125 126/126/126
f 127/127/127 128/128/128 129/129/129
f 130/130/130 131/131/131 132/132/132
f 133/133/133 134/134/134 135/135/135
f 136/136/136 137/137/137 138/138/138
f 139/139/139 140/140/140 141/141/141
f 142/142/142 143/143/143 144/144/144
f 145/145/145 146/146/146 147/147/147
f 148/148/148 149/149/149 150/150/150
f 151/151/151 152/152/152 153/153/153
f 154/154/154 155/155/155 156/156/156
f 157/157/157 158/158/158 159/159/159
f 160/160/160 161/161/161 162/162/162
f 163/163/163 164/164/164 165/165/165
f 166/166/166 167/167/167 168/168/168
f 169/169/169 170/170/170 171/171/171
f 172/172/172 173/173/173 174/174/174
f 175/175/175 176/176/176 177/177/177
f 178/178/178 179/179/179 180/180/180
f 181/181/181 182/182/182 183/183/183
f 184/184/184 185/185/185 186/186/186
f 187/187/187 188/188/188 189/189/189
f 190/190/190 191/191/191 192/192/192
f 193/193/193 194/194/194 195/195/195
f 196/196/196 197/197/197 198/198/198
f 199/199/199 200/200/200 201/201/201
f 202/202/202 203/203/203 204/204/204
f 205/205/205 206/206/206 207/207/207
f 208/208/208 209/209/209 210/210/210
f 211/211/211 212/212/212 213/213/213
f 214/214/214 215/215/215 216/216/216
f 217/217/217 218/218/218 219/219/219
f 220/220/220 221/221/221 222/222/222
f 223/223/223 224/224/224 225/225/225
f 226/226/226 227/227/227 228/228/228
f 229/229/229 230/230/230 231/231/231
f 232/232/232 233/233/233 234/234/234
f 235/235/235 236/236/236 237/237/237
f 238/238/238 239/239/239 240/240/240
f 241/241/241 242/242/242 243/243/243
f 244/244/244 245/245/245 246/246/246
f 247/247/247 248/248/248 249/249/249
f 250/250/250 251/251/251 252/252/252
f 253/253/253 254/254/254 255/255/255
f 256/256/256 257/257/257 258/258/258
f 259/259/259 260/260/260 261/261/261
f 262/262/262 263/263/263 264/264/264
f 265/265/265 266/266/266 267/267/267
f 268/268/268 269/269/269 270/270/270
f 271/271/271 272/272/272 273/273/273
f 274/274/274 275/275/275 276/276/276
f 277/277/277 278/278/278 279/279/279
f 280/280/280 281/281/281 282/282/282
f 283/283/283 284/284/284 285/285/285
f 286/286/286 287/287/287 288/288/288
f 289/289/289 290/290/290 291/291/291
f 292/292/292 293/293/293 294/294/294
f 295/295/295 296/296/296 297/297/297
f 298/298/298 299/299/299 300/300/300
f 301/301/301 302/302/302 303/303/303
f 304/304/304 305/305/305 306/306/306
f 307/307/307 308/308/308 309/309/309
f 310/310/310 311/311/311 312/312/312
f 313/313/313 314/314/314 315/315/315
f 316/316/316 317/317/317 318/318/318
f 319/319/319 320/320/320 321/321/321
f 322/322/322 323/323/323 324/324/324
f 325/325/325 326/326/326 327/327/327
f 328/328/328 329/329/329 330/330/330
f 331/331/331 332/332/332 333/333/333
f 334/334/334 335/335/335 336/336/336
f 337/337/337 338/338/338 339/339/339
f 340/340/340 341/341/341 342/342/342
f 343/343/343 344/344/344 345/345/345
f 346/346/346 347/347/347 348/348/348
f 349/349/349 350/350/350 351/351/351
f 352/352/352 353/353/353 354/354/354
f 355/355/355 356/356/356 357/357/357
f 358/358/358 359/359/359 360/360/360
f 361/361/361 362/362/362 363/363/363
f 364/364/364 365/365/365 366/366/366
f 367/367/367 368/368/368 369/369/369
f 370/370/370 371/371/371 372/372/372
f 373/373/373 374/374/374 375/375/375
f 376/376/376 377/377/377 378/378/378
f 379/379/379 380/380/380 381/381/381
f 382/382/382 383/383/383 384/384/384
f 385/385/385 386/386/386 387/387/387
f 388/388/388 389/389/389 390/390/390
f 391/391/391 392/392/392 393/393/393
f 394/394/394 395/395/395 396/396/396
f 397/397/397 398/398/398 399/399/399
f 400/400/400 401/401/401 402/402/402
f 403/403/403 404/404/404 405/405/405
f 406/406/406 407/407/407 408/408/408
f 409/409/409 410/410/410 411/411/411
f 412/412/412 413/413/413 414/414/414
f 415/415/415 416/416/416 417/417/417
f 418/418/418 419/419/419 420/420/420
f 421/421/421 422/422/422 423/423/423
f 424/424/424 425/425/425 426/426/426
f 427/427/427 428/428/428 429/429/429
f 430/430/430 431/431/431 432/432/432
f 433/433/433 434/434/434 435/435/435
f 436/436/436 437/437/437 438/438/438
f 439/439/439 440/440/440 441/441/441
f 442/442/442 443/443/443 444/444/444
f 445/445/445 446/446/446 447/447/447
f 448/448/448 449/449/449 450/450/450
f 451/451/451 452/452/452 453/453/453
f 454/454/454 455/455/455 456/456/456
