# OBJ file
v 13.873574 629.643740 82.644806
v 13.903504 629.699300 82.731040
v 2.169629 607.935360 100.680710
v 13.903504 629.699300 82.731040
v 2.199555 607.990840 100.766960
v 2.169629 607.935360 100.680710
v 36.881725 672.318400 52.606150
v 36.908916 672.368840 52.696330
v 23.719383 647.905000 70.227480
v 36.908916 672.368840 52.696330
v 23.746570 647.955440 70.317660
v 23.719383 647.905000 70.227480
v 12.394508 626.900400 68.001050
v 12.369622 626.854250 68.094140
v 0.419625 604.689500 53.785805
v 12.369622 626.854250 68.094140
v 0.394742 604.643400 53.878890
v 0.419625 604.689500 53.785805
v 34.504475 667.909200 100.509030
v 34.475983 667.856260 100.597400
v 22.376371 645.414060 83.145180
v 34.475983 667.856260 100.597400
v 22.347876 645.361200 83.233550
v 22.376371 645.414060 83.145180
v 12.367645 626.861150 78.318390
v 12.380866 626.885500 78.356346
v 0.663697 605.152800 96.354310
v 12.380866 626.885500 78.356346
v 0.676919 605.177200 96.392265
v 0.663697 605.152800 96.354310
v 35.513268 669.790800 48.082110
v 35.525284 669.812900 48.121796
v 22.350922 645.377400 65.703440
v 35.525284 669.812900 48.121796
v 22.362938 645.399600 65.743126
v 22.350922 645.377400 65.703440
v 13.638587 629.218440 63.331203
v 13.627684 629.198100 63.372166
v 1.663704 607.007570 49.115960
v 13.627684 629.198100 63.372166
v 1.652802 606.987200 49.156920
v 1.663704 607.007570 49.115960
v 35.929577 670.562900 96.075645
v 35.917088 670.539700 96.114530
v 23.801474 648.067800 78.711784
v 35.917088 670.539700 96.114530
v 23.788980 648.044560 78.750680
v 23.801474 648.067800 78.711784
v 16.950453 623.961800 77.802610
v 5.246506 602.253400 95.838540
v 1.087853 604.495540 95.838540
v 12.791801 626.203900 77.802610
v 16.950453 623.961800 77.802610
v 1.087853 604.495540 95.838540
v 12.791801 626.203900 77.802610
v 1.087853 604.495540 95.838540
v 0.484025 604.821100 95.838540
v 12.187973 626.529500 77.802620
v 12.791801 626.203900 77.802610
v 0.484025 604.821100 95.838540
v 12.187973 626.529500 77.802620
v 0.484025 604.821100 95.838540
v 0.676919 605.177200 96.392265
v 12.380866 626.885500 78.356346
v 12.187973 626.529500 77.802620
v 0.676919 605.177200 96.392265
v 40.112470 666.921800 47.542778
v 26.950120 642.508500 65.164110
v 22.791468 644.750600 65.164100
v 35.953815 669.163940 47.542778
v 40.112470 666.921800 47.542778
v 22.791468 644.750600 65.164100
v 35.953815 669.163940 47.542778
v 22.791468 644.750600 65.164100
v 22.187640 645.076200 65.164110
v 35.349987 669.489500 47.542778
v 35.953815 669.163940 47.542778
v 22.187640 645.076200 65.164110
v 35.349987 669.489500 47.542778
v 22.187640 645.076200 65.164110
v 22.362938 645.399600 65.743126
v 35.525284 669.812900 48.121796
v 35.349987 669.489500 47.542778
v 22.362938 645.399600 65.743126
v 18.549244 626.927100 62.774487
v 6.574357 604.716250 48.559242
v 2.415703 606.958440 48.559242
v 14.390588 629.169300 62.774483
v 18.549244 626.927100 62.774487
v 2.415703 606.958440 48.559242
v 14.390588 629.169300 62.774483
v 2.415703 606.958440 48.559242
v 1.811875 607.284000 48.559240
v 13.786759 629.494900 62.774487
v 14.390588 629.169300 62.774483
v 1.811875 607.284000 48.559240
v 13.786759 629.494900 62.774487
v 1.811875 607.284000 48.559240
v 1.652802 606.987200 49.156920
v 13.627684 629.198100 63.372166
v 13.786759 629.494900 62.774487
v 1.652802 606.987200 49.156920
v 40.861813 668.311650 95.547110
v 28.733707 645.816600 78.183260
v 24.575054 648.058700 78.183260
v 36.703160 670.553830 95.547110
v 40.861813 668.311650 95.547110
v 24.575054 648.058700 78.183260
v 36.703160 670.553830 95.547110
v 24.575054 648.058700 78.183260
v 23.971226 648.384300 78.183260
v 36.099330 670.879330 95.547110
v 36.703160 670.553830 95.547110
v 23.971226 648.384300 78.183260
v 36.099330 670.879330 95.547110
v 23.971226 648.384300 78.183260
v 23.788980 648.044560 78.750680
v 35.917088 670.539700 96.114530
v 36.099330 670.879330 95.547110
v 23.788980 648.044560 78.750680
v 13.873574 629.643740 82.644806
v 2.169629 607.935360 100.680710
v 2.361802 608.291750 101.234450
v 14.065750 630.000200 83.198530
v 13.873574 629.643740 82.644806
v 2.361802 608.291750 101.234450
v 14.065750 630.000200 83.198530
v 2.361802 608.291750 101.234450
v 2.965630 607.966200 101.234460
v 14.669579 629.674600 83.198524
v 14.065750 630.000200 83.198530
v 2.965630 607.966200 101.234460
v 14.669579 629.674600 83.198524
v 2.965630 607.966200 101.234460
v 7.313523 605.622000 101.234450
v 19.017470 627.330440 83.198524
v 14.669579 629.674600 83.198524
v 7.313523 605.622000 101.234450
v 36.881725 672.318400 52.606150
v 23.719383 647.905000 70.227480
v 23.893963 648.228800 70.806496
v 37.056310 672.642200 53.185170
v 36.881725 672.318400 52.606150
v 23.893963 648.228800 70.806496
v 37.056310 672.642200 53.185170
v 23.893963 648.228800 70.806496
v 24.497795 647.903260 70.806500
v 37.660137 672.316650 53.185165
v 37.056310 672.642200 53.185170
v 24.497795 647.903260 70.806500
v 37.660137 672.316650 53.185165
v 24.497795 647.903260 70.806500
v 28.845684 645.559100 70.806500
v 42.008030 669.972500 53.185170
v 37.660137 672.316650 53.185165
v 28.845684 645.559100 70.806500
v 12.394508 626.900400 68.001050
v 0.419625 604.689500 53.785805
v 0.259835 604.393100 54.383490
v 12.234718 626.604060 68.598730
v 12.394508 626.900400 68.001050
v 0.259835 604.393100 54.383490
v 12.234718 626.604060 68.598730
v 0.259835 604.393100 54.383490
v 0.863663 604.067570 54.383488
v 12.838547 626.278500 68.598730
v 12.234718 626.604060 68.598730
v 0.863663 604.067570 54.383488
v 12.838547 626.278500 68.598730
v 0.863663 604.067570 54.383488
v 5.211556 601.723400 54.383488
v 17.186438 623.934300 68.598730
v 12.838547 626.278500 68.598730
v 5.211556 601.723400 54.383488
v 34.504475 667.909200 100.509030
v 22.376371 645.414060 83.145180
v 22.193409 645.074770 83.712600
v 34.321514 667.569800 101.076450
v 34.504475 667.909200 100.509030
v 22.193409 645.074770 83.712600
v 34.321514 667.569800 101.076450
v 22.193409 645.074770 83.712600
v 22.797237 644.749200 83.712600
v 34.925343 667.244260 101.076450
v 34.321514 667.569800 101.076450
v 22.797237 644.749200 83.712600
v 34.925343 667.244260 101.076450
v 22.797237 644.749200 83.712600
v 27.145130 642.405000 83.712600
v 39.273235 664.900100 101.076450
v 34.925343 667.244260 101.076450
v 27.145130 642.405000 83.712600
v 12.367645 626.861150 78.318390
v 0.663697 605.152800 96.354310
v 0.856587 605.508800 96.908040
v 12.560536 627.217200 78.872116
v 12.367645 626.861150 78.318390
v 0.856587 605.508800 96.908040
v 12.560536 627.217200 78.872116
v 0.856587 605.508800 96.908040
v 0.372166 605.945900 97.119810
v 12.076116 627.654360 79.083900
v 12.560536 627.217200 78.872116
v 0.372166 605.945900 97.119810
v 12.076116 627.654360 79.083900
v 0.372166 605.945900 97.119810
v 0.056061 606.231140 97.258010
v 11.760009 627.939600 79.222090
v 12.076116 627.654360 79.083900
v 0.056061 606.231140 97.258010
v 11.760009 627.939600 79.222090
v 0.056061 606.231140 97.258010
v -0.428359 606.668330 97.469795
v 11.275589 628.376700 79.433870
v 11.760009 627.939600 79.222090
v -0.428359 606.668330 97.469795
v 11.275589 628.376700 79.433870
v -0.428359 606.668330 97.469795
v -0.236190 607.024700 98.023530
v 11.467759 628.733150 79.987600
v 11.275589 628.376700 79.433870
v -0.236190 607.024700 98.023530
v 11.467759 628.733150 79.987600
v -0.236190 607.024700 98.023530
v 0.136605 607.716250 99.097690
v 11.840553 629.424600 81.061775
v 11.467759 628.733150 79.987600
v 0.136605 607.716250 99.097690
v 11.840553 629.424600 81.061775
v 0.136605 607.716250 99.097690
v 0.328778 608.072700 99.651420
v 12.032723 629.781070 81.615500
v 11.840553 629.424600 81.061775
v 0.328778 608.072700 99.651420
v 12.032723 629.781070 81.615500
v 0.328778 608.072700 99.651420
v 0.960244 607.907840 99.862770
v 12.664189 629.616150 81.826850
v 12.032723 629.781070 81.615500
v 0.960244 607.907840 99.862770
v 12.664189 629.616150 81.826850
v 0.960244 607.907840 99.862770
v 1.375912 607.799260 100.001880
v 13.079863 629.507700 81.965965
v 12.664189 629.616150 81.826850
v 1.375912 607.799260 100.001880
v 13.079863 629.507700 81.965965
v 1.375912 607.799260 100.001880
v 2.007378 607.634460 100.213230
v 13.711329 629.342800 82.177315
v 13.079863 629.507700 81.965965
v 2.007378 607.634460 100.213230
v 13.711329 629.342800 82.177315
v 2.007378 607.634460 100.213230
v 2.199555 607.990840 100.766960
v 13.903504 629.699300 82.731040
v 13.711329 629.342800 82.177315
v 2.199555 607.990840 100.766960
v 35.513268 669.790800 48.082110
v 22.350922 645.377400 65.703440
v 22.526218 645.700800 66.282460
v 35.688564 670.114200 48.661133
v 35.513268 669.790800 48.082110
v 22.526218 645.700800 66.282460
v 35.688564 670.114200 48.661133
v 22.526218 645.700800 66.282460
v 22.035070 646.125500 66.503910
v 35.197420 670.538900 48.882584
v 35.688564 670.114200 48.661133
v 22.035070 646.125500 66.503910
v 35.197420 670.538900 48.882584
v 22.035070 646.125500 66.503910
v 21.714573 646.402600 66.648420
v 34.876920 670.815900 49.027092
v 35.197420 670.538900 48.882584
v 21.714573 646.402600 66.648420
v 34.876920 670.815900 49.027092
v 21.714573 646.402600 66.648420
v 21.223423 646.827200 66.869870
v 34.385770 671.240600 49.248543
v 34.876920 670.815900 49.027092
v 21.223423 646.827200 66.869870
v 34.385770 671.240600 49.248543
v 21.223423 646.827200 66.869870
v 21.397999 647.151060 67.448890
v 34.560345 671.564400 49.827564
v 34.385770 671.240600 49.248543
v 21.397999 647.151060 67.448890
v 34.560345 671.564400 49.827564
v 21.397999 647.151060 67.448890
v 21.736660 647.779200 68.572140
v 34.899006 672.192600 50.950810
v 34.560345 671.564400 49.827564
v 21.736660 647.779200 68.572140
v 34.899006 672.192600 50.950810
v 21.736660 647.779200 68.572140
v 21.911238 648.103000 69.151160
v 35.073580 672.516360 51.529835
v 34.899006 672.192600 50.950810
v 21.911238 648.103000 69.151160
v 35.073580 672.516360 51.529835
v 21.911238 648.103000 69.151160
v 22.535988 647.925700 69.372160
v 35.698334 672.339050 51.750830
v 35.073580 672.516360 51.529835
v 22.535988 647.925700 69.372160
v 35.698334 672.339050 51.750830
v 22.535988 647.925700 69.372160
v 22.947239 647.808960 69.517640
v 36.109585 672.222350 51.896313
v 35.698334 672.339050 51.750830
v 22.947239 647.808960 69.517640
v 36.109585 672.222350 51.896313
v 22.947239 647.808960 69.517640
v 23.571991 647.631650 69.738630
v 36.734333 672.045000 52.117306
v 36.109585 672.222350 51.896313
v 23.571991 647.631650 69.738630
v 36.734333 672.045000 52.117306
v 23.571991 647.631650 69.738630
v 23.746570 647.955440 70.317660
v 36.908916 672.368840 52.696330
v 36.734333 672.045000 52.117306
v 23.746570 647.955440 70.317660
v 13.638587 629.218440 63.331203
v 1.663704 607.007570 49.115960
v 1.504628 606.710750 49.713634
v 13.479513 628.921700 63.928886
v 13.638587 629.218440 63.331203
v 1.504628 606.710750 49.713634
v 13.479513 628.921700 63.928886
v 1.504628 606.710750 49.713634
v 0.885594 606.898200 49.942234
v 12.860477 629.109130 64.157480
v 13.479513 628.921700 63.928886
v 0.885594 606.898200 49.942234
v 12.860477 629.109130 64.157480
v 0.885594 606.898200 49.942234
v 0.481648 607.020500 50.091393
v 12.456532 629.231450 64.306640
v 12.860477 629.109130 64.157480
v 0.481648 607.020500 50.091393
v 12.456532 629.231450 64.306640
v 0.481648 607.020500 50.091393
v -0.137386 607.208000 50.319984
v 11.837496 629.418900 64.535225
v 12.456532 629.231450 64.306640
v -0.137386 607.208000 50.319984
v 11.837496 629.418900 64.535225
v -0.137386 607.208000 50.319984
v -0.297183 606.911600 50.917667
v 11.677699 629.122560 65.132910
v 11.837496 629.418900 64.535225
v -0.297183 606.911600 50.917667
v 11.677699 629.122560 65.132910
v -0.297183 606.911600 50.917667
v -0.607173 606.336700 52.077118
v 11.367713 628.547600 66.292360
v 11.677699 629.122560 65.132910
v -0.607173 606.336700 52.077118
v 11.367713 628.547600 66.292360
v -0.607173 606.336700 52.077118
v -0.766967 606.040340 52.674797
v 11.207914 628.251300 66.890040
v 11.367713 628.547600 66.292360
v -0.766967 606.040340 52.674797
v 11.207914 628.251300 66.890040
v -0.766967 606.040340 52.674797
v -0.269840 605.626300 52.902924
v 11.705043 627.837200 67.118164
v 11.207914 628.251300 66.890040
v -0.269840 605.626300 52.902924
v 11.705043 627.837200 67.118164
v -0.269840 605.626300 52.902924
v 0.057404 605.353760 53.053090
v 12.032287 627.564640 67.268326
v 11.705043 627.837200 67.118164
v 0.057404 605.353760 53.053090
v 12.032287 627.564640 67.268326
v 0.057404 605.353760 53.053090
v 0.554532 604.939700 53.281204
v 12.529414 627.150630 67.496450
v 12.032287 627.564640 67.268326
v 0.554532 604.939700 53.281204
v 12.529414 627.150630 67.496450
v 0.554532 604.939700 53.281204
v 0.394742 604.643400 53.878890
v 12.369622 626.854250 68.094140
v 12.529414 627.150630 67.496450
v 0.394742 604.643400 53.878890
v 35.929577 670.562900 96.075645
v 23.801474 648.067800 78.711784
v 23.619232 647.728150 79.279205
v 35.747334 670.223200 96.643060
v 35.929577 670.562900 96.075645
v 23.619232 647.728150 79.279205
v 35.747334 670.223200 96.643060
v 23.619232 647.728150 79.279205
v 22.991335 647.899100 79.496216
v 35.119440 670.394200 96.860070
v 35.747334 670.223200 96.643060
v 22.991335 647.899100 79.496216
v 35.119440 670.394200 96.860070
v 22.991335 647.899100 79.496216
v 22.581604 648.010740 79.637830
v 34.709710 670.505800 97.001686
v 35.119440 670.394200 96.860070
v 22.581604 648.010740 79.637830
v 34.709710 670.505800 97.001686
v 22.581604 648.010740 79.637830
v 21.953709 648.181760 79.854850
v 34.081814 670.676900 97.218704
v 34.709710 670.505800 97.001686
v 21.953709 648.181760 79.854850
v 34.081814 670.676900 97.218704
v 21.953709 648.181760 79.854850
v 21.770744 647.842400 80.422264
v 33.898850 670.337460 97.786110
v 34.081814 670.676900 97.218704
v 21.770744 647.842400 80.422264
v 33.898850 670.337460 97.786110
v 21.770744 647.842400 80.422264
v 21.415808 647.184100 81.523010
v 33.543915 669.679200 98.886860
v 33.898850 670.337460 97.786110
v 21.415808 647.184100 81.523010
v 33.543915 669.679200 98.886860
v 21.415808 647.184100 81.523010
v 21.232845 646.844800 82.090430
v 33.360950 669.339840 99.454285
v 33.543915 669.679200 98.886860
v 21.232845 646.844800 82.090430
v 33.360950 669.339840 99.454285
v 21.232845 646.844800 82.090430
v 21.721130 646.414300 82.307000
v 33.849230 668.909400 99.670860
v 33.360950 669.339840 99.454285
v 21.721130 646.414300 82.307000
v 33.849230 668.909400 99.670860
v 21.721130 646.414300 82.307000
v 22.042550 646.131000 82.449560
v 34.170654 668.626040 99.813410
v 33.849230 668.909400 99.670860
v 22.042550 646.131000 82.449560
v 34.170654 668.626040 99.813410
v 22.042550 646.131000 82.449560
v 22.530834 645.700560 82.666130
v 34.658940 668.195700 100.029980
v 34.170654 668.626040 99.813410
v 22.530834 645.700560 82.666130
v 34.658940 668.195700 100.029980
v 22.530834 645.700560 82.666130
v 22.347876 645.361200 83.233550
v 34.475983 667.856260 100.597400
v 34.658940 668.195700 100.029980
v 22.347876 645.361200 83.233550
vn 0.878941 -0.476914 -0.003941
vn 0.878941 -0.476914 -0.003941
vn 0.878941 -0.476914 -0.003941
vn 0.878941 -0.476914 -0.003941
vn 0.878941 -0.476914 -0.003941
vn 0.878941 -0.476914 -0.003941
vn 0.878941 -0.476914 -0.003941
vn 0.878941 -0.476914 -0.003941
vn 0.878941 -0.476914 -0.003941
vn 0.878941 -0.476914 -0.003941
vn 0.878941 -0.476914 -0.003941
vn 0.878941 -0.476914 -0.003941
vn 0.878941 -0.476914 -0.003941
vn 0.878941 -0.476914 -0.003941
vn 0.878941 -0.476914 -0.003941
vn 0.878941 -0.476914 -0.003941
vn 0.878941 -0.476914 -0.003941
vn 0.878941 -0.476914 -0.003941
vn 0.878941 -0.476914 -0.003941
vn 0.878941 -0.476914 -0.003941
vn 0.878941 -0.476914 -0.003941
vn 0.878941 -0.476914 -0.003941
vn 0.878941 -0.476914 -0.003941
vn 0.878941 -0.476914 -0.003941
vn 0.878941 -0.476914 -0.003941
vn 0.878941 -0.476914 -0.003941
vn 0.878941 -0.476914 -0.003941
vn 0.878941 -0.476914 -0.003941
vn 0.878941 -0.476914 -0.003941
vn 0.878941 -0.476914 -0.003941
vn 0.878941 -0.476914 -0.003941
vn 0.878941 -0.476914 -0.003941
vn 0.878941 -0.476914 -0.003941
vn 0.878941 -0.476914 -0.003941
vn 0.878941 -0.476914 -0.003941
vn 0.878941 -0.476914 -0.003941
vn 0.882237 -0.470790 -0.003956
vn 0.882237 -0.470790 -0.003956
vn 0.882237 -0.470790 -0.003956
vn 0.882237 -0.470790 -0.003956
vn 0.882237 -0.470790 -0.003956
vn 0.882237 -0.470790 -0.003956
vn 0.882237 -0.470790 -0.003956
vn 0.882237 -0.470790 -0.003956
vn 0.882237 -0.470790 -0.003956
vn 0.882237 -0.470790 -0.003956
vn 0.882237 -0.470790 -0.003956
vn 0.882237 -0.470790 -0.003956
vn -0.285586 -0.512490 -0.809812
vn -0.285586 -0.512490 -0.809812
vn -0.285586 -0.512490 -0.809812
vn -0.285586 -0.512490 -0.809812
vn -0.285586 -0.512490 -0.809812
vn -0.285586 -0.512490 -0.809812
vn -0.285586 -0.512490 -0.809812
vn -0.285586 -0.512490 -0.809812
vn -0.820205 -0.027211 -0.571422
vn -0.820205 -0.027211 -0.571422
vn -0.285586 -0.512490 -0.809812
vn -0.820205 -0.027211 -0.571422
vn -0.820205 -0.027211 -0.571422
vn -0.820205 -0.027211 -0.571422
vn -0.877441 0.479668 -0.003900
vn -0.877441 0.479668 -0.003900
vn -0.820205 -0.027211 -0.571422
vn -0.877441 0.479668 -0.003900
vn -0.254024 -0.465060 -0.848051
vn -0.254024 -0.465060 -0.848051
vn -0.254024 -0.465060 -0.848051
vn -0.254024 -0.465060 -0.848051
vn -0.254024 -0.465060 -0.848051
vn -0.254024 -0.465060 -0.848051
vn -0.254024 -0.465060 -0.848051
vn -0.254024 -0.465060 -0.848051
vn -0.801399 0.003909 -0.598117
vn -0.801399 0.003909 -0.598117
vn -0.254024 -0.465060 -0.848051
vn -0.801399 0.003909 -0.598117
vn -0.801399 0.003909 -0.598117
vn -0.801399 0.003909 -0.598117
vn -0.877441 0.479668 -0.003900
vn -0.877441 0.479668 -0.003900
vn -0.801399 0.003909 -0.598117
vn -0.877441 0.479668 -0.003900
vn 0.230478 0.433610 -0.871127
vn 0.230478 0.433610 -0.871127
vn 0.230478 0.433610 -0.871127
vn 0.230478 0.433610 -0.871127
vn 0.230478 0.433610 -0.871127
vn 0.230478 0.433610 -0.871127
vn 0.230478 0.433610 -0.871127
vn 0.230478 0.433610 -0.871127
vn -0.454751 0.641315 -0.617994
vn -0.454751 0.641315 -0.617994
vn 0.230478 0.433610 -0.871127
vn -0.454751 0.641315 -0.617994
vn -0.454751 0.641315 -0.617994
vn -0.454751 0.641315 -0.617994
vn -0.880716 0.473629 -0.003914
vn -0.880716 0.473629 -0.003914
vn -0.454751 0.641315 -0.617994
vn -0.880716 0.473629 -0.003914
vn 0.262515 0.497603 -0.826727
vn 0.262515 0.497603 -0.826727
vn 0.262515 0.497603 -0.826727
vn 0.262515 0.497603 -0.826727
vn 0.262515 0.497603 -0.826727
vn 0.262515 0.497603 -0.826727
vn 0.262515 0.497603 -0.826727
vn 0.262515 0.497603 -0.826727
vn -0.432897 0.682496 -0.588896
vn -0.432897 0.682496 -0.588896
vn 0.262515 0.497603 -0.826727
vn -0.432897 0.682496 -0.588896
vn -0.432897 0.682496 -0.588896
vn -0.432897 0.682496 -0.588896
vn -0.880716 0.473629 -0.003914
vn -0.880716 0.473629 -0.003914
vn -0.432897 0.682496 -0.588896
vn -0.880716 0.473629 -0.003914
vn -0.877441 0.479668 -0.003900
vn -0.877441 0.479668 -0.003900
vn -0.425356 0.706326 0.565841
vn -0.425356 0.706326 0.565841
vn -0.877441 0.479668 -0.003900
vn -0.425356 0.706326 0.565841
vn -0.425356 0.706326 0.565841
vn -0.425356 0.706326 0.565841
vn 0.279011 0.522655 0.805596
vn 0.279011 0.522655 0.805596
vn -0.425356 0.706326 0.565841
vn 0.279011 0.522655 0.805596
vn 0.279011 0.522655 0.805596
vn 0.279011 0.522655 0.805596
vn 0.279011 0.522655 0.805596
vn 0.279011 0.522655 0.805596
vn 0.279011 0.522655 0.805596
vn 0.279011 0.522655 0.805596
vn -0.877441 0.479668 -0.003900
vn -0.877441 0.479668 -0.003900
vn -0.443868 0.671694 0.593134
vn -0.443868 0.671694 0.593134
vn -0.877441 0.479668 -0.003900
vn -0.443868 0.671694 0.593134
vn -0.443868 0.671694 0.593134
vn -0.443868 0.671694 0.593134
vn 0.247421 0.475204 0.844372
vn 0.247421 0.475204 0.844372
vn -0.443868 0.671694 0.593134
vn 0.247421 0.475204 0.844372
vn 0.247421 0.475204 0.844372
vn 0.247421 0.475204 0.844372
vn 0.247421 0.475204 0.844372
vn 0.247421 0.475204 0.844372
vn 0.247421 0.475204 0.844372
vn 0.247421 0.475204 0.844372
vn -0.877441 0.479668 -0.003900
vn -0.877441 0.479668 -0.003900
vn -0.787594 0.035265 0.615185
vn -0.787594 0.035265 0.615185
vn -0.877441 0.479668 -0.003900
vn -0.787594 0.035265 0.615185
vn -0.787594 0.035265 0.615185
vn -0.787594 0.035265 0.615185
vn -0.240293 -0.429377 0.870571
vn -0.240293 -0.429377 0.870571
vn -0.787594 0.035265 0.615185
vn -0.240293 -0.429377 0.870571
vn -0.240293 -0.429377 0.870571
vn -0.240293 -0.429377 0.870571
vn -0.240293 -0.429377 0.870571
vn -0.240293 -0.429377 0.870571
vn -0.240293 -0.429377 0.870571
vn -0.240293 -0.429377 0.870571
vn -0.877441 0.479668 -0.003900
vn -0.877441 0.479668 -0.003900
vn -0.811553 -0.011762 0.584161
vn -0.811553 -0.011762 0.584161
vn -0.877441 0.479668 -0.003900
vn -0.811553 -0.011762 0.584161
vn -0.811553 -0.011762 0.584161
vn -0.811553 -0.011762 0.584161
vn -0.272604 -0.493847 0.825713
vn -0.272604 -0.493847 0.825713
vn -0.811553 -0.011762 0.584161
vn -0.272604 -0.493847 0.825713
vn -0.272604 -0.493847 0.825713
vn -0.272604 -0.493847 0.825713
vn -0.272604 -0.493847 0.825713
vn -0.272604 -0.493847 0.825713
vn -0.272604 -0.493847 0.825713
vn -0.272604 -0.493847 0.825713
vn -0.877441 0.479668 -0.003900
vn -0.877441 0.479668 -0.003900
vn -0.886320 0.113230 -0.449017
vn -0.886320 0.113230 -0.449017
vn -0.877441 0.479668 -0.003900
vn -0.886320 0.113230 -0.449017
vn -0.886320 0.113230 -0.449017
vn -0.886320 0.113230 -0.449017
vn -0.597752 -0.293016 -0.746213
vn -0.597752 -0.293016 -0.746213
vn -0.886320 0.113230 -0.449017
vn -0.597752 -0.293016 -0.746213
vn -0.597752 -0.293016 -0.746213
vn -0.597752 -0.293016 -0.746213
vn -0.597752 -0.293016 -0.746213
vn -0.597752 -0.293016 -0.746213
vn -0.597752 -0.293016 -0.746213
vn -0.597752 -0.293016 -0.746213
vn -0.597752 -0.293016 -0.746213
vn -0.597752 -0.293016 -0.746213
vn -0.887078 0.105511 -0.449401
vn -0.887078 0.105511 -0.449401
vn -0.597752 -0.293016 -0.746213
vn -0.887078 0.105511 -0.449401
vn -0.887078 0.105511 -0.449401
vn -0.887078 0.105511 -0.449401
vn -0.877441 0.479668 -0.003900
vn -0.877441 0.479668 -0.003900
vn -0.887078 0.105511 -0.449401
vn -0.877441 0.479668 -0.003900
vn -0.877441 0.479668 -0.003900
vn -0.877441 0.479668 -0.003900
vn -0.877441 0.479668 -0.003900
vn -0.877441 0.479668 -0.003900
vn -0.877441 0.479668 -0.003900
vn -0.877441 0.479668 -0.003900
vn -0.877441 0.479668 -0.003900
vn -0.877441 0.479668 -0.003900
vn -0.576568 0.686391 0.443212
vn -0.576568 0.686391 0.443212
vn -0.877441 0.479668 -0.003900
vn -0.576568 0.686391 0.443212
vn -0.576568 0.686391 0.443212
vn -0.576568 0.686391 0.443212
vn -0.082545 0.664289 0.742904
vn -0.082545 0.664289 0.742904
vn -0.576568 0.686391 0.443212
vn -0.082545 0.664289 0.742904
vn -0.082545 0.664289 0.742904
vn -0.082545 0.664289 0.742904
vn -0.082545 0.664289 0.742904
vn -0.082545 0.664289 0.742904
vn -0.082545 0.664289 0.742904
vn -0.082545 0.664289 0.742904
vn -0.082545 0.664289 0.742904
vn -0.082545 0.664289 0.742904
vn -0.576568 0.686391 0.443212
vn -0.576568 0.686391 0.443212
vn -0.082545 0.664289 0.742904
vn -0.576568 0.686391 0.443212
vn -0.576568 0.686391 0.443212
vn -0.576568 0.686391 0.443212
vn -0.877441 0.479668 -0.003900
vn -0.877441 0.479668 -0.003900
vn -0.576568 0.686391 0.443212
vn -0.877441 0.479668 -0.003900
vn -0.877441 0.479668 -0.003900
vn -0.877441 0.479668 -0.003900
vn -0.870702 0.136657 -0.472444
vn -0.870702 0.136657 -0.472444
vn -0.877441 0.479668 -0.003900
vn -0.870702 0.136657 -0.472444
vn -0.870702 0.136657 -0.472444
vn -0.870702 0.136657 -0.472444
vn -0.575789 -0.246767 -0.779470
vn -0.575789 -0.246767 -0.779470
vn -0.870702 0.136657 -0.472444
vn -0.575789 -0.246767 -0.779470
vn -0.575789 -0.246767 -0.779470
vn -0.575789 -0.246767 -0.779470
vn -0.575789 -0.246767 -0.779470
vn -0.575789 -0.246767 -0.779470
vn -0.575789 -0.246767 -0.779470
vn -0.575789 -0.246767 -0.779470
vn -0.575789 -0.246767 -0.779470
vn -0.575789 -0.246767 -0.779470
vn -0.870702 0.136657 -0.472444
vn -0.870702 0.136657 -0.472444
vn -0.575789 -0.246767 -0.779470
vn -0.870702 0.136657 -0.472444
vn -0.870702 0.136657 -0.472444
vn -0.870702 0.136657 -0.472444
vn -0.877441 0.479668 -0.003900
vn -0.877441 0.479668 -0.003900
vn -0.870702 0.136657 -0.472444
vn -0.877441 0.479668 -0.003900
vn -0.877441 0.479668 -0.003900
vn -0.877441 0.479668 -0.003900
vn -0.877441 0.479668 -0.003900
vn -0.877441 0.479668 -0.003900
vn -0.877441 0.479668 -0.003900
vn -0.877441 0.479668 -0.003900
vn -0.877441 0.479668 -0.003900
vn -0.877441 0.479668 -0.003900
vn -0.589902 0.660222 0.464890
vn -0.589902 0.660222 0.464890
vn -0.877441 0.479668 -0.003900
vn -0.589902 0.660222 0.464890
vn -0.589902 0.660222 0.464890
vn -0.589902 0.660222 0.464890
vn -0.106050 0.624519 0.773776
vn -0.106050 0.624519 0.773776
vn -0.589902 0.660222 0.464890
vn -0.106050 0.624519 0.773776
vn -0.106050 0.624519 0.773776
vn -0.106050 0.624519 0.773776
vn -0.106050 0.624519 0.773776
vn -0.106050 0.624519 0.773776
vn -0.106050 0.624519 0.773776
vn -0.106050 0.624519 0.773776
vn -0.106050 0.624519 0.773776
vn -0.106050 0.624519 0.773776
vn -0.589902 0.660222 0.464890
vn -0.589902 0.660222 0.464890
vn -0.106050 0.624519 0.773776
vn -0.589902 0.660222 0.464890
vn -0.589902 0.660222 0.464890
vn -0.589902 0.660222 0.464890
vn -0.877441 0.479668 -0.003900
vn -0.877441 0.479668 -0.003900
vn -0.589902 0.660222 0.464890
vn -0.877441 0.479668 -0.003900
vn -0.880716 0.473629 -0.003914
vn -0.880716 0.473629 -0.003914
vn -0.602338 0.633427 -0.485757
vn -0.602338 0.633427 -0.485757
vn -0.880716 0.473629 -0.003914
vn -0.602338 0.633427 -0.485757
vn -0.602338 0.633427 -0.485757
vn -0.602338 0.633427 -0.485757
vn -0.120657 0.579933 -0.805679
vn -0.120657 0.579933 -0.805679
vn -0.602338 0.633427 -0.485757
vn -0.120657 0.579933 -0.805679
vn -0.120657 0.579933 -0.805679
vn -0.120657 0.579933 -0.805679
vn -0.120657 0.579933 -0.805679
vn -0.120657 0.579933 -0.805679
vn -0.120657 0.579933 -0.805679
vn -0.120657 0.579933 -0.805679
vn -0.120657 0.579933 -0.805679
vn -0.120657 0.579933 -0.805679
vn -0.602338 0.633427 -0.485757
vn -0.602338 0.633427 -0.485757
vn -0.120657 0.579933 -0.805679
vn -0.602338 0.633427 -0.485757
vn -0.602338 0.633427 -0.485757
vn -0.602338 0.633427 -0.485757
vn -0.877441 0.479668 -0.003900
vn -0.877441 0.479668 -0.003900
vn -0.602338 0.633427 -0.485757
vn -0.877441 0.479668 -0.003900
vn -0.877441 0.479668 -0.003900
vn -0.877441 0.479668 -0.003900
vn -0.877441 0.479668 -0.003900
vn -0.877441 0.479668 -0.003900
vn -0.877441 0.479668 -0.003900
vn -0.877441 0.479668 -0.003900
vn -0.877441 0.479668 -0.003900
vn -0.877441 0.479668 -0.003900
vn -0.862525 0.160016 0.480048
vn -0.862525 0.160016 0.480048
vn -0.877441 0.479668 -0.003900
vn -0.862525 0.160016 0.480048
vn -0.862525 0.160016 0.480048
vn -0.862525 0.160016 0.480048
vn -0.553341 -0.215842 0.804503
vn -0.553341 -0.215842 0.804503
vn -0.862525 0.160016 0.480048
vn -0.553341 -0.215842 0.804503
vn -0.553341 -0.215842 0.804503
vn -0.553341 -0.215842 0.804503
vn -0.553341 -0.215842 0.804503
vn -0.553341 -0.215842 0.804503
vn -0.553341 -0.215842 0.804503
vn -0.553341 -0.215842 0.804503
vn -0.553341 -0.215842 0.804503
vn -0.553341 -0.215842 0.804503
vn -0.862525 0.160016 0.480048
vn -0.862525 0.160016 0.480048
vn -0.553341 -0.215842 0.804503
vn -0.862525 0.160016 0.480048
vn -0.862525 0.160016 0.480048
vn -0.862525 0.160016 0.480048
vn -0.877441 0.479668 -0.003900
vn -0.877441 0.479668 -0.003900
vn -0.862525 0.160016 0.480048
vn -0.877441 0.479668 -0.003900
vn -0.880716 0.473629 -0.003914
vn -0.880716 0.473629 -0.003914
vn -0.581734 0.667628 -0.464606
vn -0.581734 0.667628 -0.464606
vn -0.880716 0.473629 -0.003914
vn -0.581734 0.667628 -0.464606
vn -0.581734 0.667628 -0.464606
vn -0.581734 0.667628 -0.464606
vn -0.097893 0.638264 -0.763568
vn -0.097893 0.638264 -0.763568
vn -0.581734 0.667628 -0.464606
vn -0.097893 0.638264 -0.763568
vn -0.097893 0.638264 -0.763568
vn -0.097893 0.638264 -0.763568
vn -0.097893 0.638264 -0.763568
vn -0.097893 0.638264 -0.763568
vn -0.097893 0.638264 -0.763568
vn -0.097893 0.638264 -0.763568
vn -0.097893 0.638264 -0.763568
vn -0.097893 0.638264 -0.763568
vn -0.581734 0.667628 -0.464606
vn -0.581734 0.667628 -0.464606
vn -0.097893 0.638264 -0.763568
vn -0.581734 0.667628 -0.464606
vn -0.581734 0.667628 -0.464606
vn -0.581734 0.667628 -0.464606
vn -0.877441 0.479668 -0.003900
vn -0.877441 0.479668 -0.003900
vn -0.581734 0.667628 -0.464606
vn -0.877441 0.479668 -0.003900
vn -0.877441 0.479668 -0.003900
vn -0.877441 0.479668 -0.003900
vn -0.877441 0.479668 -0.003900
vn -0.877441 0.479668 -0.003900
vn -0.877441 0.479668 -0.003900
vn -0.877441 0.479668 -0.003900
vn -0.877441 0.479668 -0.003900
vn -0.877441 0.479668 -0.003900
vn -0.880662 0.121336 0.457944
vn -0.880662 0.121336 0.457944
vn -0.877441 0.479668 -0.003900
vn -0.880662 0.121336 0.457944
vn -0.880662 0.121336 0.457944
vn -0.880662 0.121336 0.457944
vn -0.588006 -0.272298 0.761645
vn -0.588006 -0.272298 0.761645
vn -0.880662 0.121336 0.457944
vn -0.588006 -0.272298 0.761645
vn -0.588006 -0.272298 0.761645
vn -0.588006 -0.272298 0.761645
vn -0.588006 -0.272298 0.761645
vn -0.588006 -0.272298 0.761645
vn -0.588006 -0.272298 0.761645
vn -0.588006 -0.272298 0.761645
vn -0.588006 -0.272298 0.761645
vn -0.588006 -0.272298 0.761645
vn -0.880662 0.121336 0.457944
vn -0.880662 0.121336 0.457944
vn -0.588006 -0.272298 0.761645
vn -0.880662 0.121336 0.457944
vn -0.880662 0.121336 0.457944
vn -0.880662 0.121336 0.457944
vn -0.877441 0.479668 -0.003900
vn -0.877441 0.479668 -0.003900
vn -0.880662 0.121336 0.457944
vn -0.877441 0.479668 -0.003900
vt 0.937500 0.783447
vt 0.937500 0.783936
vt 0.787109 0.783814
vt 0.937500 0.783936
vt 0.787109 0.784424
vt 0.787109 0.783814
vt 0.727051 0.812256
vt 0.727051 0.812744
vt 0.565430 0.812744
vt 0.727051 0.812744
vt 0.565430 0.813232
vt 0.565430 0.812744
vt 0.490234 0.854248
vt 0.490234 0.854736
vt 0.347656 0.854126
vt 0.490234 0.854736
vt 0.347656 0.854614
vt 0.347656 0.854126
vt 0.858398 0.617432
vt 0.858398 0.617920
vt 0.706543 0.617432
vt 0.858398 0.617920
vt 0.706543 0.617920
vt 0.706543 0.617432
vt 0.937988 0.821899
vt 0.937988 0.822144
vt 0.787598 0.822266
vt 0.937988 0.822144
vt 0.787598 0.822510
vt 0.787598 0.822266
vt 0.727539 0.850708
vt 0.727539 0.850952
vt 0.565430 0.851196
vt 0.727539 0.850952
vt 0.565430 0.851440
vt 0.565430 0.851196
vt 0.489990 0.892578
vt 0.489990 0.892822
vt 0.347412 0.892456
vt 0.489990 0.892822
vt 0.347412 0.892700
vt 0.347412 0.892456
vt 0.858398 0.656006
vt 0.858398 0.656250
vt 0.706543 0.656006
vt 0.858398 0.656250
vt 0.706543 0.656250
vt 0.706543 0.656006
vt 0.937988 0.852173
vt 0.787598 0.852539
vt 0.787598 0.829224
vt 0.937988 0.828857
vt 0.937988 0.852173
vt 0.787598 0.829224
vt 0.937988 0.828857
vt 0.787598 0.829224
vt 0.787598 0.825928
vt 0.937988 0.825439
vt 0.937988 0.828857
vt 0.787598 0.825928
vt 0.937988 0.825439
vt 0.787598 0.825928
vt 0.787598 0.822510
vt 0.937988 0.822144
vt 0.937988 0.825439
vt 0.787598 0.822510
vt 0.727539 0.880920
vt 0.565918 0.881348
vt 0.565430 0.858154
vt 0.727539 0.857666
vt 0.727539 0.880920
vt 0.565430 0.858154
vt 0.727539 0.857666
vt 0.565430 0.858154
vt 0.565430 0.854736
vt 0.727539 0.854248
vt 0.727539 0.857666
vt 0.565430 0.854736
vt 0.727539 0.854248
vt 0.565430 0.854736
vt 0.565430 0.851440
vt 0.727539 0.850952
vt 0.727539 0.854248
vt 0.565430 0.851440
vt 0.489990 0.922852
vt 0.347412 0.922668
vt 0.347412 0.899414
vt 0.489990 0.899536
vt 0.489990 0.922852
vt 0.347412 0.899414
vt 0.489990 0.899536
vt 0.347412 0.899414
vt 0.347412 0.896057
vt 0.489990 0.896179
vt 0.489990 0.899536
vt 0.347412 0.896057
vt 0.489990 0.896179
vt 0.347412 0.896057
vt 0.347412 0.892700
vt 0.489990 0.892822
vt 0.489990 0.896179
vt 0.347412 0.892700
vt 0.858398 0.686279
vt 0.706543 0.686279
vt 0.706543 0.662842
vt 0.858398 0.663086
vt 0.858398 0.686279
vt 0.706543 0.662842
vt 0.858398 0.663086
vt 0.706543 0.662842
vt 0.706543 0.659668
vt 0.858398 0.659668
vt 0.858398 0.663086
vt 0.706543 0.659668
vt 0.858398 0.659668
vt 0.706543 0.659668
vt 0.706543 0.656250
vt 0.858398 0.656250
vt 0.858398 0.659668
vt 0.706543 0.656250
vt 0.937500 0.783447
vt 0.787109 0.783814
vt 0.787109 0.780518
vt 0.937500 0.780029
vt 0.937500 0.783447
vt 0.787109 0.780518
vt 0.937500 0.780029
vt 0.787109 0.780518
vt 0.787109 0.777100
vt 0.937500 0.776733
vt 0.937500 0.780029
vt 0.787109 0.777100
vt 0.937500 0.776733
vt 0.787109 0.777100
vt 0.787109 0.752808
vt 0.937500 0.752441
vt 0.937500 0.776733
vt 0.787109 0.752808
vt 0.727051 0.812256
vt 0.565430 0.812744
vt 0.565430 0.809326
vt 0.727051 0.808960
vt 0.727051 0.812256
vt 0.565430 0.809326
vt 0.727051 0.808960
vt 0.565430 0.809326
vt 0.565430 0.806030
vt 0.727051 0.805542
vt 0.727051 0.808960
vt 0.565430 0.806030
vt 0.727051 0.805542
vt 0.565430 0.806030
vt 0.565430 0.781616
vt 0.727051 0.781250
vt 0.727051 0.805542
vt 0.565430 0.781616
vt 0.490234 0.854248
vt 0.347656 0.854126
vt 0.347656 0.850708
vt 0.490234 0.850830
vt 0.490234 0.854248
vt 0.347656 0.850708
vt 0.490234 0.850830
vt 0.347656 0.850708
vt 0.347656 0.847290
vt 0.490234 0.847412
vt 0.490234 0.850830
vt 0.347656 0.847290
vt 0.490234 0.847412
vt 0.347656 0.847290
vt 0.347656 0.822998
vt 0.490234 0.823120
vt 0.490234 0.847412
vt 0.347656 0.822998
vt 0.858398 0.617432
vt 0.706543 0.617432
vt 0.706543 0.614014
vt 0.858398 0.614014
vt 0.858398 0.617432
vt 0.706543 0.614014
vt 0.858398 0.614014
vt 0.706543 0.614014
vt 0.706543 0.610596
vt 0.858398 0.610596
vt 0.858398 0.614014
vt 0.706543 0.610596
vt 0.858398 0.610596
vt 0.706543 0.610596
vt 0.706543 0.586182
vt 0.858398 0.586426
vt 0.858398 0.610596
vt 0.706543 0.586182
vt 0.937988 0.821899
vt 0.787598 0.822266
vt 0.787598 0.818970
vt 0.937988 0.818481
vt 0.937988 0.821899
vt 0.787598 0.818970
vt 0.937988 0.818481
vt 0.787598 0.818970
vt 0.787598 0.815552
vt 0.937988 0.815186
vt 0.937988 0.818481
vt 0.787598 0.815552
vt 0.937988 0.815186
vt 0.787598 0.815552
vt 0.787109 0.813354
vt 0.937988 0.812988
vt 0.937988 0.815186
vt 0.787109 0.813354
vt 0.937988 0.812988
vt 0.787109 0.813354
vt 0.787109 0.809936
vt 0.937500 0.809570
vt 0.937988 0.812988
vt 0.787109 0.809936
vt 0.937500 0.809570
vt 0.787109 0.809936
vt 0.787109 0.806641
vt 0.937500 0.806274
vt 0.937500 0.809570
vt 0.787109 0.806641
vt 0.937500 0.806274
vt 0.787109 0.806641
vt 0.787109 0.800049
vt 0.937500 0.799683
vt 0.937500 0.806274
vt 0.787109 0.800049
vt 0.937500 0.799683
vt 0.787109 0.800049
vt 0.787109 0.796753
vt 0.937500 0.796265
vt 0.937500 0.799683
vt 0.787109 0.796753
vt 0.937500 0.796265
vt 0.787109 0.796753
vt 0.787109 0.793335
vt 0.937500 0.792969
vt 0.937500 0.796265
vt 0.787109 0.793335
vt 0.937500 0.792969
vt 0.787109 0.793335
vt 0.787109 0.791138
vt 0.937500 0.790771
vt 0.937500 0.792969
vt 0.787109 0.791138
vt 0.937500 0.790771
vt 0.787109 0.791138
vt 0.787109 0.787720
vt 0.937500 0.787354
vt 0.937500 0.790771
vt 0.787109 0.787720
vt 0.937500 0.787354
vt 0.787109 0.787720
vt 0.787109 0.784424
vt 0.937500 0.783936
vt 0.937500 0.787354
vt 0.787109 0.784424
vt 0.727539 0.850708
vt 0.565430 0.851196
vt 0.565430 0.847778
vt 0.727539 0.847290
vt 0.727539 0.850708
vt 0.565430 0.847778
vt 0.727539 0.847290
vt 0.565430 0.847778
vt 0.565430 0.844482
vt 0.727539 0.843994
vt 0.727539 0.847290
vt 0.565430 0.844482
vt 0.727539 0.843994
vt 0.565430 0.844482
vt 0.565430 0.842285
vt 0.727539 0.841797
vt 0.727539 0.843994
vt 0.565430 0.842285
vt 0.727539 0.841797
vt 0.565430 0.842285
vt 0.565430 0.838867
vt 0.727539 0.838379
vt 0.727539 0.841797
vt 0.565430 0.838867
vt 0.727539 0.838379
vt 0.565430 0.838867
vt 0.565430 0.835449
vt 0.727051 0.835083
vt 0.727539 0.838379
vt 0.565430 0.835449
vt 0.727051 0.835083
vt 0.565430 0.835449
vt 0.565430 0.828979
vt 0.727051 0.828491
vt 0.727051 0.835083
vt 0.565430 0.828979
vt 0.727051 0.828491
vt 0.565430 0.828979
vt 0.565430 0.825561
vt 0.727051 0.825073
vt 0.727051 0.828491
vt 0.565430 0.825561
vt 0.727051 0.825073
vt 0.565430 0.825561
vt 0.565430 0.822266
vt 0.727051 0.821777
vt 0.727051 0.825073
vt 0.565430 0.822266
vt 0.727051 0.821777
vt 0.565430 0.822266
vt 0.565430 0.819946
vt 0.727051 0.819580
vt 0.727051 0.821777
vt 0.565430 0.819946
vt 0.727051 0.819580
vt 0.565430 0.819946
vt 0.565430 0.816650
vt 0.727051 0.816162
vt 0.727051 0.819580
vt 0.565430 0.816650
vt 0.727051 0.816162
vt 0.565430 0.816650
vt 0.565430 0.813232
vt 0.727051 0.812744
vt 0.727051 0.816162
vt 0.565430 0.813232
vt 0.489990 0.892578
vt 0.347412 0.892456
vt 0.347412 0.889099
vt 0.489990 0.889221
vt 0.489990 0.892578
vt 0.347412 0.889099
vt 0.489990 0.889221
vt 0.347412 0.889099
vt 0.347412 0.885742
vt 0.489990 0.885864
vt 0.489990 0.889221
vt 0.347412 0.885742
vt 0.489990 0.885864
vt 0.347412 0.885742
vt 0.347412 0.883545
vt 0.489990 0.883667
vt 0.489990 0.885864
vt 0.347412 0.883545
vt 0.489990 0.883667
vt 0.347412 0.883545
vt 0.347412 0.880188
vt 0.489990 0.880310
vt 0.489990 0.883667
vt 0.347412 0.880188
vt 0.489990 0.880310
vt 0.347412 0.880188
vt 0.347412 0.876770
vt 0.489990 0.876892
vt 0.489990 0.880310
vt 0.347412 0.876770
vt 0.489990 0.876892
vt 0.347412 0.876770
vt 0.347412 0.870239
vt 0.489990 0.870361
vt 0.489990 0.876892
vt 0.347412 0.870239
vt 0.489990 0.870361
vt 0.347412 0.870239
vt 0.347412 0.866943
vt 0.489990 0.867065
vt 0.489990 0.870361
vt 0.347412 0.866943
vt 0.489990 0.867065
vt 0.347412 0.866943
vt 0.347656 0.863525
vt 0.489990 0.863647
vt 0.489990 0.867065
vt 0.347656 0.863525
vt 0.489990 0.863647
vt 0.347656 0.863525
vt 0.347656 0.861328
vt 0.489990 0.861450
vt 0.489990 0.863647
vt 0.347656 0.861328
vt 0.489990 0.861450
vt 0.347656 0.861328
vt 0.347656 0.857910
vt 0.490234 0.858032
vt 0.489990 0.861450
vt 0.347656 0.857910
vt 0.490234 0.858032
vt 0.347656 0.857910
vt 0.347656 0.854614
vt 0.490234 0.854736
vt 0.490234 0.858032
vt 0.347656 0.854614
vt 0.858398 0.656006
vt 0.706543 0.656006
vt 0.706543 0.652588
vt 0.858398 0.652588
vt 0.858398 0.656006
vt 0.706543 0.652588
vt 0.858398 0.652588
vt 0.706543 0.652588
vt 0.706543 0.649170
vt 0.858398 0.649170
vt 0.858398 0.652588
vt 0.706543 0.649170
vt 0.858398 0.649170
vt 0.706543 0.649170
vt 0.706543 0.646973
vt 0.858398 0.646973
vt 0.858398 0.649170
vt 0.706543 0.646973
vt 0.858398 0.646973
vt 0.706543 0.646973
vt 0.706543 0.643555
vt 0.858398 0.643555
vt 0.858398 0.646973
vt 0.706543 0.643555
vt 0.858398 0.643555
vt 0.706543 0.643555
vt 0.706543 0.640137
vt 0.858398 0.640381
vt 0.858398 0.643555
vt 0.706543 0.640137
vt 0.858398 0.640381
vt 0.706543 0.640137
vt 0.706543 0.633545
vt 0.858398 0.633789
vt 0.858398 0.640381
vt 0.706543 0.633545
vt 0.858398 0.633789
vt 0.706543 0.633545
vt 0.706543 0.630371
vt 0.858398 0.630371
vt 0.858398 0.633789
vt 0.706543 0.630371
vt 0.858398 0.630371
vt 0.706543 0.630371
vt 0.706543 0.626953
vt 0.858398 0.626953
vt 0.858398 0.630371
vt 0.706543 0.626953
vt 0.858398 0.626953
vt 0.706543 0.626953
vt 0.706543 0.624756
vt 0.858398 0.624756
vt 0.858398 0.626953
vt 0.706543 0.624756
vt 0.858398 0.624756
vt 0.706543 0.624756
vt 0.706543 0.621338
vt 0.858398 0.621338
vt 0.858398 0.624756
vt 0.706543 0.621338
vt 0.858398 0.621338
vt 0.706543 0.621338
vt 0.706543 0.617920
vt 0.858398 0.617920
vt 0.858398 0.621338
vt 0.706543 0.617920
f 1/1/1 2/2/2 3/3/3
f 4/4/4 5/5/5 6/6/6
f 7/7/7 8/8/8 9/9/9
f 10/10/10 11/11/11 12/12/12
f 13/13/13 14/14/14 15/15/15
f 16/16/16 17/17/17 18/18/18
f 19/19/19 20/20/20 21/21/21
f 22/22/22 23/23/23 24/24/24
f 25/25/25 26/26/26 27/27/27
f 28/28/28 29/29/29 30/30/30
f 31/31/31 32/32/32 33/33/33
f 34/34/34 35/35/35 36/36/36
f 37/37/37 38/38/38 39/39/39
f 40/40/40 41/41/41 42/42/42
f 43/43/43 44/44/44 45/45/45
f 46/46/46 47/47/47 48/48/48
f 49/49/49 50/50/50 51/51/51
f 52/52/52 53/53/53 54/54/54
f 55/55/55 56/56/56 57/57/57
f 58/58/58 59/59/59 60/60/60
f 61/61/61 62/62/62 63/63/63
f 64/64/64 65/65/65 66/66/66
f 67/67/67 68/68/68 69/69/69
f 70/70/70 71/71/71 72/72/72
f 73/73/73 74/74/74 75/75/75
f 76/76/76 77/77/77 78/78/78
f 79/79/79 80/80/80 81/81/81
f 82/82/82 83/83/83 84/84/84
f 85/85/85 86/86/86 87/87/87
f 88/88/88 89/89/89 90/90/90
f 91/91/91 92/92/92 93/93/93
f 94/94/94 95/95/95 96/96/96
f 97/97/97 98/98/98 99/99/99
f 100/100/100 101/101/101 102/102/102
f 103/103/103 104/104/104 105/105/105
f 106/106/106 107/107/107 108/108/108
f 109/109/109 110/110/110 111/111/111
f 112/112/112 113/113/113 114/114/114
f 115/115/115 116/116/116 117/117/117
f 118/118/118 119/119/119 120/120/120
f 121/121/121 122/122/122 123/123/123
f 124/124/124 125/125/125 126/126/126
f 127/127/127 128/128/128 129/129/129
f 130/130/130 131/131/131 132/132/132
f 133/133/133 134/134/134 135/135/135
f 136/136/136 137/137/137 138/138/138
f 139/139/139 140/140/140 141/141/141
f 142/142/142 143/143/143 144/144/144
f 145/145/145 146/146/146 147/147/147
f 148/148/148 149/149/149 150/150/150
f 151/151/151 152/152/152 153/153/153
f 154/154/154 155/155/155 156/156/156
f 157/157/157 158/158/158 159/159/159
f 160/160/160 161/161/161 162/162/162
f 163/163/163 164/164/164 165/165/165
f 166/166/166 167/167/167 168/168/168
f 169/169/169 170/170/170 171/171/171
f 172/172/172 173/173/173 174/174/174
f 175/175/175 176/176/176 177/177/177
f 178/178/178 179/179/179 180/180/180
f 181/181/181 182/182/182 183/183/183
f 184/184/184 185/185/185 186/186/186
f 187/187/187 188/188/188 189/189/189
f 190/190/190 191/191/191 192/192/192
f 193/193/193 194/194/194 195/195/195
f 196/196/196 197/197/197 198/198/198
f 199/199/199 200/200/200 201/201/201
f 202/202/202 203/203/203 204/204/204
f 205/205/205 206/206/206 207/207/207
f 208/208/208 209/209/209 210/210/210
f 211/211/211 212/212/212 213/213/213
f 214/214/214 215/215/215 216/216/216
f 217/217/217 218/218/218 219/219/219
f 220/220/220 221/221/221 222/222/222
f 223/223/223 224/224/224 225/225/225
f 226/226/226 227/227/227 228/228/228
f 229/229/229 230/230/230 231/231/231
f 232/232/232 233/233/233 234/234/234
f 235/235/235 236/236/236 237/237/237
f 238/238/238 239/239/239 240/240/240
f 241/241/241 242/242/242 243/243/243
f 244/244/244 245/245/245 246/246/246
f 247/247/247 248/248/248 249/249/249
f 250/250/250 251/251/251 252/252/252
f 253/253/253 254/254/254 255/255/255
f 256/256/256 257/257/257 258/258/258
f 259/259/259 260/260/260 261/261/261
f 262/262/262 263/263/263 264/264/264
f 265/265/265 266/266/266 267/267/267
f 268/268/268 269/269/269 270/270/270
f 271/271/271 272/272/272 273/273/273
f 274/274/274 275/275/275 276/276/276
f 277/277/277 278/278/278 279/279/279
f 280/280/280 281/281/281 282/282/282
f 283/283/283 284/284/284 285/285/285
f 286/286/286 287/287/287 288/288/288
f 289/289/289 290/290/290 291/291/291
f 292/292/292 293/293/293 294/294/294
f 295/295/295 296/296/296 297/297/297
f 298/298/298 299/299/299 300/300/300
f 301/301/301 302/302/302 303/303/303
f 304/304/304 305/305/305 306/306/306
f 307/307/307 308/308/308 309/309/309
f 310/310/310 311/311/311 312/312/312
f 313/313/313 314/314/314 315/315/315
f 316/316/316 317/317/317 318/318/318
f 319/319/319 320/320/320 321/321/321
f 322/322/322 323/323/323 324/324/324
f 325/325/325 326/326/326 327/327/327
f 328/328/328 329/329/329 330/330/330
f 331/331/331 332/332/332 333/333/333
f 334/334/334 335/335/335 336/336/336
f 337/337/337 338/338/338 339/339/339
f 340/340/340 341/341/341 342/342/342
f 343/343/343 344/344/344 345/345/345
f 346/346/346 347/347/347 348/348/348
f 349/349/349 350/350/350 351/351/351
f 352/352/352 353/353/353 354/354/354
f 355/355/355 356/356/356 357/357/357
f 358/358/358 359/359/359 360/360/360
f 361/361/361 362/362/362 363/363/363
f 364/364/364 365/365/365 366/366/366
f 367/367/367 368/368/368 369/369/369
f 370/370/370 371/371/371 372/372/372
f 373/373/373 374/374/374 375/375/375
f 376/376/376 377/377/377 378/378/378
f 379/379/379 380/380/380 381/381/381
f 382/382/382 383/383/383 384/384/384
f 385/385/385 386/386/386 387/387/387
f 388/388/388 389/389/389 390/390/390
f 391/391/391 392/392/392 393/393/393
f 394/394/394 395/395/395 396/396/396
f 397/397/397 398/398/398 399/399/399
f 400/400/400 401/401/401 402/402/402
f 403/403/403 404/404/404 405/405/405
f 406/406/406 407/407/407 408/408/408
f 409/409/409 410/410/410 411/411/411
f 412/412/412 413/413/413 414/414/414
f 415/415/415 416/416/416 417/417/417
f 418/418/418 419/419/419 420/420/420
f 421/421/421 422/422/422 423/423/423
f 424/424/424 425/425/425 426/426/426
f 427/427/427 428/428/428 429/429/429
f 430/430/430 431/431/431 432/432/432
f 433/433/433 434/434/434 435/435/435
f 436/436/436 437/437/437 438/438/438
f 439/439/439 440/440/440 441/441/441
f 442/442/442 443/443/443 444/444/444
f 445/445/445 446/446/446 447/447/447
f 448/448/448 449/449/449 450/450/450
f 451/451/451 452/452/452 453/453/453
f 454/454/454 455/455/455 456/456/456
