# OBJ file
v -48.506798 -27.034021 291.073430
v -48.506668 -27.034437 46.063320
v -8.438359 -112.764610 291.073520
v -48.506668 -27.034437 46.063320
v -8.438088 -112.764850 46.063442
v -8.438359 -112.764610 291.073520
vn -0.908750 -0.417323 -0.003900
vn -0.908750 -0.417323 -0.003900
vn -0.908750 -0.417323 -0.003900
vn -0.908750 -0.417323 -0.003900
vn -0.908750 -0.417323 -0.003900
vn -0.908750 -0.417323 -0.003900
vt -0.088501 1.197021
vt -0.088501 -0.027344
vt 0.353271 1.197021
vt -0.088501 -0.027344
vt 0.353271 -0.027344
vt 0.353271 1.197021
f 1/1/1 2/2/2 3/3/3
f 4/4/4 5/5/5 6/6/6
