# OBJ file
v 86.399902 -153.165100 400.346832
v 63.570648 -144.135590 380.729584
v 63.370701 -144.585876 381.241119
v 86.084785 -153.568848 400.759308
v 86.399902 -153.165100 400.346832
v 63.370701 -144.585876 381.241119
v 84.960297 -157.028046 400.112671
v 86.084785 -153.568848 400.759308
v 63.370701 -144.585876 381.241119
v 62.637142 -148.197708 380.930267
v 84.960297 -157.028046 400.112671
v 63.370701 -144.585876 381.241119
v 86.084785 -153.568848 400.759308
v 86.595947 -153.770996 400.951965
v 86.399902 -153.165100 400.346832
v 86.595947 -153.770996 400.951965
v 86.911110 -153.367310 400.539459
v 86.399902 -153.165100 400.346832
v 885.961975 -469.412231 400.540863
v 86.911110 -153.367310 400.539459
v 86.595947 -153.770996 400.951965
v 885.692322 -469.834900 400.953186
v 885.961975 -469.412231 400.540863
v 86.595947 -153.770996 400.951965
v 883.756775 -472.971375 400.306885
v 885.692322 -469.834900 400.953186
v 86.595947 -153.770996 400.951965
v 85.471443 -157.230225 400.305328
v 86.595947 -153.770996 400.951965
v 86.084785 -153.568848 400.759308
v 85.471443 -157.230225 400.305328
v 883.756775 -472.971375 400.306885
v 86.595947 -153.770996 400.951965
v 84.960297 -157.028046 400.112671
v 85.471443 -157.230225 400.305328
v 86.084785 -153.568848 400.759308
v 85.471443 -157.230225 400.305328
v 85.473030 -157.759232 399.745972
v 883.756775 -472.971375 400.306885
v 85.473030 -157.759232 399.745972
v 85.471443 -157.230225 400.305328
v 84.960297 -157.028046 400.112671
v 85.473030 -157.759232 399.745972
v 883.637451 -473.453491 399.865631
v 883.756775 -472.971375 400.306885
v 84.961761 -157.557022 399.553467
v 85.473030 -157.759232 399.745972
v 84.960297 -157.028046 400.112671
v 883.756775 -472.971375 400.306885
v 883.637451 -473.453491 399.865631
v 884.228821 -473.158081 399.799255
v 883.756775 -472.971375 400.306885
v 884.228821 -473.158081 399.799255
v 885.692322 -469.834900 400.953186
v 62.592133 -148.709290 380.358154
v 84.961761 -157.557022 399.553467
v 84.960297 -157.028046 400.112671
v 62.637142 -148.197708 380.930267
v 62.592133 -148.709290 380.358154
v 84.960297 -157.028046 400.112671
v 884.228821 -473.158081 399.799255
v 886.164368 -470.021606 400.445557
v 885.692322 -469.834900 400.953186
v 885.692322 -469.834900 400.953186
v 886.164368 -470.021606 400.445557
v 885.961975 -469.412231 400.540863
v 885.962036 -469.412384 343.623383
v 885.961975 -469.412231 400.540863
v 886.164368 -470.021606 400.445557
v 884.228821 -473.158081 399.799255
v 884.228821 -473.158203 344.365021
v 886.164368 -470.021606 400.445557
v 884.228821 -473.158081 399.799255
v 883.637451 -473.453491 399.865631
v 884.228821 -473.158203 344.365021
v 886.164368 -470.021790 343.718719
v 885.962036 -469.412384 343.623383
v 886.164368 -470.021606 400.445557
v 884.228821 -473.158203 344.365021
v 886.164368 -470.021790 343.718719
v 886.164368 -470.021606 400.445557
v 886.164368 -470.021790 343.718719
v 885.692261 -469.835083 343.211090
v 885.962036 -469.412384 343.623383
v 883.756714 -472.971497 343.857422
v 885.692261 -469.835083 343.211090
v 886.164368 -470.021790 343.718719
v 884.228821 -473.158203 344.365021
v 883.756714 -472.971497 343.857422
v 886.164368 -470.021790 343.718719
v 884.228821 -473.158203 344.365021
v 883.637451 -473.453674 344.298645
v 883.756714 -472.971497 343.857422
v 883.637451 -473.453491 399.865631
v 883.637451 -473.453674 344.298645
v 884.228821 -473.158203 344.365021
v 883.756714 -472.971497 343.857422
v 883.637451 -473.453674 344.298645
v 84.893181 -157.001709 343.856171
v 883.756714 -472.971497 343.857422
v 84.893181 -157.001709 343.856171
v 885.692261 -469.835083 343.211090
v 86.331329 -153.138153 343.621979
v 885.962036 -469.412384 343.623383
v 885.692261 -469.835083 343.211090
v 86.013557 -153.540787 343.209473
v 86.331329 -153.138153 343.621979
v 885.692261 -469.835083 343.211090
v 84.893181 -157.001709 343.856171
v 86.013557 -153.540787 343.209473
v 885.692261 -469.835083 343.211090
v 86.013557 -153.540787 343.209473
v 85.504623 -153.339508 343.405121
v 86.331329 -153.138153 343.621979
v 85.504623 -153.339508 343.405121
v 85.822388 -152.936859 343.817566
v 86.331329 -153.138153 343.621979
v 63.570457 -144.135620 363.428070
v 85.822388 -152.936859 343.817566
v 85.504623 -153.339508 343.405121
v 63.366871 -144.584457 362.914856
v 63.570457 -144.135620 363.428070
v 85.504623 -153.339508 343.405121
v 62.633316 -148.196289 363.220795
v 63.366871 -144.584457 362.914856
v 85.504623 -153.339508 343.405121
v 84.384247 -156.800385 344.051788
v 85.504623 -153.339508 343.405121
v 86.013557 -153.540787 343.209473
v 84.384247 -156.800385 344.051788
v 62.633316 -148.196289 363.220795
v 85.504623 -153.339508 343.405121
v 84.893181 -157.001709 343.856171
v 84.384247 -156.800385 344.051788
v 86.013557 -153.540787 343.209473
v 84.384247 -156.800385 344.051788
v 84.389015 -157.330643 344.609985
v 62.633316 -148.196289 363.220795
v 84.389015 -157.330643 344.609985
v 84.384247 -156.800385 344.051788
v 84.893181 -157.001709 343.856171
v 84.898071 -157.531982 344.414459
v 84.389015 -157.330643 344.609985
v 84.893181 -157.001709 343.856171
v 883.637451 -473.453674 344.298645
v 84.898071 -157.531982 344.414459
v 84.893181 -157.001709 343.856171
v 84.389015 -157.330643 344.609985
v 62.593182 -148.709808 363.794281
v 62.633316 -148.196289 363.220795
v 87.090950 -158.399734 351.012909
v 84.898071 -157.531982 344.414459
v 883.637451 -473.453674 344.298645
v 86.582184 -158.198502 351.208649
v 84.389015 -157.330643 344.609985
v 84.898071 -157.531982 344.414459
v 87.090950 -158.399734 351.012909
v 86.582184 -158.198502 351.208649
v 84.898071 -157.531982 344.414459
v 86.582184 -158.198502 351.208649
v 68.764038 -151.150955 366.935699
v 84.389015 -157.330643 344.609985
v 68.764038 -151.150955 366.935699
v 62.593182 -148.709808 363.794281
v 84.389015 -157.330643 344.609985
v 86.573914 -158.729370 351.733673
v 86.582184 -158.198502 351.208649
v 87.090950 -158.399734 351.012909
v 86.582184 -158.198502 351.208649
v 86.573914 -158.729370 351.733673
v 68.764038 -151.150955 366.935699
v 877.283386 -470.940918 351.131470
v 87.090950 -158.399734 351.012909
v 883.637451 -473.453674 344.298645
v 877.283386 -470.940918 351.131470
v 883.637451 -473.453674 344.298645
v 883.637451 -473.453491 399.865631
v 87.082855 -158.930664 351.538086
v 86.573914 -158.729370 351.733673
v 87.090950 -158.399734 351.012909
v 877.283447 -470.940826 393.032745
v 877.283386 -470.940918 351.131470
v 883.637451 -473.453491 399.865631
v 877.283447 -470.940826 393.032745
v 883.637451 -473.453491 399.865631
v 85.473030 -157.759232 399.745972
v 877.283386 -470.940918 351.131470
v 876.253418 -471.068085 351.539520
v 87.090950 -158.399734 351.012909
v 876.253418 -471.068085 351.539520
v 87.082855 -158.930664 351.538086
v 87.090950 -158.399734 351.012909
v 87.622604 -158.609879 393.149628
v 877.283447 -470.940826 393.032745
v 85.473030 -157.759232 399.745972
v 87.622604 -158.609879 393.149628
v 85.473030 -157.759232 399.745972
v 84.961761 -157.557022 399.553467
v 87.111565 -158.407761 392.956818
v 87.622604 -158.609879 393.149628
v 84.961761 -157.557022 399.553467
v 87.111565 -158.407761 392.956818
v 84.961761 -157.557022 399.553467
v 62.592133 -148.709290 380.358154
v 87.622604 -158.609879 393.149628
v 87.611443 -159.139618 392.623413
v 877.283447 -470.940826 393.032745
v 87.611443 -159.139618 392.623413
v 87.622604 -158.609879 393.149628
v 87.111565 -158.407761 392.956818
v 877.283447 -470.940826 393.032745
v 876.721069 -471.252960 392.121765
v 877.283386 -470.940918 351.131470
v 87.611443 -159.139618 392.623413
v 876.253479 -471.067932 392.624756
v 877.283447 -470.940826 393.032745
v 877.283447 -470.940826 393.032745
v 876.253479 -471.067932 392.624756
v 876.721069 -471.252960 392.121765
v 876.721069 -471.252960 392.121765
v 876.721130 -471.253021 352.042480
v 877.283386 -470.940918 351.131470
v 877.283386 -470.940918 351.131470
v 876.721130 -471.253021 352.042480
v 876.253418 -471.068085 351.539520
v 876.005432 -472.608765 391.954926
v 876.721069 -471.252960 392.121765
v 876.253479 -471.067932 392.624756
v 875.537659 -472.423889 351.706390
v 876.253418 -471.068085 351.539520
v 876.721130 -471.253021 352.042480
v 876.005493 -472.608887 352.209351
v 876.721130 -471.253021 352.042480
v 876.721069 -471.252960 392.121765
v 876.005493 -472.608887 352.209351
v 875.537659 -472.423889 351.706390
v 876.721130 -471.253021 352.042480
v 876.005432 -472.608765 391.954926
v 876.005493 -472.608887 352.209351
v 876.721069 -471.252960 392.121765
v 875.537659 -472.423889 351.706390
v 86.577492 -160.370483 351.705048
v 876.253418 -471.068085 351.539520
v 86.577492 -160.370483 351.705048
v 87.082855 -158.930664 351.538086
v 876.253418 -471.068085 351.539520
v 875.537659 -472.423889 351.706390
v 876.005493 -472.608887 352.209351
v 875.156250 -472.807556 352.114410
v 875.537659 -472.423889 351.706390
v 875.156250 -472.807556 352.114410
v 86.577492 -160.370483 351.705048
v 86.577492 -160.370483 351.705048
v 86.068550 -160.169189 351.900635
v 87.082855 -158.930664 351.538086
v 86.068550 -160.169189 351.900635
v 86.573914 -158.729370 351.733673
v 87.082855 -158.930664 351.538086
v 875.156250 -472.807556 352.114410
v 86.569359 -160.901489 352.230194
v 86.577492 -160.370483 351.705048
v 86.060310 -160.700150 352.425690
v 86.068550 -160.169189 351.900635
v 86.577492 -160.370483 351.705048
v 86.569359 -160.901489 352.230194
v 86.060310 -160.700150 352.425690
v 86.577492 -160.370483 351.705048
v 86.068550 -160.169189 351.900635
v 69.006828 -153.420425 366.937103
v 86.573914 -158.729370 351.733673
v 86.068550 -160.169189 351.900635
v 86.060310 -160.700150 352.425690
v 69.006828 -153.420425 366.937103
v 69.006828 -153.420425 366.937103
v 69.412201 -151.941833 366.858093
v 86.573914 -158.729370 351.733673
v 86.573914 -158.729370 351.733673
v 69.412201 -151.941833 366.858093
v 68.764038 -151.150955 366.935699
v 69.006828 -153.420425 366.937103
v 68.646767 -153.278000 367.755066
v 69.412201 -151.941833 366.858093
v 68.764038 -151.150955 366.935699
v 69.412201 -151.941833 366.858093
v 69.052139 -151.799423 367.676147
v 68.646767 -153.278000 367.755066
v 69.052139 -151.799423 367.676147
v 69.412201 -151.941833 366.858093
v 68.764038 -151.150955 366.935699
v 69.052139 -151.799423 367.676147
v 68.765427 -151.151413 377.165009
v 68.764038 -151.150955 366.935699
v 68.765427 -151.151413 377.165009
v 62.593182 -148.709808 363.794281
v 68.646767 -153.278000 367.755066
v 68.646843 -153.277954 376.341156
v 69.052139 -151.799423 367.676147
v 69.052139 -151.799423 367.676147
v 69.052216 -151.799377 376.421448
v 68.765427 -151.151413 377.165009
v 68.646843 -153.277954 376.341156
v 69.052216 -151.799377 376.421448
v 69.052139 -151.799423 367.676147
v 68.646767 -153.278000 367.755066
v 69.006828 -153.420425 366.937103
v 68.934723 -153.926514 367.802734
v 68.646767 -153.278000 367.755066
v 68.934723 -153.926514 367.802734
v 68.646843 -153.277954 376.341156
v 69.006828 -153.420425 366.937103
v 69.156868 -154.014374 367.298706
v 68.934723 -153.926514 367.802734
v 86.060310 -160.700150 352.425690
v 69.156868 -154.014374 367.298706
v 69.006828 -153.420425 366.937103
v 69.052216 -151.799377 376.421448
v 68.646843 -153.277954 376.341156
v 69.010597 -153.421829 377.154419
v 69.593620 -154.187256 367.520966
v 69.156868 -154.014374 367.298706
v 86.060310 -160.700150 352.425690
v 69.415909 -151.943222 377.234680
v 69.052216 -151.799377 376.421448
v 69.010597 -153.421829 377.154419
v 68.765427 -151.151413 377.165009
v 69.052216 -151.799377 376.421448
v 69.415909 -151.943222 377.234680
v 69.593620 -154.187256 367.520966
v 69.371704 -154.099472 368.025208
v 69.156868 -154.014374 367.298706
v 69.371704 -154.099472 368.025208
v 68.934723 -153.926514 367.802734
v 69.156868 -154.014374 367.298706
v 86.210281 -160.759583 352.876862
v 69.593620 -154.187256 367.520966
v 86.060310 -160.700150 352.425690
v 86.210281 -160.759583 352.876862
v 86.060310 -160.700150 352.425690
v 86.569359 -160.901489 352.230194
v 69.371704 -154.099472 368.025208
v 69.593620 -154.187256 367.520966
v 69.935699 -154.322540 368.312317
v 86.719215 -160.960876 352.681213
v 86.210281 -160.759583 352.876862
v 86.569359 -160.901489 352.230194
v 86.719215 -160.960876 352.681213
v 86.569359 -160.901489 352.230194
v 875.156250 -472.807556 352.114410
v 69.593620 -154.187256 367.520966
v 86.210281 -160.759583 352.876862
v 70.157616 -154.410339 367.808075
v 69.593620 -154.187256 367.520966
v 70.157616 -154.410339 367.808075
v 69.935699 -154.322540 368.312317
v 86.210281 -160.759583 352.876862
v 86.719215 -160.960876 352.681213
v 86.411873 -160.839325 353.483368
v 86.210281 -160.759583 352.876862
v 86.411873 -160.839325 353.483368
v 70.157616 -154.410339 367.808075
v 874.627808 -472.598694 352.682648
v 86.719215 -160.960876 352.681213
v 875.156250 -472.807556 352.114410
v 86.719215 -160.960876 352.681213
v 86.920753 -161.040588 353.287750
v 86.411873 -160.839325 353.483368
v 86.719215 -160.960876 352.681213
v 874.627808 -472.598694 352.682648
v 86.920753 -161.040588 353.287750
v 86.411873 -160.839325 353.483368
v 86.542641 -160.891052 353.876862
v 70.157616 -154.410339 367.808075
v 86.411873 -160.839325 353.483368
v 86.920753 -161.040588 353.287750
v 86.542641 -160.891052 353.876862
v 874.627808 -472.598694 352.682648
v 875.156250 -472.807556 352.114410
v 875.443115 -472.921143 352.422943
v 876.005493 -472.608887 352.209351
v 875.443115 -472.921143 352.422943
v 875.156250 -472.807556 352.114410
v 874.627808 -472.598694 352.682648
v 874.063782 -472.375610 353.289124
v 86.920753 -161.040588 353.287750
v 875.443115 -472.920990 391.741333
v 875.443115 -472.921143 352.422943
v 876.005493 -472.608887 352.209351
v 876.005432 -472.608765 391.954926
v 875.443115 -472.920990 391.741333
v 876.005493 -472.608887 352.209351
v 874.914734 -472.712219 352.991241
v 874.627808 -472.598694 352.682648
v 875.443115 -472.921143 352.422943
v 874.627808 -472.598694 352.682648
v 874.914734 -472.712219 352.991241
v 874.063782 -472.375610 353.289124
v 874.914734 -472.712219 352.991241
v 875.443115 -472.921143 352.422943
v 875.443115 -472.920990 391.741333
v 874.063782 -472.375610 353.289124
v 873.697876 -472.230957 353.682648
v 86.920753 -161.040588 353.287750
v 874.914734 -472.712219 352.991241
v 874.350769 -472.489166 353.597748
v 874.063782 -472.375610 353.289124
v 874.063782 -472.375610 353.289124
v 874.350769 -472.489166 353.597748
v 873.697876 -472.230957 353.682648
v 874.914612 -472.712158 391.173035
v 874.914734 -472.712219 352.991241
v 875.443115 -472.920990 391.741333
v 874.914734 -472.712219 352.991241
v 874.914612 -472.712158 391.173035
v 874.350769 -472.489166 353.597748
v 876.005432 -472.608765 391.954926
v 875.537781 -472.423767 392.457916
v 875.443115 -472.920990 391.741333
v 875.537781 -472.423767 392.457916
v 876.005432 -472.608765 391.954926
v 876.253479 -471.067932 392.624756
v 875.537781 -472.423767 392.457916
v 876.253479 -471.067932 392.624756
v 87.611443 -159.139618 392.623413
v 874.914612 -472.712158 391.173035
v 875.443115 -472.920990 391.741333
v 875.156189 -472.807434 392.049866
v 875.537781 -472.423767 392.457916
v 875.156189 -472.807434 392.049866
v 875.443115 -472.920990 391.741333
v 874.627747 -472.598602 391.481628
v 874.914612 -472.712158 391.173035
v 875.156189 -472.807434 392.049866
v 87.093811 -161.108795 391.930267
v 875.156189 -472.807434 392.049866
v 875.537781 -472.423767 392.457916
v 874.627747 -472.598602 391.481628
v 875.156189 -472.807434 392.049866
v 87.093811 -161.108795 391.930267
v 87.105003 -160.578995 392.456451
v 875.537781 -472.423767 392.457916
v 87.611443 -159.139618 392.623413
v 87.105003 -160.578995 392.456451
v 87.093811 -161.108795 391.930267
v 875.537781 -472.423767 392.457916
v 87.105003 -160.578995 392.456451
v 87.611443 -159.139618 392.623413
v 87.100235 -158.937424 392.430786
v 87.100235 -158.937424 392.430786
v 87.611443 -159.139618 392.623413
v 87.111565 -158.407761 392.956818
v 87.093811 -161.108795 391.930267
v 87.105003 -160.578995 392.456451
v 86.593857 -160.376816 392.263824
v 86.593857 -160.376816 392.263824
v 87.105003 -160.578995 392.456451
v 87.100235 -158.937424 392.430786
v 69.415909 -151.943222 377.234680
v 87.100235 -158.937424 392.430786
v 87.111565 -158.407761 392.956818
v 86.593857 -160.376816 392.263824
v 87.100235 -158.937424 392.430786
v 69.415909 -151.943222 377.234680
v 68.765427 -151.151413 377.165009
v 69.415909 -151.943222 377.234680
v 87.111565 -158.407761 392.956818
v 68.765427 -151.151413 377.165009
v 87.111565 -158.407761 392.956818
v 62.592133 -148.709290 380.358154
v 69.010597 -153.421829 377.154419
v 86.593857 -160.376816 392.263824
v 69.415909 -151.943222 377.234680
v 68.765427 -151.151413 377.165009
v 62.592133 -148.709290 380.358154
v 62.593182 -148.709808 363.794281
v 69.010597 -153.421829 377.154419
v 69.157967 -154.014725 376.791382
v 86.593857 -160.376816 392.263824
v 69.010597 -153.421829 377.154419
v 68.646843 -153.277954 376.341156
v 69.157967 -154.014725 376.791382
v 62.593182 -148.709808 363.794281
v 62.592133 -148.709290 380.358154
v 62.272652 -148.053543 380.115265
v 62.272652 -148.053543 380.115265
v 62.592133 -148.709290 380.358154
v 62.637142 -148.197708 380.930267
v 62.272457 -148.053558 364.040558
v 62.593182 -148.709808 363.794281
v 62.272652 -148.053543 380.115265
v 62.633316 -148.196289 363.220795
v 62.593182 -148.709808 363.794281
v 62.272457 -148.053558 364.040558
v 62.633316 -148.196289 363.220795
v 62.272457 -148.053558 364.040558
v 63.366871 -144.584457 362.914856
v 63.006210 -144.441696 380.426117
v 62.272652 -148.053543 380.115265
v 62.637142 -148.197708 380.930267
v 63.370701 -144.585876 381.241119
v 63.006210 -144.441696 380.426117
v 62.637142 -148.197708 380.930267
v 63.570648 -144.135590 380.729584
v 63.006210 -144.441696 380.426117
v 63.370701 -144.585876 381.241119
v 62.272457 -148.053558 364.040558
v 62.272652 -148.053543 380.115265
v 63.006016 -144.441711 363.734589
v 62.272652 -148.053543 380.115265
v 63.006210 -144.441696 380.426117
v 63.006016 -144.441711 363.734589
v 62.272457 -148.053558 364.040558
v 63.006016 -144.441711 363.734589
v 63.366871 -144.584457 362.914856
v 63.006210 -144.441696 380.426117
v 63.570648 -144.135590 380.729584
v 63.006016 -144.441711 363.734589
v 63.570457 -144.135620 363.428070
v 63.366871 -144.584457 362.914856
v 63.006016 -144.441711 363.734589
v 63.570648 -144.135590 380.729584
v 63.570457 -144.135620 363.428070
v 63.006016 -144.441711 363.734589
v 68.646843 -153.277954 376.341156
v 68.933662 -153.926025 376.290344
v 69.157967 -154.014725 376.791382
v 68.934723 -153.926514 367.802734
v 68.933662 -153.926025 376.290344
v 68.646843 -153.277954 376.341156
v 69.371780 -154.099426 376.063690
v 68.933662 -153.926025 376.290344
v 68.934723 -153.926514 367.802734
v 69.371704 -154.099472 368.025208
v 69.371780 -154.099426 376.063690
v 68.934723 -153.926514 367.802734
v 69.157967 -154.014725 376.791382
v 68.933662 -153.926025 376.290344
v 69.595970 -154.188095 376.564941
v 68.933662 -153.926025 376.290344
v 69.371780 -154.099426 376.063690
v 69.595970 -154.188095 376.564941
v 69.371780 -154.099426 376.063690
v 69.371704 -154.099472 368.025208
v 69.935776 -154.322510 375.771973
v 69.371704 -154.099472 368.025208
v 69.935699 -154.322540 368.312317
v 69.935776 -154.322510 375.771973
v 69.595970 -154.188095 376.564941
v 69.371780 -154.099426 376.063690
v 70.159958 -154.411179 376.273224
v 69.371780 -154.099426 376.063690
v 69.935776 -154.322510 375.771973
v 70.159958 -154.411179 376.273224
v 69.595970 -154.188095 376.564941
v 86.729218 -160.964722 391.287598
v 69.157967 -154.014725 376.791382
v 69.935699 -154.322540 368.312317
v 70.301605 -154.467270 368.498596
v 69.935776 -154.322510 375.771973
v 69.935699 -154.322540 368.312317
v 70.157616 -154.410339 367.808075
v 70.301605 -154.467270 368.498596
v 69.595970 -154.188095 376.564941
v 70.159958 -154.411179 376.273224
v 86.926903 -161.042908 390.681122
v 86.729218 -160.964722 391.287598
v 69.595970 -154.188095 376.564941
v 86.926903 -161.042908 390.681122
v 70.159958 -154.411179 376.273224
v 69.935776 -154.322510 375.771973
v 70.525871 -154.555908 376.083984
v 70.159958 -154.411179 376.273224
v 70.525871 -154.555908 376.083984
v 86.926903 -161.042908 390.681122
v 70.301605 -154.467270 368.498596
v 70.301682 -154.467255 375.582703
v 69.935776 -154.322510 375.771973
v 69.935776 -154.322510 375.771973
v 70.301682 -154.467255 375.582703
v 70.525871 -154.555908 376.083984
v 70.157616 -154.410339 367.808075
v 70.523521 -154.555054 367.994354
v 70.301605 -154.467270 368.498596
v 86.542641 -160.891052 353.876862
v 70.523521 -154.555054 367.994354
v 70.157616 -154.410339 367.808075
v 70.301682 -154.467255 375.582703
v 70.301605 -154.467270 368.498596
v 70.678169 -154.375809 368.661957
v 70.301605 -154.467270 368.498596
v 70.523521 -154.555054 367.994354
v 70.678169 -154.375809 368.661957
v 70.525871 -154.555908 376.083984
v 70.301682 -154.467255 375.582703
v 70.902382 -154.464386 375.917999
v 70.523521 -154.555054 367.994354
v 86.542641 -160.891052 353.876862
v 86.708740 -160.715210 354.223511
v 70.301682 -154.467255 375.582703
v 70.678253 -154.375763 375.416748
v 70.902382 -154.464386 375.917999
v 70.678253 -154.375763 375.416748
v 70.301682 -154.467255 375.582703
v 70.678169 -154.375809 368.661957
v 70.523521 -154.555054 367.994354
v 70.900154 -154.463608 368.157715
v 70.678169 -154.375809 368.661957
v 70.900154 -154.463608 368.157715
v 70.523521 -154.555054 367.994354
v 86.708740 -160.715210 354.223511
v 71.026329 -154.331757 375.257568
v 70.678253 -154.375763 375.416748
v 70.678169 -154.375809 368.661957
v 70.678169 -154.375809 368.661957
v 70.900154 -154.463608 368.157715
v 71.026314 -154.331818 368.818604
v 71.026314 -154.331818 368.818604
v 71.026329 -154.331757 375.257568
v 70.678169 -154.375809 368.661957
v 70.900154 -154.463608 368.157715
v 71.248230 -154.419601 368.314362
v 71.026314 -154.331818 368.818604
v 71.248230 -154.419601 368.314362
v 70.900154 -154.463608 368.157715
v 86.708740 -160.715210 354.223511
v 71.026314 -154.331818 368.818604
v 71.286583 -154.605072 368.973602
v 71.026329 -154.331757 375.257568
v 71.026314 -154.331818 368.818604
v 71.248230 -154.419601 368.314362
v 71.286583 -154.605072 368.973602
v 70.678253 -154.375763 375.416748
v 71.026329 -154.331757 375.257568
v 71.250580 -154.420456 375.758820
v 70.902382 -154.464386 375.917999
v 70.678253 -154.375763 375.416748
v 71.250580 -154.420456 375.758820
v 71.250580 -154.420456 375.758820
v 71.026329 -154.331757 375.257568
v 71.511009 -154.693802 375.601135
v 71.250580 -154.420456 375.758820
v 87.371513 -160.796677 389.611603
v 70.902382 -154.464386 375.917999
v 71.250580 -154.420456 375.758820
v 71.511009 -154.693802 375.601135
v 87.371513 -160.796677 389.611603
v 71.286583 -154.605072 368.973602
v 71.286659 -154.605042 375.100098
v 71.026329 -154.331757 375.257568
v 71.026329 -154.331757 375.257568
v 71.286659 -154.605042 375.100098
v 71.511009 -154.693802 375.601135
v 87.371513 -160.796677 389.611603
v 87.218704 -160.916840 389.940826
v 70.902382 -154.464386 375.917999
v 87.055115 -161.093613 390.287598
v 70.525871 -154.555908 376.083984
v 70.902382 -154.464386 375.917999
v 87.218704 -160.916840 389.940826
v 87.055115 -161.093613 390.287598
v 70.902382 -154.464386 375.917999
v 70.525871 -154.555908 376.083984
v 87.055115 -161.093613 390.287598
v 86.926903 -161.042908 390.681122
v 87.218704 -160.916840 389.940826
v 87.371513 -160.796677 389.611603
v 87.882660 -160.998840 389.804230
v 87.055115 -161.093613 390.287598
v 87.218704 -160.916840 389.940826
v 87.729858 -161.118988 390.133514
v 87.729858 -161.118988 390.133514
v 87.218704 -160.916840 389.940826
v 87.882660 -160.998840 389.804230
v 86.926903 -161.042908 390.681122
v 87.055115 -161.093613 390.287598
v 87.566322 -161.295807 390.480255
v 87.566322 -161.295807 390.480255
v 87.055115 -161.093613 390.287598
v 87.729858 -161.118988 390.133514
v 87.438057 -161.245087 390.873749
v 86.926903 -161.042908 390.681122
v 87.566322 -161.295807 390.480255
v 86.729218 -160.964722 391.287598
v 86.926903 -161.042908 390.681122
v 87.438057 -161.245087 390.873749
v 873.697815 -472.230774 390.481628
v 87.566322 -161.295807 390.480255
v 87.729858 -161.118988 390.133514
v 87.240425 -161.166916 391.480255
v 86.729218 -160.964722 391.287598
v 87.438057 -161.245087 390.873749
v 87.438057 -161.245087 390.873749
v 87.566322 -161.295807 390.480255
v 874.063782 -472.375488 390.875153
v 87.240425 -161.166916 391.480255
v 87.438057 -161.245087 390.873749
v 874.063782 -472.375488 390.875153
v 87.566322 -161.295807 390.480255
v 873.697815 -472.230774 390.481628
v 874.063782 -472.375488 390.875153
v 86.729218 -160.964722 391.287598
v 87.240425 -161.166916 391.480255
v 86.582489 -160.906570 391.737762
v 86.729218 -160.964722 391.287598
v 86.582489 -160.906570 391.737762
v 69.157967 -154.014725 376.791382
v 69.157967 -154.014725 376.791382
v 86.582489 -160.906570 391.737762
v 86.593857 -160.376816 392.263824
v 86.582489 -160.906570 391.737762
v 87.093811 -161.108795 391.930267
v 86.593857 -160.376816 392.263824
v 87.240425 -161.166916 391.480255
v 87.093811 -161.108795 391.930267
v 86.582489 -160.906570 391.737762
v 87.240425 -161.166916 391.480255
v 874.627747 -472.598602 391.481628
v 87.093811 -161.108795 391.930267
v 874.627747 -472.598602 391.481628
v 87.240425 -161.166916 391.480255
v 874.063782 -472.375488 390.875153
v 874.627747 -472.598602 391.481628
v 874.063782 -472.375488 390.875153
v 874.350708 -472.489014 390.566559
v 874.914612 -472.712158 391.173035
v 874.627747 -472.598602 391.481628
v 874.350708 -472.489014 390.566559
v 874.914612 -472.712158 391.173035
v 874.350708 -472.489014 390.566559
v 874.350769 -472.489166 353.597748
v 874.350708 -472.489014 390.566559
v 874.063782 -472.375488 390.875153
v 873.984802 -472.344299 390.173035
v 874.350708 -472.489014 390.566559
v 873.984802 -472.344299 390.173035
v 874.350769 -472.489166 353.597748
v 874.063782 -472.375488 390.875153
v 873.697815 -472.230774 390.481628
v 873.984802 -472.344299 390.173035
v 873.984802 -472.344299 390.173035
v 873.984802 -472.344421 353.991241
v 874.350769 -472.489166 353.597748
v 874.350769 -472.489166 353.597748
v 873.984802 -472.344421 353.991241
v 873.697876 -472.230957 353.682648
v 873.984802 -472.344299 390.173035
v 873.697815 -472.230774 390.481628
v 873.725159 -471.995514 389.832428
v 873.984802 -472.344421 353.991241
v 873.984802 -472.344299 390.173035
v 873.725159 -471.995514 389.832428
v 873.697815 -472.230774 390.481628
v 873.438293 -471.882019 390.141022
v 873.725159 -471.995514 389.832428
v 873.438293 -471.882019 390.141022
v 873.697815 -472.230774 390.481628
v 87.729858 -161.118988 390.133514
v 873.725159 -471.995575 354.331818
v 873.984802 -472.344421 353.991241
v 873.725159 -471.995514 389.832428
v 873.165283 -471.598083 389.805573
v 873.438293 -471.882019 390.141022
v 87.729858 -161.118988 390.133514
v 87.882660 -160.998840 389.804230
v 873.165283 -471.598083 389.805573
v 87.729858 -161.118988 390.133514
v 873.725159 -471.995514 389.832428
v 873.438293 -471.882019 390.141022
v 873.452271 -471.711548 389.496979
v 873.438293 -471.882019 390.141022
v 873.165283 -471.598083 389.805573
v 873.452271 -471.711548 389.496979
v 873.452271 -471.711548 389.496979
v 873.452148 -471.711670 354.667236
v 873.725159 -471.995514 389.832428
v 873.452148 -471.711670 354.667236
v 873.725159 -471.995575 354.331818
v 873.725159 -471.995514 389.832428
v 873.452271 -471.711548 389.496979
v 873.165283 -471.598083 389.805573
v 873.109741 -471.752594 389.177551
v 873.452271 -471.711548 389.496979
v 873.109741 -471.752594 389.177551
v 873.452148 -471.711670 354.667236
v 87.882660 -160.998840 389.804230
v 87.974617 -161.207947 389.477783
v 873.165283 -471.598083 389.805573
v 87.882660 -160.998840 389.804230
v 87.371513 -160.796677 389.611603
v 87.974617 -161.207947 389.477783
v 873.165283 -471.598083 389.805573
v 872.822754 -471.639099 389.486206
v 873.109741 -471.752594 389.177551
v 87.974617 -161.207947 389.477783
v 872.822754 -471.639099 389.486206
v 873.165283 -471.598083 389.805573
v 87.371513 -160.796677 389.611603
v 87.463303 -161.005661 389.285339
v 87.974617 -161.207947 389.477783
v 71.511009 -154.693802 375.601135
v 87.463303 -161.005661 389.285339
v 87.371513 -160.796677 389.611603
v 87.974617 -161.207947 389.477783
v 88.006927 -161.470093 389.128235
v 872.822754 -471.639099 389.486206
v 87.974617 -161.207947 389.477783
v 87.463303 -161.005661 389.285339
v 88.006927 -161.470093 389.128235
v 71.511009 -154.693802 375.601135
v 71.783096 -155.053177 375.433685
v 87.463303 -161.005661 389.285339
v 71.511009 -154.693802 375.601135
v 71.286659 -154.605042 375.100098
v 71.783096 -155.053177 375.433685
v 87.463303 -161.005661 389.285339
v 87.495781 -161.267914 388.935577
v 88.006927 -161.470093 389.128235
v 71.783096 -155.053177 375.433685
v 87.495781 -161.267914 388.935577
v 87.463303 -161.005661 389.285339
v 88.006927 -161.470093 389.128235
v 872.440491 -471.733582 389.129608
v 872.822754 -471.639099 389.486206
v 87.495781 -161.267914 388.935577
v 71.783096 -155.053177 375.433685
v 87.652542 -161.329926 388.454529
v 88.006927 -161.470093 389.128235
v 87.495781 -161.267914 388.935577
v 88.163689 -161.532104 388.647156
v 87.495781 -161.267914 388.935577
v 87.652542 -161.329926 388.454529
v 88.163689 -161.532104 388.647156
v 872.440491 -471.733582 389.129608
v 88.006927 -161.470093 389.128235
v 871.993164 -471.556580 388.648529
v 88.006927 -161.470093 389.128235
v 88.163689 -161.532104 388.647156
v 871.993164 -471.556580 388.648529
v 872.822754 -471.639099 389.486206
v 872.440491 -471.733582 389.129608
v 872.727600 -471.846985 388.820984
v 873.109741 -471.752594 389.177551
v 872.822754 -471.639099 389.486206
v 872.727600 -471.846985 388.820984
v 872.440491 -471.733582 389.129608
v 871.993164 -471.556580 388.648529
v 872.280090 -471.670044 388.339935
v 872.727600 -471.846985 388.820984
v 872.440491 -471.733582 389.129608
v 872.280090 -471.670044 388.339935
v 872.280212 -471.670197 355.824310
v 872.280090 -471.670044 388.339935
v 871.993164 -471.556580 388.648529
v 872.727600 -471.846985 388.820984
v 872.280090 -471.670044 388.339935
v 872.280212 -471.670197 355.824310
v 871.993286 -471.556641 355.515686
v 871.993164 -471.556580 388.648529
v 88.163689 -161.532104 388.647156
v 871.993286 -471.556641 355.515686
v 872.280212 -471.670197 355.824310
v 871.993164 -471.556580 388.648529
v 872.727478 -471.847168 355.343231
v 872.727600 -471.846985 388.820984
v 872.280212 -471.670197 355.824310
v 872.727478 -471.847168 355.343231
v 872.280212 -471.670197 355.824310
v 871.993286 -471.556641 355.515686
v 873.109741 -471.752594 389.177551
v 872.727600 -471.846985 388.820984
v 873.109619 -471.752686 354.986664
v 872.727600 -471.846985 388.820984
v 872.727478 -471.847168 355.343231
v 873.109619 -471.752686 354.986664
v 873.109741 -471.752594 389.177551
v 873.109619 -471.752686 354.986664
v 873.452148 -471.711670 354.667236
v 872.440613 -471.733643 355.034607
v 872.727478 -471.847168 355.343231
v 871.993286 -471.556641 355.515686
v 873.109619 -471.752686 354.986664
v 872.727478 -471.847168 355.343231
v 872.440613 -471.733643 355.034607
v 87.660812 -161.333298 355.514343
v 871.993286 -471.556641 355.515686
v 88.163689 -161.532104 388.647156
v 872.440613 -471.733643 355.034607
v 871.993286 -471.556641 355.515686
v 87.660812 -161.333298 355.514343
v 87.660812 -161.333298 355.514343
v 88.163689 -161.532104 388.647156
v 87.652542 -161.329926 388.454529
v 872.822754 -471.639191 354.678040
v 873.109619 -471.752686 354.986664
v 872.440613 -471.733643 355.034607
v 873.452148 -471.711670 354.667236
v 873.109619 -471.752686 354.986664
v 872.822754 -471.639191 354.678040
v 87.500931 -161.270065 355.033264
v 872.440613 -471.733643 355.034607
v 87.660812 -161.333298 355.514343
v 873.165161 -471.598175 354.358612
v 873.452148 -471.711670 354.667236
v 872.822754 -471.639191 354.678040
v 873.725159 -471.995575 354.331818
v 873.452148 -471.711670 354.667236
v 873.165161 -471.598175 354.358612
v 872.822754 -471.639191 354.678040
v 872.440613 -471.733643 355.034607
v 87.464706 -161.006348 354.683624
v 872.440613 -471.733643 355.034607
v 87.500931 -161.270065 355.033264
v 87.464706 -161.006348 354.683624
v 873.165161 -471.598175 354.358612
v 872.822754 -471.639191 354.678040
v 87.372345 -160.797119 354.357269
v 872.822754 -471.639191 354.678040
v 87.464706 -161.006348 354.683624
v 87.372345 -160.797119 354.357269
v 873.438110 -471.882080 354.023254
v 873.725159 -471.995575 354.331818
v 873.165161 -471.598175 354.358612
v 873.165161 -471.598175 354.358612
v 87.372345 -160.797119 354.357269
v 873.438110 -471.882080 354.023254
v 873.984802 -472.344421 353.991241
v 873.725159 -471.995575 354.331818
v 873.438110 -471.882080 354.023254
v 873.697876 -472.230957 353.682648
v 873.984802 -472.344421 353.991241
v 873.438110 -471.882080 354.023254
v 87.051582 -161.092346 353.681274
v 873.697876 -472.230957 353.682648
v 873.438110 -471.882080 354.023254
v 873.697876 -472.230957 353.682648
v 87.051582 -161.092346 353.681274
v 86.920753 -161.040588 353.287750
v 86.920753 -161.040588 353.287750
v 87.051582 -161.092346 353.681274
v 86.542641 -160.891052 353.876862
v 86.542641 -160.891052 353.876862
v 87.051582 -161.092346 353.681274
v 86.708740 -160.715210 354.223511
v 87.217690 -160.916489 354.027893
v 87.051582 -161.092346 353.681274
v 873.438110 -471.882080 354.023254
v 87.051582 -161.092346 353.681274
v 87.217690 -160.916489 354.027893
v 86.708740 -160.715210 354.223511
v 87.372345 -160.797119 354.357269
v 87.217690 -160.916489 354.027893
v 873.438110 -471.882080 354.023254
v 86.708740 -160.715210 354.223511
v 87.217690 -160.916489 354.027893
v 86.863403 -160.595825 354.552887
v 87.217690 -160.916489 354.027893
v 87.372345 -160.797119 354.357269
v 86.863403 -160.595825 354.552887
v 86.863403 -160.595825 354.552887
v 71.248230 -154.419601 368.314362
v 86.708740 -160.715210 354.223511
v 86.863403 -160.595825 354.552887
v 87.372345 -160.797119 354.357269
v 86.955612 -160.804962 354.879059
v 86.863403 -160.595825 354.552887
v 86.955612 -160.804962 354.879059
v 71.248230 -154.419601 368.314362
v 87.372345 -160.797119 354.357269
v 87.464706 -161.006348 354.683624
v 86.955612 -160.804962 354.879059
v 86.955612 -160.804962 354.879059
v 71.508667 -154.692932 368.469574
v 71.248230 -154.419601 368.314362
v 71.248230 -154.419601 368.314362
v 71.508667 -154.692932 368.469574
v 71.286583 -154.605072 368.973602
v 86.955612 -160.804962 354.879059
v 87.464706 -161.006348 354.683624
v 86.991989 -161.068756 355.228882
v 86.955612 -160.804962 354.879059
v 86.991989 -161.068756 355.228882
v 71.508667 -154.692932 368.469574
v 87.464706 -161.006348 354.683624
v 87.500931 -161.270065 355.033264
v 86.991989 -161.068756 355.228882
v 71.286583 -154.605072 368.973602
v 71.508667 -154.692932 368.469574
v 71.558823 -154.964539 369.138611
v 71.286583 -154.605072 368.973602
v 71.558823 -154.964539 369.138611
v 71.286659 -154.605042 375.100098
v 86.991989 -161.068756 355.228882
v 71.780807 -155.052353 368.634399
v 71.508667 -154.692932 368.469574
v 71.508667 -154.692932 368.469574
v 71.780807 -155.052353 368.634399
v 71.558823 -154.964539 369.138611
v 86.991989 -161.068756 355.228882
v 87.500931 -161.270065 355.033264
v 87.151878 -161.132004 355.709930
v 87.500931 -161.270065 355.033264
v 87.660812 -161.333298 355.514343
v 87.151878 -161.132004 355.709930
v 87.151878 -161.132004 355.709930
v 87.660812 -161.333298 355.514343
v 87.652542 -161.329926 388.454529
v 86.991989 -161.068756 355.228882
v 87.151878 -161.132004 355.709930
v 72.228165 -155.229279 368.862122
v 72.228165 -155.229279 368.862122
v 87.151878 -161.132004 355.709930
v 87.652542 -161.329926 388.454529
v 71.780807 -155.052353 368.634399
v 86.991989 -161.068756 355.228882
v 72.228165 -155.229279 368.862122
v 72.230453 -155.230118 375.202301
v 72.228165 -155.229279 368.862122
v 87.652542 -161.329926 388.454529
v 71.783096 -155.053177 375.433685
v 72.230453 -155.230118 375.202301
v 87.652542 -161.329926 388.454529
v 71.780807 -155.052353 368.634399
v 72.228165 -155.229279 368.862122
v 72.006180 -155.141479 369.366333
v 71.558823 -154.964539 369.138611
v 71.780807 -155.052353 368.634399
v 72.006180 -155.141479 369.366333
v 72.006264 -155.141434 374.701050
v 72.006180 -155.141479 369.366333
v 72.228165 -155.229279 368.862122
v 71.558823 -154.964539 369.138611
v 72.006180 -155.141479 369.366333
v 72.006264 -155.141434 374.701050
v 72.230453 -155.230118 375.202301
v 72.006264 -155.141434 374.701050
v 72.228165 -155.229279 368.862122
v 71.558907 -154.964508 374.932434
v 71.558823 -154.964539 369.138611
v 72.006264 -155.141434 374.701050
v 71.558907 -154.964508 374.932434
v 72.006264 -155.141434 374.701050
v 72.230453 -155.230118 375.202301
v 71.783096 -155.053177 375.433685
v 71.558907 -154.964508 374.932434
v 72.230453 -155.230118 375.202301
v 71.558823 -154.964539 369.138611
v 71.558907 -154.964508 374.932434
v 71.286659 -154.605042 375.100098
v 71.286659 -154.605042 375.100098
v 71.558907 -154.964508 374.932434
v 71.783096 -155.053177 375.433685
vt -1.260742 -2.080078
vt -1.412109 -2.195312
vt -1.409180 -2.199219
vt -1.258789 -2.083984
vt -1.260742 -2.080078
vt -1.409180 -2.199219
vt -1.250977 -2.103516
vt -1.258789 -2.083984
vt -1.409180 -2.199219
vt -1.396484 -2.216797
vt -1.250977 -2.103516
vt -1.409180 -2.199219
vt -1.258789 -2.083984
vt -1.253906 -2.082031
vt -1.260742 -2.080078
vt -1.253906 -2.082031
vt -1.254883 -2.078125
vt -1.260742 -2.080078
vt 3.908203 -2.076172
vt -1.254883 -2.078125
vt -1.253906 -2.082031
vt 3.908203 -2.078125
vt 3.908203 -2.076172
vt -1.253906 -2.082031
vt 3.908203 -2.101562
vt 3.908203 -2.078125
vt -1.253906 -2.082031
vt -1.249023 -2.101562
vt -1.253906 -2.082031
vt -1.258789 -2.083984
vt -1.249023 -2.101562
vt 3.908203 -2.101562
vt -1.253906 -2.082031
vt -1.250977 -2.103516
vt -1.249023 -2.101562
vt -1.258789 -2.083984
vt -1.249023 -2.101562
vt -1.247070 -2.105469
vt 3.908203 -2.101562
vt -1.247070 -2.105469
vt -1.249023 -2.101562
vt -1.250977 -2.103516
vt -1.247070 -2.105469
vt 3.908203 -2.105469
vt 3.908203 -2.101562
vt -1.250000 -2.105469
vt -1.247070 -2.105469
vt -1.250977 -2.103516
vt 3.908203 -2.101562
vt 3.908203 -2.105469
vt 3.912109 -2.105469
vt 3.908203 -2.101562
vt 3.912109 -2.105469
vt 3.931641 -2.097656
vt -1.394531 -2.222656
vt -1.250000 -2.105469
vt -1.250977 -2.103516
vt -1.396484 -2.216797
vt -1.394531 -2.222656
vt -1.250977 -2.103516
vt 3.912109 -2.105469
vt 3.931641 -2.101562
vt 3.931641 -2.097656
vt 3.931641 -2.097656
vt 3.931641 -2.101562
vt 3.935547 -2.101562
vt 3.935547 -2.443359
vt 3.935547 -2.101562
vt 3.931641 -2.101562
vt 3.912109 -2.105469
vt 3.910156 -2.439453
vt 3.931641 -2.101562
vt 3.912109 -2.105469
vt 3.908203 -2.105469
vt 3.910156 -2.439453
vt 3.931641 -2.441406
vt 3.935547 -2.443359
vt 3.931641 -2.101562
vt 3.910156 -2.439453
vt 3.931641 -2.441406
vt 3.931641 -2.101562
vt 3.931641 -2.441406
vt 3.931641 -2.447266
vt 3.935547 -2.443359
vt 3.908203 -2.443359
vt 3.931641 -2.447266
vt 3.931641 -2.441406
vt 3.910156 -2.439453
vt 3.908203 -2.443359
vt 3.931641 -2.441406
vt 3.910156 -2.439453
vt 3.908203 -2.439453
vt 3.908203 -2.443359
vt 3.908203 -2.105469
vt 3.908203 -2.439453
vt 3.910156 -2.439453
vt 3.908203 -2.443359
vt 3.908203 -2.439453
vt -1.252930 -2.441406
vt 3.908203 -2.443359
vt -1.252930 -2.441406
vt 3.908203 -2.464844
vt -1.258789 -2.466797
vt 3.908203 -2.468750
vt 3.908203 -2.464844
vt -1.257812 -2.462891
vt -1.258789 -2.466797
vt 3.908203 -2.464844
vt -1.252930 -2.441406
vt -1.257812 -2.462891
vt 3.908203 -2.464844
vt -1.257812 -2.462891
vt -1.262695 -2.460938
vt -1.258789 -2.466797
vt -1.262695 -2.460938
vt -1.264648 -2.464844
vt -1.258789 -2.466797
vt -1.412109 -2.347656
vt -1.264648 -2.464844
vt -1.262695 -2.460938
vt -1.409180 -2.345703
vt -1.412109 -2.347656
vt -1.262695 -2.460938
vt -1.396484 -2.326172
vt -1.409180 -2.345703
vt -1.262695 -2.460938
vt -1.254883 -2.441406
vt -1.262695 -2.460938
vt -1.257812 -2.462891
vt -1.254883 -2.441406
vt -1.396484 -2.326172
vt -1.262695 -2.460938
vt -1.252930 -2.441406
vt -1.254883 -2.441406
vt -1.257812 -2.462891
vt -1.254883 -2.441406
vt -1.253906 -2.437500
vt -1.396484 -2.326172
vt -1.253906 -2.437500
vt -1.254883 -2.441406
vt -1.252930 -2.441406
vt -1.250977 -2.439453
vt -1.253906 -2.437500
vt -1.252930 -2.441406
vt 3.908203 -2.439453
vt -1.250977 -2.439453
vt -1.252930 -2.441406
vt -1.253906 -2.437500
vt -1.394531 -2.322266
vt -1.396484 -2.326172
vt -1.236328 -2.400391
vt -1.250977 -2.439453
vt 3.908203 -2.439453
vt -1.240234 -2.398438
vt -1.253906 -2.437500
vt -1.250977 -2.439453
vt -1.236328 -2.400391
vt -1.240234 -2.398438
vt -1.250977 -2.439453
vt -1.240234 -2.398438
vt -1.356445 -2.302734
vt -1.253906 -2.437500
vt -1.356445 -2.302734
vt -1.394531 -2.322266
vt -1.253906 -2.437500
vt -1.239258 -2.396484
vt -1.240234 -2.398438
vt -1.236328 -2.400391
vt -1.240234 -2.398438
vt -1.239258 -2.396484
vt -1.356445 -2.302734
vt 3.869141 -2.398438
vt -1.236328 -2.400391
vt 3.908203 -2.439453
vt 3.869141 -2.398438
vt 3.908203 -2.439453
vt 3.908203 -2.105469
vt -1.235352 -2.398438
vt -1.239258 -2.396484
vt -1.236328 -2.400391
vt 3.869141 -2.144531
vt 3.869141 -2.398438
vt 3.908203 -2.105469
vt 3.869141 -2.144531
vt 3.908203 -2.105469
vt -1.247070 -2.105469
vt 3.869141 -2.398438
vt 3.865234 -2.398438
vt -1.236328 -2.400391
vt 3.865234 -2.398438
vt -1.235352 -2.398438
vt -1.236328 -2.400391
vt -1.232422 -2.142578
vt 3.869141 -2.144531
vt -1.247070 -2.105469
vt -1.232422 -2.142578
vt -1.247070 -2.105469
vt -1.250000 -2.105469
vt -1.237305 -2.144531
vt -1.232422 -2.142578
vt -1.250000 -2.105469
vt -1.237305 -2.144531
vt -1.250000 -2.105469
vt -1.394531 -2.222656
vt -1.232422 -2.142578
vt -1.231445 -2.146484
vt 3.869141 -2.144531
vt -1.231445 -2.146484
vt -1.232422 -2.142578
vt -1.237305 -2.144531
vt 3.869141 -2.144531
vt 3.869141 -2.150391
vt 3.869141 -2.398438
vt -1.231445 -2.146484
vt 3.865234 -2.146484
vt 3.869141 -2.144531
vt 3.869141 -2.144531
vt 3.865234 -2.146484
vt 3.869141 -2.150391
vt 3.869141 -2.150391
vt 3.869141 -2.392578
vt 3.869141 -2.398438
vt 3.869141 -2.398438
vt 3.869141 -2.392578
vt 3.865234 -2.398438
vt 3.863281 -2.154297
vt 3.869141 -2.150391
vt 3.865234 -2.146484
vt 3.861328 -2.392578
vt 3.865234 -2.398438
vt 3.869141 -2.392578
vt 3.863281 -2.390625
vt 3.869141 -2.392578
vt 3.869141 -2.150391
vt 3.863281 -2.390625
vt 3.861328 -2.392578
vt 3.869141 -2.392578
vt 3.863281 -2.154297
vt 3.863281 -2.390625
vt 3.869141 -2.150391
vt 3.861328 -2.392578
vt -1.233398 -2.390625
vt 3.865234 -2.398438
vt -1.233398 -2.390625
vt -1.235352 -2.398438
vt 3.865234 -2.398438
vt 3.861328 -2.392578
vt 3.863281 -2.390625
vt 3.861328 -2.390625
vt 3.861328 -2.392578
vt 3.861328 -2.390625
vt -1.233398 -2.390625
vt -1.233398 -2.390625
vt -1.235352 -2.390625
vt -1.235352 -2.398438
vt -1.235352 -2.390625
vt -1.239258 -2.396484
vt -1.235352 -2.398438
vt 3.861328 -2.390625
vt -1.231445 -2.388672
vt -1.233398 -2.390625
vt -1.233398 -2.386719
vt -1.235352 -2.390625
vt -1.233398 -2.390625
vt -1.231445 -2.388672
vt -1.233398 -2.386719
vt -1.233398 -2.390625
vt -1.235352 -2.390625
vt -1.344727 -2.300781
vt -1.239258 -2.396484
vt -1.235352 -2.390625
vt -1.233398 -2.386719
vt -1.344727 -2.300781
vt -1.344727 -2.300781
vt -1.350586 -2.304688
vt -1.239258 -2.396484
vt -1.239258 -2.396484
vt -1.350586 -2.304688
vt -1.356445 -2.302734
vt -1.344727 -2.300781
vt -1.346680 -2.296875
vt -1.350586 -2.304688
vt -1.356445 -2.302734
vt -1.350586 -2.304688
vt -1.353516 -2.298828
vt -1.346680 -2.296875
vt -1.353516 -2.298828
vt -1.350586 -2.304688
vt -1.356445 -2.302734
vt -1.353516 -2.298828
vt -1.356445 -2.240234
vt -1.356445 -2.302734
vt -1.356445 -2.240234
vt -1.394531 -2.322266
vt -1.346680 -2.296875
vt -1.346680 -2.248047
vt -1.353516 -2.298828
vt -1.353516 -2.298828
vt -1.353516 -2.246094
vt -1.356445 -2.240234
vt -1.346680 -2.248047
vt -1.353516 -2.246094
vt -1.353516 -2.298828
vt -1.346680 -2.296875
vt -1.344727 -2.300781
vt -1.342773 -2.296875
vt -1.346680 -2.296875
vt -1.342773 -2.296875
vt -1.346680 -2.248047
vt -1.344727 -2.300781
vt -1.342773 -2.298828
vt -1.342773 -2.296875
vt -1.233398 -2.386719
vt -1.342773 -2.298828
vt -1.344727 -2.300781
vt -1.353516 -2.246094
vt -1.346680 -2.248047
vt -1.344727 -2.244141
vt -1.339844 -2.298828
vt -1.342773 -2.298828
vt -1.233398 -2.386719
vt -1.350586 -2.240234
vt -1.353516 -2.246094
vt -1.344727 -2.244141
vt -1.356445 -2.240234
vt -1.353516 -2.246094
vt -1.350586 -2.240234
vt -1.339844 -2.298828
vt -1.340820 -2.296875
vt -1.342773 -2.298828
vt -1.340820 -2.296875
vt -1.342773 -2.296875
vt -1.342773 -2.298828
vt -1.233398 -2.386719
vt -1.339844 -2.298828
vt -1.233398 -2.386719
vt -1.233398 -2.386719
vt -1.233398 -2.386719
vt -1.231445 -2.388672
vt -1.340820 -2.296875
vt -1.339844 -2.298828
vt -1.337891 -2.294922
vt -1.230469 -2.386719
vt -1.233398 -2.386719
vt -1.231445 -2.388672
vt -1.230469 -2.386719
vt -1.231445 -2.388672
vt 3.861328 -2.390625
vt -1.339844 -2.298828
vt -1.233398 -2.386719
vt -1.336914 -2.296875
vt -1.339844 -2.298828
vt -1.336914 -2.296875
vt -1.337891 -2.294922
vt -1.233398 -2.386719
vt -1.230469 -2.386719
vt -1.231445 -2.382812
vt -1.233398 -2.386719
vt -1.231445 -2.382812
vt -1.336914 -2.296875
vt 3.859375 -2.386719
vt -1.230469 -2.386719
vt 3.861328 -2.390625
vt -1.230469 -2.386719
vt -1.228516 -2.384766
vt -1.231445 -2.382812
vt -1.230469 -2.386719
vt 3.859375 -2.386719
vt -1.228516 -2.384766
vt -1.231445 -2.382812
vt -1.231445 -2.380859
vt -1.336914 -2.296875
vt -1.231445 -2.382812
vt -1.228516 -2.384766
vt -1.231445 -2.380859
vt 3.859375 -2.386719
vt 3.861328 -2.390625
vt 3.863281 -2.388672
vt 3.863281 -2.390625
vt 3.863281 -2.388672
vt 3.861328 -2.390625
vt 3.859375 -2.386719
vt 3.855469 -2.384766
vt -1.228516 -2.384766
vt 3.863281 -2.154297
vt 3.863281 -2.388672
vt 3.863281 -2.390625
vt 3.863281 -2.154297
vt 3.863281 -2.154297
vt 3.863281 -2.390625
vt 3.861328 -2.386719
vt 3.859375 -2.386719
vt 3.863281 -2.388672
vt 3.859375 -2.386719
vt 3.861328 -2.386719
vt 3.855469 -2.384766
vt 3.861328 -2.386719
vt 3.863281 -2.388672
vt 3.863281 -2.154297
vt 3.855469 -2.384766
vt 3.853516 -2.382812
vt -1.228516 -2.384766
vt 3.861328 -2.386719
vt 3.857422 -2.382812
vt 3.855469 -2.384766
vt 3.855469 -2.384766
vt 3.857422 -2.382812
vt 3.853516 -2.382812
vt 3.861328 -2.158203
vt 3.861328 -2.386719
vt 3.863281 -2.154297
vt 3.861328 -2.386719
vt 3.861328 -2.158203
vt 3.857422 -2.382812
vt 3.863281 -2.154297
vt 3.861328 -2.152344
vt 3.863281 -2.154297
vt 3.861328 -2.152344
vt 3.863281 -2.154297
vt 3.865234 -2.146484
vt 3.861328 -2.152344
vt 3.865234 -2.146484
vt -1.231445 -2.146484
vt 3.861328 -2.158203
vt 3.863281 -2.154297
vt 3.861328 -2.154297
vt 3.861328 -2.152344
vt 3.861328 -2.154297
vt 3.863281 -2.154297
vt 3.859375 -2.156250
vt 3.861328 -2.158203
vt 3.861328 -2.154297
vt -1.228516 -2.156250
vt 3.861328 -2.154297
vt 3.861328 -2.152344
vt 3.859375 -2.156250
vt 3.861328 -2.154297
vt -1.228516 -2.156250
vt -1.229492 -2.152344
vt 3.861328 -2.152344
vt -1.231445 -2.146484
vt -1.229492 -2.152344
vt -1.228516 -2.156250
vt 3.861328 -2.152344
vt -1.229492 -2.152344
vt -1.231445 -2.146484
vt -1.235352 -2.148438
vt -1.235352 -2.148438
vt -1.231445 -2.146484
vt -1.237305 -2.144531
vt -1.228516 -2.156250
vt -1.229492 -2.152344
vt -1.231445 -2.154297
vt -1.231445 -2.154297
vt -1.229492 -2.152344
vt -1.235352 -2.148438
vt -1.350586 -2.240234
vt -1.235352 -2.148438
vt -1.237305 -2.144531
vt -1.231445 -2.154297
vt -1.235352 -2.148438
vt -1.350586 -2.240234
vt -1.356445 -2.240234
vt -1.350586 -2.240234
vt -1.237305 -2.144531
vt -1.356445 -2.240234
vt -1.237305 -2.144531
vt -1.394531 -2.222656
vt -1.344727 -2.244141
vt -1.231445 -2.154297
vt -1.350586 -2.240234
vt -1.356445 -2.240234
vt -1.394531 -2.222656
vt -1.394531 -2.322266
vt -1.344727 -2.244141
vt -1.342773 -2.246094
vt -1.231445 -2.154297
vt -1.344727 -2.244141
vt -1.346680 -2.248047
vt -1.342773 -2.246094
vt -1.394531 -2.322266
vt -1.394531 -2.222656
vt -1.398438 -2.222656
vt -1.398438 -2.222656
vt -1.394531 -2.222656
vt -1.396484 -2.216797
vt -1.398438 -2.320312
vt -1.394531 -2.322266
vt -1.398438 -2.222656
vt -1.396484 -2.326172
vt -1.394531 -2.322266
vt -1.398438 -2.320312
vt -1.396484 -2.326172
vt -1.398438 -2.320312
vt -1.419922 -2.328125
vt -1.419922 -2.222656
vt -1.398438 -2.222656
vt -1.396484 -2.216797
vt -1.419922 -2.216797
vt -1.419922 -2.222656
vt -1.396484 -2.216797
vt -1.422852 -2.218750
vt -1.419922 -2.222656
vt -1.419922 -2.216797
vt -1.398438 -2.320312
vt -1.398438 -2.222656
vt -1.419922 -2.322266
vt -1.398438 -2.222656
vt -1.419922 -2.222656
vt -1.419922 -2.322266
vt -1.398438 -2.320312
vt -1.419922 -2.322266
vt -1.419922 -2.328125
vt -1.419922 -2.222656
vt -1.422852 -2.218750
vt -1.419922 -2.322266
vt -1.422852 -2.324219
vt -1.419922 -2.328125
vt -1.419922 -2.322266
vt -1.422852 -2.218750
vt -1.422852 -2.324219
vt -1.419922 -2.322266
vt -1.346680 -2.248047
vt -1.342773 -2.248047
vt -1.342773 -2.246094
vt -1.342773 -2.296875
vt -1.342773 -2.248047
vt -1.346680 -2.248047
vt -1.340820 -2.248047
vt -1.342773 -2.248047
vt -1.342773 -2.296875
vt -1.340820 -2.296875
vt -1.340820 -2.248047
vt -1.342773 -2.296875
vt -1.342773 -2.246094
vt -1.342773 -2.248047
vt -1.339844 -2.246094
vt -1.342773 -2.248047
vt -1.340820 -2.248047
vt -1.339844 -2.246094
vt -1.340820 -2.248047
vt -1.340820 -2.296875
vt -1.337891 -2.250000
vt -1.340820 -2.296875
vt -1.337891 -2.294922
vt -1.337891 -2.250000
vt -1.339844 -2.246094
vt -1.340820 -2.248047
vt -1.336914 -2.248047
vt -1.340820 -2.248047
vt -1.337891 -2.250000
vt -1.336914 -2.248047
vt -1.339844 -2.246094
vt -1.229492 -2.158203
vt -1.342773 -2.246094
vt -1.337891 -2.294922
vt -1.335938 -2.292969
vt -1.337891 -2.250000
vt -1.337891 -2.294922
vt -1.336914 -2.296875
vt -1.335938 -2.292969
vt -1.339844 -2.246094
vt -1.336914 -2.248047
vt -1.228516 -2.162109
vt -1.229492 -2.158203
vt -1.339844 -2.246094
vt -1.228516 -2.162109
vt -1.336914 -2.248047
vt -1.337891 -2.250000
vt -1.333984 -2.248047
vt -1.336914 -2.248047
vt -1.333984 -2.248047
vt -1.228516 -2.162109
vt -1.335938 -2.292969
vt -1.335938 -2.251953
vt -1.337891 -2.250000
vt -1.337891 -2.250000
vt -1.335938 -2.251953
vt -1.333984 -2.248047
vt -1.336914 -2.296875
vt -1.333984 -2.296875
vt -1.335938 -2.292969
vt -1.231445 -2.380859
vt -1.333984 -2.296875
vt -1.336914 -2.296875
vt -1.335938 -2.251953
vt -1.335938 -2.292969
vt -1.333984 -2.292969
vt -1.335938 -2.292969
vt -1.333984 -2.296875
vt -1.333984 -2.292969
vt -1.333984 -2.248047
vt -1.335938 -2.251953
vt -1.332031 -2.250000
vt -1.333984 -2.296875
vt -1.231445 -2.380859
vt -1.230469 -2.378906
vt -1.335938 -2.251953
vt -1.333984 -2.251953
vt -1.332031 -2.250000
vt -1.333984 -2.251953
vt -1.335938 -2.251953
vt -1.333984 -2.292969
vt -1.333984 -2.296875
vt -1.332031 -2.294922
vt -1.333984 -2.292969
vt -1.332031 -2.294922
vt -1.333984 -2.296875
vt -1.230469 -2.378906
vt -1.332031 -2.253906
vt -1.333984 -2.251953
vt -1.333984 -2.292969
vt -1.333984 -2.292969
vt -1.332031 -2.294922
vt -1.332031 -2.291016
vt -1.332031 -2.291016
vt -1.332031 -2.253906
vt -1.333984 -2.292969
vt -1.332031 -2.294922
vt -1.331055 -2.294922
vt -1.332031 -2.291016
vt -1.331055 -2.294922
vt -1.332031 -2.294922
vt -1.230469 -2.378906
vt -1.332031 -2.291016
vt -1.330078 -2.291016
vt -1.332031 -2.253906
vt -1.332031 -2.291016
vt -1.331055 -2.294922
vt -1.330078 -2.291016
vt -1.333984 -2.251953
vt -1.332031 -2.253906
vt -1.330078 -2.250000
vt -1.332031 -2.250000
vt -1.333984 -2.251953
vt -1.330078 -2.250000
vt -1.330078 -2.250000
vt -1.332031 -2.253906
vt -1.328125 -2.251953
vt -1.330078 -2.250000
vt -1.226562 -2.167969
vt -1.332031 -2.250000
vt -1.330078 -2.250000
vt -1.328125 -2.251953
vt -1.226562 -2.167969
vt -1.330078 -2.291016
vt -1.330078 -2.253906
vt -1.332031 -2.253906
vt -1.332031 -2.253906
vt -1.330078 -2.253906
vt -1.328125 -2.251953
vt -1.226562 -2.167969
vt -1.226562 -2.166016
vt -1.332031 -2.250000
vt -1.227539 -2.164062
vt -1.333984 -2.248047
vt -1.332031 -2.250000
vt -1.226562 -2.166016
vt -1.227539 -2.164062
vt -1.332031 -2.250000
vt -1.333984 -2.248047
vt -1.227539 -2.164062
vt -1.228516 -2.162109
vt -1.226562 -2.166016
vt -1.226562 -2.167969
vt -1.223633 -2.166016
vt -1.227539 -2.164062
vt -1.226562 -2.166016
vt -1.223633 -2.164062
vt -1.223633 -2.164062
vt -1.226562 -2.166016
vt -1.223633 -2.166016
vt -1.228516 -2.162109
vt -1.227539 -2.164062
vt -1.224609 -2.162109
vt -1.224609 -2.162109
vt -1.227539 -2.164062
vt -1.223633 -2.164062
vt -1.225586 -2.160156
vt -1.228516 -2.162109
vt -1.224609 -2.162109
vt -1.229492 -2.158203
vt -1.228516 -2.162109
vt -1.225586 -2.160156
vt 3.853516 -2.162109
vt -1.224609 -2.162109
vt -1.223633 -2.164062
vt -1.227539 -2.156250
vt -1.229492 -2.158203
vt -1.225586 -2.160156
vt -1.225586 -2.160156
vt -1.224609 -2.162109
vt 3.855469 -2.160156
vt -1.227539 -2.156250
vt -1.225586 -2.160156
vt 3.855469 -2.160156
vt -1.224609 -2.162109
vt 3.853516 -2.162109
vt 3.855469 -2.160156
vt -1.229492 -2.158203
vt -1.227539 -2.156250
vt -1.230469 -2.156250
vt -1.229492 -2.158203
vt -1.230469 -2.156250
vt -1.342773 -2.246094
vt -1.342773 -2.246094
vt -1.230469 -2.156250
vt -1.231445 -2.154297
vt -1.230469 -2.156250
vt -1.228516 -2.156250
vt -1.231445 -2.154297
vt -1.227539 -2.156250
vt -1.228516 -2.156250
vt -1.230469 -2.156250
vt -1.227539 -2.156250
vt 3.859375 -2.156250
vt -1.228516 -2.156250
vt 3.859375 -2.156250
vt -1.227539 -2.156250
vt 3.855469 -2.160156
vt 3.859375 -2.156250
vt 3.855469 -2.160156
vt 3.857422 -2.162109
vt 3.861328 -2.158203
vt 3.859375 -2.156250
vt 3.857422 -2.162109
vt 3.861328 -2.158203
vt 3.857422 -2.162109
vt 3.857422 -2.382812
vt 3.857422 -2.162109
vt 3.855469 -2.160156
vt 3.855469 -2.164062
vt 3.857422 -2.162109
vt 3.855469 -2.164062
vt 3.857422 -2.382812
vt 3.855469 -2.160156
vt 3.853516 -2.162109
vt 3.855469 -2.164062
vt 3.855469 -2.164062
vt 3.855469 -2.380859
vt 3.857422 -2.382812
vt 3.857422 -2.382812
vt 3.855469 -2.380859
vt 3.853516 -2.382812
vt 3.855469 -2.164062
vt 3.853516 -2.162109
vt 3.853516 -2.166016
vt 3.855469 -2.380859
vt 3.855469 -2.164062
vt 3.853516 -2.166016
vt 3.853516 -2.162109
vt 3.851562 -2.164062
vt 3.853516 -2.166016
vt 3.851562 -2.164062
vt 3.853516 -2.162109
vt -1.223633 -2.164062
vt 3.853516 -2.378906
vt 3.855469 -2.380859
vt 3.853516 -2.166016
vt 3.849609 -2.166016
vt 3.851562 -2.164062
vt -1.223633 -2.164062
vt -1.223633 -2.166016
vt 3.849609 -2.166016
vt -1.223633 -2.164062
vt 3.853516 -2.166016
vt 3.851562 -2.164062
vt 3.851562 -2.167969
vt 3.851562 -2.164062
vt 3.849609 -2.166016
vt 3.851562 -2.167969
vt 3.851562 -2.167969
vt 3.851562 -2.376953
vt 3.853516 -2.166016
vt 3.851562 -2.376953
vt 3.853516 -2.378906
vt 3.853516 -2.166016
vt 3.851562 -2.167969
vt 3.849609 -2.166016
vt 3.849609 -2.169922
vt 3.851562 -2.167969
vt 3.849609 -2.169922
vt 3.851562 -2.376953
vt -1.223633 -2.166016
vt -1.222656 -2.167969
vt 3.849609 -2.166016
vt -1.223633 -2.166016
vt -1.226562 -2.167969
vt -1.222656 -2.167969
vt 3.849609 -2.166016
vt 3.847656 -2.167969
vt 3.849609 -2.169922
vt -1.222656 -2.167969
vt 3.847656 -2.167969
vt 3.849609 -2.166016
vt -1.226562 -2.167969
vt -1.225586 -2.167969
vt -1.222656 -2.167969
vt -1.328125 -2.251953
vt -1.225586 -2.167969
vt -1.226562 -2.167969
vt -1.222656 -2.167969
vt -1.221680 -2.169922
vt 3.847656 -2.167969
vt -1.222656 -2.167969
vt -1.225586 -2.167969
vt -1.221680 -2.169922
vt -1.328125 -2.251953
vt -1.326172 -2.251953
vt -1.225586 -2.167969
vt -1.328125 -2.251953
vt -1.330078 -2.253906
vt -1.326172 -2.251953
vt -1.225586 -2.167969
vt -1.224609 -2.171875
vt -1.221680 -2.169922
vt -1.326172 -2.251953
vt -1.224609 -2.171875
vt -1.225586 -2.167969
vt -1.221680 -2.169922
vt 3.845703 -2.169922
vt 3.847656 -2.167969
vt -1.224609 -2.171875
vt -1.326172 -2.251953
vt -1.223633 -2.173828
vt -1.221680 -2.169922
vt -1.224609 -2.171875
vt -1.220703 -2.171875
vt -1.224609 -2.171875
vt -1.223633 -2.173828
vt -1.220703 -2.171875
vt 3.845703 -2.169922
vt -1.221680 -2.169922
vt 3.843750 -2.171875
vt -1.221680 -2.169922
vt -1.220703 -2.171875
vt 3.843750 -2.171875
vt 3.847656 -2.167969
vt 3.845703 -2.169922
vt 3.847656 -2.171875
vt 3.849609 -2.169922
vt 3.847656 -2.167969
vt 3.847656 -2.171875
vt 3.845703 -2.169922
vt 3.843750 -2.171875
vt 3.845703 -2.173828
vt 3.847656 -2.171875
vt 3.845703 -2.169922
vt 3.845703 -2.173828
vt 3.845703 -2.369141
vt 3.845703 -2.173828
vt 3.843750 -2.171875
vt 3.847656 -2.171875
vt 3.845703 -2.173828
vt 3.845703 -2.369141
vt 3.843750 -2.371094
vt 3.843750 -2.171875
vt -1.220703 -2.171875
vt 3.843750 -2.371094
vt 3.845703 -2.369141
vt 3.843750 -2.171875
vt 3.847656 -2.373047
vt 3.847656 -2.171875
vt 3.845703 -2.369141
vt 3.847656 -2.373047
vt 3.845703 -2.369141
vt 3.843750 -2.371094
vt 3.849609 -2.169922
vt 3.847656 -2.171875
vt 3.849609 -2.375000
vt 3.847656 -2.171875
vt 3.847656 -2.373047
vt 3.849609 -2.375000
vt 3.849609 -2.169922
vt 3.849609 -2.375000
vt 3.851562 -2.376953
vt 3.845703 -2.375000
vt 3.847656 -2.373047
vt 3.843750 -2.371094
vt 3.849609 -2.375000
vt 3.847656 -2.373047
vt 3.845703 -2.375000
vt -1.223633 -2.371094
vt 3.843750 -2.371094
vt -1.220703 -2.171875
vt 3.845703 -2.375000
vt 3.843750 -2.371094
vt -1.223633 -2.371094
vt -1.223633 -2.371094
vt -1.220703 -2.171875
vt -1.223633 -2.173828
vt 3.847656 -2.376953
vt 3.849609 -2.375000
vt 3.845703 -2.375000
vt 3.851562 -2.376953
vt 3.849609 -2.375000
vt 3.847656 -2.376953
vt -1.224609 -2.375000
vt 3.845703 -2.375000
vt -1.223633 -2.371094
vt 3.849609 -2.378906
vt 3.851562 -2.376953
vt 3.847656 -2.376953
vt 3.853516 -2.378906
vt 3.851562 -2.376953
vt 3.849609 -2.378906
vt 3.847656 -2.376953
vt 3.845703 -2.375000
vt -1.225586 -2.376953
vt 3.845703 -2.375000
vt -1.224609 -2.375000
vt -1.225586 -2.376953
vt 3.849609 -2.378906
vt 3.847656 -2.376953
vt -1.226562 -2.378906
vt 3.847656 -2.376953
vt -1.225586 -2.376953
vt -1.226562 -2.378906
vt 3.851562 -2.380859
vt 3.853516 -2.378906
vt 3.849609 -2.378906
vt 3.849609 -2.378906
vt -1.226562 -2.378906
vt 3.851562 -2.380859
vt 3.855469 -2.380859
vt 3.853516 -2.378906
vt 3.851562 -2.380859
vt 3.853516 -2.382812
vt 3.855469 -2.380859
vt 3.851562 -2.380859
vt -1.227539 -2.382812
vt 3.853516 -2.382812
vt 3.851562 -2.380859
vt 3.853516 -2.382812
vt -1.227539 -2.382812
vt -1.228516 -2.384766
vt -1.228516 -2.384766
vt -1.227539 -2.382812
vt -1.231445 -2.380859
vt -1.231445 -2.380859
vt -1.227539 -2.382812
vt -1.230469 -2.378906
vt -1.227539 -2.380859
vt -1.227539 -2.382812
vt 3.851562 -2.380859
vt -1.227539 -2.382812
vt -1.227539 -2.380859
vt -1.230469 -2.378906
vt -1.226562 -2.378906
vt -1.227539 -2.380859
vt 3.851562 -2.380859
vt -1.230469 -2.378906
vt -1.227539 -2.380859
vt -1.229492 -2.376953
vt -1.227539 -2.380859
vt -1.226562 -2.378906
vt -1.229492 -2.376953
vt -1.229492 -2.376953
vt -1.331055 -2.294922
vt -1.230469 -2.378906
vt -1.229492 -2.376953
vt -1.226562 -2.378906
vt -1.228516 -2.375000
vt -1.229492 -2.376953
vt -1.228516 -2.375000
vt -1.331055 -2.294922
vt -1.226562 -2.378906
vt -1.225586 -2.376953
vt -1.228516 -2.375000
vt -1.228516 -2.375000
vt -1.328125 -2.292969
vt -1.331055 -2.294922
vt -1.331055 -2.294922
vt -1.328125 -2.292969
vt -1.330078 -2.291016
vt -1.228516 -2.375000
vt -1.225586 -2.376953
vt -1.227539 -2.373047
vt -1.228516 -2.375000
vt -1.227539 -2.373047
vt -1.328125 -2.292969
vt -1.225586 -2.376953
vt -1.224609 -2.375000
vt -1.227539 -2.373047
vt -1.330078 -2.291016
vt -1.328125 -2.292969
vt -1.327148 -2.289062
vt -1.330078 -2.291016
vt -1.327148 -2.289062
vt -1.330078 -2.253906
vt -1.227539 -2.373047
vt -1.326172 -2.292969
vt -1.328125 -2.292969
vt -1.328125 -2.292969
vt -1.326172 -2.292969
vt -1.327148 -2.289062
vt -1.227539 -2.373047
vt -1.224609 -2.375000
vt -1.226562 -2.371094
vt -1.224609 -2.375000
vt -1.223633 -2.371094
vt -1.226562 -2.371094
vt -1.226562 -2.371094
vt -1.223633 -2.371094
vt -1.223633 -2.173828
vt -1.227539 -2.373047
vt -1.226562 -2.371094
vt -1.323242 -2.291016
vt -1.323242 -2.291016
vt -1.226562 -2.371094
vt -1.223633 -2.173828
vt -1.326172 -2.292969
vt -1.227539 -2.373047
vt -1.323242 -2.291016
vt -1.323242 -2.253906
vt -1.323242 -2.291016
vt -1.223633 -2.173828
vt -1.326172 -2.251953
vt -1.323242 -2.253906
vt -1.223633 -2.173828
vt -1.326172 -2.292969
vt -1.323242 -2.291016
vt -1.324219 -2.289062
vt -1.327148 -2.289062
vt -1.326172 -2.292969
vt -1.324219 -2.289062
vt -1.324219 -2.255859
vt -1.324219 -2.289062
vt -1.323242 -2.291016
vt -1.327148 -2.289062
vt -1.324219 -2.289062
vt -1.324219 -2.255859
vt -1.323242 -2.253906
vt -1.324219 -2.255859
vt -1.323242 -2.291016
vt -1.327148 -2.255859
vt -1.327148 -2.289062
vt -1.324219 -2.255859
vt -1.327148 -2.255859
vt -1.324219 -2.255859
vt -1.323242 -2.253906
vt -1.326172 -2.251953
vt -1.327148 -2.255859
vt -1.323242 -2.253906
vt -1.327148 -2.289062
vt -1.327148 -2.255859
vt -1.330078 -2.253906
vt -1.330078 -2.253906
vt -1.327148 -2.255859
vt -1.326172 -2.251953
f 1/1/1 2/2/2 3/3/3
f 4/4/4 5/5/5 6/6/6
f 7/7/7 8/8/8 9/9/9
f 10/10/10 11/11/11 12/12/12
f 13/13/13 14/14/14 15/15/15
f 16/16/16 17/17/17 18/18/18
f 19/19/19 20/20/20 21/21/21
f 22/22/22 23/23/23 24/24/24
f 25/25/25 26/26/26 27/27/27
f 28/28/28 29/29/29 30/30/30
f 31/31/31 32/32/32 33/33/33
f 34/34/34 35/35/35 36/36/36
f 37/37/37 38/38/38 39/39/39
f 40/40/40 41/41/41 42/42/42
f 43/43/43 44/44/44 45/45/45
f 46/46/46 47/47/47 48/48/48
f 49/49/49 50/50/50 51/51/51
f 52/52/52 53/53/53 54/54/54
f 55/55/55 56/56/56 57/57/57
f 58/58/58 59/59/59 60/60/60
f 61/61/61 62/62/62 63/63/63
f 64/64/64 65/65/65 66/66/66
f 67/67/67 68/68/68 69/69/69
f 70/70/70 71/71/71 72/72/72
f 73/73/73 74/74/74 75/75/75
f 76/76/76 77/77/77 78/78/78
f 79/79/79 80/80/80 81/81/81
f 82/82/82 83/83/83 84/84/84
f 85/85/85 86/86/86 87/87/87
f 88/88/88 89/89/89 90/90/90
f 91/91/91 92/92/92 93/93/93
f 94/94/94 95/95/95 96/96/96
f 97/97/97 98/98/98 99/99/99
f 100/100/100 101/101/101 102/102/102
f 103/103/103 104/104/104 105/105/105
f 106/106/106 107/107/107 108/108/108
f 109/109/109 110/110/110 111/111/111
f 112/112/112 113/113/113 114/114/114
f 115/115/115 116/116/116 117/117/117
f 118/118/118 119/119/119 120/120/120
f 121/121/121 122/122/122 123/123/123
f 124/124/124 125/125/125 126/126/126
f 127/127/127 128/128/128 129/129/129
f 130/130/130 131/131/131 132/132/132
f 133/133/133 134/134/134 135/135/135
f 136/136/136 137/137/137 138/138/138
f 139/139/139 140/140/140 141/141/141
f 142/142/142 143/143/143 144/144/144
f 145/145/145 146/146/146 147/147/147
f 148/148/148 149/149/149 150/150/150
f 151/151/151 152/152/152 153/153/153
f 154/154/154 155/155/155 156/156/156
f 157/157/157 158/158/158 159/159/159
f 160/160/160 161/161/161 162/162/162
f 163/163/163 164/164/164 165/165/165
f 166/166/166 167/167/167 168/168/168
f 169/169/169 170/170/170 171/171/171
f 172/172/172 173/173/173 174/174/174
f 175/175/175 176/176/176 177/177/177
f 178/178/178 179/179/179 180/180/180
f 181/181/181 182/182/182 183/183/183
f 184/184/184 185/185/185 186/186/186
f 187/187/187 188/188/188 189/189/189
f 190/190/190 191/191/191 192/192/192
f 193/193/193 194/194/194 195/195/195
f 196/196/196 197/197/197 198/198/198
f 199/199/199 200/200/200 201/201/201
f 202/202/202 203/203/203 204/204/204
f 205/205/205 206/206/206 207/207/207
f 208/208/208 209/209/209 210/210/210
f 211/211/211 212/212/212 213/213/213
f 214/214/214 215/215/215 216/216/216
f 217/217/217 218/218/218 219/219/219
f 220/220/220 221/221/221 222/222/222
f 223/223/223 224/224/224 225/225/225
f 226/226/226 227/227/227 228/228/228
f 229/229/229 230/230/230 231/231/231
f 232/232/232 233/233/233 234/234/234
f 235/235/235 236/236/236 237/237/237
f 238/238/238 239/239/239 240/240/240
f 241/241/241 242/242/242 243/243/243
f 244/244/244 245/245/245 246/246/246
f 247/247/247 248/248/248 249/249/249
f 250/250/250 251/251/251 252/252/252
f 253/253/253 254/254/254 255/255/255
f 256/256/256 257/257/257 258/258/258
f 259/259/259 260/260/260 261/261/261
f 262/262/262 263/263/263 264/264/264
f 265/265/265 266/266/266 267/267/267
f 268/268/268 269/269/269 270/270/270
f 271/271/271 272/272/272 273/273/273
f 274/274/274 275/275/275 276/276/276
f 277/277/277 278/278/278 279/279/279
f 280/280/280 281/281/281 282/282/282
f 283/283/283 284/284/284 285/285/285
f 286/286/286 287/287/287 288/288/288
f 289/289/289 290/290/290 291/291/291
f 292/292/292 293/293/293 294/294/294
f 295/295/295 296/296/296 297/297/297
f 298/298/298 299/299/299 300/300/300
f 301/301/301 302/302/302 303/303/303
f 304/304/304 305/305/305 306/306/306
f 307/307/307 308/308/308 309/309/309
f 310/310/310 311/311/311 312/312/312
f 313/313/313 314/314/314 315/315/315
f 316/316/316 317/317/317 318/318/318
f 319/319/319 320/320/320 321/321/321
f 322/322/322 323/323/323 324/324/324
f 325/325/325 326/326/326 327/327/327
f 328/328/328 329/329/329 330/330/330
f 331/331/331 332/332/332 333/333/333
f 334/334/334 335/335/335 336/336/336
f 337/337/337 338/338/338 339/339/339
f 340/340/340 341/341/341 342/342/342
f 343/343/343 344/344/344 345/345/345
f 346/346/346 347/347/347 348/348/348
f 349/349/349 350/350/350 351/351/351
f 352/352/352 353/353/353 354/354/354
f 355/355/355 356/356/356 357/357/357
f 358/358/358 359/359/359 360/360/360
f 361/361/361 362/362/362 363/363/363
f 364/364/364 365/365/365 366/366/366
f 367/367/367 368/368/368 369/369/369
f 370/370/370 371/371/371 372/372/372
f 373/373/373 374/374/374 375/375/375
f 376/376/376 377/377/377 378/378/378
f 379/379/379 380/380/380 381/381/381
f 382/382/382 383/383/383 384/384/384
f 385/385/385 386/386/386 387/387/387
f 388/388/388 389/389/389 390/390/390
f 391/391/391 392/392/392 393/393/393
f 394/394/394 395/395/395 396/396/396
f 397/397/397 398/398/398 399/399/399
f 400/400/400 401/401/401 402/402/402
f 403/403/403 404/404/404 405/405/405
f 406/406/406 407/407/407 408/408/408
f 409/409/409 410/410/410 411/411/411
f 412/412/412 413/413/413 414/414/414
f 415/415/415 416/416/416 417/417/417
f 418/418/418 419/419/419 420/420/420
f 421/421/421 422/422/422 423/423/423
f 424/424/424 425/425/425 426/426/426
f 427/427/427 428/428/428 429/429/429
f 430/430/430 431/431/431 432/432/432
f 433/433/433 434/434/434 435/435/435
f 436/436/436 437/437/437 438/438/438
f 439/439/439 440/440/440 441/441/441
f 442/442/442 443/443/443 444/444/444
f 445/445/445 446/446/446 447/447/447
f 448/448/448 449/449/449 450/450/450
f 451/451/451 452/452/452 453/453/453
f 454/454/454 455/455/455 456/456/456
f 457/457/457 458/458/458 459/459/459
f 460/460/460 461/461/461 462/462/462
f 463/463/463 464/464/464 465/465/465
f 466/466/466 467/467/467 468/468/468
f 469/469/469 470/470/470 471/471/471
f 472/472/472 473/473/473 474/474/474
f 475/475/475 476/476/476 477/477/477
f 478/478/478 479/479/479 480/480/480
f 481/481/481 482/482/482 483/483/483
f 484/484/484 485/485/485 486/486/486
f 487/487/487 488/488/488 489/489/489
f 490/490/490 491/491/491 492/492/492
f 493/493/493 494/494/494 495/495/495
f 496/496/496 497/497/497 498/498/498
f 499/499/499 500/500/500 501/501/501
f 502/502/502 503/503/503 504/504/504
f 505/505/505 506/506/506 507/507/507
f 508/508/508 509/509/509 510/510/510
f 511/511/511 512/512/512 513/513/513
f 514/514/514 515/515/515 516/516/516
f 517/517/517 518/518/518 519/519/519
f 520/520/520 521/521/521 522/522/522
f 523/523/523 524/524/524 525/525/525
f 526/526/526 527/527/527 528/528/528
f 529/529/529 530/530/530 531/531/531
f 532/532/532 533/533/533 534/534/534
f 535/535/535 536/536/536 537/537/537
f 538/538/538 539/539/539 540/540/540
f 541/541/541 542/542/542 543/543/543
f 544/544/544 545/545/545 546/546/546
f 547/547/547 548/548/548 549/549/549
f 550/550/550 551/551/551 552/552/552
f 553/553/553 554/554/554 555/555/555
f 556/556/556 557/557/557 558/558/558
f 559/559/559 560/560/560 561/561/561
f 562/562/562 563/563/563 564/564/564
f 565/565/565 566/566/566 567/567/567
f 568/568/568 569/569/569 570/570/570
f 571/571/571 572/572/572 573/573/573
f 574/574/574 575/575/575 576/576/576
f 577/577/577 578/578/578 579/579/579
f 580/580/580 581/581/581 582/582/582
f 583/583/583 584/584/584 585/585/585
f 586/586/586 587/587/587 588/588/588
f 589/589/589 590/590/590 591/591/591
f 592/592/592 593/593/593 594/594/594
f 595/595/595 596/596/596 597/597/597
f 598/598/598 599/599/599 600/600/600
f 601/601/601 602/602/602 603/603/603
f 604/604/604 605/605/605 606/606/606
f 607/607/607 608/608/608 609/609/609
f 610/610/610 611/611/611 612/612/612
f 613/613/613 614/614/614 615/615/615
f 616/616/616 617/617/617 618/618/618
f 619/619/619 620/620/620 621/621/621
f 622/622/622 623/623/623 624/624/624
f 625/625/625 626/626/626 627/627/627
f 628/628/628 629/629/629 630/630/630
f 631/631/631 632/632/632 633/633/633
f 634/634/634 635/635/635 636/636/636
f 637/637/637 638/638/638 639/639/639
f 640/640/640 641/641/641 642/642/642
f 643/643/643 644/644/644 645/645/645
f 646/646/646 647/647/647 648/648/648
f 649/649/649 650/650/650 651/651/651
f 652/652/652 653/653/653 654/654/654
f 655/655/655 656/656/656 657/657/657
f 658/658/658 659/659/659 660/660/660
f 661/661/661 662/662/662 663/663/663
f 664/664/664 665/665/665 666/666/666
f 667/667/667 668/668/668 669/669/669
f 670/670/670 671/671/671 672/672/672
f 673/673/673 674/674/674 675/675/675
f 676/676/676 677/677/677 678/678/678
f 679/679/679 680/680/680 681/681/681
f 682/682/682 683/683/683 684/684/684
f 685/685/685 686/686/686 687/687/687
f 688/688/688 689/689/689 690/690/690
f 691/691/691 692/692/692 693/693/693
f 694/694/694 695/695/695 696/696/696
f 697/697/697 698/698/698 699/699/699
f 700/700/700 701/701/701 702/702/702
f 703/703/703 704/704/704 705/705/705
f 706/706/706 707/707/707 708/708/708
f 709/709/709 710/710/710 711/711/711
f 712/712/712 713/713/713 714/714/714
f 715/715/715 716/716/716 717/717/717
f 718/718/718 719/719/719 720/720/720
f 721/721/721 722/722/722 723/723/723
f 724/724/724 725/725/725 726/726/726
f 727/727/727 728/728/728 729/729/729
f 730/730/730 731/731/731 732/732/732
f 733/733/733 734/734/734 735/735/735
f 736/736/736 737/737/737 738/738/738
f 739/739/739 740/740/740 741/741/741
f 742/742/742 743/743/743 744/744/744
f 745/745/745 746/746/746 747/747/747
f 748/748/748 749/749/749 750/750/750
f 751/751/751 752/752/752 753/753/753
f 754/754/754 755/755/755 756/756/756
f 757/757/757 758/758/758 759/759/759
f 760/760/760 761/761/761 762/762/762
f 763/763/763 764/764/764 765/765/765
f 766/766/766 767/767/767 768/768/768
f 769/769/769 770/770/770 771/771/771
f 772/772/772 773/773/773 774/774/774
f 775/775/775 776/776/776 777/777/777
f 778/778/778 779/779/779 780/780/780
f 781/781/781 782/782/782 783/783/783
f 784/784/784 785/785/785 786/786/786
f 787/787/787 788/788/788 789/789/789
f 790/790/790 791/791/791 792/792/792
f 793/793/793 794/794/794 795/795/795
f 796/796/796 797/797/797 798/798/798
f 799/799/799 800/800/800 801/801/801
f 802/802/802 803/803/803 804/804/804
f 805/805/805 806/806/806 807/807/807
f 808/808/808 809/809/809 810/810/810
f 811/811/811 812/812/812 813/813/813
f 814/814/814 815/815/815 816/816/816
f 817/817/817 818/818/818 819/819/819
f 820/820/820 821/821/821 822/822/822
f 823/823/823 824/824/824 825/825/825
f 826/826/826 827/827/827 828/828/828
f 829/829/829 830/830/830 831/831/831
f 832/832/832 833/833/833 834/834/834
f 835/835/835 836/836/836 837/837/837
f 838/838/838 839/839/839 840/840/840
f 841/841/841 842/842/842 843/843/843
f 844/844/844 845/845/845 846/846/846
f 847/847/847 848/848/848 849/849/849
f 850/850/850 851/851/851 852/852/852
f 853/853/853 854/854/854 855/855/855
f 856/856/856 857/857/857 858/858/858
f 859/859/859 860/860/860 861/861/861
f 862/862/862 863/863/863 864/864/864
f 865/865/865 866/866/866 867/867/867
f 868/868/868 869/869/869 870/870/870
f 871/871/871 872/872/872 873/873/873
f 874/874/874 875/875/875 876/876/876
f 877/877/877 878/878/878 879/879/879
f 880/880/880 881/881/881 882/882/882
f 883/883/883 884/884/884 885/885/885
f 886/886/886 887/887/887 888/888/888
f 889/889/889 890/890/890 891/891/891
f 892/892/892 893/893/893 894/894/894
f 895/895/895 896/896/896 897/897/897
f 898/898/898 899/899/899 900/900/900
f 901/901/901 902/902/902 903/903/903
f 904/904/904 905/905/905 906/906/906
f 907/907/907 908/908/908 909/909/909
f 910/910/910 911/911/911 912/912/912
f 913/913/913 914/914/914 915/915/915
f 916/916/916 917/917/917 918/918/918
f 919/919/919 920/920/920 921/921/921
f 922/922/922 923/923/923 924/924/924
f 925/925/925 926/926/926 927/927/927
f 928/928/928 929/929/929 930/930/930
f 931/931/931 932/932/932 933/933/933
f 934/934/934 935/935/935 936/936/936
f 937/937/937 938/938/938 939/939/939
f 940/940/940 941/941/941 942/942/942
f 943/943/943 944/944/944 945/945/945
f 946/946/946 947/947/947 948/948/948
f 949/949/949 950/950/950 951/951/951
f 952/952/952 953/953/953 954/954/954
f 955/955/955 956/956/956 957/957/957
f 958/958/958 959/959/959 960/960/960
f 961/961/961 962/962/962 963/963/963
f 964/964/964 965/965/965 966/966/966
f 967/967/967 968/968/968 969/969/969
f 970/970/970 971/971/971 972/972/972
f 973/973/973 974/974/974 975/975/975
f 976/976/976 977/977/977 978/978/978
f 979/979/979 980/980/980 981/981/981
f 982/982/982 983/983/983 984/984/984
f 985/985/985 986/986/986 987/987/987
f 988/988/988 989/989/989 990/990/990
f 991/991/991 992/992/992 993/993/993
f 994/994/994 995/995/995 996/996/996
f 997/997/997 998/998/998 999/999/999
f 1000/1000/1000 1001/1001/1001 1002/1002/1002
f 1003/1003/1003 1004/1004/1004 1005/1005/1005
f 1006/1006/1006 1007/1007/1007 1008/1008/1008
f 1009/1009/1009 1010/1010/1010 1011/1011/1011
f 1012/1012/1012 1013/1013/1013 1014/1014/1014
f 1015/1015/1015 1016/1016/1016 1017/1017/1017
f 1018/1018/1018 1019/1019/1019 1020/1020/1020
f 1021/1021/1021 1022/1022/1022 1023/1023/1023
f 1024/1024/1024 1025/1025/1025 1026/1026/1026
f 1027/1027/1027 1028/1028/1028 1029/1029/1029
f 1030/1030/1030 1031/1031/1031 1032/1032/1032
f 1033/1033/1033 1034/1034/1034 1035/1035/1035
f 1036/1036/1036 1037/1037/1037 1038/1038/1038
f 1039/1039/1039 1040/1040/1040 1041/1041/1041
f 1042/1042/1042 1043/1043/1043 1044/1044/1044
f 1045/1045/1045 1046/1046/1046 1047/1047/1047
f 1048/1048/1048 1049/1049/1049 1050/1050/1050
