# OBJ file
v 163.845380 895.207200 114.651080
v 163.845720 895.207100 265.338530
v 167.366230 893.308900 114.651100
v 163.845720 895.207100 265.338530
v 167.366580 893.308650 265.338530
v 167.366230 893.308900 114.651100
v 139.198730 841.064640 114.651090
v 139.199160 841.064450 294.705900
v 135.677870 842.962950 114.651080
v 139.199160 841.064450 294.705900
v 135.678280 842.962700 294.705900
v 135.677870 842.962950 114.651080
v 163.845720 895.207100 265.338530
v 227.028230 1012.396100 265.338500
v 167.366580 893.308650 265.338530
v 227.028230 1012.396100 265.338500
v 230.549090 1010.497700 265.338470
v 167.366580 893.308650 265.338530
v 139.199160 841.064450 294.705900
v 260.991030 1066.960400 294.705900
v 135.678280 842.962700 294.705900
v 260.991030 1066.960400 294.705900
v 257.470150 1068.858800 294.705900
v 135.678280 842.962700 294.705900
v 227.028230 1012.396100 265.338500
v 227.027880 1012.396100 117.476930
v 230.549090 1010.497700 265.338470
v 227.027880 1012.396100 117.476930
v 230.548750 1010.497900 117.476930
v 230.549090 1010.497700 265.338470
v 260.991030 1066.960400 294.705900
v 260.990660 1066.960700 117.476930
v 257.470150 1068.858800 294.705900
v 260.990660 1066.960700 117.476930
v 257.469800 1068.858900 117.476930
v 257.470150 1068.858800 294.705900
v 163.845380 895.207200 114.651080
v 167.366230 893.308900 114.651100
v 135.677870 842.962950 114.651080
v 167.366230 893.308900 114.651100
v 139.198730 841.064640 114.651090
v 135.677870 842.962950 114.651080
v 230.548750 1010.497900 117.476930
v 227.027880 1012.396100 117.476930
v 257.469800 1068.858900 117.476930
v 260.990660 1066.960700 117.476930
v 230.548750 1010.497900 117.476930
v 257.469800 1068.858900 117.476930
v 257.469800 1068.858900 117.476930
v 227.027880 1012.396100 117.476930
v 227.028230 1012.396100 265.338500
v 257.470150 1068.858800 294.705900
v 257.469800 1068.858900 117.476930
v 227.028230 1012.396100 265.338500
v 257.470150 1068.858800 294.705900
v 227.028230 1012.396100 265.338500
v 163.845720 895.207100 265.338530
v 135.678280 842.962700 294.705900
v 257.470150 1068.858800 294.705900
v 163.845720 895.207100 265.338530
v 135.678280 842.962700 294.705900
v 163.845720 895.207100 265.338530
v 163.845380 895.207200 114.651080
v 135.677870 842.962950 114.651080
v 135.678280 842.962700 294.705900
v 163.845380 895.207200 114.651080
v 230.548750 1010.497900 117.476930
v 260.990660 1066.960700 117.476930
v 260.991030 1066.960400 294.705900
v 230.549090 1010.497700 265.338470
v 230.548750 1010.497900 117.476930
v 260.991030 1066.960400 294.705900
v 230.549090 1010.497700 265.338470
v 260.991030 1066.960400 294.705900
v 139.199160 841.064450 294.705900
v 167.366580 893.308650 265.338530
v 230.549090 1010.497700 265.338470
v 139.199160 841.064450 294.705900
v 167.366580 893.308650 265.338530
v 139.199160 841.064450 294.705900
v 139.198730 841.064640 114.651090
v 167.366230 893.308900 114.651100
v 167.366580 893.308650 265.338530
v 139.198730 841.064640 114.651090
vn 0.473629 0.880716 -0.003914
vn 0.473629 0.880716 -0.003914
vn 0.473629 0.880716 -0.003914
vn 0.473629 0.880716 -0.003914
vn 0.473629 0.880716 -0.003914
vn 0.473629 0.880716 -0.003914
vn -0.482970 -0.875628 -0.003927
vn -0.482970 -0.875628 -0.003927
vn -0.482970 -0.875628 -0.003927
vn -0.482970 -0.875628 -0.003927
vn -0.482970 -0.875628 -0.003927
vn -0.482970 -0.875628 -0.003927
vn -0.003921 0.003921 -0.999985
vn -0.003921 0.003921 -0.999985
vn -0.003921 0.003921 -0.999985
vn -0.003921 0.003921 -0.999985
vn -0.003921 0.003921 -0.999985
vn -0.003921 0.003921 -0.999985
vn -0.003921 0.003921 0.999985
vn -0.003921 0.003921 0.999985
vn -0.003921 0.003921 0.999985
vn -0.003921 0.003921 0.999985
vn -0.003921 0.003921 0.999985
vn -0.003921 0.003921 0.999985
vn -0.482970 -0.875628 -0.003927
vn -0.482970 -0.875628 -0.003927
vn -0.482970 -0.875628 -0.003927
vn -0.482970 -0.875628 -0.003927
vn -0.482970 -0.875628 -0.003927
vn -0.482970 -0.875628 -0.003927
vn 0.473629 0.880716 -0.003914
vn 0.473629 0.880716 -0.003914
vn 0.473629 0.880716 -0.003914
vn 0.473629 0.880716 -0.003914
vn 0.473629 0.880716 -0.003914
vn 0.473629 0.880716 -0.003914
vn -0.003921 0.003921 -0.999985
vn -0.003921 0.003921 -0.999985
vn -0.003921 0.003921 -0.999985
vn -0.003921 0.003921 -0.999985
vn -0.003921 0.003921 -0.999985
vn -0.003921 0.003921 -0.999985
vn -0.003921 0.003921 -0.999985
vn -0.003921 0.003921 -0.999985
vn -0.003921 0.003921 -0.999985
vn -0.003921 0.003921 -0.999985
vn -0.003921 0.003921 -0.999985
vn -0.003921 0.003921 -0.999985
vn -0.877441 0.479668 -0.003900
vn -0.877441 0.479668 -0.003900
vn -0.877441 0.479668 -0.003900
vn -0.877441 0.479668 -0.003900
vn -0.877441 0.479668 -0.003900
vn -0.877441 0.479668 -0.003900
vn -0.877441 0.479668 -0.003900
vn -0.877441 0.479668 -0.003900
vn -0.877441 0.479668 -0.003900
vn -0.877441 0.479668 -0.003900
vn -0.877441 0.479668 -0.003900
vn -0.877441 0.479668 -0.003900
vn -0.877441 0.479668 -0.003900
vn -0.877441 0.479668 -0.003900
vn -0.877441 0.479668 -0.003900
vn -0.877441 0.479668 -0.003900
vn -0.877441 0.479668 -0.003900
vn -0.877441 0.479668 -0.003900
vn 0.878941 -0.476914 -0.003941
vn 0.878941 -0.476914 -0.003941
vn 0.878941 -0.476914 -0.003941
vn 0.878941 -0.476914 -0.003941
vn 0.878941 -0.476914 -0.003941
vn 0.878941 -0.476914 -0.003941
vn 0.878941 -0.476914 -0.003941
vn 0.878941 -0.476914 -0.003941
vn 0.878941 -0.476914 -0.003941
vn 0.878941 -0.476914 -0.003941
vn 0.878941 -0.476914 -0.003941
vn 0.878941 -0.476914 -0.003941
vn 0.878941 -0.476914 -0.003941
vn 0.878941 -0.476914 -0.003941
vn 0.878941 -0.476914 -0.003941
vn 0.878941 -0.476914 -0.003941
vn 0.878941 -0.476914 -0.003941
vn 0.878941 -0.476914 -0.003941
vt 0.596680 0.695801
vt -0.156616 0.695801
vt 0.596680 0.675781
vt -0.156616 0.695801
vt -0.156616 0.675781
vt 0.596680 0.675781
vt 0.403076 0.675781
vt 1.302734 0.675781
vt 0.403076 0.695801
vt 1.302734 0.675781
vt 1.302734 0.695801
vt 0.403076 0.695801
vt 0.831055 0.695801
vt 0.165527 0.695801
vt 0.831055 0.675781
vt 0.165527 0.695801
vt 0.165527 0.675781
vt 0.831055 0.675781
vt -0.128052 0.675781
vt 1.154297 0.675781
vt -0.128052 0.695801
vt 1.154297 0.675781
vt 1.154297 0.695801
vt -0.128052 0.695801
vt 1.156250 0.695801
vt 0.417236 0.695801
vt 1.156250 0.675781
vt 0.417236 0.695801
vt 0.417236 0.675781
vt 1.156250 0.675781
vt -0.303467 0.675781
vt 0.582520 0.675781
vt -0.303467 0.695801
vt 0.582520 0.675781
vt 0.582520 0.695801
vt -0.303467 0.695801
vt 0.831055 0.695801
vt 0.831055 0.675781
vt 1.127930 0.695801
vt 0.831055 0.675781
vt 1.127930 0.675781
vt 1.127930 0.695801
vt 0.165527 0.675781
vt 0.165527 0.695801
vt -0.155029 0.695801
vt -0.155029 0.675781
vt 0.165527 0.675781
vt -0.155029 0.695801
vt -0.141479 -0.302734
vt 0.179077 -0.302734
vt 0.179077 0.436523
vt -0.141479 0.583496
vt -0.141479 -0.302734
vt 0.179077 0.436523
vt -0.141479 0.583496
vt 0.179077 0.436523
vt 0.844727 0.436523
vt 1.140625 0.583496
vt -0.141479 0.583496
vt 0.844727 0.436523
vt 1.140625 0.583496
vt 0.844727 0.436523
vt 0.844727 -0.316406
vt 1.140625 -0.316406
vt 1.140625 0.583496
vt 0.844727 -0.316406
vt 0.820801 0.404297
vt 1.140625 0.404297
vt 1.140625 1.289795
vt 0.820801 1.143066
vt 0.820801 0.404297
vt 1.140625 1.289795
vt 0.820801 1.143066
vt 1.140625 1.289795
vt -0.141479 1.289795
vt 0.155151 1.143066
vt 0.820801 1.143066
vt -0.141479 1.289795
vt 0.155151 1.143066
vt -0.141479 1.289795
vt -0.141479 0.390137
vt 0.155151 0.390137
vt 0.155151 1.143066
vt -0.141479 0.390137
f 1/1/1 2/2/2 3/3/3
f 4/4/4 5/5/5 6/6/6
f 7/7/7 8/8/8 9/9/9
f 10/10/10 11/11/11 12/12/12
f 13/13/13 14/14/14 15/15/15
f 16/16/16 17/17/17 18/18/18
f 19/19/19 20/20/20 21/21/21
f 22/22/22 23/23/23 24/24/24
f 25/25/25 26/26/26 27/27/27
f 28/28/28 29/29/29 30/30/30
f 31/31/31 32/32/32 33/33/33
f 34/34/34 35/35/35 36/36/36
f 37/37/37 38/38/38 39/39/39
f 40/40/40 41/41/41 42/42/42
f 43/43/43 44/44/44 45/45/45
f 46/46/46 47/47/47 48/48/48
f 49/49/49 50/50/50 51/51/51
f 52/52/52 53/53/53 54/54/54
f 55/55/55 56/56/56 57/57/57
f 58/58/58 59/59/59 60/60/60
f 61/61/61 62/62/62 63/63/63
f 64/64/64 65/65/65 66/66/66
f 67/67/67 68/68/68 69/69/69
f 70/70/70 71/71/71 72/72/72
f 73/73/73 74/74/74 75/75/75
f 76/76/76 77/77/77 78/78/78
f 79/79/79 80/80/80 81/81/81
f 82/82/82 83/83/83 84/84/84
