# OBJ file
v 594.320600 -359.415650 398.020080
v 595.057500 -359.707150 397.691830
v 594.835600 -360.268220 398.020100
v 594.314500 -360.062130 398.252230
v 594.320600 -359.415650 398.020080
v 594.835600 -360.268220 398.020100
v 594.743650 -360.500640 398.812560
v 594.314500 -360.062130 398.252230
v 594.835600 -360.268220 398.020100
v 594.015300 -359.294950 398.812560
v 594.320600 -359.415650 398.020080
v 594.314500 -360.062130 398.252230
v 594.098700 -359.976750 398.812600
v 594.015300 -359.294950 398.812560
v 594.314500 -360.062130 398.252230
v 594.743650 -360.500640 398.812560
v 594.098700 -359.976750 398.812600
v 594.314500 -360.062130 398.252230
v 594.320600 -359.415680 399.605040
v 594.015300 -359.294950 398.812560
v 594.098700 -359.976750 398.812600
v 594.314500 -360.062130 399.372960
v 594.320600 -359.415680 399.605040
v 594.098700 -359.976750 398.812600
v 594.743650 -360.500640 398.812560
v 594.314500 -360.062130 399.372960
v 594.098700 -359.976750 398.812600
v 595.057500 -359.707150 399.933300
v 594.320600 -359.415680 399.605040
v 594.314500 -360.062130 399.372960
v 594.835600 -360.268220 399.605040
v 595.057500 -359.707150 399.933300
v 594.314500 -360.062130 399.372960
v 594.743650 -360.500640 398.812560
v 594.835600 -360.268220 399.605040
v 594.314500 -360.062130 399.372960
v 595.794500 -359.998600 399.605040
v 595.057500 -359.707150 399.933300
v 594.835600 -360.268220 399.605040
v 595.356700 -360.474330 399.372960
v 595.794500 -359.998600 399.605040
v 594.835600 -360.268220 399.605040
v 594.743650 -360.500640 398.812560
v 595.356700 -360.474330 399.372960
v 594.835600 -360.268220 399.605040
v 596.099700 -360.119350 398.812560
v 595.794500 -359.998600 399.605040
v 595.356700 -360.474330 399.372960
v 595.572600 -360.559700 398.812600
v 596.099700 -360.119350 398.812560
v 595.356700 -360.474330 399.372960
v 594.743650 -360.500640 398.812560
v 595.572600 -360.559700 398.812600
v 595.356700 -360.474330 399.372960
v 595.794500 -359.998600 398.020080
v 596.099700 -360.119350 398.812560
v 595.572600 -360.559700 398.812600
v 595.356700 -360.474330 398.252230
v 595.794500 -359.998600 398.020080
v 595.572600 -360.559700 398.812600
v 594.743650 -360.500640 398.812560
v 595.356700 -360.474330 398.252230
v 595.572600 -360.559700 398.812600
v 595.057500 -359.707150 397.691830
v 595.794500 -359.998600 398.020080
v 595.356700 -360.474330 398.252230
v 594.835600 -360.268220 398.020100
v 595.057500 -359.707150 397.691830
v 595.356700 -360.474330 398.252230
v 594.743650 -360.500640 398.812560
v 594.835600 -360.268220 398.020100
v 595.356700 -360.474330 398.252230
vn -0.753797 -0.214813 -0.621004
vn -0.175938 -0.441801 -0.879692
vn -0.271420 -0.672650 -0.688384
vn -0.720226 -0.494426 -0.486639
vn -0.753797 -0.214813 -0.621004
vn -0.271420 -0.672650 -0.688384
vn -0.372063 -0.928199 -0.003916
vn -0.720226 -0.494426 -0.486639
vn -0.271420 -0.672650 -0.688384
vn -0.993588 -0.112996 -0.003896
vn -0.753797 -0.214813 -0.621004
vn -0.720226 -0.494426 -0.486639
vn -0.907377 -0.420300 -0.003928
vn -0.993588 -0.112996 -0.003896
vn -0.720226 -0.494426 -0.486639
vn -0.372063 -0.928199 -0.003916
vn -0.907377 -0.420300 -0.003928
vn -0.720226 -0.494426 -0.486639
vn -0.757457 -0.215856 0.616170
vn -0.993588 -0.112996 -0.003896
vn -0.907377 -0.420300 -0.003928
vn -0.722949 -0.496294 0.480663
vn -0.757457 -0.215856 0.616170
vn -0.907377 -0.420300 -0.003928
vn -0.372063 -0.928199 -0.003916
vn -0.722949 -0.496294 0.480663
vn -0.907377 -0.420300 -0.003928
vn -0.177156 -0.444858 0.877905
vn -0.757457 -0.215856 0.616170
vn -0.722949 -0.496294 0.480663
vn -0.272894 -0.676302 0.684211
vn -0.177156 -0.444858 0.877905
vn -0.722949 -0.496294 0.480663
vn -0.372063 -0.928199 -0.003916
vn -0.272894 -0.676302 0.684211
vn -0.722949 -0.496294 0.480663
vn 0.398954 -0.675457 0.620156
vn -0.177156 -0.444858 0.877905
vn -0.272894 -0.676302 0.684211
vn 0.177541 -0.856144 0.485280
vn 0.398954 -0.675457 0.620156
vn -0.272894 -0.676302 0.684211
vn -0.372063 -0.928199 -0.003916
vn 0.177541 -0.856144 0.485280
vn -0.272894 -0.676302 0.684211
vn 0.641340 -0.767247 -0.003935
vn 0.398954 -0.675457 0.620156
vn 0.177541 -0.856144 0.485280
vn 0.365285 -0.930887 -0.003928
vn 0.641340 -0.767247 -0.003935
vn 0.177541 -0.856144 0.485280
vn -0.372063 -0.928199 -0.003916
vn 0.365285 -0.930887 -0.003928
vn 0.177541 -0.856144 0.485280
vn 0.397001 -0.672151 -0.624982
vn 0.641340 -0.767247 -0.003935
vn 0.365285 -0.930887 -0.003928
vn 0.176860 -0.852858 -0.491278
vn 0.397001 -0.672151 -0.624982
vn 0.365285 -0.930887 -0.003928
vn -0.372063 -0.928199 -0.003916
vn 0.176860 -0.852858 -0.491278
vn 0.365285 -0.930887 -0.003928
vn -0.175938 -0.441801 -0.879692
vn 0.397001 -0.672151 -0.624982
vn 0.176860 -0.852858 -0.491278
vn -0.271420 -0.672650 -0.688384
vn -0.175938 -0.441801 -0.879692
vn 0.176860 -0.852858 -0.491278
vn -0.372063 -0.928199 -0.003916
vn -0.271420 -0.672650 -0.688384
vn 0.176860 -0.852858 -0.491278
vt 0.874512 0.375000
vt 0.999512 0.375000
vt 0.999512 0.750000
vt 0.874512 0.750000
vt 0.874512 0.375000
vt 0.999512 0.750000
vt 0.874512 1.000000
vt 0.874512 0.750000
vt 0.999512 0.750000
vt 0.750000 0.375000
vt 0.874512 0.375000
vt 0.874512 0.750000
vt 0.750000 0.750000
vt 0.750000 0.375000
vt 0.874512 0.750000
vt 0.750000 1.000000
vt 0.750000 0.750000
vt 0.874512 0.750000
vt 0.625000 0.375000
vt 0.750000 0.375000
vt 0.750000 0.750000
vt 0.625000 0.750000
vt 0.625000 0.375000
vt 0.750000 0.750000
vt 0.625000 1.000000
vt 0.625000 0.750000
vt 0.750000 0.750000
vt 0.500000 0.375000
vt 0.625000 0.375000
vt 0.625000 0.750000
vt 0.500000 0.750000
vt 0.500000 0.375000
vt 0.625000 0.750000
vt 0.500000 1.000000
vt 0.500000 0.750000
vt 0.625000 0.750000
vt 0.375000 0.375000
vt 0.500000 0.375000
vt 0.500000 0.750000
vt 0.375000 0.750000
vt 0.375000 0.375000
vt 0.500000 0.750000
vt 0.375000 1.000000
vt 0.375000 0.750000
vt 0.500000 0.750000
vt 0.250000 0.375000
vt 0.375000 0.375000
vt 0.375000 0.750000
vt 0.250000 0.750000
vt 0.250000 0.375000
vt 0.375000 0.750000
vt 0.250000 1.000000
vt 0.250000 0.750000
vt 0.375000 0.750000
vt 0.125000 0.375000
vt 0.250000 0.375000
vt 0.250000 0.750000
vt 0.125000 0.750000
vt 0.125000 0.375000
vt 0.250000 0.750000
vt 0.125000 1.000000
vt 0.125000 0.750000
vt 0.250000 0.750000
vt 0.000000 0.375000
vt 0.125000 0.375000
vt 0.125000 0.750000
vt 0.000000 0.750000
vt 0.000000 0.375000
vt 0.125000 0.750000
vt 0.000000 1.000000
vt 0.000000 0.750000
vt 0.125000 0.750000
f 1/1/1 2/2/2 3/3/3
f 4/4/4 5/5/5 6/6/6
f 7/7/7 8/8/8 9/9/9
f 10/10/10 11/11/11 12/12/12
f 13/13/13 14/14/14 15/15/15
f 16/16/16 17/17/17 18/18/18
f 19/19/19 20/20/20 21/21/21
f 22/22/22 23/23/23 24/24/24
f 25/25/25 26/26/26 27/27/27
f 28/28/28 29/29/29 30/30/30
f 31/31/31 32/32/32 33/33/33
f 34/34/34 35/35/35 36/36/36
f 37/37/37 38/38/38 39/39/39
f 40/40/40 41/41/41 42/42/42
f 43/43/43 44/44/44 45/45/45
f 46/46/46 47/47/47 48/48/48
f 49/49/49 50/50/50 51/51/51
f 52/52/52 53/53/53 54/54/54
f 55/55/55 56/56/56 57/57/57
f 58/58/58 59/59/59 60/60/60
f 61/61/61 62/62/62 63/63/63
f 64/64/64 65/65/65 66/66/66
f 67/67/67 68/68/68 69/69/69
f 70/70/70 71/71/71 72/72/72
