# OBJ file
v 367.694366 -275.710571 420.469696
v 366.954559 -275.607452 420.732880
v 368.294220 -274.421295 422.491669
v 368.724640 -274.729004 421.891510
v 367.694366 -275.710571 420.469696
v 368.294220 -274.421295 422.491669
v 368.724640 -274.729004 421.891510
v 368.294220 -274.421295 422.491669
v 368.780884 -274.396149 422.725189
v 367.773315 -276.343231 420.939514
v 367.694366 -275.710571 420.469696
v 368.724640 -274.729004 421.891510
v 369.019165 -274.714142 422.032898
v 368.724640 -274.729004 421.891510
v 368.780884 -274.396149 422.725189
v 369.019165 -274.714142 422.032898
v 368.780884 -274.396149 422.725189
v 369.342987 -274.478058 422.871674
v 368.665131 -275.453217 422.210510
v 367.773315 -276.343231 420.939514
v 368.724640 -274.729004 421.891510
v 368.665131 -275.453217 422.210510
v 368.724640 -274.729004 421.891510
v 369.019165 -274.714142 422.032898
v 367.312286 -276.278961 421.103485
v 367.773315 -276.343231 420.939514
v 368.665131 -275.453217 422.210510
v 369.421753 -274.772827 422.137787
v 369.019165 -274.714142 422.032898
v 369.342987 -274.478058 422.871674
v 369.421753 -274.772827 422.137787
v 369.342987 -274.478058 422.871674
v 370.001862 -274.656494 422.951843
v 368.879456 -275.442322 422.313812
v 368.665131 -275.453217 422.210510
v 369.019165 -274.714142 422.032898
v 368.879456 -275.442322 422.313812
v 369.019165 -274.714142 422.032898
v 369.421753 -274.772827 422.137787
v 368.395233 -275.260284 422.586792
v 367.312286 -276.278961 421.103485
v 368.665131 -275.453217 422.210510
v 368.395233 -275.260284 422.586792
v 368.665131 -275.453217 422.210510
v 368.879456 -275.442322 422.313812
v 369.933472 -274.911102 422.200012
v 369.421753 -274.772827 422.137787
v 370.001862 -274.656494 422.951843
v 369.933472 -274.911102 422.200012
v 370.001862 -274.656494 422.951843
v 370.698181 -274.979095 422.908997
v 369.221344 -275.492126 422.402924
v 368.879456 -275.442322 422.313812
v 369.421753 -274.772827 422.137787
v 369.221344 -275.492126 422.402924
v 369.421753 -274.772827 422.137787
v 369.933472 -274.911102 422.200012
v 368.730255 -275.243164 422.747314
v 368.395233 -275.260284 422.586792
v 368.879456 -275.442322 422.313812
v 368.730255 -275.243164 422.747314
v 368.879456 -275.442322 422.313812
v 369.221344 -275.492126 422.402924
v 367.312286 -276.278961 421.103485
v 368.395233 -275.260284 422.586792
v 368.257050 -274.873199 422.690643
v 367.003754 -276.001740 421.025665
v 367.312286 -276.278961 421.103485
v 368.257050 -274.873199 422.690643
v 366.954559 -275.607452 420.732880
v 367.003754 -276.001740 421.025665
v 368.257050 -274.873199 422.690643
v 368.294220 -274.421295 422.491669
v 366.954559 -275.607452 420.732880
v 368.257050 -274.873199 422.690643
v 368.257050 -274.873199 422.690643
v 368.395233 -275.260284 422.586792
v 368.693787 -274.850250 422.900391
v 368.294220 -274.421295 422.491669
v 368.257050 -274.873199 422.690643
v 368.693787 -274.850250 422.900391
v 368.395233 -275.260284 422.586792
v 368.730255 -275.243164 422.747314
v 368.693787 -274.850250 422.900391
v 368.780884 -274.396149 422.725189
v 368.294220 -274.421295 422.491669
v 368.693787 -274.850250 422.900391
v 368.780884 -274.396149 422.725189
v 368.693787 -274.850250 422.900391
v 369.218018 -274.926483 423.036957
v 368.693787 -274.850250 422.900391
v 368.730255 -275.243164 422.747314
v 369.218018 -274.926483 423.036957
v 369.342987 -274.478058 422.871674
v 368.780884 -274.396149 422.725189
v 369.218018 -274.926483 423.036957
v 368.730255 -275.243164 422.747314
v 369.172150 -275.308044 422.861237
v 369.218018 -274.926483 423.036957
v 369.172150 -275.308044 422.861237
v 368.730255 -275.243164 422.747314
v 369.221344 -275.492126 422.402924
v 369.342987 -274.478058 422.871674
v 369.218018 -274.926483 423.036957
v 369.837158 -275.094452 423.112213
v 369.218018 -274.926483 423.036957
v 369.172150 -275.308044 422.861237
v 369.837158 -275.094452 423.112213
v 370.001862 -274.656494 422.951843
v 369.342987 -274.478058 422.871674
v 369.837158 -275.094452 423.112213
v 369.172150 -275.308044 422.861237
v 369.221344 -275.492126 422.402924
v 369.669434 -275.613281 422.457123
v 369.669434 -275.613281 422.457123
v 369.221344 -275.492126 422.402924
v 369.933472 -274.911102 422.200012
v 369.172150 -275.308044 422.861237
v 369.712189 -275.454041 422.927307
v 369.837158 -275.094452 423.112213
v 369.712189 -275.454041 422.927307
v 369.172150 -275.308044 422.861237
v 369.669434 -275.613281 422.457123
v 370.001862 -274.656494 422.951843
v 369.837158 -275.094452 423.112213
v 370.470947 -275.388916 423.073273
v 369.837158 -275.094452 423.112213
v 369.712189 -275.454041 422.927307
v 370.470947 -275.388916 423.073273
v 370.698181 -274.979095 422.908997
v 370.001862 -274.656494 422.951843
v 370.470947 -275.388916 423.073273
v 369.669434 -275.613281 422.457123
v 369.933472 -274.911102 422.200012
v 370.428192 -275.140045 422.169556
v 370.428192 -275.140045 422.169556
v 369.933472 -274.911102 422.200012
v 370.698181 -274.979095 422.908997
v 370.428192 -275.140045 422.169556
v 370.698181 -274.979095 422.908997
v 371.301361 -275.506439 422.649109
v 370.698181 -274.979095 422.908997
v 370.470947 -275.388916 423.073273
v 370.998962 -275.852020 422.845764
v 371.301361 -275.506439 422.649109
v 370.698181 -274.979095 422.908997
v 370.998962 -275.852020 422.845764
v 370.801392 -275.466095 422.008789
v 370.428192 -275.140045 422.169556
v 371.301361 -275.506439 422.649109
v 370.801392 -275.466095 422.008789
v 371.301361 -275.506439 422.649109
v 371.582886 -276.225403 422.113129
v 370.064392 -275.796112 422.432526
v 369.669434 -275.613281 422.457123
v 370.428192 -275.140045 422.169556
v 370.064392 -275.796112 422.432526
v 370.428192 -275.140045 422.169556
v 370.801392 -275.466095 422.008789
v 369.712189 -275.454041 422.927307
v 369.669434 -275.613281 422.457123
v 370.064392 -275.796112 422.432526
v 370.985168 -275.929779 421.661530
v 370.801392 -275.466095 422.008789
v 371.582886 -276.225403 422.113129
v 370.985168 -275.929779 421.661530
v 371.582886 -276.225403 422.113129
v 371.422760 -277.141663 421.331116
v 370.318390 -276.018097 422.322876
v 370.064392 -275.796112 422.432526
v 370.801392 -275.466095 422.008789
v 370.318390 -276.018097 422.322876
v 370.801392 -275.466095 422.008789
v 370.985168 -275.929779 421.661530
v 370.234131 -275.694977 422.897400
v 369.712189 -275.454041 422.927307
v 370.064392 -275.796112 422.432526
v 370.234131 -275.694977 422.897400
v 370.064392 -275.796112 422.432526
v 370.318390 -276.018097 422.322876
v 369.712189 -275.454041 422.927307
v 370.234131 -275.694977 422.897400
v 370.470947 -275.388916 423.073273
v 370.470947 -275.388916 423.073273
v 370.234131 -275.694977 422.897400
v 370.998962 -275.852020 422.845764
v 370.634949 -276.043640 422.728333
v 370.234131 -275.694977 422.897400
v 370.318390 -276.018097 422.322876
v 370.234131 -275.694977 422.897400
v 370.634949 -276.043640 422.728333
v 370.998962 -275.852020 422.845764
v 370.441193 -276.330414 422.086731
v 370.318390 -276.018097 422.322876
v 370.985168 -275.929779 421.661530
v 370.634949 -276.043640 422.728333
v 370.318390 -276.018097 422.322876
v 370.441193 -276.330414 422.086731
v 370.850769 -276.699341 421.004517
v 370.985168 -275.929779 421.661530
v 371.422760 -277.141663 421.331116
v 370.441193 -276.330414 422.086731
v 370.985168 -275.929779 421.661530
v 370.850769 -276.699341 421.004517
v 370.850769 -276.699341 421.004517
v 371.422760 -277.141663 421.331116
v 370.083832 -280.296753 418.291687
v 370.998962 -275.852020 422.845764
v 370.634949 -276.043640 422.728333
v 371.242310 -276.476288 422.379395
v 371.301361 -275.506439 422.649109
v 370.998962 -275.852020 422.845764
v 371.242310 -276.476288 422.379395
v 371.582886 -276.225403 422.113129
v 371.301361 -275.506439 422.649109
v 371.242310 -276.476288 422.379395
v 370.817505 -276.516510 422.371002
v 370.634949 -276.043640 422.728333
v 370.441193 -276.330414 422.086731
v 370.634949 -276.043640 422.728333
v 370.817505 -276.516510 422.371002
v 371.242310 -276.476288 422.379395
v 371.582886 -276.225403 422.113129
v 371.242310 -276.476288 422.379395
v 371.094604 -277.327911 421.650421
v 371.242310 -276.476288 422.379395
v 370.817505 -276.516510 422.371002
v 371.094604 -277.327911 421.650421
v 371.422760 -277.141663 421.331116
v 371.582886 -276.225403 422.113129
v 371.094604 -277.327911 421.650421
v 370.817505 -276.516510 422.371002
v 370.441193 -276.330414 422.086731
v 370.324463 -276.998016 421.516571
v 370.324463 -276.998016 421.516571
v 370.441193 -276.330414 422.086731
v 370.850769 -276.699341 421.004517
v 370.817505 -276.516510 422.371002
v 370.681335 -277.273987 421.720337
v 371.094604 -277.327911 421.650421
v 370.681335 -277.273987 421.720337
v 370.817505 -276.516510 422.371002
v 370.324463 -276.998016 421.516571
v 371.422760 -277.141663 421.331116
v 371.094604 -277.327911 421.650421
v 369.739136 -280.518738 418.572662
v 371.094604 -277.327911 421.650421
v 370.681335 -277.273987 421.720337
v 369.739136 -280.518738 418.572662
v 370.083832 -280.296753 418.291687
v 371.422760 -277.141663 421.331116
v 369.739136 -280.518738 418.572662
v 370.324463 -276.998016 421.516571
v 370.850769 -276.699341 421.004517
v 369.542145 -279.778717 418.035858
v 369.542145 -279.778717 418.035858
v 370.850769 -276.699341 421.004517
v 370.083832 -280.296753 418.291687
v 369.542145 -279.778717 418.035858
v 370.083832 -280.296753 418.291687
v 369.971741 -280.603577 417.918335
v 368.990509 -280.133972 418.485565
v 370.324463 -276.998016 421.516571
v 369.542145 -279.778717 418.035858
v 370.681335 -277.273987 421.720337
v 370.324463 -276.998016 421.516571
v 368.990509 -280.133972 418.485565
v 369.432495 -280.078705 417.670776
v 369.542145 -279.778717 418.035858
v 369.971741 -280.603577 417.918335
v 368.990509 -280.133972 418.485565
v 369.542145 -279.778717 418.035858
v 369.432495 -280.078705 417.670776
v 369.432495 -280.078705 417.670776
v 369.971741 -280.603577 417.918335
v 369.924500 -280.849304 417.497620
v 369.328064 -280.456787 418.644989
v 370.681335 -277.273987 421.720337
v 368.990509 -280.133972 418.485565
v 370.681335 -277.273987 421.720337
v 369.328064 -280.456787 418.644989
v 369.739136 -280.518738 418.572662
v 368.847473 -280.525391 418.009094
v 368.990509 -280.133972 418.485565
v 369.432495 -280.078705 417.670776
v 369.328064 -280.456787 418.644989
v 368.990509 -280.133972 418.485565
v 368.847473 -280.525391 418.009094
v 369.386688 -280.318634 417.259491
v 369.432495 -280.078705 417.670776
v 369.924500 -280.849304 417.497620
v 368.847473 -280.525391 418.009094
v 369.432495 -280.078705 417.670776
v 369.386688 -280.318634 417.259491
v 369.386688 -280.318634 417.259491
v 369.924500 -280.849304 417.497620
v 369.951111 -280.952606 417.205688
v 369.183502 -280.852509 418.163330
v 369.328064 -280.456787 418.644989
v 368.847473 -280.525391 418.009094
v 369.411804 -280.413025 416.991119
v 369.386688 -280.318634 417.259491
v 369.951111 -280.952606 417.205688
v 369.411804 -280.413025 416.991119
v 369.951111 -280.952606 417.205688
v 370.044128 -280.972565 416.907837
v 368.787262 -280.838348 417.472260
v 368.847473 -280.525391 418.009094
v 369.386688 -280.318634 417.259491
v 368.787262 -280.838348 417.472260
v 369.386688 -280.318634 417.259491
v 369.411804 -280.413025 416.991119
v 369.183502 -280.852509 418.163330
v 368.847473 -280.525391 418.009094
v 368.787262 -280.838348 417.472260
v 369.497894 -280.430786 416.717316
v 369.411804 -280.413025 416.991119
v 370.044128 -280.972565 416.907837
v 369.497894 -280.430786 416.717316
v 370.044128 -280.972565 416.907837
v 370.367920 -280.821808 416.292023
v 368.829834 -281.001923 417.004974
v 368.787262 -280.838348 417.472260
v 369.411804 -280.413025 416.991119
v 368.829834 -281.001923 417.004974
v 369.411804 -280.413025 416.991119
v 369.497894 -280.430786 416.717316
v 369.122467 -281.169098 417.620697
v 369.183502 -280.852509 418.163330
v 368.787262 -280.838348 417.472260
v 369.122467 -281.169098 417.620697
v 368.787262 -280.838348 417.472260
v 368.829834 -281.001923 417.004974
v 369.328064 -280.456787 418.644989
v 369.183502 -280.852509 418.163330
v 369.602570 -280.885864 418.131012
v 369.183502 -280.852509 418.163330
v 369.122467 -281.169098 417.620697
v 369.602570 -280.885864 418.131012
v 369.739136 -280.518738 418.572662
v 369.328064 -280.456787 418.644989
v 369.602570 -280.885864 418.131012
v 370.083832 -280.296753 418.291687
v 369.739136 -280.518738 418.572662
v 369.602570 -280.885864 418.131012
v 369.971741 -280.603577 417.918335
v 370.083832 -280.296753 418.291687
v 369.602570 -280.885864 418.131012
v 369.971741 -280.603577 417.918335
v 369.602570 -280.885864 418.131012
v 369.542816 -281.180176 417.633087
v 369.122467 -281.169098 417.620697
v 369.542816 -281.180176 417.633087
v 369.602570 -280.885864 418.131012
v 369.924500 -280.849304 417.497620
v 369.971741 -280.603577 417.918335
v 369.542816 -281.180176 417.633087
v 369.924500 -280.849304 417.497620
v 369.542816 -281.180176 417.633087
v 369.580322 -281.327698 417.214722
v 369.542816 -281.180176 417.633087
v 369.122467 -281.169098 417.620697
v 369.580322 -281.327698 417.214722
v 369.951111 -280.952606 417.205688
v 369.924500 -280.849304 417.497620
v 369.580322 -281.327698 417.214722
v 369.122467 -281.169098 417.620697
v 369.166077 -281.338318 417.138733
v 369.580322 -281.327698 417.214722
v 369.166077 -281.338318 417.138733
v 369.122467 -281.169098 417.620697
v 368.829834 -281.001923 417.004974
v 369.951111 -280.952606 417.205688
v 369.580322 -281.327698 417.214722
v 369.714508 -281.354309 416.787811
v 370.044128 -280.972565 416.907837
v 369.951111 -280.952606 417.205688
v 369.714508 -281.354309 416.787811
v 369.166077 -281.338318 417.138733
v 369.319153 -281.370056 416.647003
v 369.580322 -281.327698 417.214722
v 369.319153 -281.370056 416.647003
v 369.714508 -281.354309 416.787811
v 369.580322 -281.327698 417.214722
v 369.166077 -281.338318 417.138733
v 368.829834 -281.001923 417.004974
v 368.978607 -281.032257 416.528229
v 369.319153 -281.370056 416.647003
v 369.166077 -281.338318 417.138733
v 368.978607 -281.032257 416.528229
v 368.978607 -281.032257 416.528229
v 368.829834 -281.001923 417.004974
v 369.497894 -280.430786 416.717316
v 370.044128 -280.972565 416.907837
v 369.714508 -281.354309 416.787811
v 370.123352 -281.160614 416.021576
v 369.714508 -281.354309 416.787811
v 369.319153 -281.370056 416.647003
v 370.123352 -281.160614 416.021576
v 370.367920 -280.821808 416.292023
v 370.044128 -280.972565 416.907837
v 370.123352 -281.160614 416.021576
v 368.978607 -281.032257 416.528229
v 369.497894 -280.430786 416.717316
v 369.802063 -280.289215 416.138885
v 369.802063 -280.289215 416.138885
v 369.497894 -280.430786 416.717316
v 370.367920 -280.821808 416.292023
v 369.802063 -280.289215 416.138885
v 370.367920 -280.821808 416.292023
v 371.259552 -280.206329 415.018921
v 370.367920 -280.821808 416.292023
v 370.123352 -281.160614 416.021576
v 370.996155 -280.558533 414.772858
v 371.259552 -280.206329 415.018921
v 370.367920 -280.821808 416.292023
v 370.996155 -280.558533 414.772858
v 370.700562 -279.669098 414.855774
v 369.802063 -280.289215 416.138885
v 371.259552 -280.206329 415.018921
v 370.700562 -279.669098 414.855774
v 371.259552 -280.206329 415.018921
v 371.553192 -280.133392 414.358704
v 369.410828 -280.831116 415.706329
v 368.978607 -281.032257 416.528229
v 369.802063 -280.289215 416.138885
v 369.410828 -280.831116 415.706329
v 369.802063 -280.289215 416.138885
v 370.700562 -279.669098 414.855774
v 369.319153 -281.370056 416.647003
v 368.978607 -281.032257 416.528229
v 369.410828 -280.831116 415.706329
v 371.036407 -279.584137 414.104523
v 370.700562 -279.669098 414.855774
v 371.553192 -280.133392 414.358704
v 371.036407 -279.584137 414.104523
v 371.553192 -280.133392 414.358704
v 371.591888 -280.452057 413.795227
v 370.281189 -280.229889 414.463989
v 369.410828 -280.831116 415.706329
v 370.700562 -279.669098 414.855774
v 370.281189 -280.229889 414.463989
v 370.700562 -279.669098 414.855774
v 371.036407 -279.584137 414.104523
v 369.763489 -281.163086 415.801727
v 369.319153 -281.370056 416.647003
v 369.410828 -280.831116 415.706329
v 369.763489 -281.163086 415.801727
v 369.410828 -280.831116 415.706329
v 370.281189 -280.229889 414.463989
v 369.319153 -281.370056 416.647003
v 369.763489 -281.163086 415.801727
v 370.123352 -281.160614 416.021576
v 370.123352 -281.160614 416.021576
v 369.763489 -281.163086 415.801727
v 370.996155 -280.558533 414.772858
v 370.629639 -280.564758 414.565674
v 369.763489 -281.163086 415.801727
v 370.281189 -280.229889 414.463989
v 369.763489 -281.163086 415.801727
v 370.629639 -280.564758 414.565674
v 370.996155 -280.558533 414.772858
v 370.450806 -280.185181 414.082397
v 370.281189 -280.229889 414.463989
v 371.036407 -279.584137 414.104523
v 370.629639 -280.564758 414.565674
v 370.281189 -280.229889 414.463989
v 370.450806 -280.185181 414.082397
v 371.084778 -279.967957 413.422485
v 371.036407 -279.584137 414.104523
v 371.591888 -280.452057 413.795227
v 370.450806 -280.185181 414.082397
v 371.036407 -279.584137 414.104523
v 371.084778 -279.967957 413.422485
v 371.084778 -279.967957 413.422485
v 371.591888 -280.452057 413.795227
v 371.365234 -281.176727 413.219208
v 370.996155 -280.558533 414.772858
v 370.629639 -280.564758 414.565674
v 371.175751 -280.520752 414.344543
v 371.259552 -280.206329 415.018921
v 370.996155 -280.558533 414.772858
v 371.175751 -280.520752 414.344543
v 371.553192 -280.133392 414.358704
v 371.259552 -280.206329 415.018921
v 371.175751 -280.520752 414.344543
v 370.773804 -280.528473 414.241333
v 370.629639 -280.564758 414.565674
v 370.450806 -280.185181 414.082397
v 370.629639 -280.564758 414.565674
v 370.773804 -280.528473 414.241333
v 371.175751 -280.520752 414.344543
v 371.553192 -280.133392 414.358704
v 371.175751 -280.520752 414.344543
v 371.205414 -280.695648 414.019897
v 371.175751 -280.520752 414.344543
v 370.773804 -280.528473 414.241333
v 371.205414 -280.695648 414.019897
v 371.591888 -280.452057 413.795227
v 371.553192 -280.133392 414.358704
v 371.205414 -280.695648 414.019897
v 370.773804 -280.528473 414.241333
v 370.450806 -280.185181 414.082397
v 370.471741 -280.354309 413.778809
v 370.471741 -280.354309 413.778809
v 370.450806 -280.185181 414.082397
v 371.084778 -279.967957 413.422485
v 370.773804 -280.528473 414.241333
v 370.788239 -280.656464 414.011475
v 371.205414 -280.695648 414.019897
v 370.788239 -280.656464 414.011475
v 370.773804 -280.528473 414.241333
v 370.471741 -280.354309 413.778809
v 371.591888 -280.452057 413.795227
v 371.205414 -280.695648 414.019897
v 371.004822 -281.305145 413.537659
v 371.205414 -280.695648 414.019897
v 370.788239 -280.656464 414.011475
v 371.004822 -281.305145 413.537659
v 371.365234 -281.176727 413.219208
v 371.591888 -280.452057 413.795227
v 371.004822 -281.305145 413.537659
v 370.471741 -280.354309 413.778809
v 371.084778 -279.967957 413.422485
v 370.846985 -280.742584 412.806549
v 370.846985 -280.742584 412.806549
v 371.084778 -279.967957 413.422485
v 371.365234 -281.176727 413.219208
v 370.846985 -280.742584 412.806549
v 371.365234 -281.176727 413.219208
v 371.081818 -281.894653 412.794952
v 371.365234 -281.176727 413.219208
v 371.004822 -281.305145 413.537659
v 370.765259 -281.923279 413.173096
v 371.081818 -281.894653 412.794952
v 371.365234 -281.176727 413.219208
v 370.765259 -281.923279 413.173096
v 370.623657 -281.333893 412.458191
v 370.846985 -280.742584 412.806549
v 371.081818 -281.894653 412.794952
v 370.623657 -281.333893 412.458191
v 371.081818 -281.894653 412.794952
v 370.695038 -282.332611 412.434021
v 370.270569 -280.948029 413.315918
v 370.471741 -280.354309 413.778809
v 370.846985 -280.742584 412.806549
v 370.270569 -280.948029 413.315918
v 370.846985 -280.742584 412.806549
v 370.623657 -281.333893 412.458191
v 370.788239 -280.656464 414.011475
v 370.471741 -280.354309 413.778809
v 370.270569 -280.948029 413.315918
v 370.394440 -281.611206 412.230316
v 370.623657 -281.333893 412.458191
v 370.695038 -282.332611 412.434021
v 370.394440 -281.611206 412.230316
v 370.695038 -282.332611 412.434021
v 370.243042 -282.511688 412.175415
v 370.115845 -281.379822 413.064728
v 370.270569 -280.948029 413.315918
v 370.623657 -281.333893 412.458191
v 370.115845 -281.379822 413.064728
v 370.623657 -281.333893 412.458191
v 370.394440 -281.611206 412.230316
v 370.593536 -281.218597 413.573120
v 370.788239 -280.656464 414.011475
v 370.270569 -280.948029 413.315918
v 370.593536 -281.218597 413.573120
v 370.270569 -280.948029 413.315918
v 370.115845 -281.379822 413.064728
v 370.788239 -280.656464 414.011475
v 370.593536 -281.218597 413.573120
v 371.004822 -281.305145 413.537659
v 371.004822 -281.305145 413.537659
v 370.593536 -281.218597 413.573120
v 370.765259 -281.923279 413.173096
v 370.402832 -281.731049 413.275665
v 370.593536 -281.218597 413.573120
v 370.115845 -281.379822 413.064728
v 370.593536 -281.218597 413.573120
v 370.402832 -281.731049 413.275665
v 370.765259 -281.923279 413.173096
v 369.925568 -281.617493 412.869659
v 370.115845 -281.379822 413.064728
v 370.394440 -281.611206 412.230316
v 370.402832 -281.731049 413.275665
v 370.115845 -281.379822 413.064728
v 369.925568 -281.617493 412.869659
v 370.152069 -281.721771 412.105469
v 370.394440 -281.611206 412.230316
v 370.243042 -282.511688 412.175415
v 369.925568 -281.617493 412.869659
v 370.394440 -281.611206 412.230316
v 370.152069 -281.721771 412.105469
v 370.152069 -281.721771 412.105469
v 370.243042 -282.511688 412.175415
v 369.759705 -282.519836 411.956970
v 370.765259 -281.923279 413.173096
v 370.402832 -281.731049 413.275665
v 370.402649 -282.336517 412.832764
v 371.081818 -281.894653 412.794952
v 370.765259 -281.923279 413.173096
v 370.402649 -282.336517 412.832764
v 370.695038 -282.332611 412.434021
v 371.081818 -281.894653 412.794952
v 370.402649 -282.336517 412.832764
v 370.115112 -282.072327 412.998169
v 370.402832 -281.731049 413.275665
v 369.925568 -281.617493 412.869659
v 370.402832 -281.731049 413.275665
v 370.115112 -282.072327 412.998169
v 370.402649 -282.336517 412.832764
v 370.695038 -282.332611 412.434021
v 370.402649 -282.336517 412.832764
v 370.002106 -282.495880 412.608948
v 370.402649 -282.336517 412.832764
v 370.115112 -282.072327 412.998169
v 370.002106 -282.495880 412.608948
v 370.243042 -282.511688 412.175415
v 370.695038 -282.332611 412.434021
v 370.002106 -282.495880 412.608948
v 370.115112 -282.072327 412.998169
v 369.925568 -281.617493 412.869659
v 369.766266 -281.696503 412.799683
v 369.766266 -281.696503 412.799683
v 369.925568 -281.617493 412.869659
v 370.152069 -281.721771 412.105469
v 370.115112 -282.072327 412.998169
v 369.823212 -282.191071 412.843475
v 370.002106 -282.495880 412.608948
v 369.823212 -282.191071 412.843475
v 370.115112 -282.072327 412.998169
v 369.766266 -281.696503 412.799683
v 370.243042 -282.511688 412.175415
v 370.002106 -282.495880 412.608948
v 369.587952 -282.502869 412.421478
v 370.002106 -282.495880 412.608948
v 369.823212 -282.191071 412.843475
v 369.587952 -282.502869 412.421478
v 369.759705 -282.519836 411.956970
v 370.243042 -282.511688 412.175415
v 369.587952 -282.502869 412.421478
v 369.766266 -281.696503 412.799683
v 370.152069 -281.721771 412.105469
v 369.837616 -281.727081 411.963287
v 369.837616 -281.727081 411.963287
v 370.152069 -281.721771 412.105469
v 369.759705 -282.519836 411.956970
v 369.837616 -281.727081 411.963287
v 369.759705 -282.519836 411.956970
v 369.247314 -282.409149 411.804718
v 369.759705 -282.519836 411.956970
v 369.587952 -282.502869 412.421478
v 369.134033 -282.404785 412.286285
v 369.247314 -282.409149 411.804718
v 369.759705 -282.519836 411.956970
v 369.134033 -282.404785 412.286285
v 369.467987 -281.647247 411.853516
v 369.837616 -281.727081 411.963287
v 369.247314 -282.409149 411.804718
v 369.467987 -281.647247 411.853516
v 369.247314 -282.409149 411.804718
v 368.183533 -281.912079 411.666412
v 368.553192 -281.215302 411.737549
v 369.467987 -281.647247 411.853516
v 368.183533 -281.912079 411.666412
v 368.183533 -281.912079 411.666412
v 369.247314 -282.409149 411.804718
v 368.131195 -281.934357 412.156647
v 369.247314 -282.409149 411.804718
v 369.134033 -282.404785 412.286285
v 368.131195 -281.934357 412.156647
v 369.286377 -281.640289 412.625549
v 369.467987 -281.647247 411.853516
v 368.553192 -281.215302 411.737549
v 368.469116 -281.250977 412.524170
v 369.286377 -281.640289 412.625549
v 368.553192 -281.215302 411.737549
v 369.562439 -281.699921 412.707581
v 369.837616 -281.727081 411.963287
v 369.467987 -281.647247 411.853516
v 369.286377 -281.640289 412.625549
v 369.562439 -281.699921 412.707581
v 369.467987 -281.647247 411.853516
v 369.562439 -281.699921 412.707581
v 369.766266 -281.696503 412.799683
v 369.837616 -281.727081 411.963287
v 369.823212 -282.191071 412.843475
v 369.766266 -281.696503 412.799683
v 369.562439 -281.699921 412.707581
v 369.148560 -282.116089 412.595062
v 369.286377 -281.640289 412.625549
v 368.469116 -281.250977 412.524170
v 368.238800 -281.685242 412.479919
v 369.148560 -282.116089 412.595062
v 368.469116 -281.250977 412.524170
v 369.148560 -282.116089 412.595062
v 368.238800 -281.685242 412.479919
v 368.131195 -281.934357 412.156647
v 369.134033 -282.404785 412.286285
v 369.148560 -282.116089 412.595062
v 368.131195 -281.934357 412.156647
v 369.513733 -282.195709 412.703552
v 369.562439 -281.699921 412.707581
v 369.286377 -281.640289 412.625549
v 369.148560 -282.116089 412.595062
v 369.513733 -282.195709 412.703552
v 369.286377 -281.640289 412.625549
v 369.513733 -282.195709 412.703552
v 369.823212 -282.191071 412.843475
v 369.562439 -281.699921 412.707581
v 369.513733 -282.195709 412.703552
v 369.148560 -282.116089 412.595062
v 369.134033 -282.404785 412.286285
v 369.823212 -282.191071 412.843475
v 369.513733 -282.195709 412.703552
v 369.587952 -282.502869 412.421478
v 369.587952 -282.502869 412.421478
v 369.513733 -282.195709 412.703552
v 369.134033 -282.404785 412.286285
vt 0.600586 0.567383
vt 0.595703 0.567383
vt 0.595703 0.596191
vt 0.600586 0.596191
vt 0.600586 0.567383
vt 0.595703 0.596191
vt 0.600586 0.596191
vt 0.595703 0.596191
vt 0.595703 0.601318
vt 0.605957 0.567383
vt 0.600586 0.567383
vt 0.600586 0.596191
vt 0.600586 0.601318
vt 0.600586 0.596191
vt 0.595703 0.601318
vt 0.600586 0.601318
vt 0.595703 0.601318
vt 0.595703 0.607422
vt 0.605957 0.596191
vt 0.605957 0.567383
vt 0.600586 0.596191
vt 0.605957 0.596191
vt 0.600586 0.596191
vt 0.600586 0.601318
vt 0.609375 0.567383
vt 0.605957 0.567383
vt 0.605957 0.596191
vt 0.600586 0.607422
vt 0.600586 0.601318
vt 0.595703 0.607422
vt 0.600586 0.607422
vt 0.595703 0.607422
vt 0.595703 0.614990
vt 0.605957 0.601318
vt 0.605957 0.596191
vt 0.600586 0.601318
vt 0.605957 0.601318
vt 0.600586 0.601318
vt 0.600586 0.607422
vt 0.609375 0.596191
vt 0.609375 0.567383
vt 0.605957 0.596191
vt 0.609375 0.596191
vt 0.605957 0.596191
vt 0.605957 0.601318
vt 0.600586 0.614990
vt 0.600586 0.607422
vt 0.595703 0.614990
vt 0.600586 0.614990
vt 0.595703 0.614990
vt 0.595703 0.622803
vt 0.605957 0.607422
vt 0.605957 0.601318
vt 0.600586 0.607422
vt 0.605957 0.607422
vt 0.600586 0.607422
vt 0.600586 0.614990
vt 0.609375 0.601318
vt 0.609375 0.596191
vt 0.605957 0.601318
vt 0.609375 0.601318
vt 0.605957 0.601318
vt 0.605957 0.607422
vt 0.609375 0.567383
vt 0.609375 0.596191
vt 0.613281 0.596191
vt 0.613281 0.567383
vt 0.609375 0.567383
vt 0.613281 0.596191
vt 0.616699 0.567383
vt 0.613281 0.567383
vt 0.613281 0.596191
vt 0.616699 0.596191
vt 0.616699 0.567383
vt 0.613281 0.596191
vt 0.613281 0.596191
vt 0.609375 0.596191
vt 0.613281 0.601318
vt 0.616699 0.596191
vt 0.613281 0.596191
vt 0.613281 0.601318
vt 0.609375 0.596191
vt 0.609375 0.601318
vt 0.613281 0.601318
vt 0.616699 0.601318
vt 0.616699 0.596191
vt 0.613281 0.601318
vt 0.616699 0.601318
vt 0.613281 0.601318
vt 0.613281 0.607422
vt 0.613281 0.601318
vt 0.609375 0.601318
vt 0.613281 0.607422
vt 0.616699 0.607422
vt 0.616699 0.601318
vt 0.613281 0.607422
vt 0.609375 0.601318
vt 0.609375 0.607422
vt 0.613281 0.607422
vt 0.609375 0.607422
vt 0.609375 0.601318
vt 0.605957 0.607422
vt 0.616699 0.607422
vt 0.613281 0.607422
vt 0.613281 0.614990
vt 0.613281 0.607422
vt 0.609375 0.607422
vt 0.613281 0.614990
vt 0.616699 0.614990
vt 0.616699 0.607422
vt 0.613281 0.614990
vt 0.609375 0.607422
vt 0.605957 0.607422
vt 0.605957 0.614990
vt 0.605957 0.614990
vt 0.605957 0.607422
vt 0.600586 0.614990
vt 0.609375 0.607422
vt 0.609375 0.614990
vt 0.613281 0.614990
vt 0.609375 0.614990
vt 0.609375 0.607422
vt 0.605957 0.614990
vt 0.616699 0.614990
vt 0.613281 0.614990
vt 0.613281 0.622803
vt 0.613281 0.614990
vt 0.609375 0.614990
vt 0.613281 0.622803
vt 0.616699 0.622803
vt 0.616699 0.614990
vt 0.613281 0.622803
vt 0.605957 0.614990
vt 0.600586 0.614990
vt 0.600586 0.622803
vt 0.600586 0.622803
vt 0.600586 0.614990
vt 0.595703 0.622803
vt 0.600586 0.622803
vt 0.595703 0.622803
vt 0.595703 0.630615
vt 0.616699 0.622803
vt 0.613281 0.622803
vt 0.613281 0.630615
vt 0.616699 0.630615
vt 0.616699 0.622803
vt 0.613281 0.630615
vt 0.600586 0.630615
vt 0.600586 0.622803
vt 0.595703 0.630615
vt 0.600586 0.630615
vt 0.595703 0.630615
vt 0.595703 0.639648
vt 0.605957 0.622803
vt 0.605957 0.614990
vt 0.600586 0.622803
vt 0.605957 0.622803
vt 0.600586 0.622803
vt 0.600586 0.630615
vt 0.609375 0.614990
vt 0.605957 0.614990
vt 0.605957 0.622803
vt 0.600586 0.639648
vt 0.600586 0.630615
vt 0.595703 0.639648
vt 0.600586 0.639648
vt 0.595703 0.639648
vt 0.595703 0.653320
vt 0.605957 0.630615
vt 0.605957 0.622803
vt 0.600586 0.630615
vt 0.605957 0.630615
vt 0.600586 0.630615
vt 0.600586 0.639648
vt 0.609375 0.622803
vt 0.609375 0.614990
vt 0.605957 0.622803
vt 0.609375 0.622803
vt 0.605957 0.622803
vt 0.605957 0.630615
vt 0.609375 0.614990
vt 0.609375 0.622803
vt 0.613281 0.622803
vt 0.613281 0.622803
vt 0.609375 0.622803
vt 0.613281 0.630615
vt 0.609375 0.630615
vt 0.609375 0.622803
vt 0.605957 0.630615
vt 0.609375 0.622803
vt 0.609375 0.630615
vt 0.613281 0.630615
vt 0.605957 0.639648
vt 0.605957 0.630615
vt 0.600586 0.639648
vt 0.609375 0.630615
vt 0.605957 0.630615
vt 0.605957 0.639648
vt 0.600586 0.653320
vt 0.600586 0.639648
vt 0.595703 0.653320
vt 0.605957 0.639648
vt 0.600586 0.639648
vt 0.600586 0.653320
vt 0.600586 0.653320
vt 0.595703 0.653320
vt 0.595703 0.713379
vt 0.613281 0.630615
vt 0.609375 0.630615
vt 0.613281 0.639648
vt 0.616699 0.630615
vt 0.613281 0.630615
vt 0.613281 0.639648
vt 0.616699 0.639648
vt 0.616699 0.630615
vt 0.613281 0.639648
vt 0.609375 0.639648
vt 0.609375 0.630615
vt 0.605957 0.639648
vt 0.609375 0.630615
vt 0.609375 0.639648
vt 0.613281 0.639648
vt 0.616699 0.639648
vt 0.613281 0.639648
vt 0.613281 0.653320
vt 0.613281 0.639648
vt 0.609375 0.639648
vt 0.613281 0.653320
vt 0.616699 0.653320
vt 0.616699 0.639648
vt 0.613281 0.653320
vt 0.609375 0.639648
vt 0.605957 0.639648
vt 0.605957 0.653320
vt 0.605957 0.653320
vt 0.605957 0.639648
vt 0.600586 0.653320
vt 0.609375 0.639648
vt 0.609375 0.653320
vt 0.613281 0.653320
vt 0.609375 0.653320
vt 0.609375 0.639648
vt 0.605957 0.653320
vt 0.616699 0.653320
vt 0.613281 0.653320
vt 0.613281 0.713379
vt 0.613281 0.653320
vt 0.609375 0.653320
vt 0.613281 0.713379
vt 0.616699 0.713379
vt 0.616699 0.653320
vt 0.613281 0.713379
vt 0.605957 0.653320
vt 0.600586 0.653320
vt 0.600586 0.713379
vt 0.600586 0.713379
vt 0.600586 0.653320
vt 0.595703 0.713379
vt 0.600586 0.713379
vt 0.595703 0.713379
vt 0.595703 0.720703
vt 0.605957 0.713379
vt 0.605957 0.653320
vt 0.600586 0.713379
vt 0.609375 0.653320
vt 0.605957 0.653320
vt 0.605957 0.713379
vt 0.600586 0.720703
vt 0.600586 0.713379
vt 0.595703 0.720703
vt 0.605957 0.713379
vt 0.600586 0.713379
vt 0.600586 0.720703
vt 0.600586 0.720703
vt 0.595703 0.720703
vt 0.595703 0.728027
vt 0.609375 0.713379
vt 0.609375 0.653320
vt 0.605957 0.713379
vt 0.609375 0.653320
vt 0.609375 0.713379
vt 0.613281 0.713379
vt 0.605957 0.720703
vt 0.605957 0.713379
vt 0.600586 0.720703
vt 0.609375 0.713379
vt 0.605957 0.713379
vt 0.605957 0.720703
vt 0.600586 0.728027
vt 0.600586 0.720703
vt 0.595703 0.728027
vt 0.605957 0.720703
vt 0.600586 0.720703
vt 0.600586 0.728027
vt 0.600586 0.728027
vt 0.595703 0.728027
vt 0.595703 0.733154
vt 0.609375 0.720703
vt 0.609375 0.713379
vt 0.605957 0.720703
vt 0.600586 0.733154
vt 0.600586 0.728027
vt 0.595703 0.733154
vt 0.600586 0.733154
vt 0.595703 0.733154
vt 0.595703 0.738525
vt 0.605957 0.728027
vt 0.605957 0.720703
vt 0.600586 0.728027
vt 0.605957 0.728027
vt 0.600586 0.728027
vt 0.600586 0.733154
vt 0.609375 0.720703
vt 0.605957 0.720703
vt 0.605957 0.728027
vt 0.600586 0.738525
vt 0.600586 0.733154
vt 0.595703 0.738525
vt 0.600586 0.738525
vt 0.595703 0.738525
vt 0.595703 0.749268
vt 0.605957 0.733154
vt 0.605957 0.728027
vt 0.600586 0.733154
vt 0.605957 0.733154
vt 0.600586 0.733154
vt 0.600586 0.738525
vt 0.609375 0.728027
vt 0.609375 0.720703
vt 0.605957 0.728027
vt 0.609375 0.728027
vt 0.605957 0.728027
vt 0.605957 0.733154
vt 0.609375 0.713379
vt 0.609375 0.720703
vt 0.613281 0.720703
vt 0.609375 0.720703
vt 0.609375 0.728027
vt 0.613281 0.720703
vt 0.613281 0.713379
vt 0.609375 0.713379
vt 0.613281 0.720703
vt 0.616699 0.713379
vt 0.613281 0.713379
vt 0.613281 0.720703
vt 0.616699 0.720703
vt 0.616699 0.713379
vt 0.613281 0.720703
vt 0.616699 0.720703
vt 0.613281 0.720703
vt 0.613281 0.728027
vt 0.609375 0.728027
vt 0.613281 0.728027
vt 0.613281 0.720703
vt 0.616699 0.728027
vt 0.616699 0.720703
vt 0.613281 0.728027
vt 0.616699 0.728027
vt 0.613281 0.728027
vt 0.613281 0.733154
vt 0.613281 0.728027
vt 0.609375 0.728027
vt 0.613281 0.733154
vt 0.616699 0.733154
vt 0.616699 0.728027
vt 0.613281 0.733154
vt 0.609375 0.728027
vt 0.609375 0.733154
vt 0.613281 0.733154
vt 0.609375 0.733154
vt 0.609375 0.728027
vt 0.605957 0.733154
vt 0.616699 0.733154
vt 0.613281 0.733154
vt 0.613281 0.738525
vt 0.616699 0.738525
vt 0.616699 0.733154
vt 0.613281 0.738525
vt 0.609375 0.733154
vt 0.609375 0.738525
vt 0.613281 0.733154
vt 0.609375 0.738525
vt 0.613281 0.738525
vt 0.613281 0.733154
vt 0.609375 0.733154
vt 0.605957 0.733154
vt 0.605957 0.738525
vt 0.609375 0.738525
vt 0.609375 0.733154
vt 0.605957 0.738525
vt 0.605957 0.738525
vt 0.605957 0.733154
vt 0.600586 0.738525
vt 0.616699 0.738525
vt 0.613281 0.738525
vt 0.613281 0.749268
vt 0.613281 0.738525
vt 0.609375 0.738525
vt 0.613281 0.749268
vt 0.616699 0.749268
vt 0.616699 0.738525
vt 0.613281 0.749268
vt 0.605957 0.738525
vt 0.600586 0.738525
vt 0.600586 0.749268
vt 0.600586 0.749268
vt 0.600586 0.738525
vt 0.595703 0.749268
vt 0.600586 0.749268
vt 0.595703 0.749268
vt 0.595703 0.770874
vt 0.616699 0.749268
vt 0.613281 0.749268
vt 0.613281 0.770874
vt 0.616699 0.770874
vt 0.616699 0.749268
vt 0.613281 0.770874
vt 0.600586 0.770874
vt 0.600586 0.749268
vt 0.595703 0.770874
vt 0.600586 0.770874
vt 0.595703 0.770874
vt 0.595703 0.778442
vt 0.605957 0.749268
vt 0.605957 0.738525
vt 0.600586 0.749268
vt 0.605957 0.749268
vt 0.600586 0.749268
vt 0.600586 0.770874
vt 0.609375 0.738525
vt 0.605957 0.738525
vt 0.605957 0.749268
vt 0.600586 0.778442
vt 0.600586 0.770874
vt 0.595703 0.778442
vt 0.600586 0.778442
vt 0.595703 0.778442
vt 0.595703 0.784912
vt 0.605957 0.770874
vt 0.605957 0.749268
vt 0.600586 0.770874
vt 0.605957 0.770874
vt 0.600586 0.770874
vt 0.600586 0.778442
vt 0.609375 0.749268
vt 0.609375 0.738525
vt 0.605957 0.749268
vt 0.609375 0.749268
vt 0.605957 0.749268
vt 0.605957 0.770874
vt 0.609375 0.738525
vt 0.609375 0.749268
vt 0.613281 0.749268
vt 0.613281 0.749268
vt 0.609375 0.749268
vt 0.613281 0.770874
vt 0.609375 0.770874
vt 0.609375 0.749268
vt 0.605957 0.770874
vt 0.609375 0.749268
vt 0.609375 0.770874
vt 0.613281 0.770874
vt 0.605957 0.778442
vt 0.605957 0.770874
vt 0.600586 0.778442
vt 0.609375 0.770874
vt 0.605957 0.770874
vt 0.605957 0.778442
vt 0.600586 0.784912
vt 0.600586 0.778442
vt 0.595703 0.784912
vt 0.605957 0.778442
vt 0.600586 0.778442
vt 0.600586 0.784912
vt 0.600586 0.784912
vt 0.595703 0.784912
vt 0.595703 0.792236
vt 0.613281 0.770874
vt 0.609375 0.770874
vt 0.613281 0.778442
vt 0.616699 0.770874
vt 0.613281 0.770874
vt 0.613281 0.778442
vt 0.616699 0.778442
vt 0.616699 0.770874
vt 0.613281 0.778442
vt 0.609375 0.778442
vt 0.609375 0.770874
vt 0.605957 0.778442
vt 0.609375 0.770874
vt 0.609375 0.778442
vt 0.613281 0.778442
vt 0.616699 0.778442
vt 0.613281 0.778442
vt 0.613281 0.784912
vt 0.613281 0.778442
vt 0.609375 0.778442
vt 0.613281 0.784912
vt 0.616699 0.784912
vt 0.616699 0.778442
vt 0.613281 0.784912
vt 0.609375 0.778442
vt 0.605957 0.778442
vt 0.605957 0.784912
vt 0.605957 0.784912
vt 0.605957 0.778442
vt 0.600586 0.784912
vt 0.609375 0.778442
vt 0.609375 0.784912
vt 0.613281 0.784912
vt 0.609375 0.784912
vt 0.609375 0.778442
vt 0.605957 0.784912
vt 0.616699 0.784912
vt 0.613281 0.784912
vt 0.613281 0.792236
vt 0.613281 0.784912
vt 0.609375 0.784912
vt 0.613281 0.792236
vt 0.616699 0.792236
vt 0.616699 0.784912
vt 0.613281 0.792236
vt 0.605957 0.784912
vt 0.600586 0.784912
vt 0.600586 0.792236
vt 0.600586 0.792236
vt 0.600586 0.784912
vt 0.595703 0.792236
vt 0.600586 0.792236
vt 0.595703 0.792236
vt 0.595703 0.807129
vt 0.616699 0.792236
vt 0.613281 0.792236
vt 0.613281 0.807129
vt 0.616699 0.807129
vt 0.616699 0.792236
vt 0.613281 0.807129
vt 0.600586 0.807129
vt 0.600586 0.792236
vt 0.595703 0.807129
vt 0.600586 0.807129
vt 0.595703 0.807129
vt 0.595703 0.812744
vt 0.605957 0.792236
vt 0.605957 0.784912
vt 0.600586 0.792236
vt 0.605957 0.792236
vt 0.600586 0.792236
vt 0.600586 0.807129
vt 0.609375 0.784912
vt 0.605957 0.784912
vt 0.605957 0.792236
vt 0.600586 0.812744
vt 0.600586 0.807129
vt 0.595703 0.812744
vt 0.600586 0.812744
vt 0.595703 0.812744
vt 0.595703 0.817505
vt 0.605957 0.807129
vt 0.605957 0.792236
vt 0.600586 0.807129
vt 0.605957 0.807129
vt 0.600586 0.807129
vt 0.600586 0.812744
vt 0.609375 0.792236
vt 0.609375 0.784912
vt 0.605957 0.792236
vt 0.609375 0.792236
vt 0.605957 0.792236
vt 0.605957 0.807129
vt 0.609375 0.784912
vt 0.609375 0.792236
vt 0.613281 0.792236
vt 0.613281 0.792236
vt 0.609375 0.792236
vt 0.613281 0.807129
vt 0.609375 0.807129
vt 0.609375 0.792236
vt 0.605957 0.807129
vt 0.609375 0.792236
vt 0.609375 0.807129
vt 0.613281 0.807129
vt 0.605957 0.812744
vt 0.605957 0.807129
vt 0.600586 0.812744
vt 0.609375 0.807129
vt 0.605957 0.807129
vt 0.605957 0.812744
vt 0.600586 0.817505
vt 0.600586 0.812744
vt 0.595703 0.817505
vt 0.605957 0.812744
vt 0.600586 0.812744
vt 0.600586 0.817505
vt 0.600586 0.817505
vt 0.595703 0.817505
vt 0.595703 0.822510
vt 0.613281 0.807129
vt 0.609375 0.807129
vt 0.613281 0.812744
vt 0.616699 0.807129
vt 0.613281 0.807129
vt 0.613281 0.812744
vt 0.616699 0.812744
vt 0.616699 0.807129
vt 0.613281 0.812744
vt 0.609375 0.812744
vt 0.609375 0.807129
vt 0.605957 0.812744
vt 0.609375 0.807129
vt 0.609375 0.812744
vt 0.613281 0.812744
vt 0.616699 0.812744
vt 0.613281 0.812744
vt 0.613281 0.817505
vt 0.613281 0.812744
vt 0.609375 0.812744
vt 0.613281 0.817505
vt 0.616699 0.817505
vt 0.616699 0.812744
vt 0.613281 0.817505
vt 0.609375 0.812744
vt 0.605957 0.812744
vt 0.605957 0.817505
vt 0.605957 0.817505
vt 0.605957 0.812744
vt 0.600586 0.817505
vt 0.609375 0.812744
vt 0.609375 0.817505
vt 0.613281 0.817505
vt 0.609375 0.817505
vt 0.609375 0.812744
vt 0.605957 0.817505
vt 0.616699 0.817505
vt 0.613281 0.817505
vt 0.613281 0.822510
vt 0.613281 0.817505
vt 0.609375 0.817505
vt 0.613281 0.822510
vt 0.616699 0.822510
vt 0.616699 0.817505
vt 0.613281 0.822510
vt 0.605957 0.817505
vt 0.600586 0.817505
vt 0.600586 0.822510
vt 0.600586 0.822510
vt 0.600586 0.817505
vt 0.595703 0.822510
vt 0.600586 0.822510
vt 0.595703 0.822510
vt 0.595703 0.828003
vt 0.616699 0.822510
vt 0.613281 0.822510
vt 0.613281 0.828003
vt 0.616699 0.828003
vt 0.616699 0.822510
vt 0.613281 0.828003
vt 0.600586 0.828003
vt 0.600586 0.822510
vt 0.595703 0.828003
vt 0.600586 0.828003
vt 0.595703 0.828003
vt 0.595703 0.841797
vt 0.600586 0.841797
vt 0.600586 0.828003
vt 0.595703 0.841797
vt 0.616699 0.841797
vt 0.616699 0.828003
vt 0.613281 0.841797
vt 0.616699 0.828003
vt 0.613281 0.828003
vt 0.613281 0.841797
vt 0.605957 0.828003
vt 0.600586 0.828003
vt 0.600586 0.841797
vt 0.605957 0.841797
vt 0.605957 0.828003
vt 0.600586 0.841797
vt 0.605957 0.822510
vt 0.600586 0.822510
vt 0.600586 0.828003
vt 0.605957 0.828003
vt 0.605957 0.822510
vt 0.600586 0.828003
vt 0.605957 0.822510
vt 0.605957 0.817505
vt 0.600586 0.822510
vt 0.609375 0.817505
vt 0.605957 0.817505
vt 0.605957 0.822510
vt 0.609375 0.828003
vt 0.605957 0.828003
vt 0.605957 0.841797
vt 0.609375 0.841797
vt 0.609375 0.828003
vt 0.605957 0.841797
vt 0.609375 0.828003
vt 0.609375 0.841797
vt 0.613281 0.841797
vt 0.613281 0.828003
vt 0.609375 0.828003
vt 0.613281 0.841797
vt 0.609375 0.822510
vt 0.605957 0.822510
vt 0.605957 0.828003
vt 0.609375 0.828003
vt 0.609375 0.822510
vt 0.605957 0.828003
vt 0.609375 0.822510
vt 0.609375 0.817505
vt 0.605957 0.822510
vt 0.609375 0.822510
vt 0.609375 0.828003
vt 0.613281 0.828003
vt 0.609375 0.817505
vt 0.609375 0.822510
vt 0.613281 0.822510
vt 0.613281 0.822510
vt 0.609375 0.822510
vt 0.613281 0.828003
f 1/1/1 2/2/2 3/3/3
f 4/4/4 5/5/5 6/6/6
f 7/7/7 8/8/8 9/9/9
f 10/10/10 11/11/11 12/12/12
f 13/13/13 14/14/14 15/15/15
f 16/16/16 17/17/17 18/18/18
f 19/19/19 20/20/20 21/21/21
f 22/22/22 23/23/23 24/24/24
f 25/25/25 26/26/26 27/27/27
f 28/28/28 29/29/29 30/30/30
f 31/31/31 32/32/32 33/33/33
f 34/34/34 35/35/35 36/36/36
f 37/37/37 38/38/38 39/39/39
f 40/40/40 41/41/41 42/42/42
f 43/43/43 44/44/44 45/45/45
f 46/46/46 47/47/47 48/48/48
f 49/49/49 50/50/50 51/51/51
f 52/52/52 53/53/53 54/54/54
f 55/55/55 56/56/56 57/57/57
f 58/58/58 59/59/59 60/60/60
f 61/61/61 62/62/62 63/63/63
f 64/64/64 65/65/65 66/66/66
f 67/67/67 68/68/68 69/69/69
f 70/70/70 71/71/71 72/72/72
f 73/73/73 74/74/74 75/75/75
f 76/76/76 77/77/77 78/78/78
f 79/79/79 80/80/80 81/81/81
f 82/82/82 83/83/83 84/84/84
f 85/85/85 86/86/86 87/87/87
f 88/88/88 89/89/89 90/90/90
f 91/91/91 92/92/92 93/93/93
f 94/94/94 95/95/95 96/96/96
f 97/97/97 98/98/98 99/99/99
f 100/100/100 101/101/101 102/102/102
f 103/103/103 104/104/104 105/105/105
f 106/106/106 107/107/107 108/108/108
f 109/109/109 110/110/110 111/111/111
f 112/112/112 113/113/113 114/114/114
f 115/115/115 116/116/116 117/117/117
f 118/118/118 119/119/119 120/120/120
f 121/121/121 122/122/122 123/123/123
f 124/124/124 125/125/125 126/126/126
f 127/127/127 128/128/128 129/129/129
f 130/130/130 131/131/131 132/132/132
f 133/133/133 134/134/134 135/135/135
f 136/136/136 137/137/137 138/138/138
f 139/139/139 140/140/140 141/141/141
f 142/142/142 143/143/143 144/144/144
f 145/145/145 146/146/146 147/147/147
f 148/148/148 149/149/149 150/150/150
f 151/151/151 152/152/152 153/153/153
f 154/154/154 155/155/155 156/156/156
f 157/157/157 158/158/158 159/159/159
f 160/160/160 161/161/161 162/162/162
f 163/163/163 164/164/164 165/165/165
f 166/166/166 167/167/167 168/168/168
f 169/169/169 170/170/170 171/171/171
f 172/172/172 173/173/173 174/174/174
f 175/175/175 176/176/176 177/177/177
f 178/178/178 179/179/179 180/180/180
f 181/181/181 182/182/182 183/183/183
f 184/184/184 185/185/185 186/186/186
f 187/187/187 188/188/188 189/189/189
f 190/190/190 191/191/191 192/192/192
f 193/193/193 194/194/194 195/195/195
f 196/196/196 197/197/197 198/198/198
f 199/199/199 200/200/200 201/201/201
f 202/202/202 203/203/203 204/204/204
f 205/205/205 206/206/206 207/207/207
f 208/208/208 209/209/209 210/210/210
f 211/211/211 212/212/212 213/213/213
f 214/214/214 215/215/215 216/216/216
f 217/217/217 218/218/218 219/219/219
f 220/220/220 221/221/221 222/222/222
f 223/223/223 224/224/224 225/225/225
f 226/226/226 227/227/227 228/228/228
f 229/229/229 230/230/230 231/231/231
f 232/232/232 233/233/233 234/234/234
f 235/235/235 236/236/236 237/237/237
f 238/238/238 239/239/239 240/240/240
f 241/241/241 242/242/242 243/243/243
f 244/244/244 245/245/245 246/246/246
f 247/247/247 248/248/248 249/249/249
f 250/250/250 251/251/251 252/252/252
f 253/253/253 254/254/254 255/255/255
f 256/256/256 257/257/257 258/258/258
f 259/259/259 260/260/260 261/261/261
f 262/262/262 263/263/263 264/264/264
f 265/265/265 266/266/266 267/267/267
f 268/268/268 269/269/269 270/270/270
f 271/271/271 272/272/272 273/273/273
f 274/274/274 275/275/275 276/276/276
f 277/277/277 278/278/278 279/279/279
f 280/280/280 281/281/281 282/282/282
f 283/283/283 284/284/284 285/285/285
f 286/286/286 287/287/287 288/288/288
f 289/289/289 290/290/290 291/291/291
f 292/292/292 293/293/293 294/294/294
f 295/295/295 296/296/296 297/297/297
f 298/298/298 299/299/299 300/300/300
f 301/301/301 302/302/302 303/303/303
f 304/304/304 305/305/305 306/306/306
f 307/307/307 308/308/308 309/309/309
f 310/310/310 311/311/311 312/312/312
f 313/313/313 314/314/314 315/315/315
f 316/316/316 317/317/317 318/318/318
f 319/319/319 320/320/320 321/321/321
f 322/322/322 323/323/323 324/324/324
f 325/325/325 326/326/326 327/327/327
f 328/328/328 329/329/329 330/330/330
f 331/331/331 332/332/332 333/333/333
f 334/334/334 335/335/335 336/336/336
f 337/337/337 338/338/338 339/339/339
f 340/340/340 341/341/341 342/342/342
f 343/343/343 344/344/344 345/345/345
f 346/346/346 347/347/347 348/348/348
f 349/349/349 350/350/350 351/351/351
f 352/352/352 353/353/353 354/354/354
f 355/355/355 356/356/356 357/357/357
f 358/358/358 359/359/359 360/360/360
f 361/361/361 362/362/362 363/363/363
f 364/364/364 365/365/365 366/366/366
f 367/367/367 368/368/368 369/369/369
f 370/370/370 371/371/371 372/372/372
f 373/373/373 374/374/374 375/375/375
f 376/376/376 377/377/377 378/378/378
f 379/379/379 380/380/380 381/381/381
f 382/382/382 383/383/383 384/384/384
f 385/385/385 386/386/386 387/387/387
f 388/388/388 389/389/389 390/390/390
f 391/391/391 392/392/392 393/393/393
f 394/394/394 395/395/395 396/396/396
f 397/397/397 398/398/398 399/399/399
f 400/400/400 401/401/401 402/402/402
f 403/403/403 404/404/404 405/405/405
f 406/406/406 407/407/407 408/408/408
f 409/409/409 410/410/410 411/411/411
f 412/412/412 413/413/413 414/414/414
f 415/415/415 416/416/416 417/417/417
f 418/418/418 419/419/419 420/420/420
f 421/421/421 422/422/422 423/423/423
f 424/424/424 425/425/425 426/426/426
f 427/427/427 428/428/428 429/429/429
f 430/430/430 431/431/431 432/432/432
f 433/433/433 434/434/434 435/435/435
f 436/436/436 437/437/437 438/438/438
f 439/439/439 440/440/440 441/441/441
f 442/442/442 443/443/443 444/444/444
f 445/445/445 446/446/446 447/447/447
f 448/448/448 449/449/449 450/450/450
f 451/451/451 452/452/452 453/453/453
f 454/454/454 455/455/455 456/456/456
f 457/457/457 458/458/458 459/459/459
f 460/460/460 461/461/461 462/462/462
f 463/463/463 464/464/464 465/465/465
f 466/466/466 467/467/467 468/468/468
f 469/469/469 470/470/470 471/471/471
f 472/472/472 473/473/473 474/474/474
f 475/475/475 476/476/476 477/477/477
f 478/478/478 479/479/479 480/480/480
f 481/481/481 482/482/482 483/483/483
f 484/484/484 485/485/485 486/486/486
f 487/487/487 488/488/488 489/489/489
f 490/490/490 491/491/491 492/492/492
f 493/493/493 494/494/494 495/495/495
f 496/496/496 497/497/497 498/498/498
f 499/499/499 500/500/500 501/501/501
f 502/502/502 503/503/503 504/504/504
f 505/505/505 506/506/506 507/507/507
f 508/508/508 509/509/509 510/510/510
f 511/511/511 512/512/512 513/513/513
f 514/514/514 515/515/515 516/516/516
f 517/517/517 518/518/518 519/519/519
f 520/520/520 521/521/521 522/522/522
f 523/523/523 524/524/524 525/525/525
f 526/526/526 527/527/527 528/528/528
f 529/529/529 530/530/530 531/531/531
f 532/532/532 533/533/533 534/534/534
f 535/535/535 536/536/536 537/537/537
f 538/538/538 539/539/539 540/540/540
f 541/541/541 542/542/542 543/543/543
f 544/544/544 545/545/545 546/546/546
f 547/547/547 548/548/548 549/549/549
f 550/550/550 551/551/551 552/552/552
f 553/553/553 554/554/554 555/555/555
f 556/556/556 557/557/557 558/558/558
f 559/559/559 560/560/560 561/561/561
f 562/562/562 563/563/563 564/564/564
f 565/565/565 566/566/566 567/567/567
f 568/568/568 569/569/569 570/570/570
f 571/571/571 572/572/572 573/573/573
f 574/574/574 575/575/575 576/576/576
f 577/577/577 578/578/578 579/579/579
f 580/580/580 581/581/581 582/582/582
f 583/583/583 584/584/584 585/585/585
f 586/586/586 587/587/587 588/588/588
f 589/589/589 590/590/590 591/591/591
f 592/592/592 593/593/593 594/594/594
f 595/595/595 596/596/596 597/597/597
f 598/598/598 599/599/599 600/600/600
f 601/601/601 602/602/602 603/603/603
f 604/604/604 605/605/605 606/606/606
f 607/607/607 608/608/608 609/609/609
f 610/610/610 611/611/611 612/612/612
f 613/613/613 614/614/614 615/615/615
f 616/616/616 617/617/617 618/618/618
f 619/619/619 620/620/620 621/621/621
f 622/622/622 623/623/623 624/624/624
f 625/625/625 626/626/626 627/627/627
f 628/628/628 629/629/629 630/630/630
f 631/631/631 632/632/632 633/633/633
f 634/634/634 635/635/635 636/636/636
f 637/637/637 638/638/638 639/639/639
f 640/640/640 641/641/641 642/642/642
f 643/643/643 644/644/644 645/645/645
f 646/646/646 647/647/647 648/648/648
f 649/649/649 650/650/650 651/651/651
f 652/652/652 653/653/653 654/654/654
f 655/655/655 656/656/656 657/657/657
f 658/658/658 659/659/659 660/660/660
f 661/661/661 662/662/662 663/663/663
f 664/664/664 665/665/665 666/666/666
f 667/667/667 668/668/668 669/669/669
f 670/670/670 671/671/671 672/672/672
f 673/673/673 674/674/674 675/675/675
f 676/676/676 677/677/677 678/678/678
f 679/679/679 680/680/680 681/681/681
f 682/682/682 683/683/683 684/684/684
f 685/685/685 686/686/686 687/687/687
f 688/688/688 689/689/689 690/690/690
f 691/691/691 692/692/692 693/693/693
f 694/694/694 695/695/695 696/696/696
f 697/697/697 698/698/698 699/699/699
f 700/700/700 701/701/701 702/702/702
f 703/703/703 704/704/704 705/705/705
f 706/706/706 707/707/707 708/708/708
f 709/709/709 710/710/710 711/711/711
f 712/712/712 713/713/713 714/714/714
f 715/715/715 716/716/716 717/717/717
f 718/718/718 719/719/719 720/720/720
