# OBJ file
v 241.217540 1032.161400 496.444550
v 241.270980 1032.161000 548.868800
v 241.860950 1033.324300 496.444550
v 241.270980 1032.161000 548.868800
v 241.889710 1033.279300 548.868800
v 241.860950 1033.324300 496.444550
v 242.844440 1031.195400 496.444550
v 242.872340 1031.246000 548.895000
v 241.217540 1032.161400 496.444550
v 242.872340 1031.246000 548.895000
v 241.270980 1032.161000 548.868800
v 241.217540 1032.161400 496.444550
v 242.872340 1031.246000 548.895000
v 243.515760 1032.408800 548.895000
v 241.270980 1032.161000 548.868800
v 243.515760 1032.408800 548.895000
v 241.889710 1033.279300 548.868800
v 241.270980 1032.161000 548.868800
v 243.515760 1032.408800 548.895000
v 243.543620 1032.459200 496.444550
v 241.889710 1033.279300 548.868800
v 243.543620 1032.459200 496.444550
v 241.860950 1033.324300 496.444550
v 241.889710 1033.279300 548.868800
v 196.263810 950.908750 496.444520
v 196.317250 950.908450 548.868800
v 196.907240 952.071840 496.444520
v 196.317250 950.908450 548.868800
v 196.935960 952.026700 548.868800
v 196.907240 952.071840 496.444520
v 197.890700 949.942930 496.444520
v 197.918610 949.993300 548.894960
v 196.263810 950.908750 496.444520
v 197.918610 949.993300 548.894960
v 196.317250 950.908450 548.868800
v 196.263810 950.908750 496.444520
v 197.918610 949.993300 548.894960
v 198.562030 951.156250 548.894960
v 196.317250 950.908450 548.868800
v 198.562030 951.156250 548.894960
v 196.935960 952.026700 548.868800
v 196.317250 950.908450 548.868800
v 198.562030 951.156250 548.894960
v 198.589890 951.206670 496.444520
v 196.935960 952.026700 548.868800
v 198.589890 951.206670 496.444520
v 196.907240 952.071840 496.444520
v 196.935960 952.026700 548.868800
v 248.259740 1039.383500 539.995200
v 194.872000 942.886840 539.995200
v 245.325270 1041.007100 540.018700
v 194.872000 942.886840 539.995200
v 191.937560 944.510400 540.018700
v 245.325270 1041.007100 540.018700
v 194.872000 942.886840 541.574200
v 248.259720 1039.383500 541.574300
v 191.937560 944.510400 541.550700
v 248.259720 1039.383500 541.574300
v 245.325300 1041.007100 541.550800
v 191.937560 944.510400 541.550700
v 248.259750 1039.383700 495.188320
v 194.872020 942.886840 495.188300
v 245.325300 1041.007200 495.211820
v 194.872020 942.886840 495.188300
v 191.937560 944.510400 495.211820
v 245.325300 1041.007200 495.211820
v 194.872010 942.886840 496.767400
v 248.259720 1039.383700 496.767400
v 191.937560 944.510400 496.743870
v 248.259720 1039.383700 496.767400
v 245.325300 1041.007200 496.743870
v 191.937560 944.510400 496.743870
v 245.325270 1041.007100 540.018700
v 191.937560 944.510400 540.018700
v 191.680980 944.652340 540.234100
v 245.068710 1041.149200 540.234100
v 245.325270 1041.007100 540.018700
v 191.680980 944.652340 540.234100
v 245.068710 1041.149200 540.234100
v 191.680980 944.652340 540.234100
v 245.068710 1041.149200 541.335300
v 191.680980 944.652340 540.234100
v 191.680980 944.652340 541.335270
v 245.068710 1041.149200 541.335300
v 191.680980 944.652340 541.335270
v 191.937560 944.510400 541.550700
v 245.068710 1041.149200 541.335300
v 191.937560 944.510400 541.550700
v 245.325300 1041.007100 541.550800
v 245.068710 1041.149200 541.335300
v 245.325300 1041.007200 495.211820
v 191.937560 944.510400 495.211820
v 191.680980 944.652340 495.427220
v 245.068730 1041.149000 495.427200
v 245.325300 1041.007200 495.211820
v 191.680980 944.652340 495.427220
v 245.068730 1041.149000 495.427200
v 191.680980 944.652340 495.427220
v 245.068730 1041.149000 496.528440
v 191.680980 944.652340 495.427220
v 191.680980 944.652340 496.528470
v 245.068730 1041.149000 496.528440
v 191.680980 944.652340 496.528470
v 191.937560 944.510400 496.743870
v 245.068730 1041.149000 496.528440
v 191.937560 944.510400 496.743870
v 245.325300 1041.007200 496.743870
v 245.068730 1041.149000 496.528440
vn -0.874151 0.485639 -0.003885
vn -0.874151 0.485639 -0.003885
vn -0.874151 0.485639 -0.003885
vn -0.874151 0.485639 -0.003885
vn -0.874151 0.485639 -0.003885
vn -0.874151 0.485639 -0.003885
vn -0.507532 -0.861624 -0.003934
vn -0.507532 -0.861624 -0.003934
vn -0.507532 -0.861624 -0.003934
vn -0.507532 -0.861624 -0.003934
vn -0.507532 -0.861624 -0.003934
vn -0.507532 -0.861624 -0.003934
vn -0.019758 0.011854 0.999734
vn -0.019758 0.011854 0.999734
vn -0.019758 0.011854 0.999734
vn -0.019758 0.011854 0.999734
vn -0.019758 0.011854 0.999734
vn -0.019758 0.011854 0.999734
vn 0.458141 0.888871 -0.003916
vn 0.458141 0.888871 -0.003916
vn 0.458141 0.888871 -0.003916
vn 0.458141 0.888871 -0.003916
vn 0.458141 0.888871 -0.003916
vn 0.458141 0.888871 -0.003916
vn -0.874151 0.485639 -0.003885
vn -0.874151 0.485639 -0.003885
vn -0.874151 0.485639 -0.003885
vn -0.874151 0.485639 -0.003885
vn -0.874151 0.485639 -0.003885
vn -0.874151 0.485639 -0.003885
vn -0.507532 -0.861624 -0.003934
vn -0.507532 -0.861624 -0.003934
vn -0.507532 -0.861624 -0.003934
vn -0.507532 -0.861624 -0.003934
vn -0.507532 -0.861624 -0.003934
vn -0.507532 -0.861624 -0.003934
vn -0.019758 0.011854 0.999734
vn -0.019758 0.011854 0.999734
vn -0.019758 0.011854 0.999734
vn -0.019758 0.011854 0.999734
vn -0.019758 0.011854 0.999734
vn -0.019758 0.011854 0.999734
vn 0.458141 0.888871 -0.003916
vn 0.458141 0.888871 -0.003916
vn 0.458141 0.888871 -0.003916
vn 0.458141 0.888871 -0.003916
vn 0.458141 0.888871 -0.003916
vn 0.458141 0.888871 -0.003916
vn -0.011764 0.003921 -0.999923
vn -0.011764 0.003921 -0.999923
vn -0.237523 0.136284 -0.961774
vn -0.011764 0.003921 -0.999923
vn -0.237523 0.136284 -0.961774
vn -0.237523 0.136284 -0.961774
vn -0.011857 0.003952 0.999922
vn -0.011857 0.003952 0.999922
vn -0.239315 0.137312 0.961184
vn -0.011857 0.003952 0.999922
vn -0.239315 0.137312 0.961184
vn -0.239315 0.137312 0.961184
vn -0.011764 0.003921 -0.999923
vn -0.011764 0.003921 -0.999923
vn -0.237523 0.136284 -0.961774
vn -0.011764 0.003921 -0.999923
vn -0.237523 0.136284 -0.961774
vn -0.237523 0.136284 -0.961774
vn -0.011857 0.003952 0.999922
vn -0.011857 0.003952 0.999922
vn -0.239315 0.137312 0.961184
vn -0.011857 0.003952 0.999922
vn -0.239315 0.137312 0.961184
vn -0.239315 0.137312 0.961184
vn -0.237523 0.136284 -0.961774
vn -0.237523 0.136284 -0.961774
vn -0.749059 0.415281 -0.516191
vn -0.749059 0.415281 -0.516191
vn -0.237523 0.136284 -0.961774
vn -0.749059 0.415281 -0.516191
vn -0.749059 0.415281 -0.516191
vn -0.749059 0.415281 -0.516191
vn -0.752055 0.416942 0.510462
vn -0.749059 0.415281 -0.516191
vn -0.752055 0.416942 0.510462
vn -0.752055 0.416942 0.510462
vn -0.752055 0.416942 0.510462
vn -0.239315 0.137312 0.961184
vn -0.752055 0.416942 0.510462
vn -0.239315 0.137312 0.961184
vn -0.239315 0.137312 0.961184
vn -0.752055 0.416942 0.510462
vn -0.237523 0.136284 -0.961774
vn -0.237523 0.136284 -0.961774
vn -0.749059 0.415281 -0.516191
vn -0.749059 0.415281 -0.516191
vn -0.237523 0.136284 -0.961774
vn -0.749059 0.415281 -0.516191
vn -0.749059 0.415281 -0.516191
vn -0.749059 0.415281 -0.516191
vn -0.752055 0.416942 0.510462
vn -0.749059 0.415281 -0.516191
vn -0.752055 0.416942 0.510462
vn -0.752055 0.416942 0.510462
vn -0.752055 0.416942 0.510462
vn -0.239315 0.137312 0.961184
vn -0.752055 0.416942 0.510462
vn -0.239315 0.137312 0.961184
vn -0.239315 0.137312 0.961184
vn -0.752055 0.416942 0.510462
vt 0.901367 0.146973
vt 0.384277 0.146484
vt 0.901367 0.133301
vt 0.384277 0.146484
vt 0.384277 0.133789
vt 0.901367 0.133301
vt 1.141602 0.509033
vt 0.440430 0.509033
vt 1.141602 0.495117
vt 0.440430 0.509033
vt 0.440674 0.495605
vt 1.141602 0.495117
vt 0.515137 0.660889
vt 0.497070 0.660889
vt 0.514648 0.647217
vt 0.497070 0.660889
vt 0.497314 0.647217
vt 0.514648 0.647217
vt 0.501465 0.532959
vt -0.199463 0.532959
vt 0.500977 0.519043
vt -0.199463 0.532959
vt -0.199463 0.518799
vt 0.500977 0.519043
vt 1.048828 0.418457
vt 0.532227 0.418457
vt 1.048828 0.404785
vt 0.532227 0.418457
vt 0.532227 0.405273
vt 1.048828 0.404785
vt 1.127930 0.455078
vt 0.426758 0.455078
vt 1.127930 0.440918
vt 0.426758 0.455078
vt 0.427246 0.441406
vt 1.127930 0.440918
vt 0.147583 0.915405
vt 0.129517 0.915405
vt 0.147217 0.901855
vt 0.129517 0.915405
vt 0.129883 0.901855
vt 0.147217 0.901855
vt 1.127930 0.481934
vt 0.427002 0.481934
vt 1.126953 0.468262
vt 0.427002 0.481934
vt 0.427002 0.467773
vt 1.126953 0.468262
vt 1.308594 0.368652
vt -0.186890 0.368652
vt 1.308594 0.344238
vt -0.186890 0.368652
vt -0.186890 0.344238
vt 1.308594 0.344238
vt 1.062500 0.489746
vt -0.432861 0.489746
vt 1.062500 0.464844
vt -0.432861 0.489746
vt -0.432861 0.464844
vt 1.062500 0.464844
vt 1.308594 0.287109
vt -0.186768 0.287109
vt 1.308594 0.262695
vt -0.186768 0.287109
vt -0.186768 0.262695
vt 1.308594 0.262695
vt 1.062500 0.462402
vt -0.432861 0.462402
vt 1.062500 0.437988
vt -0.432861 0.462402
vt -0.432861 0.437988
vt 1.062500 0.437988
vt -0.294189 -0.017578
vt 0.923828 0.076660
vt 0.923828 0.079102
vt -0.294434 -0.014648
vt -0.294189 -0.017578
vt 0.923828 0.079102
vt -0.294434 -0.014648
vt 0.923828 0.079102
vt -0.295166 -0.002930
vt 0.923828 0.079102
vt 0.922852 0.090820
vt -0.295166 -0.002930
vt 0.922852 0.090820
vt 0.922363 0.093262
vt -0.295166 -0.002930
vt 0.922363 0.093262
vt -0.295410 -0.000977
vt -0.295166 -0.002930
vt 0.925293 0.083008
vt -0.295410 0.129395
vt -0.295410 0.127441
vt 0.925293 0.081055
vt 0.925293 0.083008
vt -0.295410 0.127441
vt 0.925293 0.081055
vt -0.295410 0.127441
vt 0.924805 0.068848
vt -0.295410 0.127441
vt -0.295898 0.115234
vt 0.924805 0.068848
vt -0.295898 0.115234
vt -0.295898 0.113281
vt 0.924805 0.068848
vt -0.295898 0.113281
vt 0.924805 0.066895
vt 0.924805 0.068848
f 1/1/1 2/2/2 3/3/3
f 4/4/4 5/5/5 6/6/6
f 7/7/7 8/8/8 9/9/9
f 10/10/10 11/11/11 12/12/12
f 13/13/13 14/14/14 15/15/15
f 16/16/16 17/17/17 18/18/18
f 19/19/19 20/20/20 21/21/21
f 22/22/22 23/23/23 24/24/24
f 25/25/25 26/26/26 27/27/27
f 28/28/28 29/29/29 30/30/30
f 31/31/31 32/32/32 33/33/33
f 34/34/34 35/35/35 36/36/36
f 37/37/37 38/38/38 39/39/39
f 40/40/40 41/41/41 42/42/42
f 43/43/43 44/44/44 45/45/45
f 46/46/46 47/47/47 48/48/48
f 49/49/49 50/50/50 51/51/51
f 52/52/52 53/53/53 54/54/54
f 55/55/55 56/56/56 57/57/57
f 58/58/58 59/59/59 60/60/60
f 61/61/61 62/62/62 63/63/63
f 64/64/64 65/65/65 66/66/66
f 67/67/67 68/68/68 69/69/69
f 70/70/70 71/71/71 72/72/72
f 73/73/73 74/74/74 75/75/75
f 76/76/76 77/77/77 78/78/78
f 79/79/79 80/80/80 81/81/81
f 82/82/82 83/83/83 84/84/84
f 85/85/85 86/86/86 87/87/87
f 88/88/88 89/89/89 90/90/90
f 91/91/91 92/92/92 93/93/93
f 94/94/94 95/95/95 96/96/96
f 97/97/97 98/98/98 99/99/99
f 100/100/100 101/101/101 102/102/102
f 103/103/103 104/104/104 105/105/105
f 106/106/106 107/107/107 108/108/108
