# OBJ file
v -9.261709 -114.713593 709.274048
v -9.831896 -114.096611 709.255066
v -8.185485 -113.552910 707.775024
v -9.831896 -114.096611 709.255066
v -8.757613 -113.003937 707.757874
v -8.185485 -113.552910 707.775024
v -11.641442 -117.164726 719.533630
v -12.157454 -116.612083 719.515747
v -10.701373 -116.119171 718.202087
v -12.157454 -116.612083 719.515747
v -11.202735 -115.642014 718.185791
v -10.701373 -116.119171 718.202087
v 27.361187 -122.626244 765.449768
v 26.372591 -125.479233 765.463074
v 26.373255 -125.478470 737.197754
v 27.361008 -122.626862 736.607178
v 27.361187 -122.626244 765.449768
v 26.373255 -125.478470 737.197754
v 27.361008 -122.626862 736.607178
v 26.373255 -125.478470 737.197754
v 25.561813 -125.197433 736.253540
v 26.549536 -122.346970 735.659241
v 27.361008 -122.626862 736.607178
v 25.561813 -125.197433 736.253540
v -8.757613 -113.003937 707.757874
v -3.721955 -107.658348 707.798889
v -3.058808 -108.360832 707.818359
v -8.185485 -113.552910 707.775024
v -8.757613 -113.003937 707.757874
v -3.058808 -108.360832 707.818359
v -8.185485 -113.552910 707.775024
v -3.058808 -108.360832 707.818359
v 2.451963 -113.734428 711.127747
v 0.858362 -116.664619 711.487000
v -8.185485 -113.552910 707.775024
v 2.451963 -113.734428 711.127747
v 0.858362 -116.664619 711.487000
v 2.451963 -113.734428 711.127747
v 3.004401 -114.223007 712.125549
v 1.574433 -116.911186 712.460632
v 0.858362 -116.664619 711.487000
v 3.004401 -114.223007 712.125549
v 20.993732 -123.693863 769.433228
v 20.154531 -126.241280 769.445068
v 20.155115 -126.240593 744.337585
v 20.993580 -123.694420 743.812988
v 20.993732 -123.693863 769.433228
v 20.155115 -126.240593 744.337585
v 20.993580 -123.694420 743.812988
v 20.155115 -126.240593 744.337585
v 19.430586 -126.002022 743.498901
v 20.269053 -123.456886 742.971008
v 20.993580 -123.694420 743.812988
v 19.430586 -126.002022 743.498901
v -11.202735 -115.642014 718.185791
v -6.729636 -110.892639 718.222229
v -6.218693 -111.437920 718.240540
v -10.701373 -116.119171 718.202087
v -11.202735 -115.642014 718.185791
v -6.218693 -111.437920 718.240540
v -10.701373 -116.119171 718.202087
v -6.218693 -111.437920 718.240540
v -3.097901 -115.498306 721.180237
v -4.473398 -118.122513 721.499329
v -10.701373 -116.119171 718.202087
v -3.097901 -115.498306 721.180237
v -4.473398 -118.122513 721.499329
v -3.097901 -115.498306 721.180237
v -2.600590 -115.924713 722.066528
v -3.834045 -118.331757 722.364197
v -4.473398 -118.122513 721.499329
v -2.600590 -115.924713 722.066528
v -22.107601 -79.862968 736.235291
v -19.311800 -78.729744 735.640991
v -19.563074 -86.143929 735.591003
v -19.311800 -78.729744 735.640991
v -16.925898 -84.640022 735.007568
v -19.563074 -86.143929 735.591003
v -19.563074 -86.143929 735.591003
v -16.925898 -84.640022 735.007568
v -17.516378 -91.212494 733.851196
v -16.925898 -84.640022 735.007568
v -14.879221 -89.708603 733.267761
v -17.516378 -91.212494 733.851196
v -17.516378 -91.212494 733.851196
v -14.879221 -89.708603 733.267761
v -15.781393 -95.509094 731.091248
v -14.879221 -89.708603 733.267761
v -13.144260 -94.005211 730.507812
v -15.781393 -95.509094 731.091248
v -18.424309 -92.847763 735.194824
v -17.516378 -91.212494 733.851196
v -15.781393 -95.509094 731.091248
v -17.516378 -91.212494 733.851196
v -18.424309 -92.847763 735.194824
v -19.563074 -86.143929 735.591003
v -15.781393 -95.509094 731.091248
v -13.144260 -94.005211 730.507812
v -14.196072 -99.435081 727.090698
v -13.144260 -94.005211 730.507812
v -11.558954 -97.931206 726.507324
v -14.196072 -99.435081 727.090698
v -16.741926 -97.015259 732.562500
v -18.424309 -92.847763 735.194824
v -15.781393 -95.509094 731.091248
v -14.196072 -99.435081 727.090698
v -11.558954 -97.931206 726.507324
v -13.019742 -102.348198 721.656921
v -11.558954 -97.931206 726.507324
v -10.382642 -100.844322 721.073486
v -13.019742 -102.348198 721.656921
v -14.196072 -99.435081 727.090698
v -15.216519 -100.793503 728.647766
v -15.781393 -95.509094 731.091248
v -15.216519 -100.793503 728.647766
v -16.741926 -97.015259 732.562500
v -15.781393 -95.509094 731.091248
v -15.216519 -100.793503 728.647766
v -14.196072 -99.435081 727.090698
v -13.019742 -102.348198 721.656921
v -10.382642 -100.844322 721.073486
v -9.986012 -101.825249 712.107239
v -12.596986 -103.391762 712.442322
v -13.019742 -102.348198 721.656921
v -10.382642 -100.844322 721.073486
v -12.596986 -103.391762 712.442322
v -14.100110 -103.558853 723.299744
v -13.019742 -102.348198 721.656921
v -12.596986 -103.391762 712.442322
v -14.100110 -103.558853 723.299744
v -15.216519 -100.793503 728.647766
v -13.019742 -102.348198 721.656921
v -13.549491 -104.922150 713.481018
v -14.100110 -103.558853 723.299744
v -12.596986 -103.391762 712.442322
v -15.216519 -100.793503 728.647766
v -9.778994 -114.280487 765.429077
v -16.741926 -97.015259 732.562500
v -14.100110 -103.558853 723.299744
v -9.778994 -114.280487 765.429077
v -15.216519 -100.793503 728.647766
v -13.549491 -104.922150 713.481018
v -9.778994 -114.280487 765.429077
v -14.100110 -103.558853 723.299744
v -16.741926 -97.015259 732.562500
v -9.778994 -114.280487 765.429077
v -18.424309 -92.847763 735.194824
v -13.256345 -105.648262 712.527222
v -9.778994 -114.280487 765.429077
v -13.549491 -104.922150 713.481018
v -13.549491 -104.922150 713.481018
v -12.596986 -103.391762 712.442322
v -13.256345 -105.648262 712.527222
v -12.596986 -103.391762 712.442322
v -12.313874 -104.094177 711.468689
v -13.256345 -105.648262 712.527222
v -12.313874 -104.094177 711.468689
v -8.757613 -113.003937 707.757874
v -13.256345 -105.648262 712.527222
v -8.757613 -113.003937 707.757874
v -9.831896 -114.096611 709.255066
v -13.256345 -105.648262 712.527222
v -9.831896 -114.096611 709.255066
v -9.778994 -114.280487 765.429077
v -13.256345 -105.648262 712.527222
v -18.424309 -92.847763 735.194824
v -9.778994 -114.280487 765.429077
v -20.418404 -87.908333 736.806946
v -18.424309 -92.847763 735.194824
v -20.418404 -87.908333 736.806946
v -19.563074 -86.143929 735.591003
v -20.418404 -87.908333 736.806946
v -22.687826 -82.306961 737.732239
v -19.563074 -86.143929 735.591003
v -20.418404 -87.908333 736.806946
v -9.778994 -114.280487 765.429077
v -22.687826 -82.306961 737.732239
v -22.687826 -82.306961 737.732239
v -22.107601 -79.862968 736.235291
v -19.563074 -86.143929 735.591003
v -22.687826 -82.306961 737.732239
v -9.778994 -114.280487 765.429077
v -23.008036 -81.516685 738.725403
v -23.008036 -81.516685 738.725403
v -9.778994 -114.280487 765.429077
v -23.008677 -81.516930 765.444763
v -22.430059 -79.067062 737.179504
v -23.008036 -81.516685 738.725403
v -23.008677 -81.516930 765.444763
v -22.430784 -79.067772 765.444763
v -22.430059 -79.067062 737.179504
v -23.008677 -81.516930 765.444763
v -22.687826 -82.306961 737.732239
v -23.008036 -81.516685 738.725403
v -22.430059 -79.067062 737.179504
v -22.107601 -79.862968 736.235291
v -22.687826 -82.306961 737.732239
v -22.430059 -79.067062 737.179504
v -19.311800 -78.729744 735.640991
v -22.107601 -79.862968 736.235291
v -19.633112 -77.933762 736.588928
v -22.107601 -79.862968 736.235291
v -22.430059 -79.067062 737.179504
v -19.633112 -77.933762 736.588928
v -19.633112 -77.933762 736.588928
v -22.430059 -79.067062 737.179504
v -19.632481 -77.933540 765.431458
v -22.430059 -79.067062 737.179504
v -22.430784 -79.067772 765.444763
v -19.632481 -77.933540 765.431458
v -12.596986 -103.391762 712.442322
v -9.986012 -101.825249 712.107239
v -12.313874 -104.094177 711.468689
v -9.986012 -101.825249 712.107239
v -9.469649 -102.351784 711.109436
v -12.313874 -104.094177 711.468689
v -12.313874 -104.094177 711.468689
v -9.469649 -102.351784 711.109436
v -8.757613 -113.003937 707.757874
v -9.469649 -102.351784 711.109436
v -3.721955 -107.658348 707.798889
v -8.757613 -113.003937 707.757874
v -22.595369 -86.027489 743.480591
v -20.096792 -85.059052 742.952698
v -20.420910 -91.640701 742.908325
v -20.096792 -85.059052 742.952698
v -18.058168 -90.340897 742.390076
v -20.420910 -91.640701 742.908325
v -20.420910 -91.640701 742.908325
v -18.058168 -90.340897 742.390076
v -18.672102 -96.170334 741.362915
v -18.058168 -90.340897 742.390076
v -16.309383 -94.870529 740.844666
v -18.672102 -96.170334 741.362915
v -18.672102 -96.170334 741.362915
v -16.309383 -94.870529 740.844666
v -17.189638 -100.010094 738.911316
v -16.309383 -94.870529 740.844666
v -14.826934 -98.710289 738.393066
v -17.189638 -100.010094 738.911316
v -19.500769 -97.610397 742.556396
v -18.672102 -96.170334 741.362915
v -17.189638 -100.010094 738.911316
v -18.672102 -96.170334 741.362915
v -19.500769 -97.610397 742.556396
v -20.420910 -91.640701 742.908325
v -17.189638 -100.010094 738.911316
v -14.826934 -98.710289 738.393066
v -15.835055 -103.518623 735.357666
v -14.826934 -98.710289 738.393066
v -13.472365 -102.218826 734.839478
v -15.835055 -103.518623 735.357666
v -18.063261 -101.334747 740.218201
v -19.500769 -97.610397 742.556396
v -17.189638 -100.010094 738.911316
v -15.835055 -103.518623 735.357666
v -13.472365 -102.218826 734.839478
v -14.555791 -106.800911 730.101990
v -13.472365 -102.218826 734.839478
v -12.193113 -105.501129 729.583740
v -14.555791 -106.800911 730.101990
v -15.835055 -103.518623 735.357666
v -16.759886 -104.711243 736.740784
v -17.189638 -100.010094 738.911316
v -16.759886 -104.711243 736.740784
v -18.063261 -101.334747 740.218201
v -17.189638 -100.010094 738.911316
v -16.759886 -104.711243 736.740784
v -15.835055 -103.518623 735.357666
v -14.555791 -106.800911 730.101990
v -12.193113 -105.501129 729.583740
v -11.396813 -107.510437 722.048218
v -13.737139 -108.866203 722.345886
v -14.555791 -106.800911 730.101990
v -12.193113 -105.501129 729.583740
v -13.737139 -108.866203 722.345886
v -15.531828 -107.861473 731.561279
v -14.555791 -106.800911 730.101990
v -13.737139 -108.866203 722.345886
v -15.531828 -107.861473 731.561279
v -16.759886 -104.711243 736.740784
v -14.555791 -106.800911 730.101990
v -14.603961 -110.212509 723.268555
v -15.531828 -107.861473 731.561279
v -13.737139 -108.866203 722.345886
v -16.759886 -104.711243 736.740784
v -12.110227 -116.775574 769.413818
v -18.063261 -101.334747 740.218201
v -15.531828 -107.861473 731.561279
v -12.110227 -116.775574 769.413818
v -16.759886 -104.711243 736.740784
v -14.603961 -110.212509 723.268555
v -12.110227 -116.775574 769.413818
v -15.531828 -107.861473 731.561279
v -18.063261 -101.334747 740.218201
v -12.110227 -116.775574 769.413818
v -19.500769 -97.610397 742.556396
v -14.353486 -110.861397 722.421265
v -12.110227 -116.775574 769.413818
v -14.603961 -110.212509 723.268555
v -14.603961 -110.212509 723.268555
v -13.737139 -108.866203 722.345886
v -14.353486 -110.861397 722.421265
v -13.737139 -108.866203 722.345886
v -13.495248 -109.493942 721.481018
v -14.353486 -110.861397 722.421265
v -13.495248 -109.493942 721.481018
v -11.202735 -115.642014 718.185791
v -14.353486 -110.861397 722.421265
v -11.202735 -115.642014 718.185791
v -12.157454 -116.612083 719.515747
v -14.353486 -110.861397 722.421265
v -12.157454 -116.612083 719.515747
v -12.110227 -116.775574 769.413818
v -14.353486 -110.861397 722.421265
v -19.500769 -97.610397 742.556396
v -12.110227 -116.775574 769.413818
v -21.204615 -93.196167 743.988403
v -19.500769 -97.610397 742.556396
v -21.204615 -93.196167 743.988403
v -20.420910 -91.640701 742.908325
v -21.204615 -93.196167 743.988403
v -23.143984 -88.190269 744.810303
v -20.420910 -91.640701 742.908325
v -21.204615 -93.196167 743.988403
v -12.110227 -116.775574 769.413818
v -23.143984 -88.190269 744.810303
v -23.143984 -88.190269 744.810303
v -22.595369 -86.027489 743.480591
v -20.420910 -91.640701 742.908325
v -23.143984 -88.190269 744.810303
v -12.110227 -116.775574 769.413818
v -23.417627 -87.484016 745.692505
v -23.417627 -87.484016 745.692505
v -12.110227 -116.775574 769.413818
v -23.418196 -87.484222 769.426758
v -22.870935 -85.316200 744.319275
v -23.417627 -87.484016 745.692505
v -23.418196 -87.484222 769.426758
v -22.871590 -85.316818 769.426758
v -22.870935 -85.316200 744.319275
v -23.418196 -87.484222 769.426758
v -23.143984 -88.190269 744.810303
v -23.417627 -87.484016 745.692505
v -22.870935 -85.316200 744.319275
v -22.595369 -86.027489 743.480591
v -23.143984 -88.190269 744.810303
v -22.870935 -85.316200 744.319275
v -20.096792 -85.059052 742.952698
v -22.595369 -86.027489 743.480591
v -20.371323 -84.347717 743.794678
v -22.595369 -86.027489 743.480591
v -22.870935 -85.316200 744.319275
v -20.371323 -84.347717 743.794678
v -20.371323 -84.347717 743.794678
v -22.870935 -85.316200 744.319275
v -20.370764 -84.347534 769.414917
v -22.870935 -85.316200 744.319275
v -22.871590 -85.316818 769.426758
v -20.370764 -84.347534 769.414917
v -13.737139 -108.866203 722.345886
v -11.396813 -107.510437 722.048218
v -13.495248 -109.493942 721.481018
v -11.396813 -107.510437 722.048218
v -10.945365 -107.985123 721.161926
v -13.495248 -109.493942 721.481018
v -13.495248 -109.493942 721.481018
v -10.945365 -107.985123 721.161926
v -11.202735 -115.642014 718.185791
v -10.945365 -107.985123 721.161926
v -6.729636 -110.892639 718.222229
v -11.202735 -115.642014 718.185791
v 25.561813 -125.197433 736.253540
v 19.158142 -122.979752 735.609314
v 26.549536 -122.346970 735.659241
v 19.158142 -122.979752 735.609314
v 20.524227 -120.268623 735.025879
v 26.549536 -122.346970 735.659241
v 19.158142 -122.979752 735.609314
v 13.990894 -121.196808 733.869507
v 20.524227 -120.268623 735.025879
v 13.990894 -121.196808 733.869507
v 15.356969 -118.485687 733.286072
v 20.524227 -120.268623 735.025879
v 13.990894 -121.196808 733.869507
v 9.610635 -119.685402 731.109558
v 15.356969 -118.485687 733.286072
v 9.610635 -119.685402 731.109558
v 10.976702 -116.974297 730.526123
v 15.356969 -118.485687 733.286072
v 9.610635 -119.685402 731.109558
v 13.990894 -121.196808 733.869507
v 12.404537 -122.187737 735.213135
v 13.990894 -121.196808 733.869507
v 19.158142 -122.979752 735.609314
v 12.404537 -122.187737 735.213135
v 9.610635 -119.685402 731.109558
v 5.608205 -118.304359 727.109009
v 10.976702 -116.974297 730.526123
v 5.608205 -118.304359 727.109009
v 6.974269 -115.593307 726.525635
v 10.976702 -116.974297 730.526123
v 19.158142 -122.979752 735.609314
v 25.561813 -125.197433 736.253540
v 23.150928 -125.902748 737.750549
v 5.608205 -118.304359 727.109009
v 2.638369 -117.279617 721.675232
v 6.974269 -115.593307 726.525635
v 2.638369 -117.279617 721.675232
v 4.004429 -114.568581 721.091797
v 6.974269 -115.593307 726.525635
v 17.440123 -123.924820 736.825256
v 19.158142 -122.979752 735.609314
v 23.150928 -125.902748 737.750549
v 19.158142 -122.979752 735.609314
v 17.440123 -123.924820 736.825256
v 12.404537 -122.187737 735.213135
v 1.574433 -116.911186 712.460632
v 3.004401 -114.223007 712.125549
v 4.004429 -114.568581 721.091797
v 2.638369 -117.279617 721.675232
v 1.574433 -116.911186 712.460632
v 4.004429 -114.568581 721.091797
v 17.440123 -123.924820 736.825256
v 23.150928 -125.902748 737.750549
v -9.431167 -114.656693 765.437988
v 12.404537 -122.187737 735.213135
v 17.440123 -123.924820 736.825256
v -9.431167 -114.656693 765.437988
v 23.150928 -125.902748 737.750549
v 23.956648 -126.181831 738.743713
v -9.431167 -114.656693 765.437988
v 1.574433 -116.911186 712.460632
v 2.638369 -117.279617 721.675232
v 1.484951 -118.420914 723.318054
v 0.095112 -117.941254 713.499329
v 1.574433 -116.911186 712.460632
v 1.484951 -118.420914 723.318054
v 0.095112 -117.941254 713.499329
v 1.484951 -118.420914 723.318054
v -9.431167 -114.656693 765.437988
v 1.484951 -118.420914 723.318054
v 2.638369 -117.279617 721.675232
v 4.304150 -119.393417 728.666077
v 2.638369 -117.279617 721.675232
v 5.608205 -118.304359 727.109009
v 4.304150 -119.393417 728.666077
v 1.484951 -118.420914 723.318054
v 4.304150 -119.393417 728.666077
v -9.431167 -114.656693 765.437988
v 5.608205 -118.304359 727.109009
v 9.610635 -119.685402 731.109558
v 4.304150 -119.393417 728.666077
v -0.645121 -117.685867 712.545532
v 0.095112 -117.941254 713.499329
v -9.431167 -114.656693 765.437988
v 9.610635 -119.685402 731.109558
v 8.155944 -120.722221 732.580811
v 4.304150 -119.393417 728.666077
v 8.155944 -120.722221 732.580811
v 9.610635 -119.685402 731.109558
v 12.404537 -122.187737 735.213135
v 4.304150 -119.393417 728.666077
v 8.155944 -120.722221 732.580811
v -9.431167 -114.656693 765.437988
v 8.155944 -120.722221 732.580811
v 12.404537 -122.187737 735.213135
v -9.431167 -114.656693 765.437988
v 0.095112 -117.941254 713.499329
v -0.645121 -117.685867 712.545532
v 1.574433 -116.911186 712.460632
v -0.645121 -117.685867 712.545532
v 0.858362 -116.664619 711.487000
v 1.574433 -116.911186 712.460632
v 0.858362 -116.664619 711.487000
v -0.645121 -117.685867 712.545532
v -8.185485 -113.552910 707.775024
v -0.645121 -117.685867 712.545532
v -9.261709 -114.713593 709.274048
v -8.185485 -113.552910 707.775024
v -9.261709 -114.713593 709.274048
v -0.645121 -117.685867 712.545532
v -9.431167 -114.656693 765.437988
v -9.261709 -114.713593 709.274048
v -9.431167 -114.656693 765.437988
v -9.778994 -114.280487 765.429077
v -9.831896 -114.096611 709.255066
v -9.261709 -114.713593 709.274048
v -9.778994 -114.280487 765.429077
v 23.956648 -126.181831 738.743713
v 23.956457 -126.182480 765.463074
v -9.431167 -114.656693 765.437988
v 23.956457 -126.182480 765.463074
v 23.956648 -126.181831 738.743713
v 26.373255 -125.478470 737.197754
v 26.372591 -125.479233 765.463074
v 23.956457 -126.182480 765.463074
v 26.373255 -125.478470 737.197754
v 26.373255 -125.478470 737.197754
v 23.956648 -126.181831 738.743713
v 23.150928 -125.902748 737.750549
v 25.561813 -125.197433 736.253540
v 26.373255 -125.478470 737.197754
v 23.150928 -125.902748 737.750549
v 19.430586 -126.002022 743.498901
v 13.712828 -124.119537 742.926636
v 20.269053 -123.456886 742.971008
v 13.712828 -124.119537 742.926636
v 14.889234 -121.693001 742.408386
v 20.269053 -123.456886 742.971008
v 13.712828 -124.119537 742.926636
v 9.099149 -122.606323 741.381226
v 14.889234 -121.693001 742.408386
v 9.099149 -122.606323 741.381226
v 10.275543 -120.179787 740.862976
v 14.889234 -121.693001 742.408386
v 9.099149 -122.606323 741.381226
v 5.188146 -121.323578 738.929626
v 10.275543 -120.179787 740.862976
v 5.188146 -121.323578 738.929626
v 6.364536 -118.897057 738.411377
v 10.275543 -120.179787 740.862976
v 5.188146 -121.323578 738.929626
v 9.099149 -122.606323 741.381226
v 7.703681 -123.508057 742.574707
v 9.099149 -122.606323 741.381226
v 13.712828 -124.119537 742.926636
v 7.703681 -123.508057 742.574707
v 5.188146 -121.323578 738.929626
v 1.614494 -120.151466 735.375977
v 6.364536 -118.897057 738.411377
v 1.614494 -120.151466 735.375977
v 2.790884 -117.724991 734.857788
v 6.364536 -118.897057 738.411377
v 13.712828 -124.119537 742.926636
v 19.430586 -126.002022 743.498901
v 17.298918 -126.661293 744.828613
v 1.614494 -120.151466 735.375977
v -1.729320 -119.042961 730.120300
v 2.790884 -117.724991 734.857788
v -1.729320 -119.042961 730.120300
v -0.552937 -116.616478 729.602051
v 2.790884 -117.724991 734.857788
v 12.199799 -124.982292 744.006714
v 13.712828 -124.119537 742.926636
v 17.298918 -126.661293 744.828613
v 13.712828 -124.119537 742.926636
v 12.199799 -124.982292 744.006714
v 7.703681 -123.508057 742.574707
v -3.834045 -118.331757 722.364197
v -2.600590 -115.924713 722.066528
v -0.552937 -116.616478 729.602051
v -1.729320 -119.042961 730.120300
v -3.834045 -118.331757 722.364197
v -0.552937 -116.616478 729.602051
v 12.199799 -124.982292 744.006714
v 17.298918 -126.661293 744.828613
v -11.792727 -117.116478 769.422729
v 7.703681 -123.508057 742.574707
v 12.199799 -124.982292 744.006714
v -11.792727 -117.116478 769.422729
v 17.298918 -126.661293 744.828613
v 18.018326 -126.898216 745.710815
v -11.792727 -117.116478 769.422729
v -3.834045 -118.331757 722.364197
v -1.729320 -119.042961 730.120300
v -2.738213 -120.072319 731.579590
v -5.133914 -119.266747 723.286865
v -3.834045 -118.331757 722.364197
v -2.738213 -120.072319 731.579590
v -5.133914 -119.266747 723.286865
v -2.738213 -120.072319 731.579590
v -11.792727 -117.116478 769.422729
v -2.738213 -120.072319 731.579590
v -1.729320 -119.042961 730.120300
v 0.471096 -121.136513 736.759094
v -1.729320 -119.042961 730.120300
v 1.614494 -120.151466 735.375977
v 0.471096 -121.136513 736.759094
v -2.738213 -120.072319 731.579590
v 0.471096 -121.136513 736.759094
v -11.792727 -117.116478 769.422729
v 1.614494 -120.151466 735.375977
v 5.188146 -121.323578 738.929626
v 0.471096 -121.136513 736.759094
v -5.794845 -119.050034 722.439575
v -5.133914 -119.266747 723.286865
v -11.792727 -117.116478 769.422729
v 5.188146 -121.323578 738.929626
v 3.910242 -122.264267 740.236511
v 0.471096 -121.136513 736.759094
v 3.910242 -122.264267 740.236511
v 5.188146 -121.323578 738.929626
v 7.703681 -123.508057 742.574707
v 0.471096 -121.136513 736.759094
v 3.910242 -122.264267 740.236511
v -11.792727 -117.116478 769.422729
v 3.910242 -122.264267 740.236511
v 7.703681 -123.508057 742.574707
v -11.792727 -117.116478 769.422729
v -5.133914 -119.266747 723.286865
v -5.794845 -119.050034 722.439575
v -3.834045 -118.331757 722.364197
v -5.794845 -119.050034 722.439575
v -4.473398 -118.122513 721.499329
v -3.834045 -118.331757 722.364197
v -4.473398 -118.122513 721.499329
v -5.794845 -119.050034 722.439575
v -10.701373 -116.119171 718.202087
v -5.794845 -119.050034 722.439575
v -11.641442 -117.164726 719.533630
v -10.701373 -116.119171 718.202087
v -11.641442 -117.164726 719.533630
v -5.794845 -119.050034 722.439575
v -11.792727 -117.116478 769.422729
v -11.641442 -117.164726 719.533630
v -11.792727 -117.116478 769.422729
v -12.110227 -116.775574 769.413818
v -12.157454 -116.612083 719.515747
v -11.641442 -117.164726 719.533630
v -12.110227 -116.775574 769.413818
v 18.018326 -126.898216 745.710815
v 18.018166 -126.898788 769.445068
v -11.792727 -117.116478 769.422729
v 18.018166 -126.898788 769.445068
v 18.018326 -126.898216 745.710815
v 20.155115 -126.240593 744.337585
v 20.154531 -126.241280 769.445068
v 18.018166 -126.898788 769.445068
v 20.155115 -126.240593 744.337585
v 20.155115 -126.240593 744.337585
v 18.018326 -126.898216 745.710815
v 17.298918 -126.661293 744.828613
v 19.430586 -126.002022 743.498901
v 20.155115 -126.240593 744.337585
v 17.298918 -126.661293 744.828613
vt 0.500977 0.033203
vt 0.494141 0.026367
vt 0.511230 0.007812
vt 0.494141 0.026367
vt 0.504395 0.000977
vt 0.511230 0.007812
vt 0.500977 0.033203
vt 0.494141 0.026367
vt 0.511230 0.007812
vt 0.494141 0.026367
vt 0.504395 0.000977
vt 0.511230 0.007812
vt 1.000000 1.000000
vt 0.153931 1.000000
vt 0.204224 0.511963
vt 1.000000 0.508545
vt 1.000000 1.000000
vt 0.204224 0.511963
vt 1.000000 0.508545
vt 0.204224 0.511963
vt 0.203369 -0.420898
vt 1.004883 -0.489258
vt 1.000000 0.508545
vt 0.203369 -0.420898
vt 0.830566 0.505615
vt 0.000000 0.505859
vt 0.000000 0.491211
vt 0.830078 0.492676
vt 0.830566 0.505615
vt 0.000000 0.491211
vt 0.830078 0.492676
vt 0.000000 0.491211
vt 0.000000 0.350098
vt 0.781738 0.331055
vt 0.830078 0.492676
vt 0.000000 0.350098
vt 0.781738 0.331055
vt 0.000000 0.350098
vt -0.005119 0.212891
vt 0.741211 0.190430
vt 0.781738 0.331055
vt -0.005119 0.212891
vt 1.000000 1.000000
vt 0.153931 1.000000
vt 0.204224 0.511963
vt 1.000000 0.508545
vt 1.000000 1.000000
vt 0.204224 0.511963
vt 1.000000 0.508545
vt 0.204224 0.511963
vt 0.203369 -0.420898
vt 1.004883 -0.489258
vt 1.000000 0.508545
vt 0.203369 -0.420898
vt 0.830566 0.505615
vt 0.000000 0.505859
vt 0.000000 0.491211
vt 0.830078 0.492676
vt 0.830566 0.505615
vt 0.000000 0.491211
vt 0.830078 0.492676
vt 0.000000 0.491211
vt 0.000000 0.350098
vt 0.781738 0.331055
vt 0.830078 0.492676
vt 0.000000 0.350098
vt 0.781738 0.331055
vt 0.000000 0.350098
vt -0.005119 0.212891
vt 0.741211 0.190430
vt 0.781738 0.331055
vt -0.005119 0.212891
vt 0.987305 0.497070
vt 0.986328 0.497070
vt 0.888672 0.490723
vt 0.986328 0.497070
vt 0.888672 0.490723
vt 0.888672 0.490723
vt 0.888672 0.490723
vt 0.888672 0.490723
vt 0.831543 0.444824
vt 0.888672 0.490723
vt 0.831543 0.444824
vt 0.831543 0.444824
vt 0.831543 0.444824
vt 0.831543 0.444824
vt 0.774414 0.398926
vt 0.831543 0.444824
vt 0.774414 0.398926
vt 0.774414 0.398926
vt 0.820312 0.463867
vt 0.831543 0.444824
vt 0.774414 0.398926
vt 0.831543 0.444824
vt 0.820312 0.463867
vt 0.888672 0.490723
vt 0.774414 0.398926
vt 0.774414 0.398926
vt 0.734375 0.314453
vt 0.774414 0.398926
vt 0.734375 0.314453
vt 0.734375 0.314453
vt 0.764648 0.419922
vt 0.820312 0.463867
vt 0.774414 0.398926
vt 0.734375 0.314453
vt 0.734375 0.314453
vt 0.694336 0.229980
vt 0.734375 0.314453
vt 0.694336 0.229980
vt 0.694336 0.229980
vt 0.734375 0.314453
vt 0.726562 0.336914
vt 0.774414 0.398926
vt 0.726562 0.336914
vt 0.764648 0.419922
vt 0.774414 0.398926
vt 0.726562 0.336914
vt 0.734375 0.314453
vt 0.694336 0.229980
vt 0.694336 0.229980
vt 0.686035 0.017090
vt 0.686035 0.016602
vt 0.694336 0.229980
vt 0.694336 0.229980
vt 0.686035 0.016602
vt 0.688477 0.254395
vt 0.694336 0.229980
vt 0.686035 0.016602
vt 0.688477 0.254395
vt 0.726562 0.336914
vt 0.694336 0.229980
vt 0.671387 0.042480
vt 0.688477 0.254395
vt 0.686035 0.016602
vt 0.726562 0.336914
vt 0.503418 0.994061
vt 0.764648 0.419922
vt 0.688477 0.254395
vt 0.503418 0.994061
vt 0.726562 0.336914
vt 0.671387 0.042480
vt 0.503418 0.994061
vt 0.688477 0.254395
vt 0.764648 0.419922
vt 0.503418 0.994061
vt 0.820312 0.463867
vt 0.658691 0.026855
vt 0.503418 0.994061
vt 0.671387 0.042480
vt 0.679199 0.027344
vt 0.682617 -0.004883
vt 0.658691 0.026855
vt 0.682617 -0.004883
vt 0.662109 -0.004883
vt 0.658691 0.026855
vt 0.662109 -0.004883
vt 0.495117 -0.007812
vt 0.658691 0.026855
vt 0.495117 -0.007812
vt 0.507324 0.026367
vt 0.658691 0.026855
vt 0.507324 0.026367
vt 0.503418 0.994061
vt 0.658691 0.026855
vt 0.820312 0.463867
vt 0.503418 0.994061
vt 0.875977 0.507324
vt 0.820312 0.463867
vt 0.875977 0.507324
vt 0.888672 0.490723
vt 0.875977 0.507324
vt 0.973633 0.531982
vt 0.888672 0.490723
vt 0.875977 0.507324
vt 0.503418 0.994061
vt 0.973633 0.531982
vt 0.973633 0.531982
vt 0.987305 0.497070
vt 0.888672 0.490723
vt 0.973633 0.531982
vt 0.503418 0.994061
vt 0.982910 0.537598
vt 0.982910 0.537598
vt 0.503418 0.994061
vt 0.982910 1.000000
vt 1.004883 0.518555
vt 0.982910 0.537598
vt 0.982910 1.000000
vt 1.008789 0.985916
vt 1.004883 0.518555
vt 0.982910 1.000000
vt 0.955566 0.548096
vt 0.982910 0.537598
vt 1.004883 0.518555
vt 0.979004 0.526611
vt 0.955566 0.548096
vt 1.004883 0.518555
vt 1.004883 -0.489258
vt 0.203369 -0.420898
vt 1.000000 0.508545
vt 0.203369 -0.420898
vt 0.204224 0.511963
vt 1.000000 0.508545
vt 1.000000 0.508545
vt 0.204224 0.511963
vt 1.000000 1.000000
vt 0.204224 0.511963
vt 0.153931 1.000000
vt 1.000000 1.000000
vt 0.741211 0.190430
vt -0.005119 0.212891
vt 0.781738 0.331055
vt -0.005119 0.212891
vt 0.000000 0.350098
vt 0.781738 0.331055
vt 0.781738 0.331055
vt 0.000000 0.350098
vt 0.830078 0.492676
vt 0.000000 0.350098
vt 0.000000 0.491211
vt 0.830078 0.492676
vt 0.987305 0.497070
vt 0.986328 0.497070
vt 0.888672 0.490723
vt 0.986328 0.497070
vt 0.888672 0.490723
vt 0.888672 0.490723
vt 0.888672 0.490723
vt 0.888672 0.490723
vt 0.831543 0.444824
vt 0.888672 0.490723
vt 0.831543 0.444824
vt 0.831543 0.444824
vt 0.831543 0.444824
vt 0.831543 0.444824
vt 0.774414 0.398926
vt 0.831543 0.444824
vt 0.774414 0.398926
vt 0.774414 0.398926
vt 0.820312 0.463867
vt 0.831543 0.444824
vt 0.774414 0.398926
vt 0.831543 0.444824
vt 0.820312 0.463867
vt 0.888672 0.490723
vt 0.774414 0.398926
vt 0.774414 0.398926
vt 0.734375 0.314453
vt 0.774414 0.398926
vt 0.734375 0.314453
vt 0.734375 0.314453
vt 0.764648 0.419922
vt 0.820312 0.463867
vt 0.774414 0.398926
vt 0.734375 0.314453
vt 0.734375 0.314453
vt 0.694336 0.229980
vt 0.734375 0.314453
vt 0.694336 0.229980
vt 0.694336 0.229980
vt 0.734375 0.314453
vt 0.726562 0.336914
vt 0.774414 0.398926
vt 0.726562 0.336914
vt 0.764648 0.419922
vt 0.774414 0.398926
vt 0.726562 0.336914
vt 0.734375 0.314453
vt 0.694336 0.229980
vt 0.694336 0.229980
vt 0.686035 0.017090
vt 0.686035 0.016602
vt 0.694336 0.229980
vt 0.694336 0.229980
vt 0.686035 0.016602
vt 0.688477 0.254395
vt 0.694336 0.229980
vt 0.686035 0.016602
vt 0.688477 0.254395
vt 0.726562 0.336914
vt 0.694336 0.229980
vt 0.671387 0.042480
vt 0.688477 0.254395
vt 0.686035 0.016602
vt 0.726562 0.336914
vt 0.503418 0.994061
vt 0.764648 0.419922
vt 0.688477 0.254395
vt 0.503418 0.994061
vt 0.726562 0.336914
vt 0.671387 0.042480
vt 0.503418 0.994061
vt 0.688477 0.254395
vt 0.764648 0.419922
vt 0.503418 0.994061
vt 0.820312 0.463867
vt 0.658691 0.026855
vt 0.503418 0.994061
vt 0.671387 0.042480
vt 0.679199 0.027344
vt 0.682617 -0.004883
vt 0.658691 0.026855
vt 0.682617 -0.004883
vt 0.662109 -0.004883
vt 0.658691 0.026855
vt 0.662109 -0.004883
vt 0.495117 -0.007812
vt 0.658691 0.026855
vt 0.495117 -0.007812
vt 0.507324 0.026367
vt 0.658691 0.026855
vt 0.507324 0.026367
vt 0.503418 0.994061
vt 0.658691 0.026855
vt 0.820312 0.463867
vt 0.503418 0.994061
vt 0.875977 0.507324
vt 0.820312 0.463867
vt 0.875977 0.507324
vt 0.888672 0.490723
vt 0.875977 0.507324
vt 0.973633 0.531982
vt 0.888672 0.490723
vt 0.875977 0.507324
vt 0.503418 0.994061
vt 0.973633 0.531982
vt 0.973633 0.531982
vt 0.987305 0.497070
vt 0.888672 0.490723
vt 0.973633 0.531982
vt 0.503418 0.994061
vt 0.982910 0.537598
vt 0.982910 0.537598
vt 0.503418 0.994061
vt 0.982910 1.000000
vt 1.004883 0.518555
vt 0.982910 0.537598
vt 0.982910 1.000000
vt 1.008789 0.985916
vt 1.004883 0.518555
vt 0.982910 1.000000
vt 0.955566 0.548096
vt 0.982910 0.537598
vt 1.004883 0.518555
vt 0.979004 0.526611
vt 0.955566 0.548096
vt 1.004883 0.518555
vt 1.004883 -0.489258
vt 0.203369 -0.420898
vt 1.000000 0.508545
vt 0.203369 -0.420898
vt 0.204224 0.511963
vt 1.000000 0.508545
vt 1.000000 0.508545
vt 0.204224 0.511963
vt 1.000000 1.000000
vt 0.204224 0.511963
vt 0.153931 1.000000
vt 1.000000 1.000000
vt 0.741211 0.190430
vt -0.005119 0.212891
vt 0.781738 0.331055
vt -0.005119 0.212891
vt 0.000000 0.350098
vt 0.781738 0.331055
vt 0.781738 0.331055
vt 0.000000 0.350098
vt 0.830078 0.492676
vt 0.000000 0.350098
vt 0.000000 0.491211
vt 0.830078 0.492676
vt 0.987305 0.497070
vt 0.888672 0.490723
vt 0.986328 0.497070
vt 0.888672 0.490723
vt 0.888672 0.490723
vt 0.986328 0.497070
vt 0.888672 0.490723
vt 0.831543 0.444824
vt 0.888672 0.490723
vt 0.831543 0.444824
vt 0.831543 0.444824
vt 0.888672 0.490723
vt 0.831543 0.444824
vt 0.774414 0.398926
vt 0.831543 0.444824
vt 0.774414 0.398926
vt 0.774414 0.398926
vt 0.831543 0.444824
vt 0.774414 0.398926
vt 0.831543 0.444824
vt 0.820312 0.463867
vt 0.831543 0.444824
vt 0.888672 0.490723
vt 0.820312 0.463867
vt 0.774414 0.398926
vt 0.734375 0.314453
vt 0.774414 0.398926
vt 0.734375 0.314453
vt 0.734375 0.314453
vt 0.774414 0.398926
vt 0.888672 0.490723
vt 0.987305 0.497070
vt 0.973633 0.531982
vt 0.734375 0.314453
vt 0.694336 0.229980
vt 0.734375 0.314453
vt 0.694336 0.229980
vt 0.694336 0.229980
vt 0.734375 0.314453
vt 0.875977 0.507324
vt 0.888672 0.490723
vt 0.973633 0.531982
vt 0.888672 0.490723
vt 0.875977 0.507324
vt 0.820312 0.463867
vt 0.686035 0.016602
vt 0.686035 0.017090
vt 0.694336 0.229980
vt 0.694336 0.229980
vt 0.686035 0.016602
vt 0.694336 0.229980
vt 0.875977 0.507324
vt 0.973633 0.531982
vt 0.503418 0.994061
vt 0.820312 0.463867
vt 0.875977 0.507324
vt 0.503418 0.994061
vt 0.973633 0.531982
vt 0.982910 0.537598
vt 0.503418 0.994061
vt 0.686035 0.016602
vt 0.694336 0.229980
vt 0.688477 0.254395
vt 0.671387 0.042480
vt 0.686035 0.016602
vt 0.688477 0.254395
vt 0.671387 0.042480
vt 0.688477 0.254395
vt 0.503418 0.994061
vt 0.688477 0.254395
vt 0.694336 0.229980
vt 0.726562 0.336914
vt 0.694336 0.229980
vt 0.734375 0.314453
vt 0.726562 0.336914
vt 0.688477 0.254395
vt 0.726562 0.336914
vt 0.503418 0.994061
vt 0.734375 0.314453
vt 0.774414 0.398926
vt 0.726562 0.336914
vt 0.658691 0.026855
vt 0.671387 0.042480
vt 0.503418 0.994061
vt 0.774414 0.398926
vt 0.764648 0.419922
vt 0.726562 0.336914
vt 0.764648 0.419922
vt 0.774414 0.398926
vt 0.820312 0.463867
vt 0.726562 0.336914
vt 0.764648 0.419922
vt 0.503418 0.994061
vt 0.764648 0.419922
vt 0.820312 0.463867
vt 0.503418 0.994061
vt 0.679199 0.027344
vt 0.658691 0.026855
vt 0.682617 -0.004883
vt 0.658691 0.026855
vt 0.662109 -0.004883
vt 0.682617 -0.004883
vt 0.662109 -0.004883
vt 0.658691 0.026855
vt 0.495117 -0.007812
vt 0.658691 0.026855
vt 0.507324 0.026367
vt 0.495117 -0.007812
vt 0.507324 0.026367
vt 0.658691 0.026855
vt 0.503418 0.994061
vt 0.507324 0.026367
vt 0.503418 0.994061
vt 0.496338 0.994015
vt 0.494141 0.026367
vt 0.507324 0.026367
vt 0.496338 0.994015
vt 0.982910 0.537598
vt 0.982910 1.000000
vt 0.503418 0.994061
vt 0.982910 1.000000
vt 0.982910 0.537598
vt 1.004883 0.518555
vt 1.008789 0.985916
vt 0.982910 1.000000
vt 1.004883 0.518555
vt 1.004883 0.518555
vt 0.982910 0.537598
vt 0.955566 0.548096
vt 0.979004 0.526611
vt 1.004883 0.518555
vt 0.955566 0.548096
vt 0.987305 0.497070
vt 0.888672 0.490723
vt 0.986328 0.497070
vt 0.888672 0.490723
vt 0.888672 0.490723
vt 0.986328 0.497070
vt 0.888672 0.490723
vt 0.831543 0.444824
vt 0.888672 0.490723
vt 0.831543 0.444824
vt 0.831543 0.444824
vt 0.888672 0.490723
vt 0.831543 0.444824
vt 0.774414 0.398926
vt 0.831543 0.444824
vt 0.774414 0.398926
vt 0.774414 0.398926
vt 0.831543 0.444824
vt 0.774414 0.398926
vt 0.831543 0.444824
vt 0.820312 0.463867
vt 0.831543 0.444824
vt 0.888672 0.490723
vt 0.820312 0.463867
vt 0.774414 0.398926
vt 0.734375 0.314453
vt 0.774414 0.398926
vt 0.734375 0.314453
vt 0.734375 0.314453
vt 0.774414 0.398926
vt 0.888672 0.490723
vt 0.987305 0.497070
vt 0.973633 0.531982
vt 0.734375 0.314453
vt 0.694336 0.229980
vt 0.734375 0.314453
vt 0.694336 0.229980
vt 0.694336 0.229980
vt 0.734375 0.314453
vt 0.875977 0.507324
vt 0.888672 0.490723
vt 0.973633 0.531982
vt 0.888672 0.490723
vt 0.875977 0.507324
vt 0.820312 0.463867
vt 0.686035 0.016602
vt 0.686035 0.017090
vt 0.694336 0.229980
vt 0.694336 0.229980
vt 0.686035 0.016602
vt 0.694336 0.229980
vt 0.875977 0.507324
vt 0.973633 0.531982
vt 0.503418 0.994061
vt 0.820312 0.463867
vt 0.875977 0.507324
vt 0.503418 0.994061
vt 0.973633 0.531982
vt 0.982910 0.537598
vt 0.503418 0.994061
vt 0.686035 0.016602
vt 0.694336 0.229980
vt 0.688477 0.254395
vt 0.671387 0.042480
vt 0.686035 0.016602
vt 0.688477 0.254395
vt 0.671387 0.042480
vt 0.688477 0.254395
vt 0.503418 0.994061
vt 0.688477 0.254395
vt 0.694336 0.229980
vt 0.726562 0.336914
vt 0.694336 0.229980
vt 0.734375 0.314453
vt 0.726562 0.336914
vt 0.688477 0.254395
vt 0.726562 0.336914
vt 0.503418 0.994061
vt 0.734375 0.314453
vt 0.774414 0.398926
vt 0.726562 0.336914
vt 0.658691 0.026855
vt 0.671387 0.042480
vt 0.503418 0.994061
vt 0.774414 0.398926
vt 0.764648 0.419922
vt 0.726562 0.336914
vt 0.764648 0.419922
vt 0.774414 0.398926
vt 0.820312 0.463867
vt 0.726562 0.336914
vt 0.764648 0.419922
vt 0.503418 0.994061
vt 0.764648 0.419922
vt 0.820312 0.463867
vt 0.503418 0.994061
vt 0.679199 0.027344
vt 0.658691 0.026855
vt 0.682617 -0.004883
vt 0.658691 0.026855
vt 0.662109 -0.004883
vt 0.682617 -0.004883
vt 0.662109 -0.004883
vt 0.658691 0.026855
vt 0.495117 -0.007812
vt 0.658691 0.026855
vt 0.507324 0.026367
vt 0.495117 -0.007812
vt 0.507324 0.026367
vt 0.658691 0.026855
vt 0.503418 0.994061
vt 0.507324 0.026367
vt 0.503418 0.994061
vt 0.496338 0.994015
vt 0.494141 0.026367
vt 0.507324 0.026367
vt 0.496338 0.994015
vt 0.982910 0.537598
vt 0.982910 1.000000
vt 0.503418 0.994061
vt 0.982910 1.000000
vt 0.982910 0.537598
vt 1.004883 0.518555
vt 1.008789 0.985916
vt 0.982910 1.000000
vt 1.004883 0.518555
vt 1.004883 0.518555
vt 0.982910 0.537598
vt 0.955566 0.548096
vt 0.979004 0.526611
vt 1.004883 0.518555
vt 0.955566 0.548096
f 1/1/1 2/2/2 3/3/3
f 4/4/4 5/5/5 6/6/6
f 7/7/7 8/8/8 9/9/9
f 10/10/10 11/11/11 12/12/12
f 13/13/13 14/14/14 15/15/15
f 16/16/16 17/17/17 18/18/18
f 19/19/19 20/20/20 21/21/21
f 22/22/22 23/23/23 24/24/24
f 25/25/25 26/26/26 27/27/27
f 28/28/28 29/29/29 30/30/30
f 31/31/31 32/32/32 33/33/33
f 34/34/34 35/35/35 36/36/36
f 37/37/37 38/38/38 39/39/39
f 40/40/40 41/41/41 42/42/42
f 43/43/43 44/44/44 45/45/45
f 46/46/46 47/47/47 48/48/48
f 49/49/49 50/50/50 51/51/51
f 52/52/52 53/53/53 54/54/54
f 55/55/55 56/56/56 57/57/57
f 58/58/58 59/59/59 60/60/60
f 61/61/61 62/62/62 63/63/63
f 64/64/64 65/65/65 66/66/66
f 67/67/67 68/68/68 69/69/69
f 70/70/70 71/71/71 72/72/72
f 73/73/73 74/74/74 75/75/75
f 76/76/76 77/77/77 78/78/78
f 79/79/79 80/80/80 81/81/81
f 82/82/82 83/83/83 84/84/84
f 85/85/85 86/86/86 87/87/87
f 88/88/88 89/89/89 90/90/90
f 91/91/91 92/92/92 93/93/93
f 94/94/94 95/95/95 96/96/96
f 97/97/97 98/98/98 99/99/99
f 100/100/100 101/101/101 102/102/102
f 103/103/103 104/104/104 105/105/105
f 106/106/106 107/107/107 108/108/108
f 109/109/109 110/110/110 111/111/111
f 112/112/112 113/113/113 114/114/114
f 115/115/115 116/116/116 117/117/117
f 118/118/118 119/119/119 120/120/120
f 121/121/121 122/122/122 123/123/123
f 124/124/124 125/125/125 126/126/126
f 127/127/127 128/128/128 129/129/129
f 130/130/130 131/131/131 132/132/132
f 133/133/133 134/134/134 135/135/135
f 136/136/136 137/137/137 138/138/138
f 139/139/139 140/140/140 141/141/141
f 142/142/142 143/143/143 144/144/144
f 145/145/145 146/146/146 147/147/147
f 148/148/148 149/149/149 150/150/150
f 151/151/151 152/152/152 153/153/153
f 154/154/154 155/155/155 156/156/156
f 157/157/157 158/158/158 159/159/159
f 160/160/160 161/161/161 162/162/162
f 163/163/163 164/164/164 165/165/165
f 166/166/166 167/167/167 168/168/168
f 169/169/169 170/170/170 171/171/171
f 172/172/172 173/173/173 174/174/174
f 175/175/175 176/176/176 177/177/177
f 178/178/178 179/179/179 180/180/180
f 181/181/181 182/182/182 183/183/183
f 184/184/184 185/185/185 186/186/186
f 187/187/187 188/188/188 189/189/189
f 190/190/190 191/191/191 192/192/192
f 193/193/193 194/194/194 195/195/195
f 196/196/196 197/197/197 198/198/198
f 199/199/199 200/200/200 201/201/201
f 202/202/202 203/203/203 204/204/204
f 205/205/205 206/206/206 207/207/207
f 208/208/208 209/209/209 210/210/210
f 211/211/211 212/212/212 213/213/213
f 214/214/214 215/215/215 216/216/216
f 217/217/217 218/218/218 219/219/219
f 220/220/220 221/221/221 222/222/222
f 223/223/223 224/224/224 225/225/225
f 226/226/226 227/227/227 228/228/228
f 229/229/229 230/230/230 231/231/231
f 232/232/232 233/233/233 234/234/234
f 235/235/235 236/236/236 237/237/237
f 238/238/238 239/239/239 240/240/240
f 241/241/241 242/242/242 243/243/243
f 244/244/244 245/245/245 246/246/246
f 247/247/247 248/248/248 249/249/249
f 250/250/250 251/251/251 252/252/252
f 253/253/253 254/254/254 255/255/255
f 256/256/256 257/257/257 258/258/258
f 259/259/259 260/260/260 261/261/261
f 262/262/262 263/263/263 264/264/264
f 265/265/265 266/266/266 267/267/267
f 268/268/268 269/269/269 270/270/270
f 271/271/271 272/272/272 273/273/273
f 274/274/274 275/275/275 276/276/276
f 277/277/277 278/278/278 279/279/279
f 280/280/280 281/281/281 282/282/282
f 283/283/283 284/284/284 285/285/285
f 286/286/286 287/287/287 288/288/288
f 289/289/289 290/290/290 291/291/291
f 292/292/292 293/293/293 294/294/294
f 295/295/295 296/296/296 297/297/297
f 298/298/298 299/299/299 300/300/300
f 301/301/301 302/302/302 303/303/303
f 304/304/304 305/305/305 306/306/306
f 307/307/307 308/308/308 309/309/309
f 310/310/310 311/311/311 312/312/312
f 313/313/313 314/314/314 315/315/315
f 316/316/316 317/317/317 318/318/318
f 319/319/319 320/320/320 321/321/321
f 322/322/322 323/323/323 324/324/324
f 325/325/325 326/326/326 327/327/327
f 328/328/328 329/329/329 330/330/330
f 331/331/331 332/332/332 333/333/333
f 334/334/334 335/335/335 336/336/336
f 337/337/337 338/338/338 339/339/339
f 340/340/340 341/341/341 342/342/342
f 343/343/343 344/344/344 345/345/345
f 346/346/346 347/347/347 348/348/348
f 349/349/349 350/350/350 351/351/351
f 352/352/352 353/353/353 354/354/354
f 355/355/355 356/356/356 357/357/357
f 358/358/358 359/359/359 360/360/360
f 361/361/361 362/362/362 363/363/363
f 364/364/364 365/365/365 366/366/366
f 367/367/367 368/368/368 369/369/369
f 370/370/370 371/371/371 372/372/372
f 373/373/373 374/374/374 375/375/375
f 376/376/376 377/377/377 378/378/378
f 379/379/379 380/380/380 381/381/381
f 382/382/382 383/383/383 384/384/384
f 385/385/385 386/386/386 387/387/387
f 388/388/388 389/389/389 390/390/390
f 391/391/391 392/392/392 393/393/393
f 394/394/394 395/395/395 396/396/396
f 397/397/397 398/398/398 399/399/399
f 400/400/400 401/401/401 402/402/402
f 403/403/403 404/404/404 405/405/405
f 406/406/406 407/407/407 408/408/408
f 409/409/409 410/410/410 411/411/411
f 412/412/412 413/413/413 414/414/414
f 415/415/415 416/416/416 417/417/417
f 418/418/418 419/419/419 420/420/420
f 421/421/421 422/422/422 423/423/423
f 424/424/424 425/425/425 426/426/426
f 427/427/427 428/428/428 429/429/429
f 430/430/430 431/431/431 432/432/432
f 433/433/433 434/434/434 435/435/435
f 436/436/436 437/437/437 438/438/438
f 439/439/439 440/440/440 441/441/441
f 442/442/442 443/443/443 444/444/444
f 445/445/445 446/446/446 447/447/447
f 448/448/448 449/449/449 450/450/450
f 451/451/451 452/452/452 453/453/453
f 454/454/454 455/455/455 456/456/456
f 457/457/457 458/458/458 459/459/459
f 460/460/460 461/461/461 462/462/462
f 463/463/463 464/464/464 465/465/465
f 466/466/466 467/467/467 468/468/468
f 469/469/469 470/470/470 471/471/471
f 472/472/472 473/473/473 474/474/474
f 475/475/475 476/476/476 477/477/477
f 478/478/478 479/479/479 480/480/480
f 481/481/481 482/482/482 483/483/483
f 484/484/484 485/485/485 486/486/486
f 487/487/487 488/488/488 489/489/489
f 490/490/490 491/491/491 492/492/492
f 493/493/493 494/494/494 495/495/495
f 496/496/496 497/497/497 498/498/498
f 499/499/499 500/500/500 501/501/501
f 502/502/502 503/503/503 504/504/504
f 505/505/505 506/506/506 507/507/507
f 508/508/508 509/509/509 510/510/510
f 511/511/511 512/512/512 513/513/513
f 514/514/514 515/515/515 516/516/516
f 517/517/517 518/518/518 519/519/519
f 520/520/520 521/521/521 522/522/522
f 523/523/523 524/524/524 525/525/525
f 526/526/526 527/527/527 528/528/528
f 529/529/529 530/530/530 531/531/531
f 532/532/532 533/533/533 534/534/534
f 535/535/535 536/536/536 537/537/537
f 538/538/538 539/539/539 540/540/540
f 541/541/541 542/542/542 543/543/543
f 544/544/544 545/545/545 546/546/546
f 547/547/547 548/548/548 549/549/549
f 550/550/550 551/551/551 552/552/552
f 553/553/553 554/554/554 555/555/555
f 556/556/556 557/557/557 558/558/558
f 559/559/559 560/560/560 561/561/561
f 562/562/562 563/563/563 564/564/564
f 565/565/565 566/566/566 567/567/567
f 568/568/568 569/569/569 570/570/570
f 571/571/571 572/572/572 573/573/573
f 574/574/574 575/575/575 576/576/576
f 577/577/577 578/578/578 579/579/579
f 580/580/580 581/581/581 582/582/582
f 583/583/583 584/584/584 585/585/585
f 586/586/586 587/587/587 588/588/588
f 589/589/589 590/590/590 591/591/591
f 592/592/592 593/593/593 594/594/594
f 595/595/595 596/596/596 597/597/597
f 598/598/598 599/599/599 600/600/600
f 601/601/601 602/602/602 603/603/603
f 604/604/604 605/605/605 606/606/606
f 607/607/607 608/608/608 609/609/609
f 610/610/610 611/611/611 612/612/612
f 613/613/613 614/614/614 615/615/615
f 616/616/616 617/617/617 618/618/618
f 619/619/619 620/620/620 621/621/621
f 622/622/622 623/623/623 624/624/624
f 625/625/625 626/626/626 627/627/627
f 628/628/628 629/629/629 630/630/630
f 631/631/631 632/632/632 633/633/633
f 634/634/634 635/635/635 636/636/636
