# OBJ file
v 106.212010 780.074950 540.018600
v 106.212020 780.074950 498.680200
v 61.973404 700.009160 540.018600
v 106.212020 780.074950 498.680200
v 61.973408 700.009160 498.680180
v 61.973404 700.009160 540.018600
vn -0.874151 0.485639 -0.003885
vn -0.874151 0.485639 -0.003885
vn -0.874151 0.485639 -0.003885
vn -0.874151 0.485639 -0.003885
vn -0.874151 0.485639 -0.003885
vn -0.874151 0.485639 -0.003885
vt 0.001376 0.239258
vt 0.001376 0.007324
vt 0.571777 0.239258
vt 0.001376 0.007324
vt 0.571777 0.007324
vt 0.571777 0.239258
f 1/1/1 2/2/2 3/3/3
f 4/4/4 5/5/5 6/6/6
