# OBJ file
v 246.739750 1027.393900 862.223450
v 246.739750 1027.393900 820.884950
v 202.501140 947.328000 862.223400
v 246.739750 1027.393900 820.884950
v 202.501140 947.328000 820.884950
v 202.501140 947.328000 862.223400
vn -0.874151 0.485639 -0.003885
vn -0.874151 0.485639 -0.003885
vn -0.874151 0.485639 -0.003885
vn -0.874151 0.485639 -0.003885
vn -0.874151 0.485639 -0.003885
vn -0.874151 0.485639 -0.003885
vt 0.001376 0.239258
vt 0.001376 0.007324
vt 0.571777 0.239258
vt 0.001376 0.007324
vt 0.571777 0.007324
vt 0.571777 0.239258
f 1/1/1 2/2/2 3/3/3
f 4/4/4 5/5/5 6/6/6
