# OBJ file
v -74.374435 439.884500 549.828400
v -75.052720 440.291170 549.782350
v -75.128740 440.339750 550.583900
v -74.468320 439.936400 550.766800
v -74.374435 439.884500 549.828400
v -75.128740 440.339750 550.583900
v -74.468320 439.936400 550.766800
v -75.128740 440.339750 550.583900
v -75.522000 440.570950 551.612850
v -74.954506 440.223000 552.040700
v -74.468320 439.936400 550.766800
v -75.522000 440.570950 551.612850
v -74.954506 440.223000 552.040700
v -75.522000 440.570950 551.612850
v -76.420730 441.100070 552.655600
v -76.063530 440.876200 553.327900
v -74.954506 440.223000 552.040700
v -76.420730 441.100070 552.655600
v -76.063530 440.876200 553.327900
v -76.420730 441.100070 552.655600
v -77.644780 441.820980 553.157200
v -77.573456 441.765200 553.946900
v -76.063530 440.876200 553.327900
v -77.644780 441.820980 553.157200
v -77.573456 441.765200 553.946900
v -77.644780 441.820980 553.157200
v -78.961296 442.596160 552.984250
v -79.194320 442.719730 553.733500
v -77.573456 441.765200 553.946900
v -78.961296 442.596160 552.984250
v -79.194320 442.719730 553.733500
v -78.961296 442.596160 552.984250
v -80.040130 443.231320 552.191470
v -80.525770 443.503800 552.755250
v -79.194320 442.719730 553.733500
v -80.040130 443.231320 552.191470
v -80.525770 443.503800 552.755250
v -80.040130 443.231320 552.191470
v -80.722760 443.633700 550.940800
v -81.369500 444.000270 551.208900
v -80.525770 443.503800 552.755250
v -80.722760 443.633700 550.940800
v -81.369500 444.000270 551.208900
v -80.722760 443.633700 550.940800
v -80.912140 443.741580 549.782350
v -81.596790 444.137480 549.828400
v -81.369500 444.000270 551.208900
v -80.912140 443.741580 549.782350
v -81.596790 444.137480 549.828400
v -80.912140 443.741580 549.782350
v -80.912150 443.741600 530.373000
v -81.596800 444.137500 530.326900
v -81.596790 444.137480 549.828400
v -80.912150 443.741600 530.373000
v -82.633865 442.376340 530.326900
v -81.955574 441.969600 530.373000
v -82.633860 442.376300 549.828400
v -81.955574 441.969600 530.373000
v -81.955574 441.969570 549.782350
v -82.633860 442.376300 549.828400
v -82.633860 442.376300 549.828400
v -81.955574 441.969570 549.782350
v -82.403680 442.244050 551.208860
v -81.955574 441.969570 549.782350
v -81.769390 441.856350 550.940730
v -82.403680 442.244050 551.208860
v -82.403680 442.244050 551.208860
v -81.769390 441.856350 550.940730
v -81.560260 441.747070 552.755300
v -81.769390 441.856350 550.940730
v -81.086410 441.454530 552.191470
v -81.560260 441.747070 552.755300
v -81.560260 441.747070 552.755300
v -81.086410 441.454530 552.191470
v -80.228750 440.963040 553.733600
v -81.086410 441.454530 552.191470
v -80.007645 440.819240 552.984250
v -80.228750 440.963040 553.733600
v -80.228750 440.963040 553.733600
v -80.007645 440.819240 552.984250
v -78.607834 440.008640 553.946900
v -80.007645 440.819240 552.984250
v -78.691190 440.043950 553.157200
v -78.607834 440.008640 553.946900
v -78.607834 440.008640 553.946900
v -78.691190 440.043950 553.157200
v -77.098020 439.119420 553.327900
v -78.691190 440.043950 553.157200
v -77.466995 439.323200 552.655600
v -77.098020 439.119420 553.327900
v -77.098020 439.119420 553.327900
v -77.466995 439.323200 552.655600
v -75.988860 438.466460 552.040700
v -77.466995 439.323200 552.655600
v -76.568410 438.793950 551.612900
v -75.988860 438.466460 552.040700
v -75.988860 438.466460 552.040700
v -76.568410 438.793950 551.612900
v -75.502410 438.180300 550.766800
v -76.568410 438.793950 551.612900
v -76.175470 438.562200 550.583860
v -75.502410 438.180300 550.766800
v -75.502410 438.180300 550.766800
v -76.175470 438.562200 550.583860
v -75.411490 438.123350 549.828400
v -76.175470 438.562200 550.583860
v -76.096146 438.519260 549.782350
v -75.411490 438.123350 549.828400
v -81.955574 441.969600 530.373000
v -80.912150 443.741600 530.373000
v -81.955574 441.969570 549.782350
v -80.912150 443.741600 530.373000
v -80.912140 443.741580 549.782350
v -81.955574 441.969570 549.782350
v -81.955574 441.969570 549.782350
v -80.912140 443.741580 549.782350
v -81.769390 441.856350 550.940730
v -80.912140 443.741580 549.782350
v -80.722760 443.633700 550.940800
v -81.769390 441.856350 550.940730
v -81.769390 441.856350 550.940730
v -80.722760 443.633700 550.940800
v -81.086410 441.454530 552.191470
v -80.722760 443.633700 550.940800
v -80.040130 443.231320 552.191470
v -81.086410 441.454530 552.191470
v -81.086410 441.454530 552.191470
v -80.040130 443.231320 552.191470
v -80.007645 440.819240 552.984250
v -80.040130 443.231320 552.191470
v -78.961296 442.596160 552.984250
v -80.007645 440.819240 552.984250
v -80.007645 440.819240 552.984250
v -78.961296 442.596160 552.984250
v -78.691190 440.043950 553.157200
v -78.961296 442.596160 552.984250
v -77.644780 441.820980 553.157200
v -78.691190 440.043950 553.157200
v -78.691190 440.043950 553.157200
v -77.644780 441.820980 553.157200
v -77.466995 439.323200 552.655600
v -77.644780 441.820980 553.157200
v -76.420730 441.100070 552.655600
v -77.466995 439.323200 552.655600
v -77.466995 439.323200 552.655600
v -76.420730 441.100070 552.655600
v -76.568410 438.793950 551.612900
v -76.420730 441.100070 552.655600
v -75.522000 440.570950 551.612850
v -76.568410 438.793950 551.612900
v -76.568410 438.793950 551.612900
v -75.522000 440.570950 551.612850
v -76.175470 438.562200 550.583860
v -75.522000 440.570950 551.612850
v -75.128740 440.339750 550.583900
v -76.175470 438.562200 550.583860
v -76.175470 438.562200 550.583860
v -75.128740 440.339750 550.583900
v -76.096146 438.519260 549.782350
v -75.128740 440.339750 550.583900
v -75.052720 440.291170 549.782350
v -76.096146 438.519260 549.782350
v -75.411490 438.123350 549.828400
v -74.374435 439.884500 549.828400
v -74.468320 439.936400 550.766800
v -75.502410 438.180300 550.766800
v -75.411490 438.123350 549.828400
v -74.468320 439.936400 550.766800
v -75.502410 438.180300 550.766800
v -74.468320 439.936400 550.766800
v -74.954506 440.223000 552.040700
v -75.988860 438.466460 552.040700
v -75.502410 438.180300 550.766800
v -74.954506 440.223000 552.040700
v -75.988860 438.466460 552.040700
v -74.954506 440.223000 552.040700
v -76.063530 440.876200 553.327900
v -77.098020 439.119420 553.327900
v -75.988860 438.466460 552.040700
v -76.063530 440.876200 553.327900
v -77.098020 439.119420 553.327900
v -76.063530 440.876200 553.327900
v -77.573456 441.765200 553.946900
v -78.607834 440.008640 553.946900
v -77.098020 439.119420 553.327900
v -77.573456 441.765200 553.946900
v -78.607834 440.008640 553.946900
v -77.573456 441.765200 553.946900
v -79.194320 442.719730 553.733500
v -80.228750 440.963040 553.733600
v -78.607834 440.008640 553.946900
v -79.194320 442.719730 553.733500
v -80.228750 440.963040 553.733600
v -79.194320 442.719730 553.733500
v -80.525770 443.503800 552.755250
v -81.560260 441.747070 552.755300
v -80.228750 440.963040 553.733600
v -80.525770 443.503800 552.755250
v -81.560260 441.747070 552.755300
v -80.525770 443.503800 552.755250
v -81.369500 444.000270 551.208900
v -82.403680 442.244050 551.208860
v -81.560260 441.747070 552.755300
v -81.369500 444.000270 551.208900
v -82.403680 442.244050 551.208860
v -81.369500 444.000270 551.208900
v -81.596790 444.137480 549.828400
v -82.633860 442.376300 549.828400
v -82.403680 442.244050 551.208860
v -81.596790 444.137480 549.828400
v -82.633860 442.376300 549.828400
v -81.596790 444.137480 549.828400
v -81.596800 444.137500 530.326900
v -82.633865 442.376340 530.326900
v -82.633860 442.376300 549.828400
v -81.596800 444.137500 530.326900
vn 0.513339 0.858177 -0.003919
vn 0.513339 0.858177 -0.003919
vn 0.513339 0.858177 -0.003919
vn 0.513339 0.858177 -0.003919
vn 0.513339 0.858177 -0.003919
vn 0.513339 0.858177 -0.003919
vn 0.513339 0.858177 -0.003919
vn 0.513339 0.858177 -0.003919
vn 0.513339 0.858177 0.003919
vn 0.513339 0.858177 0.003919
vn 0.513339 0.858177 -0.003919
vn 0.513339 0.858177 0.003919
vn 0.513339 0.858177 0.003919
vn 0.513339 0.858177 0.003919
vn 0.513307 0.858124 0.011755
vn 0.513307 0.858124 0.011755
vn 0.513339 0.858177 0.003919
vn 0.513307 0.858124 0.011755
vn 0.513307 0.858124 0.011755
vn 0.513307 0.858124 0.011755
vn 0.504079 0.863578 0.011723
vn 0.504079 0.863578 0.011723
vn 0.513307 0.858124 0.011755
vn 0.504079 0.863578 0.011723
vn 0.504079 0.863578 0.011723
vn 0.504079 0.863578 0.011723
vn 0.498215 0.866973 0.011769
vn 0.498215 0.866973 0.011769
vn 0.504079 0.863578 0.011723
vn 0.498215 0.866973 0.011769
vn 0.498215 0.866973 0.011769
vn 0.498215 0.866973 0.011769
vn 0.494876 0.868955 0.003897
vn 0.494876 0.868955 0.003897
vn 0.498215 0.866973 0.011769
vn 0.494876 0.868955 0.003897
vn 0.494876 0.868955 0.003897
vn 0.494876 0.868955 0.003897
vn 0.488957 0.872299 0.003912
vn 0.488957 0.872299 0.003912
vn 0.494876 0.868955 0.003897
vn 0.488957 0.872299 0.003912
vn 0.488957 0.872299 0.003912
vn 0.488957 0.872299 0.003912
vn 0.498246 0.867027 -0.003923
vn 0.498246 0.867027 -0.003923
vn 0.488957 0.872299 0.003912
vn 0.498246 0.867027 -0.003923
vn 0.498246 0.867027 -0.003923
vn 0.498246 0.867027 -0.003923
vn 0.498246 0.867027 -0.003923
vn 0.498246 0.867027 -0.003923
vn 0.498246 0.867027 -0.003923
vn 0.498246 0.867027 -0.003923
vn -0.522558 -0.852595 -0.003929
vn -0.522558 -0.852595 -0.003929
vn -0.522558 -0.852595 -0.003929
vn -0.522558 -0.852595 -0.003929
vn -0.522558 -0.852595 -0.003929
vn -0.522558 -0.852595 -0.003929
vn -0.522558 -0.852595 -0.003929
vn -0.522558 -0.852595 -0.003929
vn -0.522558 -0.852595 0.003929
vn -0.522558 -0.852595 -0.003929
vn -0.522558 -0.852595 0.003929
vn -0.522558 -0.852595 0.003929
vn -0.522558 -0.852595 0.003929
vn -0.522558 -0.852595 0.003929
vn -0.522558 -0.852595 0.003929
vn -0.522558 -0.852595 0.003929
vn -0.522558 -0.852595 0.003929
vn -0.522558 -0.852595 0.003929
vn -0.522558 -0.852595 0.003929
vn -0.522558 -0.852595 0.003929
vn -0.513307 -0.858124 0.011755
vn -0.522558 -0.852595 0.003929
vn -0.513307 -0.858124 0.011755
vn -0.513307 -0.858124 0.011755
vn -0.513307 -0.858124 0.011755
vn -0.513307 -0.858124 0.011755
vn -0.513307 -0.858124 0.011755
vn -0.513307 -0.858124 0.011755
vn -0.513307 -0.858124 0.011755
vn -0.513307 -0.858124 0.011755
vn -0.513307 -0.858124 0.011755
vn -0.513307 -0.858124 0.011755
vn -0.507500 -0.861571 0.011802
vn -0.513307 -0.858124 0.011755
vn -0.507500 -0.861571 0.011802
vn -0.507500 -0.861571 0.011802
vn -0.507500 -0.861571 0.011802
vn -0.507500 -0.861571 0.011802
vn -0.498246 -0.867027 0.003923
vn -0.507500 -0.861571 0.011802
vn -0.498246 -0.867027 0.003923
vn -0.498246 -0.867027 0.003923
vn -0.498246 -0.867027 0.003923
vn -0.498246 -0.867027 0.003923
vn -0.498246 -0.867027 -0.003923
vn -0.498246 -0.867027 0.003923
vn -0.498246 -0.867027 -0.003923
vn -0.498246 -0.867027 -0.003923
vn -0.498246 -0.867027 -0.003923
vn -0.498246 -0.867027 -0.003923
vn -0.498246 -0.867027 -0.003923
vn -0.498246 -0.867027 -0.003923
vn -0.498246 -0.867027 -0.003923
vn -0.498246 -0.867027 -0.003923
vn 0.861624 -0.507532 -0.003934
vn 0.861624 -0.507532 -0.003934
vn 0.858822 -0.502628 -0.098943
vn 0.861624 -0.507532 -0.003934
vn 0.858822 -0.502628 -0.098943
vn 0.858822 -0.502628 -0.098943
vn 0.858822 -0.502628 -0.098943
vn 0.858822 -0.502628 -0.098943
vn 0.799963 -0.468944 -0.374367
vn 0.858822 -0.502628 -0.098943
vn 0.799963 -0.468944 -0.374367
vn 0.799963 -0.468944 -0.374367
vn 0.799963 -0.468944 -0.374367
vn 0.799963 -0.468944 -0.374367
vn 0.607647 -0.356748 -0.709575
vn 0.799963 -0.468944 -0.374367
vn 0.607647 -0.356748 -0.709575
vn 0.607647 -0.356748 -0.709575
vn 0.607647 -0.356748 -0.709575
vn 0.607647 -0.356748 -0.709575
vn 0.285761 -0.168325 -0.943402
vn 0.607647 -0.356748 -0.709575
vn 0.285761 -0.168325 -0.943402
vn 0.285761 -0.168325 -0.943402
vn 0.285761 -0.168325 -0.943402
vn 0.285761 -0.168325 -0.943402
vn -0.097405 0.058443 -0.993528
vn 0.285761 -0.168325 -0.943402
vn -0.097405 0.058443 -0.993528
vn -0.097405 0.058443 -0.993528
vn -0.097405 0.058443 -0.993528
vn -0.097405 0.058443 -0.993528
vn -0.462189 0.275760 -0.842815
vn -0.097405 0.058443 -0.993528
vn -0.462189 0.275760 -0.842815
vn -0.462189 0.275760 -0.842815
vn -0.462189 0.275760 -0.842815
vn -0.462189 0.275760 -0.842815
vn -0.712526 0.416614 -0.564570
vn -0.462189 0.275760 -0.842815
vn -0.712526 0.416614 -0.564570
vn -0.712526 0.416614 -0.564570
vn -0.712526 0.416614 -0.564570
vn -0.712526 0.416614 -0.564570
vn -0.832368 0.488479 -0.261825
vn -0.712526 0.416614 -0.564570
vn -0.832368 0.488479 -0.261825
vn -0.832368 0.488479 -0.261825
vn -0.832368 0.488479 -0.261825
vn -0.832368 0.488479 -0.261825
vn -0.856076 0.504264 -0.113362
vn -0.832368 0.488479 -0.261825
vn -0.856076 0.504264 -0.113362
vn -0.856076 0.504264 -0.113362
vn 0.858123 -0.502220 0.106771
vn 0.858123 -0.502220 0.106771
vn 0.834866 -0.486676 0.257186
vn 0.834866 -0.486676 0.257186
vn 0.858123 -0.502220 0.106771
vn 0.834866 -0.486676 0.257186
vn 0.834866 -0.486676 0.257186
vn 0.834866 -0.486676 0.257186
vn 0.714155 -0.414289 0.564222
vn 0.714155 -0.414289 0.564222
vn 0.834866 -0.486676 0.257186
vn 0.714155 -0.414289 0.564222
vn 0.714155 -0.414289 0.564222
vn 0.714155 -0.414289 0.564222
vn 0.460063 -0.271319 0.845416
vn 0.460063 -0.271319 0.845416
vn 0.714155 -0.414289 0.564222
vn 0.460063 -0.271319 0.845416
vn 0.460063 -0.271319 0.845416
vn 0.460063 -0.271319 0.845416
vn 0.090417 -0.051106 0.994592
vn 0.090417 -0.051106 0.994592
vn 0.460063 -0.271319 0.845416
vn 0.090417 -0.051106 0.994592
vn 0.090417 -0.051106 0.994592
vn 0.090417 -0.051106 0.994592
vn -0.294694 0.176816 0.939091
vn -0.294694 0.176816 0.939091
vn 0.090417 -0.051106 0.994592
vn -0.294694 0.176816 0.939091
vn -0.294694 0.176816 0.939091
vn -0.294694 0.176816 0.939091
vn -0.614205 0.363828 0.700272
vn -0.614205 0.363828 0.700272
vn -0.294694 0.176816 0.939091
vn -0.614205 0.363828 0.700272
vn -0.614205 0.363828 0.700272
vn -0.614205 0.363828 0.700272
vn -0.802135 0.473455 0.363895
vn -0.802135 0.473455 0.363895
vn -0.614205 0.363828 0.700272
vn -0.802135 0.473455 0.363895
vn -0.802135 0.473455 0.363895
vn -0.802135 0.473455 0.363895
vn -0.858124 0.505471 0.090123
vn -0.858124 0.505471 0.090123
vn -0.802135 0.473455 0.363895
vn -0.858124 0.505471 0.090123
vn -0.858124 0.505471 0.090123
vn -0.858124 0.505471 0.090123
vn -0.860222 0.509905 -0.003892
vn -0.860222 0.509905 -0.003892
vn -0.858124 0.505471 0.090123
vn -0.860222 0.509905 -0.003892
vt 0.683105 0.420410
vt 0.683105 0.423828
vt 0.680176 0.423828
vt 0.680176 0.420410
vt 0.683105 0.420410
vt 0.680176 0.423828
vt 0.680176 0.420410
vt 0.680176 0.423828
vt 0.674316 0.423828
vt 0.674316 0.420410
vt 0.680176 0.420410
vt 0.674316 0.423828
vt 0.674316 0.420410
vt 0.674316 0.423828
vt 0.665527 0.423828
vt 0.665527 0.420410
vt 0.674316 0.420410
vt 0.665527 0.423828
vt 0.665527 0.420410
vt 0.665527 0.423828
vt 0.655762 0.423828
vt 0.655762 0.420410
vt 0.665527 0.420410
vt 0.655762 0.423828
vt 0.655762 0.420410
vt 0.655762 0.423828
vt 0.645508 0.423828
vt 0.645508 0.420410
vt 0.655762 0.420410
vt 0.645508 0.423828
vt 0.645508 0.420410
vt 0.645508 0.423828
vt 0.635742 0.423828
vt 0.635742 0.420410
vt 0.645508 0.420410
vt 0.635742 0.423828
vt 0.635742 0.420410
vt 0.635742 0.423828
vt 0.626465 0.423828
vt 0.626465 0.420410
vt 0.635742 0.420410
vt 0.626465 0.423828
vt 0.626465 0.420410
vt 0.626465 0.423828
vt 0.619141 0.423828
vt 0.619141 0.420410
vt 0.626465 0.420410
vt 0.619141 0.423828
vt 0.619141 0.420410
vt 0.619141 0.423828
vt 0.506836 0.423828
vt 0.506836 0.420410
vt 0.619141 0.420410
vt 0.506836 0.423828
vt 0.531250 0.042969
vt 0.531250 0.046387
vt 0.420410 0.042969
vt 0.531250 0.046387
vt 0.420410 0.046387
vt 0.420410 0.042969
vt 0.420410 0.042969
vt 0.420410 0.046387
vt 0.413086 0.042969
vt 0.420410 0.046387
vt 0.413086 0.046387
vt 0.413086 0.042969
vt 0.413086 0.042969
vt 0.413086 0.046387
vt 0.403809 0.042969
vt 0.413086 0.046387
vt 0.403809 0.046387
vt 0.403809 0.042969
vt 0.403809 0.042969
vt 0.403809 0.046387
vt 0.394043 0.042969
vt 0.403809 0.046387
vt 0.394043 0.046387
vt 0.394043 0.042969
vt 0.394043 0.042969
vt 0.394043 0.046387
vt 0.384033 0.042969
vt 0.394043 0.046387
vt 0.384033 0.046387
vt 0.384033 0.042969
vt 0.384033 0.042969
vt 0.384033 0.046387
vt 0.374268 0.042969
vt 0.384033 0.046387
vt 0.374268 0.046387
vt 0.374268 0.042969
vt 0.374268 0.042969
vt 0.374268 0.046387
vt 0.365234 0.042969
vt 0.374268 0.046387
vt 0.365234 0.046387
vt 0.365234 0.042969
vt 0.365234 0.042969
vt 0.365234 0.046387
vt 0.359375 0.042969
vt 0.365234 0.046387
vt 0.359375 0.046387
vt 0.359375 0.042969
vt 0.359375 0.042969
vt 0.359375 0.046387
vt 0.356445 0.042969
vt 0.359375 0.046387
vt 0.356445 0.046387
vt 0.356445 0.042969
vt 0.743164 0.863403
vt 0.743164 0.855713
vt 0.872559 0.863403
vt 0.743164 0.855713
vt 0.872559 0.855713
vt 0.872559 0.863403
vt 0.872559 0.863403
vt 0.872559 0.855713
vt 0.880371 0.863403
vt 0.872559 0.855713
vt 0.880371 0.855713
vt 0.880371 0.863403
vt 0.880371 0.863403
vt 0.880371 0.855713
vt 0.890137 0.863403
vt 0.880371 0.855713
vt 0.890137 0.855713
vt 0.890137 0.863403
vt 0.890137 0.863403
vt 0.890137 0.855713
vt 0.900391 0.863403
vt 0.890137 0.855713
vt 0.900391 0.855713
vt 0.900391 0.863403
vt 0.900391 0.863403
vt 0.900391 0.855713
vt 0.910645 0.863403
vt 0.900391 0.855713
vt 0.910645 0.855713
vt 0.910645 0.863403
vt 0.910645 0.863403
vt 0.910645 0.855713
vt 0.920898 0.863403
vt 0.910645 0.855713
vt 0.920898 0.855713
vt 0.920898 0.863403
vt 0.920898 0.863403
vt 0.920898 0.855713
vt 0.931152 0.863403
vt 0.920898 0.855713
vt 0.931152 0.855713
vt 0.931152 0.863403
vt 0.931152 0.863403
vt 0.931152 0.855713
vt 0.938477 0.863403
vt 0.931152 0.855713
vt 0.938477 0.855713
vt 0.938477 0.863403
vt 0.938477 0.863403
vt 0.938477 0.855713
vt 0.943848 0.863403
vt 0.938477 0.855713
vt 0.943848 0.855713
vt 0.943848 0.863403
vt -0.057831 0.789673
vt -0.057831 0.782104
vt -0.051514 0.782104
vt -0.051514 0.789673
vt -0.057831 0.789673
vt -0.051514 0.782104
vt -0.051514 0.789673
vt -0.051514 0.782104
vt -0.042175 0.782104
vt -0.042175 0.789673
vt -0.051514 0.789673
vt -0.042175 0.782104
vt -0.042175 0.789673
vt -0.042175 0.782104
vt -0.029877 0.782104
vt -0.029877 0.789673
vt -0.042175 0.789673
vt -0.029877 0.782104
vt -0.029877 0.789673
vt -0.029877 0.782104
vt -0.017181 0.782104
vt -0.017181 0.789673
vt -0.029877 0.789673
vt -0.017181 0.782104
vt -0.017181 0.789673
vt -0.017181 0.782104
vt -0.004208 0.782104
vt -0.004208 0.789673
vt -0.017181 0.789673
vt -0.004208 0.782104
vt -0.004208 0.789673
vt -0.004208 0.782104
vt 0.008224 0.782104
vt 0.008224 0.789673
vt -0.004208 0.789673
vt 0.008224 0.782104
vt 0.008224 0.789673
vt 0.008224 0.782104
vt 0.020523 0.782104
vt 0.020523 0.789673
vt 0.008224 0.789673
vt 0.020523 0.782104
vt 0.020523 0.789673
vt 0.020523 0.782104
vt 0.029907 0.782104
vt 0.029907 0.789673
vt 0.020523 0.789673
vt 0.029907 0.782104
vt 0.029907 0.789673
vt 0.029907 0.782104
vt 0.159912 0.782104
vt 0.159912 0.789673
vt 0.029907 0.789673
vt 0.159912 0.782104
f 1/1/1 2/2/2 3/3/3
f 4/4/4 5/5/5 6/6/6
f 7/7/7 8/8/8 9/9/9
f 10/10/10 11/11/11 12/12/12
f 13/13/13 14/14/14 15/15/15
f 16/16/16 17/17/17 18/18/18
f 19/19/19 20/20/20 21/21/21
f 22/22/22 23/23/23 24/24/24
f 25/25/25 26/26/26 27/27/27
f 28/28/28 29/29/29 30/30/30
f 31/31/31 32/32/32 33/33/33
f 34/34/34 35/35/35 36/36/36
f 37/37/37 38/38/38 39/39/39
f 40/40/40 41/41/41 42/42/42
f 43/43/43 44/44/44 45/45/45
f 46/46/46 47/47/47 48/48/48
f 49/49/49 50/50/50 51/51/51
f 52/52/52 53/53/53 54/54/54
f 55/55/55 56/56/56 57/57/57
f 58/58/58 59/59/59 60/60/60
f 61/61/61 62/62/62 63/63/63
f 64/64/64 65/65/65 66/66/66
f 67/67/67 68/68/68 69/69/69
f 70/70/70 71/71/71 72/72/72
f 73/73/73 74/74/74 75/75/75
f 76/76/76 77/77/77 78/78/78
f 79/79/79 80/80/80 81/81/81
f 82/82/82 83/83/83 84/84/84
f 85/85/85 86/86/86 87/87/87
f 88/88/88 89/89/89 90/90/90
f 91/91/91 92/92/92 93/93/93
f 94/94/94 95/95/95 96/96/96
f 97/97/97 98/98/98 99/99/99
f 100/100/100 101/101/101 102/102/102
f 103/103/103 104/104/104 105/105/105
f 106/106/106 107/107/107 108/108/108
f 109/109/109 110/110/110 111/111/111
f 112/112/112 113/113/113 114/114/114
f 115/115/115 116/116/116 117/117/117
f 118/118/118 119/119/119 120/120/120
f 121/121/121 122/122/122 123/123/123
f 124/124/124 125/125/125 126/126/126
f 127/127/127 128/128/128 129/129/129
f 130/130/130 131/131/131 132/132/132
f 133/133/133 134/134/134 135/135/135
f 136/136/136 137/137/137 138/138/138
f 139/139/139 140/140/140 141/141/141
f 142/142/142 143/143/143 144/144/144
f 145/145/145 146/146/146 147/147/147
f 148/148/148 149/149/149 150/150/150
f 151/151/151 152/152/152 153/153/153
f 154/154/154 155/155/155 156/156/156
f 157/157/157 158/158/158 159/159/159
f 160/160/160 161/161/161 162/162/162
f 163/163/163 164/164/164 165/165/165
f 166/166/166 167/167/167 168/168/168
f 169/169/169 170/170/170 171/171/171
f 172/172/172 173/173/173 174/174/174
f 175/175/175 176/176/176 177/177/177
f 178/178/178 179/179/179 180/180/180
f 181/181/181 182/182/182 183/183/183
f 184/184/184 185/185/185 186/186/186
f 187/187/187 188/188/188 189/189/189
f 190/190/190 191/191/191 192/192/192
f 193/193/193 194/194/194 195/195/195
f 196/196/196 197/197/197 198/198/198
f 199/199/199 200/200/200 201/201/201
f 202/202/202 203/203/203 204/204/204
f 205/205/205 206/206/206 207/207/207
f 208/208/208 209/209/209 210/210/210
f 211/211/211 212/212/212 213/213/213
f 214/214/214 215/215/215 216/216/216
