# OBJ file
v 428.090880 -266.420530 1155.832800
v 428.090880 -266.420530 1114.494300
v 513.352400 -299.557530 1155.832800
v 428.090880 -266.420530 1114.494300
v 513.352400 -299.557530 1114.494300
v 513.352400 -299.557530 1155.832800
vn -0.365285 -0.930888 -0.003928
vn -0.365285 -0.930888 -0.003928
vn -0.365285 -0.930888 -0.003928
vn -0.365285 -0.930888 -0.003928
vn -0.365285 -0.930888 -0.003928
vn -0.365285 -0.930888 -0.003928
vt 0.001376 0.239258
vt 0.001376 0.007324
vt 0.571777 0.239258
vt 0.001376 0.007324
vt 0.571777 0.007324
vt 0.571777 0.239258
f 1/1/1 2/2/2 3/3/3
f 4/4/4 5/5/5 6/6/6
