# OBJ file
v 710.918460 -377.184170 862.223400
v 710.918460 -377.184170 820.884900
v 796.180000 -410.321140 862.223300
v 710.918460 -377.184170 820.884900
v 796.180000 -410.321170 820.884900
v 796.180000 -410.321140 862.223300
vn -0.365285 -0.930888 -0.003928
vn -0.365285 -0.930888 -0.003928
vn -0.365285 -0.930888 -0.003928
vn -0.365285 -0.930888 -0.003928
vn -0.365285 -0.930888 -0.003928
vn -0.365285 -0.930888 -0.003928
vt 0.001376 0.239258
vt 0.001376 0.007324
vt 0.571777 0.239258
vt 0.001376 0.007324
vt 0.571777 0.007324
vt 0.571777 0.239258
f 1/1/1 2/2/2 3/3/3
f 4/4/4 5/5/5 6/6/6
