# OBJ file
v 447.345920 -293.627200 1342.064100
v 453.246030 -278.855620 1342.064100
v 457.205720 -280.437870 1304.519200
v 453.020480 -290.916170 1304.519200
v 447.345920 -293.627200 1342.064100
v 457.205720 -280.437870 1304.519200
v 447.345920 -293.627200 1342.064100
v 453.020480 -290.916170 1304.519200
v 453.766200 -292.215240 1304.515300
v 448.090450 -294.926850 1342.068000
v 447.345920 -293.627200 1342.064100
v 453.766200 -292.215240 1304.515300
v 448.090450 -294.926850 1342.068000
v 453.766200 -292.215240 1304.515300
v 452.434840 -296.135350 1338.092200
v 448.090450 -294.926850 1342.068000
v 452.434840 -296.135350 1338.092200
v 468.525850 -302.563870 1338.092200
v 472.507300 -304.681700 1342.068100
v 448.090450 -294.926850 1342.068000
v 468.525850 -302.563870 1338.092200
v 453.766200 -292.215240 1304.515300
v 456.876070 -293.979300 1308.449600
v 452.434840 -296.135350 1338.092200
v 453.766200 -292.215240 1304.515300
v 470.260160 -298.804800 1304.515300
v 456.876070 -293.979300 1308.449600
v 470.260160 -298.804800 1304.515300
v 471.695620 -298.377170 1304.519200
v 472.507300 -304.681700 1342.068100
v 471.695620 -298.377170 1304.519200
v 475.880500 -287.899700 1304.519200
v 479.841860 -289.482330 1342.064100
v 473.942230 -304.252750 1342.064100
v 471.695620 -298.377170 1304.519200
v 479.841860 -289.482330 1342.064100
v 471.695620 -298.377170 1304.519200
v 473.942230 -304.252750 1342.064100
v 472.507300 -304.681700 1342.068100
v 470.260160 -298.804800 1304.515300
v 472.507300 -304.681700 1342.068100
v 466.791140 -297.940520 1308.449600
v 470.260160 -298.804800 1304.515300
v 466.791140 -297.940520 1308.449600
v 456.876070 -293.979300 1308.449600
v 472.507300 -304.681700 1342.068100
v 468.525850 -302.563870 1338.092200
v 466.791140 -297.940520 1308.449600
v 456.876070 -293.979300 1308.449600
v 466.791140 -297.940520 1308.449600
v 465.925870 -297.341370 1309.187300
v 466.791140 -297.940520 1308.449600
v 468.525850 -302.563870 1338.092200
v 467.977260 -301.886630 1337.102300
v 466.791140 -297.940520 1308.449600
v 466.318450 -297.550500 1309.579100
v 465.925870 -297.341370 1309.187300
v 466.318450 -297.550500 1309.579100
v 466.791140 -297.940520 1308.449600
v 467.977260 -301.886630 1337.102300
v 457.916050 -294.141330 1309.187100
v 456.876070 -293.979300 1308.449600
v 465.925870 -297.341370 1309.187300
v 465.925870 -297.341370 1309.187300
v 466.318450 -297.550500 1309.579100
v 465.427980 -296.144840 1310.323100
v 456.876070 -293.979300 1308.449600
v 457.916050 -294.141330 1309.187100
v 457.487400 -294.022370 1309.579000
v 452.434840 -296.135350 1338.092200
v 456.876070 -293.979300 1308.449600
v 457.487400 -294.022370 1309.579000
v 457.916050 -294.141330 1309.187100
v 465.925870 -297.341370 1309.187300
v 459.101350 -293.617250 1310.323200
v 465.925870 -297.341370 1309.187300
v 465.427980 -296.144840 1310.323100
v 459.101350 -293.617250 1310.323200
v 457.487400 -294.022370 1309.579000
v 457.916050 -294.141330 1309.187100
v 458.673130 -293.498140 1310.715100
v 457.916050 -294.141330 1309.187100
v 459.101350 -293.617250 1310.323200
v 458.673130 -293.498140 1310.715100
v 453.299070 -296.022460 1337.102200
v 452.434840 -296.135350 1338.092200
v 457.487400 -294.022370 1309.579000
v 459.101350 -293.617250 1310.323200
v 465.427980 -296.144840 1310.323100
v 464.994700 -296.049870 1310.912400
v 452.434840 -296.135350 1338.092200
v 453.299070 -296.022460 1337.102200
v 453.608400 -296.198360 1337.494000
v 468.525850 -302.563870 1338.092200
v 452.434840 -296.135350 1338.092200
v 453.608400 -296.198360 1337.494000
v 453.299070 -296.022460 1337.102200
v 457.487400 -294.022370 1309.579000
v 454.820370 -295.338800 1336.206000
v 457.487400 -294.022370 1309.579000
v 458.673130 -293.498140 1310.715100
v 454.820370 -295.338800 1336.206000
v 467.631900 -301.800930 1337.494100
v 468.525850 -302.563870 1338.092200
v 453.608400 -296.198360 1337.494000
v 468.525850 -302.563870 1338.092200
v 467.631900 -301.800930 1337.494100
v 467.977260 -301.886630 1337.102300
v 453.608400 -296.198360 1337.494000
v 453.299070 -296.022460 1337.102200
v 455.130130 -295.514500 1336.597800
v 453.299070 -296.022460 1337.102200
v 454.820370 -295.338800 1336.206000
v 455.130130 -295.514500 1336.597800
v 467.631900 -301.800930 1337.494100
v 453.608400 -296.198360 1337.494000
v 467.000270 -300.256770 1336.597900
v 453.608400 -296.198360 1337.494000
v 455.130130 -295.514500 1336.597800
v 467.000270 -300.256770 1336.597900
v 467.977260 -301.886630 1337.102300
v 467.631900 -301.800930 1337.494100
v 467.345760 -300.342830 1336.206000
v 467.631900 -301.800930 1337.494100
v 467.000270 -300.256770 1336.597900
v 467.345760 -300.342830 1336.206000
v 467.977260 -301.886630 1337.102300
v 467.345760 -300.342830 1336.206000
v 465.820370 -296.353580 1310.715000
v 466.318450 -297.550500 1309.579100
v 467.977260 -301.886630 1337.102300
v 465.820370 -296.353580 1310.715000
v 466.318450 -297.550500 1309.579100
v 465.820370 -296.353580 1310.715000
v 465.427980 -296.144840 1310.323100
v 465.427980 -296.144840 1310.323100
v 465.820370 -296.353580 1310.715000
v 464.994700 -296.049870 1310.912400
v 467.345760 -300.342830 1336.206000
v 467.000270 -300.256770 1336.597900
v 466.761260 -300.043330 1335.708500
v 465.820370 -296.353580 1310.715000
v 467.345760 -300.342830 1336.206000
v 466.761260 -300.043330 1335.708500
v 467.000270 -300.256770 1336.597900
v 455.130130 -295.514500 1336.597800
v 466.496400 -299.977360 1336.008800
v 467.000270 -300.256770 1336.597900
v 466.496400 -299.977360 1336.008800
v 466.761260 -300.043330 1335.708500
v 455.130130 -295.514500 1336.597800
v 455.687740 -295.659150 1336.008800
v 466.496400 -299.977360 1336.008800
v 455.130130 -295.514500 1336.597800
v 454.820370 -295.338800 1336.206000
v 455.687740 -295.659150 1336.008800
v 465.295500 -296.209840 1311.212600
v 465.820370 -296.353580 1310.715000
v 466.761260 -300.043330 1335.708500
v 465.820370 -296.353580 1310.715000
v 465.295500 -296.209840 1311.212600
v 464.994700 -296.049870 1310.912400
v 454.820370 -295.338800 1336.206000
v 455.450320 -295.524480 1335.708400
v 455.687740 -295.659150 1336.008800
v 454.820370 -295.338800 1336.206000
v 458.673130 -293.498140 1310.715100
v 455.450320 -295.524480 1335.708400
v 466.496400 -299.977360 1336.008800
v 455.687740 -295.659150 1336.008800
v 460.246220 -299.935500 1333.362000
v 455.687740 -295.659150 1336.008800
v 455.450320 -295.524480 1335.708400
v 460.246220 -299.935500 1333.362000
v 466.496400 -299.977360 1336.008800
v 460.246220 -299.935500 1333.362000
v 460.472960 -300.087950 1332.902300
v 466.761260 -300.043330 1335.708500
v 466.496400 -299.977360 1336.008800
v 460.472960 -300.087950 1332.902300
v 455.450320 -295.524480 1335.708400
v 459.976840 -299.889770 1332.902300
v 460.246220 -299.935500 1333.362000
v 460.246220 -299.935500 1333.362000
v 459.976840 -299.889770 1332.902300
v 460.472960 -300.087950 1332.902300
v 466.761260 -300.043330 1335.708500
v 460.472960 -300.087950 1332.902300
v 461.598140 -297.275670 1313.578700
v 460.472960 -300.087950 1332.902300
v 459.976840 -299.889770 1332.902300
v 461.598140 -297.275670 1313.578700
v 465.295500 -296.209840 1311.212600
v 466.761260 -300.043330 1335.708500
v 461.598140 -297.275670 1313.578700
v 455.450320 -295.524480 1335.708400
v 459.152650 -293.755680 1311.212600
v 459.976840 -299.889770 1332.902300
v 458.673130 -293.498140 1310.715100
v 459.152650 -293.755680 1311.212600
v 455.450320 -295.524480 1335.708400
v 459.976840 -299.889770 1332.902300
v 461.097700 -297.075780 1313.578700
v 461.598140 -297.275670 1313.578700
v 459.152650 -293.755680 1311.212600
v 461.097700 -297.075780 1313.578700
v 459.976840 -299.889770 1332.902300
v 465.295500 -296.209840 1311.212600
v 461.598140 -297.275670 1313.578700
v 461.423000 -296.987820 1313.089000
v 461.423000 -296.987820 1313.089000
v 461.598140 -297.275670 1313.578700
v 461.097700 -297.075780 1313.578700
v 464.994700 -296.049870 1310.912400
v 465.295500 -296.209840 1311.212600
v 461.423000 -296.987820 1313.089000
v 459.152650 -293.755680 1311.212600
v 459.480900 -293.847020 1310.912200
v 461.097700 -297.075780 1313.578700
v 459.480900 -293.847020 1310.912200
v 461.423000 -296.987820 1313.089000
v 461.097700 -297.075780 1313.578700
v 459.480900 -293.847020 1310.912200
v 459.152650 -293.755680 1311.212600
v 458.673130 -293.498140 1310.715100
v 459.480900 -293.847020 1310.912200
v 464.994700 -296.049870 1310.912400
v 461.423000 -296.987820 1313.089000
v 459.101350 -293.617250 1310.323200
v 459.480900 -293.847020 1310.912200
v 458.673130 -293.498140 1310.715100
v 459.480900 -293.847020 1310.912200
v 459.101350 -293.617250 1310.323200
v 464.994700 -296.049870 1310.912400
v 457.205720 -280.437870 1304.519200
v 458.397220 -280.913970 1303.601800
v 453.020480 -290.916170 1304.519200
v 458.397220 -280.913970 1303.601800
v 454.255100 -291.284450 1303.601700
v 453.020480 -290.916170 1304.519200
v 453.020480 -290.916170 1304.519200
v 454.255100 -291.284450 1303.601700
v 453.766200 -292.215240 1304.515300
v 458.397220 -280.913970 1303.601800
v 474.688960 -287.423580 1303.601800
v 454.255100 -291.284450 1303.601700
v 453.766200 -292.215240 1304.515300
v 454.255100 -291.284450 1303.601700
v 470.260160 -298.804800 1304.515300
v 474.688960 -287.423580 1303.601800
v 470.547100 -297.793330 1303.601900
v 454.255100 -291.284450 1303.601700
v 454.255100 -291.284450 1303.601700
v 470.547100 -297.793330 1303.601900
v 470.260160 -298.804800 1304.515300
v 470.547100 -297.793330 1303.601900
v 474.688960 -287.423580 1303.601800
v 475.880500 -287.899700 1304.519200
v 470.547100 -297.793330 1303.601900
v 471.695620 -298.377170 1304.519200
v 470.260160 -298.804800 1304.515300
v 471.695620 -298.377170 1304.519200
v 470.547100 -297.793330 1303.601900
v 475.880500 -287.899700 1304.519200
v 479.841860 -289.482330 1342.064100
v 478.863560 -289.091430 1342.981600
v 473.942230 -304.252750 1342.064100
v 478.863560 -289.091430 1342.981600
v 472.914670 -303.985200 1342.981600
v 473.942230 -304.252750 1342.064100
v 472.507300 -304.681700 1342.068100
v 473.942230 -304.252750 1342.064100
v 472.914670 -303.985200 1342.981600
v 472.914670 -303.985200 1342.981600
v 478.863560 -289.091430 1342.981600
v 454.224400 -279.246520 1342.981400
v 472.507300 -304.681700 1342.068100
v 472.914670 -303.985200 1342.981600
v 448.090450 -294.926850 1342.068000
v 448.275120 -294.141400 1342.981300
v 472.914670 -303.985200 1342.981600
v 454.224400 -279.246520 1342.981400
v 472.914670 -303.985200 1342.981600
v 448.275120 -294.141400 1342.981300
v 448.090450 -294.926850 1342.068000
v 448.275120 -294.141400 1342.981300
v 454.224400 -279.246520 1342.981400
v 453.246030 -278.855620 1342.064100
v 448.090450 -294.926850 1342.068000
v 448.275120 -294.141400 1342.981300
v 447.345920 -293.627200 1342.064100
v 447.345920 -293.627200 1342.064100
v 448.275120 -294.141400 1342.981300
v 453.246030 -278.855620 1342.064100
vn -0.922277 0.369689 -0.112852
vn -0.922277 0.369689 -0.112852
vn -0.922277 0.369689 -0.112852
vn -0.922277 0.369689 -0.112852
vn -0.922277 0.369689 -0.112852
vn -0.922277 0.369689 -0.112852
vn -0.922277 0.369689 -0.112852
vn -0.922277 0.369689 -0.112852
vn -0.371653 -0.919352 -0.129100
vn -0.371653 -0.919352 -0.129100
vn -0.922277 0.369689 -0.112852
vn -0.371653 -0.919352 -0.129100
vn -0.371653 -0.919352 -0.129100
vn -0.371653 -0.919352 -0.129100
vn -0.371653 -0.919352 -0.129100
vn -0.371653 -0.919352 -0.129100
vn -0.371653 -0.919352 -0.129100
vn -0.371653 -0.919352 -0.129100
vn -0.371653 -0.919352 -0.129100
vn -0.371653 -0.919352 -0.129100
vn -0.371653 -0.919352 -0.129100
vn -0.371653 -0.919352 -0.129100
vn -0.371653 -0.919352 -0.129100
vn -0.371653 -0.919352 -0.129100
vn -0.371653 -0.919352 -0.129100
vn -0.371653 -0.919352 -0.129100
vn -0.371653 -0.919352 -0.129100
vn -0.371653 -0.919352 -0.129100
vn 0.923773 -0.365578 -0.113997
vn -0.371653 -0.919352 -0.129100
vn 0.923773 -0.365578 -0.113997
vn 0.923773 -0.365578 -0.113997
vn 0.923773 -0.365578 -0.113997
vn 0.923773 -0.365578 -0.113997
vn 0.923773 -0.365578 -0.113997
vn 0.923773 -0.365578 -0.113997
vn 0.923773 -0.365578 -0.113997
vn 0.923773 -0.365578 -0.113997
vn -0.371653 -0.919352 -0.129100
vn -0.371653 -0.919352 -0.129100
vn -0.371653 -0.919352 -0.129100
vn -0.371653 -0.919352 -0.129100
vn -0.371653 -0.919352 -0.129100
vn -0.371653 -0.919352 -0.129100
vn -0.371653 -0.919352 -0.129100
vn -0.371653 -0.919352 -0.129100
vn -0.371653 -0.919352 -0.129100
vn -0.371653 -0.919352 -0.129100
vn -0.371653 -0.919352 -0.129100
vn -0.371653 -0.919352 -0.129100
vn -0.294095 -0.717592 0.631324
vn -0.371653 -0.919352 -0.129100
vn -0.371653 -0.919352 -0.129100
vn -0.925421 -0.378759 -0.011714
vn -0.371653 -0.919352 -0.129100
vn -0.925421 -0.378759 -0.011714
vn -0.294095 -0.717592 0.631324
vn -0.925421 -0.378759 -0.011714
vn -0.371653 -0.919352 -0.129100
vn -0.925421 -0.378759 -0.011714
vn -0.294095 -0.717592 0.631324
vn -0.371653 -0.919352 -0.129100
vn -0.294095 -0.717592 0.631324
vn -0.294095 -0.717592 0.631324
vn -0.925421 -0.378759 -0.011714
vn -0.294095 -0.717592 0.631324
vn -0.371653 -0.919352 -0.129100
vn -0.294095 -0.717592 0.631324
vn 0.407210 -0.913258 -0.011860
vn -0.371653 -0.919352 -0.129100
vn -0.371653 -0.919352 -0.129100
vn 0.407210 -0.913258 -0.011860
vn -0.294095 -0.717592 0.631324
vn -0.294095 -0.717592 0.631324
vn -0.294095 -0.717592 0.631324
vn -0.294095 -0.717592 0.631324
vn -0.294095 -0.717592 0.631324
vn -0.294095 -0.717592 0.631324
vn 0.407210 -0.913258 -0.011860
vn -0.294095 -0.717592 0.631324
vn 0.407210 -0.913258 -0.011860
vn -0.294095 -0.717592 0.631324
vn -0.294095 -0.717592 0.631324
vn 0.407210 -0.913258 -0.011860
vn 0.407210 -0.913258 -0.011860
vn -0.371653 -0.919352 -0.129100
vn 0.407210 -0.913258 -0.011860
vn -0.294095 -0.717592 0.631324
vn -0.294095 -0.717592 0.631324
vn -0.262386 -0.646175 -0.716667
vn -0.371653 -0.919352 -0.129100
vn 0.407210 -0.913258 -0.011860
vn -0.223306 -0.552389 -0.803119
vn -0.371653 -0.919352 -0.129100
vn -0.371653 -0.919352 -0.129100
vn -0.223306 -0.552389 -0.803119
vn 0.407210 -0.913258 -0.011860
vn 0.407210 -0.913258 -0.011860
vn 0.407210 -0.913258 -0.011860
vn 0.407210 -0.913258 -0.011860
vn 0.407210 -0.913258 -0.011860
vn 0.407210 -0.913258 -0.011860
vn -0.223306 -0.552389 -0.803119
vn -0.371653 -0.919352 -0.129100
vn -0.223306 -0.552389 -0.803119
vn -0.371653 -0.919352 -0.129100
vn -0.223306 -0.552389 -0.803119
vn -0.925421 -0.378759 -0.011714
vn -0.223306 -0.552389 -0.803119
vn 0.407210 -0.913258 -0.011860
vn -0.223306 -0.552389 -0.803119
vn 0.407210 -0.913258 -0.011860
vn 0.407210 -0.913258 -0.011860
vn -0.223306 -0.552389 -0.803119
vn -0.223306 -0.552389 -0.803119
vn -0.223306 -0.552389 -0.803119
vn -0.223306 -0.552389 -0.803119
vn -0.223306 -0.552389 -0.803119
vn -0.223306 -0.552389 -0.803119
vn -0.223306 -0.552389 -0.803119
vn -0.925421 -0.378759 -0.011714
vn -0.223306 -0.552389 -0.803119
vn -0.925421 -0.378759 -0.011714
vn -0.223306 -0.552389 -0.803119
vn -0.223306 -0.552389 -0.803119
vn -0.925421 -0.378759 -0.011714
vn -0.925421 -0.378759 -0.011714
vn -0.925421 -0.378759 -0.011714
vn -0.925421 -0.378759 -0.011714
vn -0.925421 -0.378759 -0.011714
vn -0.925421 -0.378759 -0.011714
vn -0.925421 -0.378759 -0.011714
vn -0.925421 -0.378759 -0.011714
vn -0.925421 -0.378759 -0.011714
vn -0.294095 -0.717592 0.631324
vn -0.294095 -0.717592 0.631324
vn -0.925421 -0.378759 -0.011714
vn -0.262386 -0.646175 -0.716667
vn -0.925421 -0.378759 -0.011714
vn -0.223306 -0.552389 -0.803119
vn 0.114309 -0.981479 -0.153726
vn -0.925421 -0.378759 -0.011714
vn -0.925421 -0.378759 -0.011714
vn 0.114309 -0.981479 -0.153726
vn -0.223306 -0.552389 -0.803119
vn -0.223306 -0.552389 -0.803119
vn -0.287226 -0.704293 0.649209
vn -0.223306 -0.552389 -0.803119
vn -0.287226 -0.704293 0.649209
vn 0.114309 -0.981479 -0.153726
vn -0.223306 -0.552389 -0.803119
vn -0.287226 -0.704293 0.649209
vn -0.287226 -0.704293 0.649209
vn -0.223306 -0.552389 -0.803119
vn 0.407210 -0.913258 -0.011860
vn -0.287226 -0.704293 0.649209
vn 0.114309 -0.981479 -0.153726
vn -0.925421 -0.378759 -0.011714
vn 0.114309 -0.981479 -0.153726
vn -0.925421 -0.378759 -0.011714
vn 0.114309 -0.981479 -0.153726
vn -0.262386 -0.646175 -0.716667
vn 0.407210 -0.913258 -0.011860
vn -0.762120 -0.629238 -0.152424
vn -0.287226 -0.704293 0.649209
vn 0.407210 -0.913258 -0.011860
vn 0.407210 -0.913258 -0.011860
vn -0.762120 -0.629238 -0.152424
vn -0.287226 -0.704293 0.649209
vn -0.287226 -0.704293 0.649209
vn -0.287226 -0.704293 0.649209
vn -0.287226 -0.704293 0.649209
vn -0.762120 -0.629238 -0.152424
vn -0.287226 -0.704293 0.649209
vn -0.287226 -0.704293 0.649209
vn -0.287226 -0.704293 0.649209
vn 0.114309 -0.981479 -0.153726
vn 0.114309 -0.981479 -0.153726
vn -0.287226 -0.704293 0.649209
vn 0.114309 -0.981479 -0.153726
vn -0.762120 -0.629238 -0.152424
vn -0.762120 -0.629238 -0.152424
vn -0.287226 -0.704293 0.649209
vn -0.287226 -0.704293 0.649209
vn -0.762120 -0.629238 -0.152424
vn 0.114309 -0.981479 -0.153726
vn 0.114309 -0.981479 -0.153726
vn 0.114309 -0.981479 -0.153726
vn 0.114309 -0.981479 -0.153726
vn 0.114309 -0.981479 -0.153726
vn -0.762120 -0.629238 -0.152424
vn 0.114309 -0.981479 -0.153726
vn 0.114309 -0.981479 -0.153726
vn 0.114309 -0.981479 -0.153726
vn 0.114309 -0.981479 -0.153726
vn -0.762120 -0.629238 -0.152424
vn -0.762120 -0.629238 -0.152424
vn -0.762120 -0.629238 -0.152424
vn 0.407210 -0.913258 -0.011860
vn -0.762120 -0.629238 -0.152424
vn -0.762120 -0.629238 -0.152424
vn -0.762120 -0.629238 -0.152424
vn -0.762120 -0.629238 -0.152424
vn 0.114309 -0.981479 -0.153726
vn -0.762120 -0.629238 -0.152424
vn -0.762120 -0.629238 -0.152424
vn -0.762120 -0.629238 -0.152424
vn 0.114309 -0.981479 -0.153726
vn 0.114309 -0.981479 -0.153726
vn -0.262386 -0.646175 -0.716667
vn -0.262386 -0.646175 -0.716667
vn 0.114309 -0.981479 -0.153726
vn -0.762120 -0.629238 -0.152424
vn -0.262386 -0.646175 -0.716667
vn 0.114309 -0.981479 -0.153726
vn -0.262386 -0.646175 -0.716667
vn -0.762120 -0.629238 -0.152424
vn -0.262386 -0.646175 -0.716667
vn -0.762120 -0.629238 -0.152424
vn -0.262386 -0.646175 -0.716667
vn -0.262386 -0.646175 -0.716667
vn -0.762120 -0.629238 -0.152424
vn -0.262386 -0.646175 -0.716667
vn -0.762120 -0.629238 -0.152424
vn 0.407210 -0.913258 -0.011860
vn -0.262386 -0.646175 -0.716667
vn -0.262386 -0.646175 -0.716667
vn -0.262386 -0.646175 -0.716667
vn -0.294095 -0.717592 0.631324
vn -0.262386 -0.646175 -0.716667
vn 0.407210 -0.913258 -0.011860
vn -0.262386 -0.646175 -0.716667
vn -0.294095 -0.717592 0.631324
vn -0.262386 -0.646175 -0.716667
vn -0.922277 0.369689 -0.112852
vn -0.003921 0.003921 -0.999985
vn -0.922277 0.369689 -0.112852
vn -0.003921 0.003921 -0.999985
vn -0.003921 0.003921 -0.999985
vn -0.922277 0.369689 -0.112852
vn -0.922277 0.369689 -0.112852
vn -0.003921 0.003921 -0.999985
vn -0.371653 -0.919352 -0.129100
vn -0.003921 0.003921 -0.999985
vn -0.003921 0.003921 -0.999985
vn -0.003921 0.003921 -0.999985
vn -0.371653 -0.919352 -0.129100
vn -0.003921 0.003921 -0.999985
vn -0.371653 -0.919352 -0.129100
vn -0.003921 0.003921 -0.999985
vn -0.003921 0.003921 -0.999985
vn -0.003921 0.003921 -0.999985
vn -0.003921 0.003921 -0.999985
vn -0.003921 0.003921 -0.999985
vn -0.371653 -0.919352 -0.129100
vn -0.003921 0.003921 -0.999985
vn -0.003921 0.003921 -0.999985
vn 0.923773 -0.365578 -0.113997
vn -0.003921 0.003921 -0.999985
vn 0.923773 -0.365578 -0.113997
vn -0.371653 -0.919352 -0.129100
vn 0.923773 -0.365578 -0.113997
vn -0.003921 0.003921 -0.999985
vn 0.923773 -0.365578 -0.113997
vn 0.923773 -0.365578 -0.113997
vn -0.003921 0.003921 0.999985
vn 0.923773 -0.365578 -0.113997
vn -0.003921 0.003921 0.999985
vn -0.003921 0.003921 0.999985
vn 0.923773 -0.365578 -0.113997
vn -0.371653 -0.919352 -0.129100
vn 0.923773 -0.365578 -0.113997
vn -0.003921 0.003921 0.999985
vn -0.003921 0.003921 0.999985
vn -0.003921 0.003921 0.999985
vn -0.003921 0.003921 0.999985
vn -0.371653 -0.919352 -0.129100
vn -0.003921 0.003921 0.999985
vn -0.371653 -0.919352 -0.129100
vn -0.003921 0.003921 0.999985
vn -0.003921 0.003921 0.999985
vn -0.003921 0.003921 0.999985
vn -0.003921 0.003921 0.999985
vn -0.003921 0.003921 0.999985
vn -0.371653 -0.919352 -0.129100
vn -0.003921 0.003921 0.999985
vn -0.003921 0.003921 0.999985
vn -0.922277 0.369689 -0.112852
vn -0.371653 -0.919352 -0.129100
vn -0.003921 0.003921 0.999985
vn -0.922277 0.369689 -0.112852
vn -0.922277 0.369689 -0.112852
vn -0.003921 0.003921 0.999985
vn -0.922277 0.369689 -0.112852
vt 0.202637 0.280273
vt 0.124939 0.261719
vt 0.168823 0.077148
vt 0.223999 0.089844
vt 0.202637 0.280273
vt 0.168823 0.077148
vt 0.202637 0.280273
vt 0.223999 0.089844
vt 0.231567 0.090820
vt 0.210083 0.280762
vt 0.202637 0.280273
vt 0.231567 0.090820
vt 0.210083 0.280762
vt 0.231567 0.090820
vt 0.232422 0.261230
vt 0.210083 0.280762
vt 0.232422 0.261230
vt 0.320068 0.261230
vt 0.342285 0.280762
vt 0.210083 0.280762
vt 0.320068 0.261230
vt 0.231567 0.090820
vt 0.249146 0.110352
vt 0.232422 0.261230
vt 0.231567 0.090820
vt 0.320801 0.090820
vt 0.249146 0.110352
vt 0.320801 0.090820
vt 0.328369 0.089844
vt 0.342285 0.280762
vt 0.328369 0.089844
vt 0.383545 0.077148
vt 0.427490 0.261719
vt 0.349854 0.280273
vt 0.328369 0.089844
vt 0.427490 0.261719
vt 0.328369 0.089844
vt 0.349854 0.280273
vt 0.342285 0.280762
vt 0.320801 0.090820
vt 0.342285 0.280762
vt 0.303223 0.110352
vt 0.320801 0.090820
vt 0.303223 0.110352
vt 0.249146 0.110352
vt 0.342285 0.280762
vt 0.320068 0.261230
vt 0.303223 0.110352
vt 0.249146 0.110352
vt 0.303223 0.110352
vt 0.298096 0.113770
vt 0.303223 0.110352
vt 0.320068 0.261230
vt 0.316650 0.255859
vt 0.303223 0.110352
vt 0.300781 0.115723
vt 0.298096 0.113770
vt 0.300781 0.115723
vt 0.303223 0.110352
vt 0.316650 0.255859
vt 0.254150 0.113770
vt 0.249146 0.110352
vt 0.298096 0.113770
vt 0.298096 0.113770
vt 0.300781 0.115723
vt 0.293213 0.119629
vt 0.249146 0.110352
vt 0.254150 0.113770
vt 0.251465 0.115723
vt 0.232422 0.261230
vt 0.249146 0.110352
vt 0.251465 0.115723
vt 0.254150 0.113770
vt 0.298096 0.113770
vt 0.259033 0.119629
vt 0.298096 0.113770
vt 0.293213 0.119629
vt 0.259033 0.119629
vt 0.251465 0.115723
vt 0.254150 0.113770
vt 0.257080 0.121582
vt 0.254150 0.113770
vt 0.259033 0.119629
vt 0.257080 0.121582
vt 0.235840 0.255859
vt 0.232422 0.261230
vt 0.251465 0.115723
vt 0.259033 0.119629
vt 0.293213 0.119629
vt 0.291260 0.122070
vt 0.232422 0.261230
vt 0.235840 0.255859
vt 0.238037 0.258301
vt 0.320068 0.261230
vt 0.232422 0.261230
vt 0.238037 0.258301
vt 0.235840 0.255859
vt 0.251465 0.115723
vt 0.242554 0.250488
vt 0.251465 0.115723
vt 0.257080 0.121582
vt 0.242554 0.250488
vt 0.314453 0.258301
vt 0.320068 0.261230
vt 0.238037 0.258301
vt 0.320068 0.261230
vt 0.314453 0.258301
vt 0.316650 0.255859
vt 0.238037 0.258301
vt 0.235840 0.255859
vt 0.244141 0.251953
vt 0.235840 0.255859
vt 0.242554 0.250488
vt 0.244141 0.251953
vt 0.314453 0.258301
vt 0.238037 0.258301
vt 0.308105 0.251953
vt 0.238037 0.258301
vt 0.244141 0.251953
vt 0.308105 0.251953
vt 0.316650 0.255859
vt 0.314453 0.258301
vt 0.309814 0.250488
vt 0.314453 0.258301
vt 0.308105 0.251953
vt 0.309814 0.250488
vt 0.316650 0.255859
vt 0.309814 0.250488
vt 0.295410 0.121582
vt 0.300781 0.115723
vt 0.316650 0.255859
vt 0.295410 0.121582
vt 0.300781 0.115723
vt 0.295410 0.121582
vt 0.293213 0.119629
vt 0.293213 0.119629
vt 0.295410 0.121582
vt 0.291260 0.122070
vt 0.309814 0.250488
vt 0.308105 0.251953
vt 0.307617 0.248047
vt 0.295410 0.121582
vt 0.309814 0.250488
vt 0.307617 0.248047
vt 0.308105 0.251953
vt 0.244141 0.251953
vt 0.305664 0.250000
vt 0.308105 0.251953
vt 0.305664 0.250000
vt 0.307617 0.248047
vt 0.244141 0.251953
vt 0.246704 0.250000
vt 0.305664 0.250000
vt 0.244141 0.251953
vt 0.242554 0.250488
vt 0.246704 0.250000
vt 0.293457 0.123535
vt 0.295410 0.121582
vt 0.307617 0.248047
vt 0.295410 0.121582
vt 0.293457 0.123535
vt 0.291260 0.122070
vt 0.242554 0.250488
vt 0.244873 0.248047
vt 0.246704 0.250000
vt 0.242554 0.250488
vt 0.257080 0.121582
vt 0.244873 0.248047
vt 0.305664 0.250000
vt 0.246704 0.250000
vt 0.276123 0.235352
vt 0.246704 0.250000
vt 0.244873 0.248047
vt 0.276123 0.235352
vt 0.305664 0.250000
vt 0.276123 0.235352
vt 0.276855 0.234863
vt 0.307617 0.248047
vt 0.305664 0.250000
vt 0.276855 0.234863
vt 0.244873 0.248047
vt 0.275391 0.234863
vt 0.276123 0.235352
vt 0.276123 0.235352
vt 0.275391 0.234863
vt 0.276855 0.234863
vt 0.307617 0.248047
vt 0.276855 0.234863
vt 0.277100 0.137695
vt 0.276855 0.234863
vt 0.275391 0.234863
vt 0.277100 0.137695
vt 0.293457 0.123535
vt 0.307617 0.248047
vt 0.277100 0.137695
vt 0.244873 0.248047
vt 0.258789 0.123535
vt 0.275391 0.234863
vt 0.257080 0.121582
vt 0.258789 0.123535
vt 0.244873 0.248047
vt 0.275391 0.234863
vt 0.275391 0.137695
vt 0.277100 0.137695
vt 0.258789 0.123535
vt 0.275391 0.137695
vt 0.275391 0.234863
vt 0.293457 0.123535
vt 0.277100 0.137695
vt 0.276123 0.136230
vt 0.276123 0.136230
vt 0.277100 0.137695
vt 0.275391 0.137695
vt 0.291260 0.122070
vt 0.293457 0.123535
vt 0.276123 0.136230
vt 0.258789 0.123535
vt 0.260986 0.122070
vt 0.275391 0.137695
vt 0.260986 0.122070
vt 0.276123 0.136230
vt 0.275391 0.137695
vt 0.260986 0.122070
vt 0.258789 0.123535
vt 0.257080 0.121582
vt 0.260986 0.122070
vt 0.291260 0.122070
vt 0.276123 0.136230
vt 0.259033 0.119629
vt 0.260986 0.122070
vt 0.257080 0.121582
vt 0.260986 0.122070
vt 0.259033 0.119629
vt 0.291260 0.122070
vt 0.663574 0.433594
vt 0.671387 0.433594
vt 0.664062 0.491211
vt 0.671387 0.433594
vt 0.671875 0.489746
vt 0.664062 0.491211
vt 0.664062 0.491211
vt 0.671875 0.489746
vt 0.670898 0.496582
vt 0.671387 0.433594
vt 0.760254 0.433105
vt 0.671875 0.489746
vt 0.670898 0.496582
vt 0.671875 0.489746
vt 0.761230 0.496582
vt 0.760254 0.433105
vt 0.760254 0.489746
vt 0.671875 0.489746
vt 0.671875 0.489746
vt 0.760254 0.489746
vt 0.761230 0.496582
vt 0.760254 0.489746
vt 0.760254 0.433105
vt 0.768555 0.433594
vt 0.760254 0.489746
vt 0.768066 0.491211
vt 0.761230 0.496582
vt 0.768066 0.491211
vt 0.760254 0.489746
vt 0.768555 0.433594
vt 0.706055 0.096680
vt 0.713379 0.096680
vt 0.707031 0.177246
vt 0.713379 0.096680
vt 0.713379 0.177246
vt 0.707031 0.177246
vt 0.713379 0.183105
vt 0.707031 0.177246
vt 0.713379 0.177246
vt 0.713379 0.177246
vt 0.713379 0.096680
vt 0.847168 0.096680
vt 0.713379 0.183105
vt 0.713379 0.177246
vt 0.847168 0.183105
vt 0.846680 0.177246
vt 0.713379 0.177246
vt 0.847168 0.096680
vt 0.713379 0.177246
vt 0.846680 0.177246
vt 0.847168 0.183105
vt 0.846680 0.177246
vt 0.847168 0.096680
vt 0.854492 0.096680
vt 0.847168 0.183105
vt 0.846680 0.177246
vt 0.853516 0.177246
vt 0.853516 0.177246
vt 0.846680 0.177246
vt 0.854492 0.096680
f 1/1/1 2/2/2 3/3/3
f 4/4/4 5/5/5 6/6/6
f 7/7/7 8/8/8 9/9/9
f 10/10/10 11/11/11 12/12/12
f 13/13/13 14/14/14 15/15/15
f 16/16/16 17/17/17 18/18/18
f 19/19/19 20/20/20 21/21/21
f 22/22/22 23/23/23 24/24/24
f 25/25/25 26/26/26 27/27/27
f 28/28/28 29/29/29 30/30/30
f 31/31/31 32/32/32 33/33/33
f 34/34/34 35/35/35 36/36/36
f 37/37/37 38/38/38 39/39/39
f 40/40/40 41/41/41 42/42/42
f 43/43/43 44/44/44 45/45/45
f 46/46/46 47/47/47 48/48/48
f 49/49/49 50/50/50 51/51/51
f 52/52/52 53/53/53 54/54/54
f 55/55/55 56/56/56 57/57/57
f 58/58/58 59/59/59 60/60/60
f 61/61/61 62/62/62 63/63/63
f 64/64/64 65/65/65 66/66/66
f 67/67/67 68/68/68 69/69/69
f 70/70/70 71/71/71 72/72/72
f 73/73/73 74/74/74 75/75/75
f 76/76/76 77/77/77 78/78/78
f 79/79/79 80/80/80 81/81/81
f 82/82/82 83/83/83 84/84/84
f 85/85/85 86/86/86 87/87/87
f 88/88/88 89/89/89 90/90/90
f 91/91/91 92/92/92 93/93/93
f 94/94/94 95/95/95 96/96/96
f 97/97/97 98/98/98 99/99/99
f 100/100/100 101/101/101 102/102/102
f 103/103/103 104/104/104 105/105/105
f 106/106/106 107/107/107 108/108/108
f 109/109/109 110/110/110 111/111/111
f 112/112/112 113/113/113 114/114/114
f 115/115/115 116/116/116 117/117/117
f 118/118/118 119/119/119 120/120/120
f 121/121/121 122/122/122 123/123/123
f 124/124/124 125/125/125 126/126/126
f 127/127/127 128/128/128 129/129/129
f 130/130/130 131/131/131 132/132/132
f 133/133/133 134/134/134 135/135/135
f 136/136/136 137/137/137 138/138/138
f 139/139/139 140/140/140 141/141/141
f 142/142/142 143/143/143 144/144/144
f 145/145/145 146/146/146 147/147/147
f 148/148/148 149/149/149 150/150/150
f 151/151/151 152/152/152 153/153/153
f 154/154/154 155/155/155 156/156/156
f 157/157/157 158/158/158 159/159/159
f 160/160/160 161/161/161 162/162/162
f 163/163/163 164/164/164 165/165/165
f 166/166/166 167/167/167 168/168/168
f 169/169/169 170/170/170 171/171/171
f 172/172/172 173/173/173 174/174/174
f 175/175/175 176/176/176 177/177/177
f 178/178/178 179/179/179 180/180/180
f 181/181/181 182/182/182 183/183/183
f 184/184/184 185/185/185 186/186/186
f 187/187/187 188/188/188 189/189/189
f 190/190/190 191/191/191 192/192/192
f 193/193/193 194/194/194 195/195/195
f 196/196/196 197/197/197 198/198/198
f 199/199/199 200/200/200 201/201/201
f 202/202/202 203/203/203 204/204/204
f 205/205/205 206/206/206 207/207/207
f 208/208/208 209/209/209 210/210/210
f 211/211/211 212/212/212 213/213/213
f 214/214/214 215/215/215 216/216/216
f 217/217/217 218/218/218 219/219/219
f 220/220/220 221/221/221 222/222/222
f 223/223/223 224/224/224 225/225/225
f 226/226/226 227/227/227 228/228/228
f 229/229/229 230/230/230 231/231/231
f 232/232/232 233/233/233 234/234/234
f 235/235/235 236/236/236 237/237/237
f 238/238/238 239/239/239 240/240/240
f 241/241/241 242/242/242 243/243/243
f 244/244/244 245/245/245 246/246/246
f 247/247/247 248/248/248 249/249/249
f 250/250/250 251/251/251 252/252/252
f 253/253/253 254/254/254 255/255/255
f 256/256/256 257/257/257 258/258/258
f 259/259/259 260/260/260 261/261/261
f 262/262/262 263/263/263 264/264/264
f 265/265/265 266/266/266 267/267/267
f 268/268/268 269/269/269 270/270/270
f 271/271/271 272/272/272 273/273/273
f 274/274/274 275/275/275 276/276/276
f 277/277/277 278/278/278 279/279/279
f 280/280/280 281/281/281 282/282/282
f 283/283/283 284/284/284 285/285/285
f 286/286/286 287/287/287 288/288/288
f 289/289/289 290/290/290 291/291/291
f 292/292/292 293/293/293 294/294/294
