# OBJ file
v 211.022140 1014.475600 726.745670
v 225.019090 1006.919400 726.745700
v 222.992900 1003.167500 689.200740
v 213.064070 1008.527500 689.200740
v 211.022140 1014.475600 726.745670
v 222.992900 1003.167500 689.200740
v 211.022140 1014.475600 726.745670
v 213.064070 1008.527500 689.200740
v 211.688050 1007.935700 689.196840
v 209.645650 1013.885100 726.749600
v 211.022140 1014.475600 726.745670
v 211.688050 1007.935700 689.196840
v 209.645650 1013.885100 726.749600
v 211.688050 1007.935700 689.196840
v 207.946580 1009.708100 722.773800
v 209.645650 1013.885100 726.749600
v 207.946580 1009.708100 722.773800
v 199.714040 994.461200 722.773860
v 197.153320 990.748960 726.749630
v 209.645650 1013.885100 726.749600
v 199.714040 994.461200 722.773860
v 211.688050 1007.935700 689.196840
v 209.578780 1005.049000 693.131160
v 207.946580 1009.708100 722.773800
v 211.688050 1007.935700 689.196840
v 203.249300 992.307000 689.196840
v 209.578780 1005.049000 693.131160
v 203.249300 992.307000 689.196840
v 203.509370 990.832000 689.200740
v 197.153320 990.748960 726.749630
v 203.509370 990.832000 689.200740
v 213.437440 985.472400 689.200740
v 211.410690 981.718750 726.745800
v 197.414830 989.274350 726.745800
v 203.509370 990.832000 689.200740
v 211.410690 981.718750 726.745800
v 203.509370 990.832000 689.200740
v 197.414830 989.274350 726.745800
v 197.153320 990.748960 726.749630
v 203.249300 992.307000 689.196840
v 197.153320 990.748960 726.749630
v 204.505940 995.653900 693.131160
v 203.249300 992.307000 689.196840
v 204.505940 995.653900 693.131160
v 209.578780 1005.049000 693.131160
v 197.153320 990.748960 726.749630
v 199.714040 994.461200 722.773860
v 204.505940 995.653900 693.131160
v 209.578780 1005.049000 693.131160
v 204.505940 995.653900 693.131160
v 205.200420 996.444700 693.868840
v 204.505940 995.653900 693.131160
v 199.714040 994.461200 722.773860
v 200.449800 994.928400 721.783900
v 204.505940 995.653900 693.131160
v 204.947620 996.078700 694.260600
v 205.200420 996.444700 693.868840
v 204.947620 996.078700 694.260600
v 204.505940 995.653900 693.131160
v 200.449800 994.928400 721.783900
v 209.298480 1004.034400 693.868840
v 209.578780 1005.049000 693.131160
v 205.200420 996.444700 693.868840
v 205.200420 996.444700 693.868840
v 204.947620 996.078700 694.260600
v 206.446200 996.802000 695.004700
v 209.578780 1005.049000 693.131160
v 209.298480 1004.034400 693.868840
v 209.465820 1004.446500 694.260560
v 207.946580 1009.708100 722.773800
v 209.578780 1005.049000 693.131160
v 209.465820 1004.446500 694.260560
v 209.298480 1004.034400 693.868840
v 205.200420 996.444700 693.868840
v 209.683060 1002.796800 695.004760
v 205.200420 996.444700 693.868840
v 206.446200 996.802000 695.004700
v 209.683060 1002.796800 695.004760
v 209.465820 1004.446500 694.260560
v 209.298480 1004.034400 693.868840
v 209.850540 1003.208600 695.396600
v 209.298480 1004.034400 693.868840
v 209.683060 1002.796800 695.004760
v 209.850540 1003.208600 695.396600
v 207.959530 1008.836700 721.783900
v 207.946580 1009.708100 722.773800
v 209.465820 1004.446500 694.260560
v 209.683060 1002.796800 695.004760
v 206.446200 996.802000 695.004700
v 206.590290 997.221560 695.593930
v 207.946580 1009.708100 722.773800
v 207.959530 1008.836700 721.783900
v 207.749330 1008.549600 722.175660
v 199.714040 994.461200 722.773860
v 207.946580 1009.708100 722.773800
v 207.749330 1008.549600 722.175660
v 207.959530 1008.836700 721.783900
v 209.465820 1004.446500 694.260560
v 208.464130 1007.247000 720.887600
v 209.465820 1004.446500 694.260560
v 209.850540 1003.208600 695.396600
v 208.464130 1007.247000 720.887600
v 200.574570 995.261660 722.175700
v 199.714040 994.461200 722.773860
v 207.749330 1008.549600 722.175660
v 199.714040 994.461200 722.773860
v 200.574570 995.261660 722.175700
v 200.449800 994.928400 721.783900
v 207.749330 1008.549600 722.175660
v 207.959530 1008.836700 721.783900
v 208.254060 1006.959400 721.279500
v 207.959530 1008.836700 721.783900
v 208.464130 1007.247000 720.887600
v 208.254060 1006.959400 721.279500
v 200.574570 995.261660 722.175700
v 207.749330 1008.549600 722.175660
v 202.181000 995.712000 721.279500
v 207.749330 1008.549600 722.175660
v 208.254060 1006.959400 721.279500
v 202.181000 995.712000 721.279500
v 200.449800 994.928400 721.783900
v 200.574570 995.261660 722.175700
v 202.055850 995.378600 720.887630
v 200.574570 995.261660 722.175700
v 202.181000 995.712000 721.279500
v 202.055850 995.378600 720.887630
v 200.449800 994.928400 721.783900
v 202.055850 995.378600 720.887630
v 206.193800 996.436160 695.396670
v 204.947620 996.078700 694.260600
v 200.449800 994.928400 721.783900
v 206.193800 996.436160 695.396670
v 204.947620 996.078700 694.260600
v 206.193800 996.436160 695.396670
v 206.446200 996.802000 695.004700
v 206.446200 996.802000 695.004700
v 206.193800 996.436160 695.396670
v 206.590290 997.221560 695.593930
v 202.055850 995.378600 720.887630
v 202.181000 995.712000 721.279500
v 202.420430 995.924900 720.390000
v 206.193800 996.436160 695.396670
v 202.055850 995.378600 720.887630
v 202.420430 995.924900 720.390000
v 202.181000 995.712000 721.279500
v 208.254060 1006.959400 721.279500
v 202.516340 996.180360 720.690400
v 202.181000 995.712000 721.279500
v 202.516340 996.180360 720.690400
v 202.420430 995.924900 720.390000
v 208.254060 1006.959400 721.279500
v 208.046360 1006.422200 720.690370
v 202.516340 996.180360 720.690400
v 208.254060 1006.959400 721.279500
v 208.464130 1007.247000 720.887600
v 208.046360 1006.422200 720.690370
v 206.396820 996.941160 695.894300
v 206.193800 996.436160 695.396670
v 202.420430 995.924900 720.390000
v 206.193800 996.436160 695.396670
v 206.396820 996.941160 695.894300
v 206.590290 997.221560 695.593930
v 208.464130 1007.247000 720.887600
v 208.207400 1006.642600 720.390000
v 208.046360 1006.422200 720.690370
v 208.464130 1007.247000 720.887600
v 209.850540 1003.208600 695.396600
v 208.207400 1006.642600 720.390000
v 202.516340 996.180360 720.690400
v 208.046360 1006.422200 720.690370
v 203.275190 1002.384600 718.043640
v 208.046360 1006.422200 720.690370
v 208.207400 1006.642600 720.390000
v 203.275190 1002.384600 718.043640
v 202.516340 996.180360 720.690400
v 203.275190 1002.384600 718.043640
v 203.097700 1002.176800 717.583800
v 202.420430 995.924900 720.390000
v 202.516340 996.180360 720.690400
v 203.097700 1002.176800 717.583800
v 208.207400 1006.642600 720.390000
v 203.351530 1002.646900 717.583800
v 203.275190 1002.384600 718.043640
v 203.275190 1002.384600 718.043640
v 203.351530 1002.646900 717.583800
v 203.097700 1002.176800 717.583800
v 202.420430 995.924900 720.390000
v 203.097700 1002.176800 717.583800
v 205.762300 1000.736300 698.260400
v 203.097700 1002.176800 717.583800
v 203.351530 1002.646900 717.583800
v 205.762300 1000.736300 698.260400
v 206.396820 996.941160 695.894300
v 202.420430 995.924900 720.390000
v 205.762300 1000.736300 698.260400
v 208.207400 1006.642600 720.390000
v 209.539660 1002.761700 695.894200
v 203.351530 1002.646900 717.583800
v 209.850540 1003.208600 695.396600
v 209.539660 1002.761700 695.894200
v 208.207400 1006.642600 720.390000
v 203.351530 1002.646900 717.583800
v 206.018310 1001.210500 698.260400
v 205.762300 1000.736300 698.260400
v 209.539660 1002.761700 695.894200
v 206.018310 1001.210500 698.260400
v 203.351530 1002.646900 717.583800
v 206.396820 996.941160 695.894300
v 205.762300 1000.736300 698.260400
v 206.068360 1000.877300 697.770570
v 206.068360 1000.877300 697.770570
v 205.762300 1000.736300 698.260400
v 206.018310 1001.210500 698.260400
v 206.590290 997.221560 695.593930
v 206.396820 996.941160 695.894300
v 206.068360 1000.877300 697.770570
v 209.539660 1002.761700 695.894200
v 209.411300 1002.446200 695.593930
v 206.018310 1001.210500 698.260400
v 209.411300 1002.446200 695.593930
v 206.068360 1000.877300 697.770570
v 206.018310 1001.210500 698.260400
v 209.411300 1002.446200 695.593930
v 209.539660 1002.761700 695.894200
v 209.850540 1003.208600 695.396600
v 209.411300 1002.446200 695.593930
v 206.590290 997.221560 695.593930
v 206.068360 1000.877300 697.770570
v 209.683060 1002.796800 695.004760
v 209.411300 1002.446200 695.593930
v 209.850540 1003.208600 695.396600
v 209.411300 1002.446200 695.593930
v 209.683060 1002.796800 695.004760
v 206.590290 997.221560 695.593930
v 222.992900 1003.167500 689.200740
v 222.383220 1002.038600 688.283300
v 213.064070 1008.527500 689.200740
v 222.383220 1002.038600 688.283300
v 212.556580 1007.343400 688.283400
v 213.064070 1008.527500 689.200740
v 213.064070 1008.527500 689.200740
v 212.556580 1007.343400 688.283400
v 211.688050 1007.935700 689.196840
v 222.383220 1002.038600 688.283300
v 214.047130 986.601400 688.283400
v 212.556580 1007.343400 688.283400
v 211.688050 1007.935700 689.196840
v 212.556580 1007.343400 688.283400
v 203.249300 992.307000 689.196840
v 214.047130 986.601400 688.283400
v 204.221160 991.905800 688.283500
v 212.556580 1007.343400 688.283400
v 212.556580 1007.343400 688.283400
v 204.221160 991.905800 688.283500
v 203.249300 992.307000 689.196840
v 204.221160 991.905800 688.283500
v 214.047130 986.601400 688.283400
v 213.437440 985.472400 689.200740
v 204.221160 991.905800 688.283500
v 203.509370 990.832000 689.200740
v 203.249300 992.307000 689.196840
v 203.509370 990.832000 689.200740
v 204.221160 991.905800 688.283500
v 213.437440 985.472400 689.200740
v 211.410690 981.718750 726.745800
v 211.911290 982.645750 727.663100
v 197.414830 989.274350 726.745800
v 211.911290 982.645750 727.663100
v 197.798510 990.264400 727.663150
v 197.414830 989.274350 726.745800
v 197.153320 990.748960 726.749630
v 197.414830 989.274350 726.745800
v 197.798510 990.264400 727.663150
v 197.798510 990.264400 727.663150
v 211.911290 982.645750 727.663100
v 224.518500 1005.992400 727.663000
v 197.153320 990.748960 726.749630
v 197.798510 990.264400 727.663150
v 209.645650 1013.885100 726.749600
v 210.404720 1013.611600 727.663000
v 197.798510 990.264400 727.663150
v 224.518500 1005.992400 727.663000
v 197.798510 990.264400 727.663150
v 210.404720 1013.611600 727.663000
v 209.645650 1013.885100 726.749600
v 210.404720 1013.611600 727.663000
v 224.518500 1005.992400 727.663000
v 225.019090 1006.919400 726.745700
v 209.645650 1013.885100 726.749600
v 210.404720 1013.611600 727.663000
v 211.022140 1014.475600 726.745670
v 211.022140 1014.475600 726.745670
v 210.404720 1013.611600 727.663000
v 225.019090 1006.919400 726.745700
vn 0.467725 0.876494 -0.113983
vn 0.467725 0.876494 -0.113983
vn 0.467725 0.876494 -0.113983
vn 0.467725 0.876494 -0.113983
vn 0.467725 0.876494 -0.113983
vn 0.467725 0.876494 -0.113983
vn 0.467725 0.876494 -0.113983
vn 0.467725 0.876494 -0.113983
vn -0.871606 0.472934 -0.128982
vn -0.871606 0.472934 -0.128982
vn 0.467725 0.876494 -0.113983
vn -0.871606 0.472934 -0.128982
vn -0.871606 0.472934 -0.128982
vn -0.871606 0.472934 -0.128982
vn -0.871606 0.472934 -0.128982
vn -0.871606 0.472934 -0.128982
vn -0.871606 0.472934 -0.128982
vn -0.871606 0.472934 -0.128982
vn -0.871606 0.472934 -0.128982
vn -0.871606 0.472934 -0.128982
vn -0.871606 0.472934 -0.128982
vn -0.871606 0.472934 -0.128982
vn -0.871606 0.472934 -0.128982
vn -0.871606 0.472934 -0.128982
vn -0.871606 0.472934 -0.128982
vn -0.871606 0.472934 -0.128982
vn -0.871606 0.472934 -0.128982
vn -0.871606 0.472934 -0.128982
vn -0.477092 -0.871383 -0.114344
vn -0.871606 0.472934 -0.128982
vn -0.477092 -0.871383 -0.114344
vn -0.477092 -0.871383 -0.114344
vn -0.477092 -0.871383 -0.114344
vn -0.477092 -0.871383 -0.114344
vn -0.477092 -0.871383 -0.114344
vn -0.477092 -0.871383 -0.114344
vn -0.477092 -0.871383 -0.114344
vn -0.477092 -0.871383 -0.114344
vn -0.871606 0.472934 -0.128982
vn -0.871606 0.472934 -0.128982
vn -0.871606 0.472934 -0.128982
vn -0.871606 0.472934 -0.128982
vn -0.871606 0.472934 -0.128982
vn -0.871606 0.472934 -0.128982
vn -0.871606 0.472934 -0.128982
vn -0.871606 0.472934 -0.128982
vn -0.871606 0.472934 -0.128982
vn -0.871606 0.472934 -0.128982
vn -0.871606 0.472934 -0.128982
vn -0.871606 0.472934 -0.128982
vn -0.683411 0.370995 0.628738
vn -0.871606 0.472934 -0.128982
vn -0.871606 0.472934 -0.128982
vn -0.276244 0.961017 -0.011672
vn -0.871606 0.472934 -0.128982
vn -0.276244 0.961017 -0.011672
vn -0.683411 0.370995 0.628738
vn -0.276244 0.961017 -0.011672
vn -0.871606 0.472934 -0.128982
vn -0.276244 0.961017 -0.011672
vn -0.683411 0.370995 0.628738
vn -0.871606 0.472934 -0.128982
vn -0.683411 0.370995 0.628738
vn -0.683411 0.370995 0.628738
vn -0.276244 0.961017 -0.011672
vn -0.683411 0.370995 0.628738
vn -0.871606 0.472934 -0.128982
vn -0.683411 0.370995 0.628738
vn -0.956134 -0.292694 -0.011708
vn -0.871606 0.472934 -0.128982
vn -0.871606 0.472934 -0.128982
vn -0.956134 -0.292694 -0.011708
vn -0.683411 0.370995 0.628738
vn -0.683411 0.370995 0.628738
vn -0.683411 0.370995 0.628738
vn -0.683411 0.370995 0.628738
vn -0.683411 0.370995 0.628738
vn -0.683411 0.370995 0.628738
vn -0.956134 -0.292694 -0.011708
vn -0.683411 0.370995 0.628738
vn -0.956134 -0.292694 -0.011708
vn -0.683411 0.370995 0.628738
vn -0.683411 0.370995 0.628738
vn -0.956134 -0.292694 -0.011708
vn -0.956134 -0.292694 -0.011708
vn -0.871606 0.472934 -0.128982
vn -0.956134 -0.292694 -0.011708
vn -0.683411 0.370995 0.628738
vn -0.683411 0.370995 0.628738
vn -0.617323 0.337781 -0.710504
vn -0.871606 0.472934 -0.128982
vn -0.956134 -0.292694 -0.011708
vn -0.527171 0.285063 -0.800519
vn -0.871606 0.472934 -0.128982
vn -0.871606 0.472934 -0.128982
vn -0.527171 0.285063 -0.800519
vn -0.956134 -0.292694 -0.011708
vn -0.956134 -0.292694 -0.011708
vn -0.956134 -0.292694 -0.011708
vn -0.956134 -0.292694 -0.011708
vn -0.956134 -0.292694 -0.011708
vn -0.956134 -0.292694 -0.011708
vn -0.527171 0.285063 -0.800519
vn -0.871606 0.472934 -0.128982
vn -0.527171 0.285063 -0.800519
vn -0.871606 0.472934 -0.128982
vn -0.527171 0.285063 -0.800519
vn -0.276244 0.961017 -0.011672
vn -0.527171 0.285063 -0.800519
vn -0.956134 -0.292694 -0.011708
vn -0.527171 0.285063 -0.800519
vn -0.956134 -0.292694 -0.011708
vn -0.956134 -0.292694 -0.011708
vn -0.527171 0.285063 -0.800519
vn -0.527171 0.285063 -0.800519
vn -0.527171 0.285063 -0.800519
vn -0.527171 0.285063 -0.800519
vn -0.527171 0.285063 -0.800519
vn -0.527171 0.285063 -0.800519
vn -0.527171 0.285063 -0.800519
vn -0.276244 0.961017 -0.011672
vn -0.527171 0.285063 -0.800519
vn -0.276244 0.961017 -0.011672
vn -0.527171 0.285063 -0.800519
vn -0.527171 0.285063 -0.800519
vn -0.276244 0.961017 -0.011672
vn -0.276244 0.961017 -0.011672
vn -0.276244 0.961017 -0.011672
vn -0.276244 0.961017 -0.011672
vn -0.276244 0.961017 -0.011672
vn -0.276244 0.961017 -0.011672
vn -0.276244 0.961017 -0.011672
vn -0.276244 0.961017 -0.011672
vn -0.276244 0.961017 -0.011672
vn -0.683411 0.370995 0.628738
vn -0.683411 0.370995 0.628738
vn -0.276244 0.961017 -0.011672
vn -0.617323 0.337781 -0.710504
vn -0.276244 0.961017 -0.011672
vn -0.527171 0.285063 -0.800519
vn -0.988319 0.003906 -0.152349
vn -0.276244 0.961017 -0.011672
vn -0.276244 0.961017 -0.011672
vn -0.988319 0.003906 -0.152349
vn -0.527171 0.285063 -0.800519
vn -0.527171 0.285063 -0.800519
vn -0.670125 0.364454 0.646612
vn -0.527171 0.285063 -0.800519
vn -0.670125 0.364454 0.646612
vn -0.988319 0.003906 -0.152349
vn -0.527171 0.285063 -0.800519
vn -0.670125 0.364454 0.646612
vn -0.670125 0.364454 0.646612
vn -0.527171 0.285063 -0.800519
vn -0.956134 -0.292694 -0.011708
vn -0.670125 0.364454 0.646612
vn -0.988319 0.003906 -0.152349
vn -0.276244 0.961017 -0.011672
vn -0.988319 0.003906 -0.152349
vn -0.276244 0.961017 -0.011672
vn -0.988319 0.003906 -0.152349
vn -0.617323 0.337781 -0.710504
vn -0.956134 -0.292694 -0.011708
vn -0.540194 0.827779 -0.151565
vn -0.670125 0.364454 0.646612
vn -0.956134 -0.292694 -0.011708
vn -0.956134 -0.292694 -0.011708
vn -0.540194 0.827779 -0.151565
vn -0.670125 0.364454 0.646612
vn -0.670125 0.364454 0.646612
vn -0.670125 0.364454 0.646612
vn -0.670125 0.364454 0.646612
vn -0.540194 0.827779 -0.151565
vn -0.670125 0.364454 0.646612
vn -0.670125 0.364454 0.646612
vn -0.670125 0.364454 0.646612
vn -0.988319 0.003906 -0.152349
vn -0.988319 0.003906 -0.152349
vn -0.670125 0.364454 0.646612
vn -0.988319 0.003906 -0.152349
vn -0.540194 0.827779 -0.151565
vn -0.540194 0.827779 -0.151565
vn -0.670125 0.364454 0.646612
vn -0.670125 0.364454 0.646612
vn -0.540194 0.827779 -0.151565
vn -0.988319 0.003906 -0.152349
vn -0.988319 0.003906 -0.152349
vn -0.988319 0.003906 -0.152349
vn -0.988319 0.003906 -0.152349
vn -0.988319 0.003906 -0.152349
vn -0.540194 0.827779 -0.151565
vn -0.988319 0.003906 -0.152349
vn -0.988319 0.003906 -0.152349
vn -0.988319 0.003906 -0.152349
vn -0.988319 0.003906 -0.152349
vn -0.540194 0.827779 -0.151565
vn -0.540194 0.827779 -0.151565
vn -0.540194 0.827779 -0.151565
vn -0.956134 -0.292694 -0.011708
vn -0.540194 0.827779 -0.151565
vn -0.540194 0.827779 -0.151565
vn -0.540194 0.827779 -0.151565
vn -0.540194 0.827779 -0.151565
vn -0.988319 0.003906 -0.152349
vn -0.540194 0.827779 -0.151565
vn -0.540194 0.827779 -0.151565
vn -0.540194 0.827779 -0.151565
vn -0.988319 0.003906 -0.152349
vn -0.988319 0.003906 -0.152349
vn -0.617323 0.337781 -0.710504
vn -0.617323 0.337781 -0.710504
vn -0.988319 0.003906 -0.152349
vn -0.540194 0.827779 -0.151565
vn -0.617323 0.337781 -0.710504
vn -0.988319 0.003906 -0.152349
vn -0.617323 0.337781 -0.710504
vn -0.540194 0.827779 -0.151565
vn -0.617323 0.337781 -0.710504
vn -0.540194 0.827779 -0.151565
vn -0.617323 0.337781 -0.710504
vn -0.617323 0.337781 -0.710504
vn -0.540194 0.827779 -0.151565
vn -0.617323 0.337781 -0.710504
vn -0.540194 0.827779 -0.151565
vn -0.956134 -0.292694 -0.011708
vn -0.617323 0.337781 -0.710504
vn -0.617323 0.337781 -0.710504
vn -0.617323 0.337781 -0.710504
vn -0.683411 0.370995 0.628738
vn -0.617323 0.337781 -0.710504
vn -0.956134 -0.292694 -0.011708
vn -0.617323 0.337781 -0.710504
vn -0.683411 0.370995 0.628738
vn -0.617323 0.337781 -0.710504
vn 0.467725 0.876494 -0.113983
vn -0.003921 0.003921 -0.999985
vn 0.467725 0.876494 -0.113983
vn -0.003921 0.003921 -0.999985
vn -0.003921 0.003921 -0.999985
vn 0.467725 0.876494 -0.113983
vn 0.467725 0.876494 -0.113983
vn -0.003921 0.003921 -0.999985
vn -0.871606 0.472934 -0.128982
vn -0.003921 0.003921 -0.999985
vn -0.003921 0.003921 -0.999985
vn -0.003921 0.003921 -0.999985
vn -0.871606 0.472934 -0.128982
vn -0.003921 0.003921 -0.999985
vn -0.871606 0.472934 -0.128982
vn -0.003921 0.003921 -0.999985
vn -0.003921 0.003921 -0.999985
vn -0.003921 0.003921 -0.999985
vn -0.003921 0.003921 -0.999985
vn -0.003921 0.003921 -0.999985
vn -0.871606 0.472934 -0.128982
vn -0.003921 0.003921 -0.999985
vn -0.003921 0.003921 -0.999985
vn -0.477092 -0.871383 -0.114344
vn -0.003921 0.003921 -0.999985
vn -0.477092 -0.871383 -0.114344
vn -0.871606 0.472934 -0.128982
vn -0.477092 -0.871383 -0.114344
vn -0.003921 0.003921 -0.999985
vn -0.477092 -0.871383 -0.114344
vn -0.477092 -0.871383 -0.114344
vn -0.003921 0.003921 0.999985
vn -0.477092 -0.871383 -0.114344
vn -0.003921 0.003921 0.999985
vn -0.003921 0.003921 0.999985
vn -0.477092 -0.871383 -0.114344
vn -0.871606 0.472934 -0.128982
vn -0.477092 -0.871383 -0.114344
vn -0.003921 0.003921 0.999985
vn -0.003921 0.003921 0.999985
vn -0.003921 0.003921 0.999985
vn -0.003921 0.003921 0.999985
vn -0.871606 0.472934 -0.128982
vn -0.003921 0.003921 0.999985
vn -0.871606 0.472934 -0.128982
vn -0.003921 0.003921 0.999985
vn -0.003921 0.003921 0.999985
vn -0.003921 0.003921 0.999985
vn -0.003921 0.003921 0.999985
vn -0.003921 0.003921 0.999985
vn -0.871606 0.472934 -0.128982
vn -0.003921 0.003921 0.999985
vn -0.003921 0.003921 0.999985
vn 0.467725 0.876494 -0.113983
vn -0.871606 0.472934 -0.128982
vn -0.003921 0.003921 0.999985
vn 0.467725 0.876494 -0.113983
vn 0.467725 0.876494 -0.113983
vn -0.003921 0.003921 0.999985
vn 0.467725 0.876494 -0.113983
vt 0.200439 0.277832
vt 0.122437 0.259277
vt 0.166870 0.073730
vt 0.222290 0.086914
vt 0.200439 0.277832
vt 0.166870 0.073730
vt 0.200439 0.277832
vt 0.222290 0.086914
vt 0.229736 0.087891
vt 0.208008 0.278809
vt 0.200439 0.277832
vt 0.229736 0.087891
vt 0.208008 0.278809
vt 0.229736 0.087891
vt 0.230469 0.258789
vt 0.208008 0.278809
vt 0.230469 0.258789
vt 0.318359 0.259277
vt 0.340820 0.279297
vt 0.208008 0.278809
vt 0.318359 0.259277
vt 0.229736 0.087891
vt 0.247437 0.107422
vt 0.230469 0.258789
vt 0.229736 0.087891
vt 0.319580 0.087891
vt 0.247437 0.107422
vt 0.319580 0.087891
vt 0.327148 0.087402
vt 0.340820 0.279297
vt 0.327148 0.087402
vt 0.382568 0.074219
vt 0.426514 0.259766
vt 0.348389 0.278320
vt 0.327148 0.087402
vt 0.426514 0.259766
vt 0.327148 0.087402
vt 0.348389 0.278320
vt 0.340820 0.279297
vt 0.319580 0.087891
vt 0.340820 0.279297
vt 0.301758 0.107910
vt 0.319580 0.087891
vt 0.301758 0.107910
vt 0.247437 0.107422
vt 0.340820 0.279297
vt 0.318359 0.259277
vt 0.301758 0.107910
vt 0.247437 0.107422
vt 0.301758 0.107910
vt 0.296631 0.110840
vt 0.301758 0.107910
vt 0.318359 0.259277
vt 0.314941 0.253906
vt 0.301758 0.107910
vt 0.299316 0.113281
vt 0.296631 0.110840
vt 0.299316 0.113281
vt 0.301758 0.107910
vt 0.314941 0.253906
vt 0.252686 0.110840
vt 0.247437 0.107422
vt 0.296631 0.110840
vt 0.296631 0.110840
vt 0.299316 0.113281
vt 0.291748 0.117188
vt 0.247437 0.107422
vt 0.252686 0.110840
vt 0.250000 0.113281
vt 0.230469 0.258789
vt 0.247437 0.107422
vt 0.250000 0.113281
vt 0.252686 0.110840
vt 0.296631 0.110840
vt 0.257568 0.117188
vt 0.296631 0.110840
vt 0.291748 0.117188
vt 0.257568 0.117188
vt 0.250000 0.113281
vt 0.252686 0.110840
vt 0.255371 0.118652
vt 0.252686 0.110840
vt 0.257568 0.117188
vt 0.255371 0.118652
vt 0.233887 0.253906
vt 0.230469 0.258789
vt 0.250000 0.113281
vt 0.257568 0.117188
vt 0.291748 0.117188
vt 0.289795 0.119629
vt 0.230469 0.258789
vt 0.233887 0.253906
vt 0.236084 0.256348
vt 0.318359 0.259277
vt 0.230469 0.258789
vt 0.236084 0.256348
vt 0.233887 0.253906
vt 0.250000 0.113281
vt 0.240601 0.248047
vt 0.250000 0.113281
vt 0.255371 0.118652
vt 0.240601 0.248047
vt 0.312744 0.256348
vt 0.318359 0.259277
vt 0.236084 0.256348
vt 0.318359 0.259277
vt 0.312744 0.256348
vt 0.314941 0.253906
vt 0.236084 0.256348
vt 0.233887 0.253906
vt 0.242310 0.250000
vt 0.233887 0.253906
vt 0.240601 0.248047
vt 0.242310 0.250000
vt 0.312744 0.256348
vt 0.236084 0.256348
vt 0.306641 0.250000
vt 0.236084 0.256348
vt 0.242310 0.250000
vt 0.306641 0.250000
vt 0.314941 0.253906
vt 0.312744 0.256348
vt 0.308350 0.248535
vt 0.312744 0.256348
vt 0.306641 0.250000
vt 0.308350 0.248535
vt 0.314941 0.253906
vt 0.308350 0.248535
vt 0.293945 0.118652
vt 0.299316 0.113281
vt 0.314941 0.253906
vt 0.293945 0.118652
vt 0.299316 0.113281
vt 0.293945 0.118652
vt 0.291748 0.117188
vt 0.291748 0.117188
vt 0.293945 0.118652
vt 0.289795 0.119629
vt 0.308350 0.248535
vt 0.306641 0.250000
vt 0.305908 0.246094
vt 0.293945 0.118652
vt 0.308350 0.248535
vt 0.305908 0.246094
vt 0.306641 0.250000
vt 0.242310 0.250000
vt 0.304199 0.248047
vt 0.306641 0.250000
vt 0.304199 0.248047
vt 0.305908 0.246094
vt 0.242310 0.250000
vt 0.244751 0.248047
vt 0.304199 0.248047
vt 0.242310 0.250000
vt 0.240601 0.248047
vt 0.244751 0.248047
vt 0.291992 0.121094
vt 0.293945 0.118652
vt 0.305908 0.246094
vt 0.293945 0.118652
vt 0.291992 0.121094
vt 0.289795 0.119629
vt 0.240601 0.248047
vt 0.242920 0.246094
vt 0.244751 0.248047
vt 0.240601 0.248047
vt 0.255371 0.118652
vt 0.242920 0.246094
vt 0.304199 0.248047
vt 0.244751 0.248047
vt 0.274414 0.233398
vt 0.244751 0.248047
vt 0.242920 0.246094
vt 0.274414 0.233398
vt 0.304199 0.248047
vt 0.274414 0.233398
vt 0.275146 0.232422
vt 0.305908 0.246094
vt 0.304199 0.248047
vt 0.275146 0.232422
vt 0.242920 0.246094
vt 0.273682 0.232422
vt 0.274414 0.233398
vt 0.274414 0.233398
vt 0.273682 0.232422
vt 0.275146 0.232422
vt 0.305908 0.246094
vt 0.275146 0.232422
vt 0.275391 0.135254
vt 0.275146 0.232422
vt 0.273682 0.232422
vt 0.275391 0.135254
vt 0.291992 0.121094
vt 0.305908 0.246094
vt 0.275391 0.135254
vt 0.242920 0.246094
vt 0.257080 0.121094
vt 0.273682 0.232422
vt 0.255371 0.118652
vt 0.257080 0.121094
vt 0.242920 0.246094
vt 0.273682 0.232422
vt 0.273682 0.135254
vt 0.275391 0.135254
vt 0.257080 0.121094
vt 0.273682 0.135254
vt 0.273682 0.232422
vt 0.291992 0.121094
vt 0.275391 0.135254
vt 0.274658 0.133301
vt 0.274658 0.133301
vt 0.275391 0.135254
vt 0.273682 0.135254
vt 0.289795 0.119629
vt 0.291992 0.121094
vt 0.274658 0.133301
vt 0.257080 0.121094
vt 0.259277 0.119629
vt 0.273682 0.135254
vt 0.259277 0.119629
vt 0.274658 0.133301
vt 0.273682 0.135254
vt 0.259277 0.119629
vt 0.257080 0.121094
vt 0.255371 0.118652
vt 0.259277 0.119629
vt 0.289795 0.119629
vt 0.274658 0.133301
vt 0.257568 0.117188
vt 0.259277 0.119629
vt 0.255371 0.118652
vt 0.259277 0.119629
vt 0.257568 0.117188
vt 0.289795 0.119629
vt 0.709473 0.206543
vt 0.717285 0.206543
vt 0.709473 0.263184
vt 0.717285 0.206543
vt 0.717285 0.263184
vt 0.709473 0.263184
vt 0.709473 0.263184
vt 0.717285 0.263184
vt 0.717285 0.269043
vt 0.717285 0.206543
vt 0.806641 0.206055
vt 0.717285 0.263184
vt 0.717285 0.269043
vt 0.717285 0.263184
vt 0.806641 0.269043
vt 0.806641 0.206055
vt 0.806641 0.263184
vt 0.717285 0.263184
vt 0.717285 0.263184
vt 0.806641 0.263184
vt 0.806641 0.269043
vt 0.806641 0.263184
vt 0.806641 0.206055
vt 0.813477 0.206055
vt 0.806641 0.263184
vt 0.813477 0.263184
vt 0.806641 0.269043
vt 0.813477 0.263184
vt 0.806641 0.263184
vt 0.813477 0.206055
vt 0.706543 0.096680
vt 0.713379 0.096191
vt 0.706543 0.177246
vt 0.713379 0.096191
vt 0.713379 0.177246
vt 0.706543 0.177246
vt 0.713379 0.183105
vt 0.706543 0.177246
vt 0.713379 0.177246
vt 0.713379 0.177246
vt 0.713379 0.096191
vt 0.847168 0.096680
vt 0.713379 0.183105
vt 0.713379 0.177246
vt 0.847168 0.183105
vt 0.847168 0.177246
vt 0.713379 0.177246
vt 0.847168 0.096680
vt 0.713379 0.177246
vt 0.847168 0.177246
vt 0.847168 0.183105
vt 0.847168 0.177246
vt 0.847168 0.096680
vt 0.854004 0.096680
vt 0.847168 0.183105
vt 0.847168 0.177246
vt 0.854004 0.177246
vt 0.854004 0.177246
vt 0.847168 0.177246
vt 0.854004 0.096680
f 1/1/1 2/2/2 3/3/3
f 4/4/4 5/5/5 6/6/6
f 7/7/7 8/8/8 9/9/9
f 10/10/10 11/11/11 12/12/12
f 13/13/13 14/14/14 15/15/15
f 16/16/16 17/17/17 18/18/18
f 19/19/19 20/20/20 21/21/21
f 22/22/22 23/23/23 24/24/24
f 25/25/25 26/26/26 27/27/27
f 28/28/28 29/29/29 30/30/30
f 31/31/31 32/32/32 33/33/33
f 34/34/34 35/35/35 36/36/36
f 37/37/37 38/38/38 39/39/39
f 40/40/40 41/41/41 42/42/42
f 43/43/43 44/44/44 45/45/45
f 46/46/46 47/47/47 48/48/48
f 49/49/49 50/50/50 51/51/51
f 52/52/52 53/53/53 54/54/54
f 55/55/55 56/56/56 57/57/57
f 58/58/58 59/59/59 60/60/60
f 61/61/61 62/62/62 63/63/63
f 64/64/64 65/65/65 66/66/66
f 67/67/67 68/68/68 69/69/69
f 70/70/70 71/71/71 72/72/72
f 73/73/73 74/74/74 75/75/75
f 76/76/76 77/77/77 78/78/78
f 79/79/79 80/80/80 81/81/81
f 82/82/82 83/83/83 84/84/84
f 85/85/85 86/86/86 87/87/87
f 88/88/88 89/89/89 90/90/90
f 91/91/91 92/92/92 93/93/93
f 94/94/94 95/95/95 96/96/96
f 97/97/97 98/98/98 99/99/99
f 100/100/100 101/101/101 102/102/102
f 103/103/103 104/104/104 105/105/105
f 106/106/106 107/107/107 108/108/108
f 109/109/109 110/110/110 111/111/111
f 112/112/112 113/113/113 114/114/114
f 115/115/115 116/116/116 117/117/117
f 118/118/118 119/119/119 120/120/120
f 121/121/121 122/122/122 123/123/123
f 124/124/124 125/125/125 126/126/126
f 127/127/127 128/128/128 129/129/129
f 130/130/130 131/131/131 132/132/132
f 133/133/133 134/134/134 135/135/135
f 136/136/136 137/137/137 138/138/138
f 139/139/139 140/140/140 141/141/141
f 142/142/142 143/143/143 144/144/144
f 145/145/145 146/146/146 147/147/147
f 148/148/148 149/149/149 150/150/150
f 151/151/151 152/152/152 153/153/153
f 154/154/154 155/155/155 156/156/156
f 157/157/157 158/158/158 159/159/159
f 160/160/160 161/161/161 162/162/162
f 163/163/163 164/164/164 165/165/165
f 166/166/166 167/167/167 168/168/168
f 169/169/169 170/170/170 171/171/171
f 172/172/172 173/173/173 174/174/174
f 175/175/175 176/176/176 177/177/177
f 178/178/178 179/179/179 180/180/180
f 181/181/181 182/182/182 183/183/183
f 184/184/184 185/185/185 186/186/186
f 187/187/187 188/188/188 189/189/189
f 190/190/190 191/191/191 192/192/192
f 193/193/193 194/194/194 195/195/195
f 196/196/196 197/197/197 198/198/198
f 199/199/199 200/200/200 201/201/201
f 202/202/202 203/203/203 204/204/204
f 205/205/205 206/206/206 207/207/207
f 208/208/208 209/209/209 210/210/210
f 211/211/211 212/212/212 213/213/213
f 214/214/214 215/215/215 216/216/216
f 217/217/217 218/218/218 219/219/219
f 220/220/220 221/221/221 222/222/222
f 223/223/223 224/224/224 225/225/225
f 226/226/226 227/227/227 228/228/228
f 229/229/229 230/230/230 231/231/231
f 232/232/232 233/233/233 234/234/234
f 235/235/235 236/236/236 237/237/237
f 238/238/238 239/239/239 240/240/240
f 241/241/241 242/242/242 243/243/243
f 244/244/244 245/245/245 246/246/246
f 247/247/247 248/248/248 249/249/249
f 250/250/250 251/251/251 252/252/252
f 253/253/253 254/254/254 255/255/255
f 256/256/256 257/257/257 258/258/258
f 259/259/259 260/260/260 261/261/261
f 262/262/262 263/263/263 264/264/264
f 265/265/265 266/266/266 267/267/267
f 268/268/268 269/269/269 270/270/270
f 271/271/271 272/272/272 273/273/273
f 274/274/274 275/275/275 276/276/276
f 277/277/277 278/278/278 279/279/279
f 280/280/280 281/281/281 282/282/282
f 283/283/283 284/284/284 285/285/285
f 286/286/286 287/287/287 288/288/288
f 289/289/289 290/290/290 291/291/291
f 292/292/292 293/293/293 294/294/294
