# OBJ file
v 208.084430 912.458200 802.570300
v 208.084430 912.458200 809.490200
v 178.240220 928.698360 802.570300
v 208.084430 912.458200 809.490200
v 178.240220 928.698360 809.490230
v 178.240220 928.698360 802.570300
v 178.240220 928.698360 809.490230
v 177.927780 929.756500 809.490230
v 178.240220 928.698360 802.570300
v 177.927780 929.756500 809.490230
v 177.927760 929.756400 802.570300
v 178.240220 928.698360 802.570300
v 177.927760 929.756400 802.570300
v 177.927780 929.756500 809.490230
v 247.985470 1058.546800 801.926900
v 177.927780 929.756500 809.490230
v 247.985440 1058.546800 808.846800
v 247.985470 1058.546800 801.926900
v 247.985470 1058.546800 801.926900
v 247.985440 1058.546800 808.846800
v 249.043300 1058.859100 808.846800
v 249.043320 1058.859100 801.926900
v 247.985470 1058.546800 801.926900
v 249.043300 1058.859100 808.846800
v 278.768200 1042.683500 801.926900
v 249.043320 1058.859100 801.926900
v 249.043300 1058.859100 808.846800
v 278.768200 1042.683500 808.846800
v 278.768200 1042.683500 801.926900
v 249.043300 1058.859100 808.846800
v 278.768200 1042.683500 801.926900
v 278.397340 1041.997900 801.146850
v 249.043320 1058.859100 801.926900
v 278.397340 1041.997900 801.146850
v 248.670600 1058.173800 801.146850
v 249.043320 1058.859100 801.926900
v 247.985470 1058.546800 801.926900
v 249.043320 1058.859100 801.926900
v 248.670600 1058.173800 801.146850
v 278.397340 1041.997900 801.146850
v 208.457170 913.143500 801.790300
v 248.670600 1058.173800 801.146850
v 247.985470 1058.546800 801.926900
v 248.670600 1058.173800 801.146850
v 177.927760 929.756400 802.570300
v 208.457170 913.143500 801.790300
v 178.612950 929.383600 801.790200
v 248.670600 1058.173800 801.146850
v 248.670600 1058.173800 801.146850
v 178.612950 929.383600 801.790200
v 177.927760 929.756400 802.570300
v 178.612950 929.383600 801.790200
v 208.457170 913.143500 801.790300
v 208.084430 912.458200 802.570300
v 178.240220 928.698360 802.570300
v 177.927760 929.756400 802.570300
v 178.612950 929.383600 801.790200
v 178.240220 928.698360 802.570300
v 178.612950 929.383600 801.790200
v 208.084430 912.458200 802.570300
v 208.084430 912.458200 809.490200
v 208.457170 913.143500 810.270200
v 178.240220 928.698360 809.490230
v 208.457170 913.143500 810.270200
v 178.612950 929.383600 810.270200
v 178.240220 928.698360 809.490230
v 178.612950 929.383600 810.270200
v 177.927780 929.756500 809.490230
v 178.240220 928.698360 809.490230
v 177.927780 929.756500 809.490230
v 178.612950 929.383600 810.270200
v 247.985440 1058.546800 808.846800
v 178.612950 929.383600 810.270200
v 208.457170 913.143500 810.270200
v 248.670610 1058.173800 809.626830
v 178.612950 929.383600 810.270200
v 248.670610 1058.173800 809.626830
v 247.985440 1058.546800 808.846800
v 208.457170 913.143500 810.270200
v 278.397340 1041.997900 809.626900
v 248.670610 1058.173800 809.626830
v 248.670610 1058.173800 809.626830
v 249.043300 1058.859100 808.846800
v 247.985440 1058.546800 808.846800
v 248.670610 1058.173800 809.626830
v 278.397340 1041.997900 809.626900
v 278.768200 1042.683500 808.846800
v 249.043300 1058.859100 808.846800
v 248.670610 1058.173800 809.626830
v 278.768200 1042.683500 808.846800
vn -0.483567 -0.868847 -0.106149
vn -0.483956 -0.869547 0.098365
vn -0.498830 -0.860187 -0.106050
vn -0.483956 -0.869547 0.098365
vn -0.499231 -0.860878 0.098274
vn -0.498830 -0.860187 -0.106050
vn -0.499231 -0.860878 0.098274
vn -0.876535 0.471381 0.097393
vn -0.498830 -0.860187 -0.106050
vn -0.876535 0.471381 0.097393
vn -0.875845 0.471010 -0.105101
vn -0.498830 -0.860187 -0.106050
vn -0.875845 0.471010 -0.105101
vn -0.876535 0.471381 0.097393
vn -0.870755 0.480282 -0.105428
vn -0.876535 0.471381 0.097393
vn -0.871446 0.480663 0.097696
vn -0.870755 0.480282 -0.105428
vn -0.870755 0.480282 -0.105428
vn -0.871446 0.480663 0.097696
vn 0.449758 0.887783 0.097773
vn 0.449401 0.887077 -0.105511
vn -0.870755 0.480282 -0.105428
vn 0.449758 0.887783 0.097773
vn 0.474240 0.874013 -0.105822
vn 0.449401 0.887077 -0.105511
vn 0.449758 0.887783 0.097773
vn 0.474619 0.874712 0.098062
vn 0.474240 0.874013 -0.105822
vn 0.449758 0.887783 0.097773
vn 0.474240 0.874013 -0.105822
vn -0.003921 0.003921 -0.999985
vn 0.449401 0.887077 -0.105511
vn -0.003921 0.003921 -0.999985
vn -0.003921 0.003921 -0.999985
vn 0.449401 0.887077 -0.105511
vn -0.870755 0.480282 -0.105428
vn 0.449401 0.887077 -0.105511
vn -0.003921 0.003921 -0.999985
vn -0.003921 0.003921 -0.999985
vn -0.003921 0.003921 -0.999985
vn -0.003921 0.003921 -0.999985
vn -0.870755 0.480282 -0.105428
vn -0.003921 0.003921 -0.999985
vn -0.875845 0.471010 -0.105101
vn -0.003921 0.003921 -0.999985
vn -0.003921 0.003921 -0.999985
vn -0.003921 0.003921 -0.999985
vn -0.003921 0.003921 -0.999985
vn -0.003921 0.003921 -0.999985
vn -0.875845 0.471010 -0.105101
vn -0.003921 0.003921 -0.999985
vn -0.003921 0.003921 -0.999985
vn -0.483567 -0.868847 -0.106149
vn -0.498830 -0.860187 -0.106050
vn -0.875845 0.471010 -0.105101
vn -0.003921 0.003921 -0.999985
vn -0.498830 -0.860187 -0.106050
vn -0.003921 0.003921 -0.999985
vn -0.483567 -0.868847 -0.106149
vn -0.483956 -0.869547 0.098365
vn -0.003921 0.003921 0.999985
vn -0.499231 -0.860878 0.098274
vn -0.003921 0.003921 0.999985
vn -0.003921 0.003921 0.999985
vn -0.499231 -0.860878 0.098274
vn -0.003921 0.003921 0.999985
vn -0.876535 0.471381 0.097393
vn -0.499231 -0.860878 0.098274
vn -0.876535 0.471381 0.097393
vn -0.003921 0.003921 0.999985
vn -0.871446 0.480663 0.097696
vn -0.003921 0.003921 0.999985
vn -0.003921 0.003921 0.999985
vn -0.003921 0.003921 0.999985
vn -0.003921 0.003921 0.999985
vn -0.003921 0.003921 0.999985
vn -0.871446 0.480663 0.097696
vn -0.003921 0.003921 0.999985
vn -0.003921 0.003921 0.999985
vn -0.003921 0.003921 0.999985
vn -0.003921 0.003921 0.999985
vn 0.449758 0.887783 0.097773
vn -0.871446 0.480663 0.097696
vn -0.003921 0.003921 0.999985
vn -0.003921 0.003921 0.999985
vn 0.474619 0.874712 0.098062
vn 0.449758 0.887783 0.097773
vn -0.003921 0.003921 0.999985
vn 0.474619 0.874712 0.098062
vt 0.002003 0.718018
vt 0.001999 0.691650
vt 0.131470 0.718018
vt 0.001999 0.691650
vt 0.131470 0.691650
vt 0.131470 0.718018
vt 0.131470 0.691650
vt 0.135620 0.691650
vt 0.131470 0.718018
vt 0.135620 0.691650
vt 0.135620 0.718018
vt 0.131470 0.718018
vt 0.135620 0.718018
vt 0.135620 0.691650
vt 0.694824 0.720459
vt 0.135620 0.691650
vt 0.694824 0.694092
vt 0.694824 0.720459
vt 0.694824 0.720459
vt 0.694824 0.694092
vt 0.698730 0.694092
vt 0.698730 0.720459
vt 0.694824 0.720459
vt 0.698730 0.694092
vt 0.827637 0.720459
vt 0.698730 0.720459
vt 0.698730 0.694092
vt 0.827637 0.694092
vt 0.827637 0.720459
vt 0.698730 0.694092
vt 0.570801 0.475586
vt 0.567871 0.475586
vt 0.570801 0.346191
vt 0.567871 0.475586
vt 0.566406 0.346191
vt 0.570801 0.346191
vt 0.566406 0.342285
vt 0.570801 0.346191
vt 0.566406 0.346191
vt 0.567871 0.475586
vt 0.006599 0.475586
vt 0.566406 0.346191
vt 0.566406 0.342285
vt 0.566406 0.346191
vt 0.006599 0.342285
vt 0.006599 0.475586
vt 0.006599 0.346191
vt 0.566406 0.346191
vt 0.566406 0.346191
vt 0.006599 0.346191
vt 0.006599 0.342285
vt 0.006599 0.346191
vt 0.006599 0.475586
vt 0.002823 0.475586
vt 0.002823 0.350586
vt 0.006599 0.342285
vt 0.006599 0.346191
vt 0.002823 0.350586
vt 0.006599 0.346191
vt 0.002823 0.475586
vt 0.002823 0.498047
vt 0.006599 0.498047
vt 0.002823 0.627441
vt 0.006599 0.498047
vt 0.006599 0.627441
vt 0.002823 0.627441
vt 0.006599 0.627441
vt 0.006599 0.631104
vt 0.002823 0.627441
vt 0.006599 0.631104
vt 0.006599 0.627441
vt 0.566406 0.631104
vt 0.006599 0.627441
vt 0.006599 0.498047
vt 0.566406 0.627441
vt 0.006599 0.627441
vt 0.566406 0.627441
vt 0.566406 0.631104
vt 0.006599 0.498047
vt 0.566406 0.498047
vt 0.566406 0.627441
vt 0.566406 0.627441
vt 0.570801 0.627441
vt 0.566406 0.631104
vt 0.566406 0.627441
vt 0.566406 0.498047
vt 0.570801 0.498047
vt 0.570801 0.627441
vt 0.566406 0.627441
vt 0.570801 0.498047
f 1/1/1 2/2/2 3/3/3
f 4/4/4 5/5/5 6/6/6
f 7/7/7 8/8/8 9/9/9
f 10/10/10 11/11/11 12/12/12
f 13/13/13 14/14/14 15/15/15
f 16/16/16 17/17/17 18/18/18
f 19/19/19 20/20/20 21/21/21
f 22/22/22 23/23/23 24/24/24
f 25/25/25 26/26/26 27/27/27
f 28/28/28 29/29/29 30/30/30
f 31/31/31 32/32/32 33/33/33
f 34/34/34 35/35/35 36/36/36
f 37/37/37 38/38/38 39/39/39
f 40/40/40 41/41/41 42/42/42
f 43/43/43 44/44/44 45/45/45
f 46/46/46 47/47/47 48/48/48
f 49/49/49 50/50/50 51/51/51
f 52/52/52 53/53/53 54/54/54
f 55/55/55 56/56/56 57/57/57
f 58/58/58 59/59/59 60/60/60
f 61/61/61 62/62/62 63/63/63
f 64/64/64 65/65/65 66/66/66
f 67/67/67 68/68/68 69/69/69
f 70/70/70 71/71/71 72/72/72
f 73/73/73 74/74/74 75/75/75
f 76/76/76 77/77/77 78/78/78
f 79/79/79 80/80/80 81/81/81
f 82/82/82 83/83/83 84/84/84
f 85/85/85 86/86/86 87/87/87
f 88/88/88 89/89/89 90/90/90
