# OBJ file
v 200.835220 911.814940 1106.056800
v 200.835190 911.814940 1112.976700
v 170.990980 928.055100 1106.056800
v 200.835190 911.814940 1112.976700
v 170.991000 928.055100 1112.976700
v 170.990980 928.055100 1106.056800
v 170.991000 928.055100 1112.976700
v 170.678540 929.113100 1112.976700
v 170.990980 928.055100 1106.056800
v 170.678540 929.113100 1112.976700
v 170.678540 929.113040 1106.056800
v 170.990980 928.055100 1106.056800
v 170.678540 929.113040 1106.056800
v 170.678540 929.113100 1112.976700
v 245.234760 1065.893800 1106.056800
v 170.678540 929.113100 1112.976700
v 245.234730 1065.893800 1112.976700
v 245.234760 1065.893800 1106.056800
v 245.234760 1065.893800 1106.056800
v 245.234730 1065.893800 1112.976700
v 246.292620 1066.206300 1112.976700
v 246.292620 1066.206300 1106.056800
v 245.234760 1065.893800 1106.056800
v 246.292620 1066.206300 1112.976700
v 276.017520 1050.030600 1106.056800
v 246.292620 1066.206300 1106.056800
v 246.292620 1066.206300 1112.976700
v 276.017500 1050.030600 1112.976700
v 276.017520 1050.030600 1106.056800
v 246.292620 1066.206300 1112.976700
v 276.017520 1050.030600 1106.056800
v 275.646600 1049.345000 1105.276700
v 246.292620 1066.206300 1106.056800
v 275.646600 1049.345000 1105.276700
v 245.919900 1065.521100 1105.276600
v 246.292620 1066.206300 1106.056800
v 245.234760 1065.893800 1106.056800
v 246.292620 1066.206300 1106.056800
v 245.919900 1065.521100 1105.276600
v 275.646600 1049.345000 1105.276700
v 201.207930 912.500200 1105.276700
v 245.919900 1065.521100 1105.276600
v 245.234760 1065.893800 1106.056800
v 245.919900 1065.521100 1105.276600
v 170.678540 929.113040 1106.056800
v 201.207930 912.500200 1105.276700
v 171.363700 928.740300 1105.276600
v 245.919900 1065.521100 1105.276600
v 245.919900 1065.521100 1105.276600
v 171.363700 928.740300 1105.276600
v 170.678540 929.113040 1106.056800
v 171.363700 928.740300 1105.276600
v 201.207930 912.500200 1105.276700
v 200.835220 911.814940 1106.056800
v 170.990980 928.055100 1106.056800
v 170.678540 929.113040 1106.056800
v 171.363700 928.740300 1105.276600
v 170.990980 928.055100 1106.056800
v 171.363700 928.740300 1105.276600
v 200.835220 911.814940 1106.056800
v 200.835190 911.814940 1112.976700
v 201.207930 912.500200 1113.756700
v 170.991000 928.055100 1112.976700
v 201.207930 912.500200 1113.756700
v 171.363700 928.740300 1113.756700
v 170.991000 928.055100 1112.976700
v 171.363700 928.740300 1113.756700
v 170.678540 929.113100 1112.976700
v 170.991000 928.055100 1112.976700
v 170.678540 929.113100 1112.976700
v 171.363700 928.740300 1113.756700
v 245.234730 1065.893800 1112.976700
v 171.363700 928.740300 1113.756700
v 201.207930 912.500200 1113.756700
v 245.919890 1065.521100 1113.756700
v 171.363700 928.740300 1113.756700
v 245.919890 1065.521100 1113.756700
v 245.234730 1065.893800 1112.976700
v 201.207930 912.500200 1113.756700
v 275.646640 1049.345000 1113.756700
v 245.919890 1065.521100 1113.756700
v 245.919890 1065.521100 1113.756700
v 246.292620 1066.206300 1112.976700
v 245.234730 1065.893800 1112.976700
v 245.919890 1065.521100 1113.756700
v 275.646640 1049.345000 1113.756700
v 276.017500 1050.030600 1112.976700
v 246.292620 1066.206300 1112.976700
v 245.919890 1065.521100 1113.756700
v 276.017500 1050.030600 1112.976700
vn -0.483567 -0.868847 -0.106149
vn -0.483956 -0.869547 0.098365
vn -0.498830 -0.860187 -0.106050
vn -0.483956 -0.869547 0.098365
vn -0.499231 -0.860878 0.098274
vn -0.498830 -0.860187 -0.106050
vn -0.499231 -0.860878 0.098274
vn -0.877441 0.479668 -0.003900
vn -0.498830 -0.860187 -0.106050
vn -0.877441 0.479668 -0.003900
vn -0.877441 0.479668 -0.003900
vn -0.498830 -0.860187 -0.106050
vn -0.877441 0.479668 -0.003900
vn -0.877441 0.479668 -0.003900
vn -0.877441 0.479668 -0.003900
vn -0.877441 0.479668 -0.003900
vn -0.877441 0.479668 -0.003900
vn -0.877441 0.479668 -0.003900
vn -0.877441 0.479668 -0.003900
vn -0.877441 0.479668 -0.003900
vn 0.449758 0.887783 0.097773
vn 0.449401 0.887077 -0.105511
vn -0.877441 0.479668 -0.003900
vn 0.449758 0.887783 0.097773
vn 0.474240 0.874013 -0.105822
vn 0.449401 0.887077 -0.105511
vn 0.449758 0.887783 0.097773
vn 0.474619 0.874712 0.098062
vn 0.474240 0.874013 -0.105822
vn 0.449758 0.887783 0.097773
vn 0.474240 0.874013 -0.105822
vn -0.003921 0.003921 -0.999985
vn 0.449401 0.887077 -0.105511
vn -0.003921 0.003921 -0.999985
vn -0.003921 0.003921 -0.999985
vn 0.449401 0.887077 -0.105511
vn -0.877441 0.479668 -0.003900
vn 0.449401 0.887077 -0.105511
vn -0.003921 0.003921 -0.999985
vn -0.003921 0.003921 -0.999985
vn -0.003921 0.003921 -0.999985
vn -0.003921 0.003921 -0.999985
vn -0.877441 0.479668 -0.003900
vn -0.003921 0.003921 -0.999985
vn -0.877441 0.479668 -0.003900
vn -0.003921 0.003921 -0.999985
vn -0.003921 0.003921 -0.999985
vn -0.003921 0.003921 -0.999985
vn -0.003921 0.003921 -0.999985
vn -0.003921 0.003921 -0.999985
vn -0.877441 0.479668 -0.003900
vn -0.003921 0.003921 -0.999985
vn -0.003921 0.003921 -0.999985
vn -0.483567 -0.868847 -0.106149
vn -0.498830 -0.860187 -0.106050
vn -0.877441 0.479668 -0.003900
vn -0.003921 0.003921 -0.999985
vn -0.498830 -0.860187 -0.106050
vn -0.003921 0.003921 -0.999985
vn -0.483567 -0.868847 -0.106149
vn -0.483956 -0.869547 0.098365
vn -0.003921 0.003921 0.999985
vn -0.499231 -0.860878 0.098274
vn -0.003921 0.003921 0.999985
vn -0.003921 0.003921 0.999985
vn -0.499231 -0.860878 0.098274
vn -0.003921 0.003921 0.999985
vn -0.877441 0.479668 -0.003900
vn -0.499231 -0.860878 0.098274
vn -0.877441 0.479668 -0.003900
vn -0.003921 0.003921 0.999985
vn -0.877441 0.479668 -0.003900
vn -0.003921 0.003921 0.999985
vn -0.003921 0.003921 0.999985
vn -0.003921 0.003921 0.999985
vn -0.003921 0.003921 0.999985
vn -0.003921 0.003921 0.999985
vn -0.877441 0.479668 -0.003900
vn -0.003921 0.003921 0.999985
vn -0.003921 0.003921 0.999985
vn -0.003921 0.003921 0.999985
vn -0.003921 0.003921 0.999985
vn 0.449758 0.887783 0.097773
vn -0.877441 0.479668 -0.003900
vn -0.003921 0.003921 0.999985
vn -0.003921 0.003921 0.999985
vn 0.474619 0.874712 0.098062
vn 0.449758 0.887783 0.097773
vn -0.003921 0.003921 0.999985
vn 0.474619 0.874712 0.098062
vt 0.001999 0.678467
vt 0.001999 0.647949
vt 0.151855 0.678467
vt 0.001999 0.647949
vt 0.151855 0.647949
vt 0.151855 0.678467
vt 0.151855 0.647949
vt 0.156616 0.647949
vt 0.151855 0.678467
vt 0.156616 0.647949
vt 0.156616 0.678467
vt 0.151855 0.678467
vt 0.156616 0.678467
vt 0.156616 0.647949
vt 0.843750 0.678467
vt 0.156616 0.647949
vt 0.843750 0.647949
vt 0.843750 0.678467
vt 0.843750 0.678467
vt 0.843750 0.647949
vt 0.848633 0.647949
vt 0.848633 0.678467
vt 0.843750 0.678467
vt 0.848633 0.647949
vt 0.997559 0.678467
vt 0.848633 0.678467
vt 0.848633 0.647949
vt 0.997559 0.647949
vt 0.997559 0.678467
vt 0.848633 0.647949
vt 0.699707 0.324707
vt 0.695312 0.324707
vt 0.699707 0.174805
vt 0.695312 0.324707
vt 0.695312 0.175293
vt 0.699707 0.174805
vt 0.695312 0.170898
vt 0.699707 0.174805
vt 0.695312 0.175293
vt 0.695312 0.324707
vt 0.006672 0.324707
vt 0.695312 0.175293
vt 0.695312 0.170898
vt 0.695312 0.175293
vt 0.006672 0.169922
vt 0.006672 0.324707
vt 0.006672 0.174805
vt 0.695312 0.175293
vt 0.695312 0.175293
vt 0.006672 0.174805
vt 0.006672 0.169922
vt 0.006672 0.174805
vt 0.006672 0.324707
vt 0.002253 0.324707
vt 0.002253 0.174316
vt 0.006672 0.169922
vt 0.006672 0.174805
vt 0.002253 0.174316
vt 0.006672 0.174805
vt 0.002253 0.324707
vt 0.002253 0.002441
vt 0.006672 0.002441
vt 0.002253 0.152832
vt 0.006672 0.002441
vt 0.006672 0.152344
vt 0.002253 0.152832
vt 0.006672 0.152344
vt 0.006672 0.156738
vt 0.002253 0.152832
vt 0.006672 0.156738
vt 0.006672 0.152344
vt 0.695312 0.157227
vt 0.006672 0.152344
vt 0.006672 0.002441
vt 0.695312 0.152344
vt 0.006672 0.152344
vt 0.695312 0.152344
vt 0.695312 0.157227
vt 0.006672 0.002441
vt 0.695312 0.002930
vt 0.695312 0.152344
vt 0.695312 0.152344
vt 0.699707 0.153320
vt 0.695312 0.157227
vt 0.695312 0.152344
vt 0.695312 0.002930
vt 0.699707 0.002930
vt 0.699707 0.153320
vt 0.695312 0.152344
vt 0.699707 0.002930
f 1/1/1 2/2/2 3/3/3
f 4/4/4 5/5/5 6/6/6
f 7/7/7 8/8/8 9/9/9
f 10/10/10 11/11/11 12/12/12
f 13/13/13 14/14/14 15/15/15
f 16/16/16 17/17/17 18/18/18
f 19/19/19 20/20/20 21/21/21
f 22/22/22 23/23/23 24/24/24
f 25/25/25 26/26/26 27/27/27
f 28/28/28 29/29/29 30/30/30
f 31/31/31 32/32/32 33/33/33
f 34/34/34 35/35/35 36/36/36
f 37/37/37 38/38/38 39/39/39
f 40/40/40 41/41/41 42/42/42
f 43/43/43 44/44/44 45/45/45
f 46/46/46 47/47/47 48/48/48
f 49/49/49 50/50/50 51/51/51
f 52/52/52 53/53/53 54/54/54
f 55/55/55 56/56/56 57/57/57
f 58/58/58 59/59/59 60/60/60
f 61/61/61 62/62/62 63/63/63
f 64/64/64 65/65/65 66/66/66
f 67/67/67 68/68/68 69/69/69
f 70/70/70 71/71/71 72/72/72
f 73/73/73 74/74/74 75/75/75
f 76/76/76 77/77/77 78/78/78
f 79/79/79 80/80/80 81/81/81
f 82/82/82 83/83/83 84/84/84
f 85/85/85 86/86/86 87/87/87
f 88/88/88 89/89/89 90/90/90
