# OBJ file
v 948.073400 -455.694200 1303.329100
v 948.073300 -455.694270 1191.458700
v 1043.228100 -495.488770 1303.329100
v 948.073300 -455.694270 1191.458700
v 1043.227900 -495.488560 1191.458700
v 1043.228100 -495.488770 1303.329100
v 948.073400 -455.694240 1000.358600
v 948.073300 -455.694240 888.488160
v 1043.228000 -495.488740 1000.358600
v 948.073300 -455.694240 888.488160
v 1043.227900 -495.488530 888.488160
v 1043.228000 -495.488740 1000.358600
vn -0.388229 -0.921555 -0.003921
vn -0.388229 -0.921555 -0.003921
vn -0.388229 -0.921555 -0.003921
vn -0.388229 -0.921555 -0.003921
vn -0.388229 -0.921555 -0.003921
vn -0.388229 -0.921555 -0.003921
vn -0.388229 -0.921555 -0.003921
vn -0.388229 -0.921555 -0.003921
vn -0.388229 -0.921555 -0.003921
vn -0.388229 -0.921555 -0.003921
vn -0.388229 -0.921555 -0.003921
vn -0.388229 -0.921555 -0.003921
vt 2.802734 0.729248
vt 1.954102 0.729248
vt 2.802734 0.002441
vt 1.954102 0.729248
vt 1.954102 0.002441
vt 2.802734 0.002441
vt 2.802734 0.729248
vt 1.954102 0.729248
vt 2.802734 0.002441
vt 1.954102 0.729248
vt 1.954102 0.002441
vt 2.802734 0.002441
f 1/1/1 2/2/2 3/3/3
f 4/4/4 5/5/5 6/6/6
f 7/7/7 8/8/8 9/9/9
f 10/10/10 11/11/11 12/12/12
