# OBJ file
v 263.728820 -182.116880 480.365230
v 263.728820 -182.116880 487.285160
v 251.703840 -213.894530 480.365230
v 263.728820 -182.116880 487.285160
v 251.703840 -213.894530 487.285130
v 251.703840 -213.894530 480.365230
v 251.703840 -213.894530 487.285130
v 250.698200 -214.348110 487.285130
v 251.703840 -213.894530 480.365230
v 250.698200 -214.348110 487.285130
v 250.698210 -214.348110 480.365230
v 251.703840 -213.894530 480.365230
v 250.698210 -214.348110 480.365230
v 250.698200 -214.348110 487.285130
v 113.567900 -162.480100 479.721800
v 250.698200 -214.348110 487.285130
v 113.567890 -162.480100 486.641750
v 113.567900 -162.480100 479.721800
v 113.567900 -162.480100 479.721800
v 113.567890 -162.480100 486.641750
v 113.114380 -161.474620 486.641750
v 113.114380 -161.474610 479.721800
v 113.567900 -162.480100 479.721800
v 113.114380 -161.474620 486.641750
v 125.091800 -129.823970 479.721830
v 113.114380 -161.474610 479.721800
v 113.114380 -161.474620 486.641750
v 125.091800 -129.823970 486.641780
v 125.091800 -129.823970 479.721830
v 113.114380 -161.474620 486.641750
v 125.091800 -129.823970 479.721830
v 125.821510 -130.098040 478.941830
v 113.114380 -161.474610 479.721800
v 125.821510 -130.098040 478.941830
v 113.843960 -161.750550 478.941830
v 113.114380 -161.474610 479.721800
v 113.567900 -162.480100 479.721800
v 113.114380 -161.474610 479.721800
v 113.843960 -161.750550 478.941830
v 125.821510 -130.098040 478.941830
v 262.999270 -181.840930 479.585240
v 113.843960 -161.750550 478.941830
v 113.567900 -162.480100 479.721800
v 113.843960 -161.750550 478.941830
v 250.698210 -214.348110 480.365230
v 262.999270 -181.840930 479.585240
v 250.974270 -213.618580 479.585240
v 113.843960 -161.750550 478.941830
v 113.843960 -161.750550 478.941830
v 250.974270 -213.618580 479.585240
v 250.698210 -214.348110 480.365230
v 250.974270 -213.618580 479.585240
v 262.999270 -181.840930 479.585240
v 263.728820 -182.116880 480.365230
v 251.703840 -213.894530 480.365230
v 250.698210 -214.348110 480.365230
v 250.974270 -213.618580 479.585240
v 251.703840 -213.894530 480.365230
v 250.974270 -213.618580 479.585240
v 263.728820 -182.116880 480.365230
v 263.728820 -182.116880 487.285160
v 262.999270 -181.840930 488.065200
v 251.703840 -213.894530 487.285130
v 262.999270 -181.840930 488.065200
v 250.974270 -213.618580 488.065160
v 251.703840 -213.894530 487.285130
v 250.974270 -213.618580 488.065160
v 250.698200 -214.348110 487.285130
v 251.703840 -213.894530 487.285130
v 250.698200 -214.348110 487.285130
v 250.974270 -213.618580 488.065160
v 113.567890 -162.480100 486.641750
v 250.974270 -213.618580 488.065160
v 262.999270 -181.840930 488.065200
v 113.843960 -161.750580 487.421780
v 250.974270 -213.618580 488.065160
v 113.843960 -161.750580 487.421780
v 113.567890 -162.480100 486.641750
v 262.999270 -181.840930 488.065200
v 125.821510 -130.098040 487.421780
v 113.843960 -161.750580 487.421780
v 113.843960 -161.750580 487.421780
v 113.114380 -161.474620 486.641750
v 113.567890 -162.480100 486.641750
v 113.843960 -161.750580 487.421780
v 125.821510 -130.098040 487.421780
v 125.091800 -129.823970 486.641780
v 113.114380 -161.474620 486.641750
v 113.843960 -161.750580 487.421780
v 125.091800 -129.823970 486.641780
vn 0.930888 -0.349574 -0.106050
vn 0.931635 -0.349855 0.098274
vn 0.924574 -0.365895 -0.106228
vn 0.931635 -0.349855 0.098274
vn 0.925319 -0.366190 0.098438
vn 0.924574 -0.365895 -0.106228
vn 0.925319 -0.366190 0.098438
vn -0.349855 -0.931635 0.098274
vn 0.924574 -0.365895 -0.106228
vn -0.349855 -0.931635 0.098274
vn -0.349574 -0.930887 -0.106050
vn 0.924574 -0.365895 -0.106228
vn -0.349574 -0.930887 -0.106050
vn -0.349855 -0.931635 0.098274
vn -0.359050 -0.927218 -0.106531
vn -0.349855 -0.931635 0.098274
vn -0.366190 -0.925319 0.098438
vn -0.359050 -0.927218 -0.106531
vn -0.359050 -0.927218 -0.106531
vn -0.366190 -0.925319 0.098438
vn -0.938582 0.331035 0.097363
vn -0.937843 0.330774 -0.105069
vn -0.359050 -0.927218 -0.106531
vn -0.938582 0.331035 0.097363
vn -0.929384 0.353866 -0.104993
vn -0.937843 0.330774 -0.105069
vn -0.938582 0.331035 0.097363
vn -0.930116 0.354145 0.097293
vn -0.929384 0.353866 -0.104993
vn -0.938582 0.331035 0.097363
vn -0.929384 0.353866 -0.104993
vn -0.003921 0.003921 -0.999985
vn -0.937843 0.330774 -0.105069
vn -0.003921 0.003921 -0.999985
vn -0.003921 0.003921 -0.999985
vn -0.937843 0.330774 -0.105069
vn -0.359050 -0.927218 -0.106531
vn -0.937843 0.330774 -0.105069
vn -0.003921 0.003921 -0.999985
vn -0.003921 0.003921 -0.999985
vn -0.003921 0.003921 -0.999985
vn -0.003921 0.003921 -0.999985
vn -0.359050 -0.927218 -0.106531
vn -0.003921 0.003921 -0.999985
vn -0.349574 -0.930887 -0.106050
vn -0.003921 0.003921 -0.999985
vn -0.003921 0.003921 -0.999985
vn -0.003921 0.003921 -0.999985
vn -0.003921 0.003921 -0.999985
vn -0.003921 0.003921 -0.999985
vn -0.349574 -0.930887 -0.106050
vn -0.003921 0.003921 -0.999985
vn -0.003921 0.003921 -0.999985
vn 0.930888 -0.349574 -0.106050
vn 0.924574 -0.365895 -0.106228
vn -0.349574 -0.930887 -0.106050
vn -0.003921 0.003921 -0.999985
vn 0.924574 -0.365895 -0.106228
vn -0.003921 0.003921 -0.999985
vn 0.930888 -0.349574 -0.106050
vn 0.931635 -0.349855 0.098274
vn -0.003921 0.003921 0.999985
vn 0.925319 -0.366190 0.098438
vn -0.003921 0.003921 0.999985
vn -0.003921 0.003921 0.999985
vn 0.925319 -0.366190 0.098438
vn -0.003921 0.003921 0.999985
vn -0.349855 -0.931635 0.098274
vn 0.925319 -0.366190 0.098438
vn -0.349855 -0.931635 0.098274
vn -0.003921 0.003921 0.999985
vn -0.366190 -0.925319 0.098438
vn -0.003921 0.003921 0.999985
vn -0.003921 0.003921 0.999985
vn -0.003921 0.003921 0.999985
vn -0.003921 0.003921 0.999985
vn -0.003921 0.003921 0.999985
vn -0.366190 -0.925319 0.098438
vn -0.003921 0.003921 0.999985
vn -0.003921 0.003921 0.999985
vn -0.003921 0.003921 0.999985
vn -0.003921 0.003921 0.999985
vn -0.938582 0.331035 0.097363
vn -0.366190 -0.925319 0.098438
vn -0.003921 0.003921 0.999985
vn -0.003921 0.003921 0.999985
vn -0.930116 0.354145 0.097293
vn -0.938582 0.331035 0.097363
vn -0.003921 0.003921 0.999985
vn -0.930116 0.354145 0.097293
vt 2.312500 1.498047
vt 2.312500 1.541504
vt 2.099609 1.498291
vt 2.312500 1.541504
vt 2.099609 1.541504
vt 2.099609 1.498291
vt 2.099609 1.541504
vt 2.091797 1.541504
vt 2.099609 1.498291
vt 2.091797 1.541504
vt 2.091797 1.498291
vt 2.099609 1.498291
vt 2.091797 1.498291
vt 2.091797 1.541504
vt 1.175781 1.494141
vt 2.091797 1.541504
vt 1.175781 1.537598
vt 1.175781 1.494141
vt 1.175781 1.494141
vt 1.175781 1.537598
vt 1.168945 1.537598
vt 1.168945 1.494141
vt 1.175781 1.494141
vt 1.168945 1.537598
vt 0.957031 1.494385
vt 1.168945 1.494141
vt 1.168945 1.537598
vt 0.957031 1.537598
vt 0.957031 1.494385
vt 1.168945 1.537598
vt 1.185547 1.076660
vt 1.192383 1.076660
vt 1.185547 1.300781
vt 1.192383 1.076660
vt 1.192383 1.300781
vt 1.185547 1.300781
vt 1.191406 1.307373
vt 1.185547 1.300781
vt 1.192383 1.300781
vt 1.192383 1.076660
vt 2.162109 1.076660
vt 1.192383 1.300781
vt 1.191406 1.307373
vt 1.192383 1.300781
vt 2.162109 1.307373
vt 2.162109 1.076660
vt 2.162109 1.300781
vt 1.192383 1.300781
vt 1.192383 1.300781
vt 2.162109 1.300781
vt 2.162109 1.307373
vt 2.162109 1.300781
vt 2.162109 1.076660
vt 2.166016 1.076660
vt 2.166016 1.300781
vt 2.162109 1.307373
vt 2.162109 1.300781
vt 2.166016 1.300781
vt 2.162109 1.300781
vt 2.166016 1.076660
vt 2.169922 0.969696
vt 2.164062 0.969696
vt 2.169922 0.745605
vt 2.164062 0.969696
vt 2.164062 0.745605
vt 2.169922 0.745605
vt 2.164062 0.745605
vt 2.166016 0.739014
vt 2.169922 0.745605
vt 2.166016 0.739014
vt 2.164062 0.745605
vt 1.195312 0.739014
vt 2.164062 0.745605
vt 2.164062 0.969696
vt 1.196289 0.745605
vt 2.164062 0.745605
vt 1.196289 0.745605
vt 1.195312 0.739014
vt 2.164062 0.969696
vt 1.196289 0.969696
vt 1.196289 0.745605
vt 1.196289 0.745605
vt 1.189453 0.745605
vt 1.195312 0.739014
vt 1.196289 0.745605
vt 1.196289 0.969696
vt 1.189453 0.969696
vt 1.189453 0.745605
vt 1.196289 0.745605
vt 1.189453 0.969696
f 1/1/1 2/2/2 3/3/3
f 4/4/4 5/5/5 6/6/6
f 7/7/7 8/8/8 9/9/9
f 10/10/10 11/11/11 12/12/12
f 13/13/13 14/14/14 15/15/15
f 16/16/16 17/17/17 18/18/18
f 19/19/19 20/20/20 21/21/21
f 22/22/22 23/23/23 24/24/24
f 25/25/25 26/26/26 27/27/27
f 28/28/28 29/29/29 30/30/30
f 31/31/31 32/32/32 33/33/33
f 34/34/34 35/35/35 36/36/36
f 37/37/37 38/38/38 39/39/39
f 40/40/40 41/41/41 42/42/42
f 43/43/43 44/44/44 45/45/45
f 46/46/46 47/47/47 48/48/48
f 49/49/49 50/50/50 51/51/51
f 52/52/52 53/53/53 54/54/54
f 55/55/55 56/56/56 57/57/57
f 58/58/58 59/59/59 60/60/60
f 61/61/61 62/62/62 63/63/63
f 64/64/64 65/65/65 66/66/66
f 67/67/67 68/68/68 69/69/69
f 70/70/70 71/71/71 72/72/72
f 73/73/73 74/74/74 75/75/75
f 76/76/76 77/77/77 78/78/78
f 79/79/79 80/80/80 81/81/81
f 82/82/82 83/83/83 84/84/84
f 85/85/85 86/86/86 87/87/87
f 88/88/88 89/89/89 90/90/90
