# OBJ file
v 130.599810 -47.747270 926.760130
v 84.458984 -163.093050 926.815700
v 126.092630 -45.948273 925.332400
v 84.458984 -163.093050 926.815700
v 77.757990 -166.568700 925.251600
v 126.092630 -45.948273 925.332400
v 84.458984 -163.093050 926.815700
v 139.887880 -185.208110 952.852800
v 77.757990 -166.568700 925.251600
v 139.887880 -185.208110 952.852800
v 137.822560 -190.382190 952.909900
v 77.757990 -166.568700 925.251600
v 139.887880 -185.208110 952.852800
v 197.096860 -208.026630 926.815700
v 137.822560 -190.382190 952.909900
v 197.096860 -208.026630 926.815700
v 196.963210 -214.114550 925.251600
v 137.822560 -190.382190 952.909900
v 197.096860 -208.026630 926.815700
v 243.290390 -92.739760 926.760200
v 196.963210 -214.114550 925.251600
v 243.290390 -92.739760 926.760200
v 244.904310 -93.384690 925.335500
v 196.963210 -214.114550 925.251600
v 77.757990 -166.568700 925.251600
v 137.822560 -190.382190 952.909900
v 137.593840 -190.955030 953.535000
v 77.530030 -166.997120 925.900150
v 77.757990 -166.568700 925.251600
v 137.593840 -190.955030 953.535000
v 77.530030 -166.997120 925.900150
v 137.593840 -190.955030 953.535000
v 77.129920 -166.830520 926.900630
v 137.593840 -190.955030 953.535000
v 137.593840 -190.955030 954.626830
v 77.129920 -166.830520 926.900630
v 137.593840 -190.955030 954.626830
v 137.822590 -190.382140 955.244000
v 77.129920 -166.830520 926.900630
v 185.944760 -69.844490 955.244100
v 125.234990 -45.605858 927.467000
v 137.822590 -190.382140 955.244000
v 125.234990 -45.605858 927.467000
v 77.147810 -166.163130 927.467000
v 137.822590 -190.382140 955.244000
v 137.822590 -190.382140 955.244000
v 77.147810 -166.163130 927.467000
v 77.129920 -166.830520 926.900630
v 77.147810 -166.163130 927.467000
v 125.234990 -45.605858 927.467000
v 124.935910 -45.486450 926.657960
v 77.129920 -166.830520 926.900630
v 77.147810 -166.163130 927.467000
v 76.856930 -166.024030 926.657960
v 76.856930 -166.024030 926.657960
v 77.147810 -166.163130 927.467000
v 124.935910 -45.486450 926.657960
v 77.530030 -166.997120 925.900150
v 77.129920 -166.830520 926.900630
v 76.856930 -166.024030 926.657960
v 77.255550 -166.195790 925.656000
v 76.856930 -166.024030 926.657960
v 124.935910 -45.486450 926.657960
v 77.255550 -166.195790 925.656000
v 77.530030 -166.997120 925.900150
v 76.856930 -166.024030 926.657960
v 125.338520 -45.647194 925.655900
v 77.255550 -166.195790 925.656000
v 124.935910 -45.486450 926.657960
v 77.757990 -166.568700 925.251600
v 77.530030 -166.997120 925.900150
v 77.255550 -166.195790 925.656000
v 125.338520 -45.647194 925.655900
v 126.092630 -45.948273 925.332400
v 77.255550 -166.195790 925.656000
v 126.092630 -45.948273 925.332400
v 77.757990 -166.568700 925.251600
v 77.255550 -166.195790 925.656000
v 137.822560 -190.382190 952.909900
v 196.963210 -214.114550 925.251600
v 196.812200 -214.575760 925.900150
v 137.593840 -190.955030 953.535000
v 137.822560 -190.382190 952.909900
v 196.812200 -214.575760 925.900150
v 137.593840 -190.955030 953.535000
v 196.812200 -214.575760 925.900150
v 137.593840 -190.955030 954.626830
v 196.812200 -214.575760 925.900150
v 197.209520 -214.748890 926.900700
v 137.593840 -190.955030 954.626830
v 196.812200 -214.575760 925.900150
v 197.580030 -214.218490 925.656000
v 197.209520 -214.748890 926.900700
v 197.580030 -214.218490 925.656000
v 196.812200 -214.575760 925.900150
v 196.963210 -214.114550 925.251600
v 197.209520 -214.748890 926.900700
v 197.678180 -214.273510 927.467000
v 137.593840 -190.955030 954.626830
v 197.678180 -214.273510 927.467000
v 137.822590 -190.382140 955.244000
v 137.593840 -190.955030 954.626830
v 185.944760 -69.844490 955.244100
v 137.822590 -190.382140 955.244000
v 197.678180 -214.273510 927.467000
v 245.761150 -93.726790 927.466900
v 185.944760 -69.844490 955.244100
v 197.678180 -214.273510 927.467000
v 197.979930 -214.386900 926.658000
v 197.678180 -214.273510 927.467000
v 197.209520 -214.748890 926.900700
v 245.761150 -93.726790 927.466900
v 197.678180 -214.273510 927.467000
v 197.979930 -214.386900 926.658000
v 197.580030 -214.218490 925.656000
v 197.979930 -214.386900 926.658000
v 197.209520 -214.748890 926.900700
v 246.060150 -93.846150 926.658000
v 245.761150 -93.726790 927.466900
v 197.979930 -214.386900 926.658000
v 245.657330 -93.685340 925.656000
v 246.060150 -93.846150 926.658000
v 197.979930 -214.386900 926.658000
v 197.580030 -214.218490 925.656000
v 245.657330 -93.685340 925.656000
v 197.979930 -214.386900 926.658000
v 197.580030 -214.218490 925.656000
v 196.963210 -214.114550 925.251600
v 245.657330 -93.685340 925.656000
v 196.963210 -214.114550 925.251600
v 244.904310 -93.384690 925.335500
v 245.657330 -93.685340 925.656000
vn 0.269574 -0.105486 -0.957185
vn 0.308229 -0.144361 -0.940295
vn 0.269574 -0.105486 -0.957185
vn 0.308229 -0.144361 -0.940295
vn 0.310143 -0.153108 -0.938280
vn 0.269574 -0.105486 -0.957185
vn 0.308229 -0.144361 -0.940295
vn 0.347627 -0.191390 -0.917892
vn 0.310143 -0.153108 -0.938280
vn 0.347627 -0.191390 -0.917892
vn 0.347627 -0.191390 -0.917892
vn 0.310143 -0.153108 -0.938280
vn -0.347627 0.191390 -0.917892
vn -0.478360 0.213901 -0.851715
vn -0.347627 0.191390 -0.917892
vn -0.478360 0.213901 -0.851715
vn -0.410699 0.207305 -0.887891
vn -0.347627 0.191390 -0.917892
vn -0.478360 0.213901 -0.851715
vn -0.565634 0.230155 -0.791888
vn -0.410699 0.207305 -0.887891
vn -0.565634 0.230155 -0.791888
vn -0.565634 0.230155 -0.791888
vn -0.410699 0.207305 -0.887891
vn -0.331377 -0.191029 -0.923957
vn -0.285761 -0.700701 -0.653727
vn -0.364947 -0.890785 -0.270767
vn -0.247451 -0.923032 -0.294585
vn -0.331377 -0.191029 -0.923957
vn -0.364947 -0.890785 -0.270767
vn -0.247451 -0.923032 -0.294585
vn -0.364947 -0.890785 -0.270767
vn -0.484166 -0.814815 0.318841
vn -0.364947 -0.890785 -0.270767
vn -0.357209 -0.875358 0.325806
vn -0.484166 -0.814815 0.318841
vn -0.357209 -0.875358 0.325806
vn -0.003952 -0.003953 0.999984
vn -0.484166 -0.814815 0.318841
vn -0.003952 0.003952 0.999984
vn -0.373094 0.153165 0.915063
vn -0.003952 -0.003953 0.999984
vn -0.373094 0.153165 0.915063
vn -0.373533 0.145481 0.916138
vn -0.003952 -0.003953 0.999984
vn -0.003952 -0.003953 0.999984
vn -0.373533 0.145481 0.916138
vn -0.484166 -0.814815 0.318841
vn -0.373533 0.145481 0.916138
vn -0.373094 0.153165 0.915063
vn -0.928029 0.371995 -0.019579
vn -0.484166 -0.814815 0.318841
vn -0.373533 0.145481 0.916138
vn -0.926156 0.371244 -0.066433
vn -0.926156 0.371244 -0.066433
vn -0.373533 0.145481 0.916138
vn -0.928029 0.371995 -0.019579
vn -0.247451 -0.923032 -0.294585
vn -0.484166 -0.814815 0.318841
vn -0.926156 0.371244 -0.066433
vn -0.712095 0.284060 -0.642053
vn -0.926156 0.371244 -0.066433
vn -0.928029 0.371995 -0.019579
vn -0.712095 0.284060 -0.642053
vn -0.247451 -0.923032 -0.294585
vn -0.926156 0.371244 -0.066433
vn -0.712095 0.284060 -0.642053
vn -0.712095 0.284060 -0.642053
vn -0.928029 0.371995 -0.019579
vn -0.331377 -0.191029 -0.923957
vn -0.247451 -0.923032 -0.294585
vn -0.712095 0.284060 -0.642053
vn -0.712095 0.284060 -0.642053
vn -0.426110 0.175917 -0.887403
vn -0.712095 0.284060 -0.642053
vn -0.426110 0.175917 -0.887403
vn -0.331377 -0.191029 -0.923957
vn -0.712095 0.284060 -0.642053
vn -0.285761 -0.700701 -0.653727
vn 0.098002 -0.356726 -0.929055
vn -0.468159 -0.830098 -0.302927
vn -0.364947 -0.890785 -0.270767
vn -0.285761 -0.700701 -0.653727
vn -0.468159 -0.830098 -0.302927
vn -0.364947 -0.890785 -0.270767
vn -0.468159 -0.830098 -0.302927
vn -0.357209 -0.875358 0.325806
vn -0.468159 -0.830098 -0.302927
vn -0.216577 -0.925376 0.311084
vn -0.357209 -0.875358 0.325806
vn -0.468159 -0.830098 -0.302927
vn 0.708226 -0.285638 -0.645621
vn -0.216577 -0.925376 0.311084
vn 0.708226 -0.285638 -0.645621
vn -0.468159 -0.830098 -0.302927
vn 0.098002 -0.356726 -0.929055
vn -0.216577 -0.925376 0.311084
vn 0.373094 -0.153165 0.915063
vn -0.357209 -0.875358 0.325806
vn 0.373094 -0.153165 0.915063
vn -0.003952 -0.003953 0.999984
vn -0.357209 -0.875358 0.325806
vn -0.003952 0.003952 0.999984
vn -0.003952 -0.003953 0.999984
vn 0.373094 -0.153165 0.915063
vn 0.373533 -0.145481 0.916138
vn -0.003952 0.003952 0.999984
vn 0.373094 -0.153165 0.915063
vn 0.925032 -0.373949 -0.066917
vn 0.373094 -0.153165 0.915063
vn -0.216577 -0.925376 0.311084
vn 0.373533 -0.145481 0.916138
vn 0.373094 -0.153165 0.915063
vn 0.925032 -0.373949 -0.066917
vn 0.708226 -0.285638 -0.645621
vn 0.925032 -0.373949 -0.066917
vn -0.216577 -0.925376 0.311084
vn 0.929653 -0.367905 -0.019780
vn 0.373533 -0.145481 0.916138
vn 0.925032 -0.373949 -0.066917
vn 0.709793 -0.278427 -0.647049
vn 0.929653 -0.367905 -0.019780
vn 0.925032 -0.373949 -0.066917
vn 0.708226 -0.285638 -0.645621
vn 0.709793 -0.278427 -0.647049
vn 0.925032 -0.373949 -0.066917
vn 0.708226 -0.285638 -0.645621
vn 0.098002 -0.356726 -0.929055
vn 0.709793 -0.278427 -0.647049
vn 0.098002 -0.356726 -0.929055
vn 0.417857 -0.160114 -0.894293
vn 0.709793 -0.278427 -0.647049
vt 0.246704 0.619385
vt -0.396484 0.619385
vt 0.247070 0.592773
vt -0.396484 0.619385
vt -0.426270 0.592773
vt 0.247070 0.592773
vt -0.464355 0.559326
vt -0.464355 0.222168
vt -0.435059 0.585938
vt -0.464355 0.222168
vt -0.435059 0.222168
vt -0.435059 0.585938
vt -0.535645 0.131348
vt -0.535645 -0.214844
vt -0.506348 0.131836
vt -0.535645 -0.214844
vt -0.506348 -0.227539
vt -0.506348 0.131836
vt -0.467773 -0.246094
vt 0.175293 -0.247070
vt -0.497559 -0.234375
vt 0.175293 -0.247070
vt 0.174805 -0.237305
vt -0.497559 -0.234375
vt -0.435059 0.585938
vt -0.435059 0.222168
vt -0.430664 0.220215
vt -0.430664 0.585205
vt -0.435059 0.585938
vt -0.430664 0.220215
vt -0.430664 0.585205
vt -0.430664 0.220215
vt -0.426270 0.582520
vt -0.430664 0.220215
vt -0.426270 0.216797
vt -0.426270 0.582520
vt -0.426270 0.216797
vt -0.422363 0.213379
vt -0.426270 0.582520
vt 0.249634 0.213379
vt 0.249390 0.582520
vt -0.422363 0.213379
vt 0.249390 0.582520
vt -0.422363 0.580811
vt -0.422363 0.213379
vt -0.422363 0.213379
vt -0.422363 0.580811
vt -0.426270 0.582520
vt -0.422363 0.580811
vt 0.249390 0.582520
vt 0.248291 0.587891
vt -0.426270 0.582520
vt -0.422363 0.580811
vt -0.422363 0.584717
vt -0.422363 0.584717
vt -0.422363 0.580811
vt 0.248291 0.587891
vt -0.430664 0.585205
vt -0.426270 0.582520
vt -0.422363 0.584717
vt -0.424316 0.589355
vt -0.422363 0.584717
vt 0.248291 0.587891
vt -0.424316 0.589355
vt -0.430664 0.585205
vt -0.422363 0.584717
vt 0.247192 0.592285
vt -0.424316 0.589355
vt 0.248291 0.587891
vt -0.426270 0.592773
vt -0.430664 0.585205
vt -0.424316 0.589355
vt 0.247192 0.592285
vt 0.247070 0.592773
vt -0.424316 0.589355
vt 0.247070 0.592773
vt -0.426270 0.592773
vt -0.424316 0.589355
vt -0.506348 0.131836
vt -0.506348 -0.227539
vt -0.501953 -0.227539
vt -0.501953 0.133301
vt -0.506348 0.131836
vt -0.501953 -0.227539
vt -0.501953 0.133301
vt -0.501953 -0.227539
vt -0.497559 0.137207
vt -0.501953 -0.227539
vt -0.497559 -0.224609
vt -0.497559 0.137207
vt -0.501953 -0.227539
vt -0.495850 -0.231445
vt -0.497559 -0.224609
vt -0.495850 -0.231445
vt -0.501953 -0.227539
vt -0.497559 -0.234375
vt -0.497559 -0.224609
vt -0.493652 -0.222656
vt -0.497559 0.137207
vt -0.493652 -0.222656
vt -0.493652 0.140137
vt -0.497559 0.137207
vt 0.178223 0.140137
vt -0.493652 0.140137
vt -0.493652 -0.222656
vt 0.178223 -0.222656
vt 0.178223 0.140137
vt -0.493652 -0.222656
vt -0.493896 -0.226562
vt -0.493652 -0.222656
vt -0.497559 -0.224609
vt 0.178223 -0.222656
vt -0.493652 -0.222656
vt -0.493896 -0.226562
vt -0.495850 -0.231445
vt -0.493896 -0.226562
vt -0.497559 -0.224609
vt 0.177246 -0.228516
vt 0.178223 -0.222656
vt -0.493896 -0.226562
vt 0.175537 -0.234375
vt 0.177246 -0.228516
vt -0.493896 -0.226562
vt -0.495850 -0.231445
vt 0.175537 -0.234375
vt -0.493896 -0.226562
vt -0.495850 -0.231445
vt -0.497559 -0.234375
vt 0.175537 -0.234375
vt -0.497559 -0.234375
vt 0.174805 -0.237305
vt 0.175537 -0.234375
f 1/1/1 2/2/2 3/3/3
f 4/4/4 5/5/5 6/6/6
f 7/7/7 8/8/8 9/9/9
f 10/10/10 11/11/11 12/12/12
f 13/13/13 14/14/14 15/15/15
f 16/16/16 17/17/17 18/18/18
f 19/19/19 20/20/20 21/21/21
f 22/22/22 23/23/23 24/24/24
f 25/25/25 26/26/26 27/27/27
f 28/28/28 29/29/29 30/30/30
f 31/31/31 32/32/32 33/33/33
f 34/34/34 35/35/35 36/36/36
f 37/37/37 38/38/38 39/39/39
f 40/40/40 41/41/41 42/42/42
f 43/43/43 44/44/44 45/45/45
f 46/46/46 47/47/47 48/48/48
f 49/49/49 50/50/50 51/51/51
f 52/52/52 53/53/53 54/54/54
f 55/55/55 56/56/56 57/57/57
f 58/58/58 59/59/59 60/60/60
f 61/61/61 62/62/62 63/63/63
f 64/64/64 65/65/65 66/66/66
f 67/67/67 68/68/68 69/69/69
f 70/70/70 71/71/71 72/72/72
f 73/73/73 74/74/74 75/75/75
f 76/76/76 77/77/77 78/78/78
f 79/79/79 80/80/80 81/81/81
f 82/82/82 83/83/83 84/84/84
f 85/85/85 86/86/86 87/87/87
f 88/88/88 89/89/89 90/90/90
f 91/91/91 92/92/92 93/93/93
f 94/94/94 95/95/95 96/96/96
f 97/97/97 98/98/98 99/99/99
f 100/100/100 101/101/101 102/102/102
f 103/103/103 104/104/104 105/105/105
f 106/106/106 107/107/107 108/108/108
f 109/109/109 110/110/110 111/111/111
f 112/112/112 113/113/113 114/114/114
f 115/115/115 116/116/116 117/117/117
f 118/118/118 119/119/119 120/120/120
f 121/121/121 122/122/122 123/123/123
f 124/124/124 125/125/125 126/126/126
f 127/127/127 128/128/128 129/129/129
f 130/130/130 131/131/131 132/132/132
