# OBJ file
v 478.131930 -258.119720 683.641240
v 425.497680 -238.003100 683.641240
v 478.131930 -258.119720 514.740230
v 425.497680 -238.003100 683.641240
v 425.497680 -238.003100 514.740230
v 478.131930 -258.119720 514.740230
v 532.389830 -278.856930 514.740230
v 532.389830 -278.857000 683.641240
v 479.447170 -258.622440 514.740230
v 532.389830 -278.857000 683.641240
v 479.447170 -258.622440 683.641240
v 479.447170 -258.622440 514.740230
vn -0.365285 -0.930888 -0.003928
vn -0.365285 -0.930888 -0.003928
vn -0.365285 -0.930888 -0.003928
vn -0.365285 -0.930888 -0.003928
vn -0.365285 -0.930888 -0.003928
vn -0.365285 -0.930888 -0.003928
vn -0.365285 -0.930888 -0.003928
vn -0.365285 -0.930888 -0.003928
vn -0.365285 -0.930888 -0.003928
vn -0.365285 -0.930888 -0.003928
vn -0.365285 -0.930888 -0.003928
vn -0.365285 -0.930888 -0.003928
vt 0.497803 0.988487
vt 0.251221 0.988487
vt 0.497803 0.225098
vt 0.251221 0.988487
vt 0.251221 0.225098
vt 0.497803 0.225098
vt 0.249146 0.225098
vt 0.249146 0.988487
vt 0.002602 0.225098
vt 0.249146 0.988487
vt 0.002602 0.988487
vt 0.002602 0.225098
f 1/1/1 2/2/2 3/3/3
f 4/4/4 5/5/5 6/6/6
f 7/7/7 8/8/8 9/9/9
f 10/10/10 11/11/11 12/12/12
