# OBJ file
v 1015.115900 -473.083740 683.641240
v 962.481700 -452.967130 683.641240
v 1015.115900 -473.083740 503.936250
v 962.481700 -452.967130 683.641240
v 962.481700 -452.967130 503.936250
v 1015.115900 -473.083740 503.936250
v 1069.373800 -493.820980 503.936250
v 1069.373800 -493.821040 683.641240
v 1016.431200 -473.586500 503.936250
v 1069.373800 -493.821040 683.641240
v 1016.431200 -473.586500 683.641240
v 1016.431200 -473.586500 503.936250
vn -0.365285 -0.930888 -0.003928
vn -0.365285 -0.930888 -0.003928
vn -0.365285 -0.930888 -0.003928
vn -0.365285 -0.930888 -0.003928
vn -0.365285 -0.930888 -0.003928
vn -0.365285 -0.930888 -0.003928
vn -0.365285 -0.930888 -0.003928
vn -0.365285 -0.930888 -0.003928
vn -0.365285 -0.930888 -0.003928
vn -0.365285 -0.930888 -0.003928
vn -0.365285 -0.930888 -0.003928
vn -0.365285 -0.930888 -0.003928
vt 0.497803 0.988487
vt 0.251221 0.988487
vt 0.497803 0.225098
vt 0.251221 0.988487
vt 0.251221 0.225098
vt 0.497803 0.225098
vt 0.249146 0.225098
vt 0.249146 0.988487
vt 0.002602 0.225098
vt 0.249146 0.988487
vt 0.002602 0.988487
vt 0.002602 0.225098
f 1/1/1 2/2/2 3/3/3
f 4/4/4 5/5/5 6/6/6
f 7/7/7 8/8/8 9/9/9
f 10/10/10 11/11/11 12/12/12
