# OBJ file
v 242.371900 986.659000 683.641300
v 269.932900 1035.806200 683.641300
v 242.371900 986.659060 503.936300
v 269.932900 1035.806200 683.641300
v 269.932860 1035.806200 503.936300
v 242.371900 986.659060 503.936300
v 213.960600 935.995850 503.936300
v 213.960630 935.995850 683.641300
v 241.683210 985.430900 503.936300
v 213.960630 935.995850 683.641300
v 241.683150 985.430850 683.641300
v 241.683210 985.430900 503.936300
vn -0.872299 0.488957 -0.003912
vn -0.872299 0.488957 -0.003912
vn -0.872299 0.488957 -0.003912
vn -0.872299 0.488957 -0.003912
vn -0.872299 0.488957 -0.003912
vn -0.872299 0.488957 -0.003912
vn -0.872299 0.488957 -0.003912
vn -0.872299 0.488957 -0.003912
vn -0.872299 0.488957 -0.003912
vn -0.872299 0.488957 -0.003912
vn -0.872299 0.488957 -0.003912
vn -0.872299 0.488957 -0.003912
vt 0.497803 0.988487
vt 0.251221 0.988487
vt 0.497803 0.225098
vt 0.251221 0.988487
vt 0.251221 0.225098
vt 0.497803 0.225098
vt 0.249146 0.225098
vt 0.249146 0.988487
vt 0.002602 0.225098
vt 0.249146 0.988487
vt 0.002602 0.988487
vt 0.002602 0.225098
f 1/1/1 2/2/2 3/3/3
f 4/4/4 5/5/5 6/6/6
f 7/7/7 8/8/8 9/9/9
f 10/10/10 11/11/11 12/12/12
