# OBJ file
v 117.389140 317.995900 1182.999900
v 205.830180 351.093960 1182.999900
v 36.775635 525.594540 1182.999900
v 205.830180 351.093960 1182.999900
v 125.693300 559.066350 1182.999900
v 36.775635 525.594540 1182.999900
v 36.775635 525.594540 1182.999900
v 125.693300 559.066350 1182.999900
v 36.775330 525.594700 1333.124300
v 125.693300 559.066350 1182.999900
v 125.693280 559.066350 1333.124300
v 36.775330 525.594700 1333.124300
v 125.693300 559.066350 1182.999900
v 205.830180 351.093960 1182.999900
v 125.693280 559.066350 1333.124300
v 205.830180 351.093960 1182.999900
v 205.824430 351.105700 1333.124400
v 125.693280 559.066350 1333.124300
v 205.824430 351.105700 1333.124400
v 205.830180 351.093960 1182.999900
v 117.393070 317.998470 1333.124300
v 205.830180 351.093960 1182.999900
v 117.389140 317.995900 1182.999900
v 117.393070 317.998470 1333.124300
v 125.693280 559.066350 1333.124300
v 205.824430 351.105700 1333.124400
v 36.775330 525.594700 1333.124300
v 205.824430 351.105700 1333.124400
v 117.393070 317.998470 1333.124300
v 36.775330 525.594700 1333.124300
v 117.389140 317.995900 1182.999900
v 36.775635 525.594540 1182.999900
v 87.808210 395.623800 1201.456300
v 36.775635 525.594540 1182.999900
v 57.892395 474.396640 1201.456300
v 87.808210 395.623800 1201.456300
v 36.775635 525.594540 1182.999900
v 36.775330 525.594700 1333.124300
v 57.892395 474.396640 1201.456300
v 36.775330 525.594700 1333.124300
v 57.892403 474.396580 1293.579500
v 57.892395 474.396640 1201.456300
v 117.393070 317.998470 1333.124300
v 117.389140 317.995900 1182.999900
v 87.808105 395.623720 1293.579700
v 117.389140 317.995900 1182.999900
v 87.808210 395.623800 1201.456300
v 87.808105 395.623720 1293.579700
v 36.775330 525.594700 1333.124300
v 117.393070 317.998470 1333.124300
v 57.892403 474.396580 1293.579500
v 117.393070 317.998470 1333.124300
v 87.808105 395.623720 1293.579700
v 57.892403 474.396580 1293.579500
vn -0.003921 0.003921 0.999985
vn -0.003921 0.003921 0.999985
vn -0.003921 0.003921 0.999985
vn -0.003921 0.003921 0.999985
vn -0.003921 0.003921 0.999985
vn -0.003921 0.003921 0.999985
vn 0.351554 -0.936159 -0.003950
vn 0.351554 -0.936159 -0.003950
vn 0.351554 -0.936159 -0.003950
vn 0.351554 -0.936159 -0.003950
vn 0.351554 -0.936159 -0.003950
vn 0.351554 -0.936159 -0.003950
vn -0.934543 -0.355830 -0.003910
vn -0.934543 -0.355830 -0.003910
vn -0.934543 -0.355830 -0.003910
vn -0.934543 -0.355830 -0.003910
vn -0.934543 -0.355830 -0.003910
vn -0.934543 -0.355830 -0.003910
vn -0.355830 0.934543 -0.003910
vn -0.355830 0.934543 -0.003910
vn -0.355830 0.934543 -0.003910
vn -0.355830 0.934543 -0.003910
vn -0.355830 0.934543 -0.003910
vn -0.355830 0.934543 -0.003910
vn -0.003921 0.003921 -0.999985
vn -0.003921 0.003921 -0.999985
vn -0.003921 0.003921 -0.999985
vn -0.003921 0.003921 -0.999985
vn -0.003921 0.003921 -0.999985
vn -0.003921 0.003921 -0.999985
vn 0.929683 0.364812 -0.050995
vn 0.929683 0.364812 -0.050995
vn 0.929683 0.364812 -0.050995
vn 0.929683 0.364812 -0.050995
vn 0.929683 0.364812 -0.050995
vn 0.929683 0.364812 -0.050995
vn 0.921555 0.388229 -0.003921
vn 0.921555 0.388229 -0.003921
vn 0.921555 0.388229 -0.003921
vn 0.921555 0.388229 -0.003921
vn 0.921555 0.388229 -0.003921
vn 0.921555 0.388229 -0.003921
vn 0.933541 0.358448 -0.003939
vn 0.933541 0.358448 -0.003939
vn 0.933541 0.358448 -0.003939
vn 0.933541 0.358448 -0.003939
vn 0.933541 0.358448 -0.003939
vn 0.933541 0.358448 -0.003939
vn 0.930715 0.365217 0.019635
vn 0.930715 0.365217 0.019635
vn 0.930715 0.365217 0.019635
vn 0.930715 0.365217 0.019635
vn 0.930715 0.365217 0.019635
vn 0.930715 0.365217 0.019635
vt -1.093750 0.708984
vt -0.995117 -0.559570
vt 1.584961 0.935181
vt -0.995117 -0.559570
vt 1.695312 -0.449219
vt 1.584961 0.935181
vt -0.057465 0.788086
vt -0.057465 -0.514648
vt 1.622070 0.788086
vt -0.057465 -0.514648
vt 1.622070 -0.514648
vt 1.622070 0.788086
vt 1.498047 1.676270
vt -0.999512 1.676270
vt 1.498047 -0.021484
vt -0.999512 1.676270
vt -0.999023 -0.021484
vt 1.498047 -0.021484
vt 1.604492 1.063416
vt -0.076111 1.063354
vt 1.604492 -0.126953
vt -0.076111 1.063354
vt -0.076111 -0.128906
vt 1.604492 -0.126953
vt 1.665039 1.164062
vt -1.027344 1.168457
vt 1.609375 -0.223633
vt -1.027344 1.168457
vt -1.075195 -0.100586
vt 1.609375 -0.223633
vt -1.093750 0.708984
vt 1.584961 0.935181
vt -1.093750 0.708984
vt 1.584961 0.935181
vt 1.584961 0.935181
vt -1.093750 0.708984
vt -0.057465 0.788086
vt 1.622070 0.788086
vt -0.057465 0.788086
vt 1.622070 0.788086
vt 1.622070 0.788086
vt -0.057465 0.788086
vt 1.604492 -0.126953
vt -0.076111 -0.128906
vt 1.604492 -0.126953
vt -0.076111 -0.128906
vt -0.076111 -0.128906
vt 1.604492 -0.126953
vt 1.609375 -0.223633
vt -1.075195 -0.100586
vt 1.609375 -0.223633
vt -1.075195 -0.100586
vt -1.075195 -0.100586
vt 1.609375 -0.223633
f 1/1/1 2/2/2 3/3/3
f 4/4/4 5/5/5 6/6/6
f 7/7/7 8/8/8 9/9/9
f 10/10/10 11/11/11 12/12/12
f 13/13/13 14/14/14 15/15/15
f 16/16/16 17/17/17 18/18/18
f 19/19/19 20/20/20 21/21/21
f 22/22/22 23/23/23 24/24/24
f 25/25/25 26/26/26 27/27/27
f 28/28/28 29/29/29 30/30/30
f 31/31/31 32/32/32 33/33/33
f 34/34/34 35/35/35 36/36/36
f 37/37/37 38/38/38 39/39/39
f 40/40/40 41/41/41 42/42/42
f 43/43/43 44/44/44 45/45/45
f 46/46/46 47/47/47 48/48/48
f 49/49/49 50/50/50 51/51/51
f 52/52/52 53/53/53 54/54/54
