# OBJ file
v 356.195560 -224.126660 774.758400
v 470.788760 93.584015 774.758500
v 356.195070 -224.126740 1067.978100
v 470.788760 93.584015 774.758500
v 470.788600 93.584110 1067.978100
v 356.195070 -224.126740 1067.978100
v 470.788760 93.584015 774.758500
v 1036.810500 -122.559220 774.758400
v 470.788600 93.584110 1067.978100
v 1036.810500 -122.559220 774.758400
v 1036.797500 -122.556790 1067.978100
v 470.788600 93.584110 1067.978100
v 1036.797500 -122.556790 1067.978100
v 1036.810500 -122.559220 774.758400
v 909.821700 -444.341400 1067.978100
v 1036.810500 -122.559220 774.758400
v 909.890200 -444.789640 774.758400
v 909.821700 -444.341400 1067.978100
v 356.195560 -224.126660 774.758400
v 356.195070 -224.126740 1067.978100
v 425.491270 -251.461620 817.619600
v 356.195070 -224.126740 1067.978100
v 425.491030 -251.461620 1012.259900
v 425.491270 -251.461620 817.619600
v 356.195070 -224.126740 1067.978100
v 625.835700 -331.380920 1067.978100
v 425.491030 -251.461620 1012.259900
v 625.835700 -331.380920 1067.978100
v 526.016600 -290.554900 1012.260000
v 425.491030 -251.461620 1012.259900
v 625.835700 -331.380920 1067.978100
v 625.869140 -331.599240 774.758400
v 526.016600 -290.554900 1012.260000
v 625.869140 -331.599240 774.758400
v 526.016600 -290.554960 817.619700
v 526.016600 -290.554900 1012.260000
v 625.869140 -331.599240 774.758400
v 356.195560 -224.126660 774.758400
v 526.016600 -290.554960 817.619700
v 356.195560 -224.126660 774.758400
v 425.491270 -251.461620 817.619600
v 526.016600 -290.554960 817.619700
v 625.835700 -331.380920 1067.978100
v 909.821700 -444.341400 1067.978100
v 706.896800 -362.977100 1012.259900
v 909.821700 -444.341400 1067.978100
v 807.422360 -402.070340 1012.259900
v 706.896800 -362.977100 1012.259900
v 909.821700 -444.341400 1067.978100
v 909.890200 -444.789640 774.758400
v 807.422360 -402.070340 1012.259900
v 909.890200 -444.789640 774.758400
v 807.422550 -402.070430 817.619600
v 807.422360 -402.070340 1012.259900
v 909.890200 -444.789640 774.758400
v 625.869140 -331.599240 774.758400
v 807.422550 -402.070430 817.619600
v 625.869140 -331.599240 774.758400
v 706.896850 -362.977100 817.619700
v 807.422550 -402.070430 817.619600
v 625.869140 -331.599240 774.758400
v 625.835700 -331.380920 1067.978100
v 706.896850 -362.977100 817.619700
v 625.835700 -331.380920 1067.978100
v 706.896800 -362.977100 1012.259900
v 706.896850 -362.977100 817.619700
v 909.890200 -444.789640 774.758400
v 1036.810500 -122.559220 774.758400
v 625.869140 -331.599240 774.758400
v 1036.810500 -122.559220 774.758400
v 470.788760 93.584015 774.758500
v 625.869140 -331.599240 774.758400
v 470.788760 93.584015 774.758500
v 356.195560 -224.126660 774.758400
v 625.869140 -331.599240 774.758400
v 1036.797500 -122.556790 1067.978100
v 909.821700 -444.341400 1067.978100
v 625.835700 -331.380920 1067.978100
v 470.788600 93.584110 1067.978100
v 1036.797500 -122.556790 1067.978100
v 625.835700 -331.380920 1067.978100
v 470.788600 93.584110 1067.978100
v 625.835700 -331.380920 1067.978100
v 356.195070 -224.126740 1067.978100
vn 0.942180 -0.335085 -0.003942
vn 0.942180 -0.335085 -0.003942
vn 0.942180 -0.335085 -0.003942
vn 0.942180 -0.335085 -0.003942
vn 0.942180 -0.335085 -0.003942
vn 0.942180 -0.335085 -0.003942
vn -0.358448 -0.933541 -0.003939
vn -0.358448 -0.933541 -0.003939
vn -0.358448 -0.933541 -0.003939
vn -0.358448 -0.933541 -0.003939
vn -0.358448 -0.933541 -0.003939
vn -0.358448 -0.933541 -0.003939
vn -0.929272 0.369376 -0.003888
vn -0.929272 0.369376 -0.003888
vn -0.929272 0.369376 -0.003888
vn -0.929272 0.369376 -0.003888
vn -0.929272 0.369376 -0.003888
vn -0.929272 0.369376 -0.003888
vn 0.362632 0.931924 -0.003899
vn 0.362632 0.931924 -0.003899
vn 0.362632 0.931924 -0.003899
vn 0.362632 0.931924 -0.003899
vn 0.362632 0.931924 -0.003899
vn 0.362632 0.931924 -0.003899
vn 0.362610 0.931868 0.011697
vn 0.362610 0.931868 0.011697
vn 0.362610 0.931868 0.011697
vn 0.362610 0.931868 0.011697
vn 0.362610 0.931868 0.011697
vn 0.362610 0.931868 0.011697
vn 0.372063 0.928199 -0.003916
vn 0.372063 0.928199 -0.003916
vn 0.372063 0.928199 -0.003916
vn 0.372063 0.928199 -0.003916
vn 0.372063 0.928199 -0.003916
vn 0.372063 0.928199 -0.003916
vn 0.362566 0.931754 -0.019493
vn 0.362566 0.931754 -0.019493
vn 0.362566 0.931754 -0.019493
vn 0.362566 0.931754 -0.019493
vn 0.362566 0.931754 -0.019493
vn 0.362566 0.931754 -0.019493
vn 0.362610 0.931868 0.011697
vn 0.362610 0.931868 0.011697
vn 0.362610 0.931868 0.011697
vn 0.362610 0.931868 0.011697
vn 0.362610 0.931868 0.011697
vn 0.362610 0.931868 0.011697
vn 0.378782 0.925478 -0.003905
vn 0.378782 0.925478 -0.003905
vn 0.378782 0.925478 -0.003905
vn 0.378782 0.925478 -0.003905
vn 0.378782 0.925478 -0.003905
vn 0.378782 0.925478 -0.003905
vn 0.365060 0.930314 -0.035328
vn 0.365060 0.930314 -0.035328
vn 0.365060 0.930314 -0.035328
vn 0.365060 0.930314 -0.035328
vn 0.365060 0.930314 -0.035328
vn 0.365060 0.930314 -0.035328
vn 0.355830 0.934543 -0.003910
vn 0.355830 0.934543 -0.003910
vn 0.355830 0.934543 -0.003910
vn 0.355830 0.934543 -0.003910
vn 0.355830 0.934543 -0.003910
vn 0.355830 0.934543 -0.003910
vn -0.003921 0.003921 0.999985
vn -0.003921 0.003921 0.999985
vn -0.003921 0.003921 0.999985
vn -0.003921 0.003921 0.999985
vn -0.003921 0.003921 0.999985
vn -0.003921 0.003921 0.999985
vn -0.003921 0.003921 0.999985
vn -0.003921 0.003921 0.999985
vn -0.003921 0.003921 0.999985
vn -0.003921 0.003921 -0.999985
vn -0.003921 0.003921 -0.999985
vn -0.003921 0.003921 -0.999985
vn -0.003921 0.003921 -0.999985
vn -0.003921 0.003921 -0.999985
vn -0.003921 0.003921 -0.999985
vn -0.003921 0.003921 -0.999985
vn -0.003921 0.003921 -0.999985
vn -0.003921 0.003921 -0.999985
vt -0.112244 1.276611
vt -0.112244 -0.281250
vt 1.543945 1.276611
vt -0.112244 -0.281250
vt 1.543945 -0.281250
vt 1.543945 1.276611
vt 1.622070 1.689453
vt -1.156250 1.689453
vt 1.622070 0.023438
vt -1.156250 1.689453
vt -1.156250 0.023438
vt 1.622070 0.023438
vt 1.553711 0.927551
vt -0.117798 0.927551
vt 1.553711 -0.652344
vt -0.117798 0.927551
vt -0.117798 -0.655273
vt 1.553711 -0.652344
vt -0.620117 1.660645
vt -0.620117 -0.013672
vt -0.279053 1.425781
vt -0.620117 -0.013672
vt -0.279053 0.359375
vt -0.279053 1.425781
vt -0.620117 -0.013672
vt 0.705566 -0.013672
vt -0.279053 0.359375
vt 0.705566 -0.013672
vt 0.216064 0.359375
vt -0.279053 0.359375
vt 0.705566 -0.013672
vt 0.705566 1.660645
vt 0.216064 0.359375
vt 0.705566 1.660645
vt 0.216064 1.425781
vt 0.216064 0.359375
vt 0.705566 1.660645
vt -0.620117 1.660645
vt 0.216064 1.425781
vt -0.620117 1.660645
vt -0.279053 1.425781
vt 0.216064 1.425781
vt 0.705566 -0.013672
vt 2.101562 -0.013672
vt 1.104492 0.359375
vt 2.101562 -0.013672
vt 1.600586 0.359375
vt 1.104492 0.359375
vt 2.101562 -0.013672
vt 2.101562 1.660645
vt 1.600586 0.359375
vt 2.101562 1.660645
vt 1.600586 1.425781
vt 1.600586 0.359375
vt 2.101562 1.660645
vt 0.705566 1.660645
vt 1.600586 1.425781
vt 0.705566 1.660645
vt 1.104492 1.425781
vt 1.600586 1.425781
vt 0.705566 1.660645
vt 0.705566 -0.013672
vt 1.104492 1.425781
vt 0.705566 -0.013672
vt 1.104492 0.359375
vt 1.104492 1.425781
vt 1.839844 -0.435547
vt 1.717773 1.291260
vt 0.314697 -0.537109
vt 1.717773 1.291260
vt -1.300781 1.046844
vt 0.314697 -0.537109
vt -1.300781 1.046844
vt -1.132812 -0.632812
vt 0.314697 -0.537109
vt 1.755859 -0.525391
vt 1.808594 1.203369
vt 0.281250 1.245850
vt -1.270508 -0.398438
vt 1.755859 -0.525391
vt 0.281250 1.245850
vt -1.270508 -0.398438
vt 0.281250 1.245850
vt -1.168945 1.286133
f 1/1/1 2/2/2 3/3/3
f 4/4/4 5/5/5 6/6/6
f 7/7/7 8/8/8 9/9/9
f 10/10/10 11/11/11 12/12/12
f 13/13/13 14/14/14 15/15/15
f 16/16/16 17/17/17 18/18/18
f 19/19/19 20/20/20 21/21/21
f 22/22/22 23/23/23 24/24/24
f 25/25/25 26/26/26 27/27/27
f 28/28/28 29/29/29 30/30/30
f 31/31/31 32/32/32 33/33/33
f 34/34/34 35/35/35 36/36/36
f 37/37/37 38/38/38 39/39/39
f 40/40/40 41/41/41 42/42/42
f 43/43/43 44/44/44 45/45/45
f 46/46/46 47/47/47 48/48/48
f 49/49/49 50/50/50 51/51/51
f 52/52/52 53/53/53 54/54/54
f 55/55/55 56/56/56 57/57/57
f 58/58/58 59/59/59 60/60/60
f 61/61/61 62/62/62 63/63/63
f 64/64/64 65/65/65 66/66/66
f 67/67/67 68/68/68 69/69/69
f 70/70/70 71/71/71 72/72/72
f 73/73/73 74/74/74 75/75/75
f 76/76/76 77/77/77 78/78/78
f 79/79/79 80/80/80 81/81/81
f 82/82/82 83/83/83 84/84/84
