# OBJ file
v 109.600020 820.527830 1474.490800
v 109.600040 820.527830 1428.558200
v 57.934353 724.386400 1474.490800
v 109.600040 820.527830 1428.558200
v 57.934360 724.386400 1428.558200
v 57.934353 724.386400 1474.490800
vn -0.880716 0.473629 -0.003914
vn -0.880716 0.473629 -0.003914
vn -0.880716 0.473629 -0.003914
vn -0.880716 0.473629 -0.003914
vn -0.880716 0.473629 -0.003914
vn -0.880716 0.473629 -0.003914
vt 0.002096 0.481934
vt 0.002096 0.250977
vt 0.578613 0.481934
vt 0.002096 0.250977
vt 0.578613 0.250977
vt 0.578613 0.481934
f 1/1/1 2/2/2 3/3/3
f 4/4/4 5/5/5 6/6/6
