# OBJ file
v 179.595871 120.633492 1098.439575
v 179.754990 120.682747 1217.317383
v 203.522385 130.120331 1098.425903
v 179.754990 120.682747 1217.317383
v 203.681564 130.169525 1217.317383
v 203.522385 130.120331 1098.425903
v 179.754990 120.682747 1217.317383
v 179.595932 120.633423 1309.330200
v 203.681564 130.169525 1217.317383
v 179.595932 120.633423 1309.330200
v 203.522324 130.120529 1308.283325
v 203.681564 130.169525 1217.317383
v 179.595932 120.633423 1309.330200
v 133.695618 236.945053 1309.323608
v 203.522324 130.120529 1308.283325
v 133.695618 236.945053 1309.323608
v 157.622070 246.431534 1308.283325
v 203.522324 130.120529 1308.283325
v 133.695618 236.945053 1309.323608
v 133.595612 236.912033 1217.317261
v 157.622070 246.431534 1308.283325
v 133.595612 236.912033 1217.317261
v 157.622421 246.430862 1217.317261
v 157.622070 246.431534 1308.283325
v 133.595612 236.912033 1217.317261
v 133.468658 236.871216 1098.439575
v 157.622421 246.430862 1217.317261
v 133.468658 236.871216 1098.439575
v 157.622070 246.431610 1098.425903
v 157.622421 246.430862 1217.317261
v -6.469802 588.649048 804.055725
v -6.501296 588.636353 777.089417
v 26.507858 505.577972 777.086975
v 26.539474 505.590546 804.026184
v -6.469802 588.649048 804.055725
v 26.507858 505.577972 777.086975
v 26.539474 505.590546 804.026184
v 26.507858 505.577972 777.086975
v 61.019699 418.738586 777.084412
v -6.469802 588.649048 804.055725
v 26.539474 505.590546 804.026184
v 26.558670 505.598175 867.296082
v -6.450667 588.656555 867.317505
v -6.469802 588.649048 804.055725
v 26.558670 505.598175 867.296082
v 61.051178 418.751526 803.995178
v 26.539474 505.590546 804.026184
v 61.019699 418.738586 777.084412
v 61.051178 418.751526 803.995178
v 61.019699 418.738586 777.084412
v 99.064339 323.009827 777.081482
v 26.558670 505.598175 867.296082
v 26.539474 505.590546 804.026184
v 61.070435 418.759125 867.274231
v 26.539474 505.590546 804.026184
v 61.051178 418.751526 803.995178
v 61.070435 418.759125 867.274231
v -6.450667 588.656555 867.317505
v 26.558670 505.598175 867.296082
v 26.582840 505.607819 946.955750
v -6.426436 588.666077 946.966492
v -6.450667 588.656555 867.317505
v 26.582840 505.607819 946.955750
v -6.402144 588.675598 1027.124390
v -6.426436 588.666077 946.966492
v 26.582840 505.607819 946.955750
v 26.582840 505.607819 946.955750
v 26.558670 505.598175 867.296082
v 61.094681 418.768738 946.944641
v 26.558670 505.598175 867.296082
v 61.070435 418.759125 867.274231
v 61.094681 418.768738 946.944641
v 26.607193 505.617493 1027.124390
v -6.402144 588.675598 1027.124390
v 26.582840 505.607819 946.955750
v 26.607193 505.617493 1027.124390
v 26.582840 505.607819 946.955750
v 61.094681 418.768738 946.944641
v -6.402144 588.675598 1027.124390
v 26.607193 505.617493 1027.124390
v 26.580215 505.720764 1050.536865
v -6.384383 588.700317 1050.536865
v -6.402144 588.675598 1027.124390
v 26.580215 505.720764 1050.536865
v 61.119034 418.778412 1027.124390
v 26.607193 505.617493 1027.124390
v 61.094681 418.768738 946.944641
v 61.119034 418.778412 1027.124390
v 61.094681 418.768738 946.944641
v 99.139420 323.039978 946.932434
v 61.094681 418.768738 946.944641
v 61.070435 418.759125 867.274231
v 99.139420 323.039978 946.932434
v 99.163742 323.049652 1027.124390
v 61.119034 418.778412 1027.124390
v 99.139420 323.039978 946.932434
v 61.070435 418.759125 867.274231
v 99.115250 323.030365 867.249573
v 99.139420 323.039978 946.932434
v 61.070435 418.759125 867.274231
v 61.051178 418.751526 803.995178
v 99.115250 323.030365 867.249573
v 99.163742 323.049652 1027.124390
v 99.139420 323.039978 946.932434
v 124.114113 260.198273 946.924377
v 99.139420 323.039978 946.932434
v 99.115250 323.030365 867.249573
v 124.114113 260.198273 946.924377
v 61.051178 418.751526 803.995178
v 99.095978 323.022705 803.961121
v 99.115250 323.030365 867.249573
v 99.095978 323.022705 803.961121
v 61.051178 418.751526 803.995178
v 99.064339 323.009827 777.081482
v 99.095978 323.022705 803.961121
v 99.064339 323.009827 777.081482
v 124.039047 260.168304 777.079651
v 99.115250 323.030365 867.249573
v 99.095978 323.022705 803.961121
v 124.089943 260.188751 867.233643
v 99.115250 323.030365 867.249573
v 124.089943 260.188751 867.233643
v 124.114113 260.198273 946.924377
v 124.070663 260.181122 803.938782
v 99.095978 323.022705 803.961121
v 124.039047 260.168304 777.079651
v 99.095978 323.022705 803.961121
v 124.070663 260.181122 803.938782
v 124.089943 260.188751 867.233643
v 124.070663 260.181122 803.938782
v 124.039047 260.168304 777.079651
v 133.954193 235.219650 777.078918
v 133.985809 235.232468 803.929810
v 124.070663 260.181122 803.938782
v 133.954193 235.219650 777.078918
v 124.070663 260.181122 803.938782
v 133.985809 235.232468 803.929810
v 124.089943 260.188751 867.233643
v 133.954193 235.219650 777.078918
v 156.626648 178.170990 777.077148
v 133.985809 235.232468 803.929810
v 124.089943 260.188751 867.233643
v 134.005081 235.240051 867.227234
v 124.114113 260.198273 946.924377
v 133.985809 235.232468 803.929810
v 134.005081 235.240051 867.227234
v 124.089943 260.188751 867.233643
v 156.626648 178.170990 777.077148
v 156.658203 178.183792 803.909485
v 133.985809 235.232468 803.929810
v 156.626648 178.170990 777.077148
v 179.153122 121.489563 777.075378
v 156.658203 178.183792 803.909485
v 134.005081 235.240051 867.227234
v 133.985809 235.232468 803.929810
v 156.677414 178.191452 867.212708
v 133.985809 235.232468 803.929810
v 156.658203 178.183792 803.909485
v 156.677414 178.191452 867.212708
v 179.153122 121.489563 777.075378
v 179.184616 121.502403 803.889343
v 156.658203 178.183792 803.909485
v 156.658203 178.183792 803.909485
v 179.184616 121.502403 803.889343
v 156.677414 178.191452 867.212708
v 179.153122 121.489563 777.075378
v 215.227097 30.719374 777.072815
v 179.184616 121.502403 803.889343
v 215.227097 30.719374 777.072815
v 215.258774 30.731947 803.857056
v 179.184616 121.502403 803.889343
v 215.227097 30.719374 777.072815
v 250.428085 -57.853775 777.070129
v 215.258774 30.731947 803.857056
v 179.184616 121.502403 803.889343
v 179.203827 121.510063 867.198181
v 156.677414 178.191452 867.212708
v 179.184616 121.502403 803.889343
v 215.258774 30.731947 803.857056
v 179.203827 121.510063 867.198181
v 250.428085 -57.853775 777.070129
v 250.459717 -57.841202 803.825317
v 215.258774 30.731947 803.857056
v 250.428085 -57.853775 777.070129
v 287.272675 -150.563187 777.067261
v 250.459717 -57.841202 803.825317
v 215.258774 30.731947 803.857056
v 215.278030 30.739542 867.175049
v 179.203827 121.510063 867.198181
v 215.258774 30.731947 803.857056
v 250.459717 -57.841202 803.825317
v 215.278030 30.739542 867.175049
v 287.272675 -150.563187 777.067261
v 287.304413 -150.550430 803.792358
v 250.459717 -57.841202 803.825317
v 287.272675 -150.563187 777.067261
v 302.393372 -188.154678 777.077515
v 287.304413 -150.550430 803.792358
v 250.459717 -57.841202 803.825317
v 250.478973 -57.833515 867.152344
v 215.278030 30.739542 867.175049
v 250.459717 -57.841202 803.825317
v 287.304413 -150.550430 803.792358
v 250.478973 -57.833515 867.152344
v 302.393372 -188.154678 777.077515
v 302.417664 -188.144852 803.706970
v 287.304413 -150.550430 803.792358
v 302.393372 -188.154678 777.077515
v 319.946259 -231.792496 777.089417
v 302.417664 -188.144852 803.706970
v 319.946259 -231.792496 777.089417
v 319.961823 -231.786026 803.607849
v 302.417664 -188.144852 803.706970
v 287.304413 -150.550430 803.792358
v 302.417664 -188.144852 803.706970
v 287.323669 -150.542740 867.128723
v 287.304413 -150.550430 803.792358
v 287.323669 -150.542740 867.128723
v 250.478973 -57.833515 867.152344
v 302.417664 -188.144852 803.706970
v 319.961823 -231.786026 803.607849
v 302.432526 -188.138931 867.074707
v 302.417664 -188.144852 803.706970
v 302.432526 -188.138931 867.074707
v 287.323669 -150.542740 867.128723
v 319.961823 -231.786026 803.607849
v 319.971466 -231.782181 867.011963
v 302.432526 -188.138931 867.074707
v 319.971466 -231.782181 867.011963
v 319.983643 -231.777237 946.840271
v 302.432526 -188.138931 867.074707
v 287.323669 -150.542740 867.128723
v 287.347961 -150.533096 946.871582
v 250.478973 -57.833515 867.152344
v 287.347961 -150.533096 946.871582
v 287.323669 -150.542740 867.128723
v 302.432526 -188.138931 867.074707
v 319.983643 -231.777237 946.840271
v 302.451172 -188.131485 946.857178
v 302.432526 -188.138931 867.074707
v 302.451172 -188.131485 946.857178
v 287.347961 -150.533096 946.871582
v 302.432526 -188.138931 867.074707
v 319.983643 -231.777237 946.840271
v 319.995850 -231.772415 1027.178955
v 302.451172 -188.131485 946.857178
v 287.347961 -150.533096 946.871582
v 250.503204 -57.823906 946.883667
v 250.478973 -57.833515 867.152344
v 250.478973 -57.833515 867.152344
v 250.503204 -57.823906 946.883667
v 215.278030 30.739542 867.175049
v 287.372437 -150.523407 1027.124390
v 287.347961 -150.533096 946.871582
v 302.451172 -188.131485 946.857178
v 287.347961 -150.533096 946.871582
v 287.372437 -150.523407 1027.124390
v 250.503204 -57.823906 946.883667
v 319.995850 -231.772415 1027.178955
v 302.469940 -188.124039 1027.149536
v 302.451172 -188.131485 946.857178
v 302.469940 -188.124039 1027.149536
v 287.372437 -150.523407 1027.124390
v 302.451172 -188.131485 946.857178
v 287.372437 -150.523407 1027.124390
v 250.527618 -57.814236 1027.124390
v 250.503204 -57.823906 946.883667
v 302.469940 -188.124039 1027.149536
v 319.995850 -231.772415 1027.178955
v 302.580383 -188.139801 1050.550781
v 319.995850 -231.772415 1027.178955
v 320.035309 -231.756912 1050.566895
v 302.580383 -188.139801 1050.550781
v 287.372437 -150.523407 1027.124390
v 302.469940 -188.124039 1027.149536
v 287.544067 -150.566071 1050.536743
v 302.469940 -188.124039 1027.149536
v 302.580383 -188.139801 1050.550781
v 287.544067 -150.566071 1050.536743
v 250.527618 -57.814236 1027.124390
v 287.372437 -150.523407 1027.124390
v 287.544067 -150.566071 1050.536743
v 320.035309 -231.756912 1050.566895
v 320.083466 -231.738068 1079.069702
v 302.580383 -188.139801 1050.550781
v 250.639847 -57.526058 1050.536865
v 250.527618 -57.814236 1027.124390
v 287.544067 -150.566071 1050.536743
v 320.083466 -231.738068 1079.069702
v 302.715118 -188.158905 1079.069702
v 302.580383 -188.139801 1050.550781
v 215.326736 30.758884 1027.124390
v 250.527618 -57.814236 1027.124390
v 250.639847 -57.526058 1050.536865
v 320.083466 -231.738068 1079.069702
v 320.152222 -231.710663 1147.453979
v 302.715118 -188.158905 1079.069702
v 287.753235 -150.618073 1079.069580
v 287.544067 -150.566071 1050.536743
v 302.580383 -188.139801 1050.550781
v 302.715118 -188.158905 1079.069702
v 287.753235 -150.618073 1079.069580
v 302.580383 -188.139801 1050.550781
v 250.639847 -57.526058 1050.536865
v 287.544067 -150.566071 1050.536743
v 287.753235 -150.618073 1079.069580
v 320.152222 -231.710663 1147.453979
v 302.908569 -188.186432 1147.451294
v 302.715118 -188.158905 1079.069702
v 250.776566 -57.174862 1079.069580
v 250.639847 -57.526058 1050.536865
v 287.753235 -150.618073 1079.069580
v 302.908569 -188.186432 1147.451294
v 320.152222 -231.710663 1147.453979
v 302.990875 -188.153839 1217.280029
v 320.152222 -231.710663 1147.453979
v 320.141846 -231.714264 1217.264648
v 302.990875 -188.153839 1217.280029
v 320.141846 -231.714264 1217.264648
v 320.192322 -231.694244 1265.359985
v 302.990875 -188.153839 1217.280029
v 302.908569 -188.186432 1147.451294
v 288.054138 -150.692719 1147.449097
v 302.715118 -188.158905 1079.069702
v 288.054138 -150.692719 1147.449097
v 287.753235 -150.618073 1079.069580
v 302.715118 -188.158905 1079.069702
v 302.908569 -188.186432 1147.451294
v 302.990875 -188.153839 1217.280029
v 288.216278 -150.628937 1217.293091
v 288.054138 -150.692719 1147.449097
v 302.908569 -188.186432 1147.451294
v 288.216278 -150.628937 1217.293091
v 320.192322 -231.694244 1265.359985
v 303.050354 -188.130402 1265.391724
v 302.990875 -188.153839 1217.280029
v 288.216278 -150.628937 1217.293091
v 302.990875 -188.153839 1217.280029
v 303.050354 -188.130402 1265.391724
v 320.192322 -231.694244 1265.359985
v 320.238403 -231.675873 1309.262939
v 303.050354 -188.130402 1265.391724
v 276.495972 -119.041809 1233.271362
v 288.054138 -150.692719 1147.449097
v 288.216278 -150.628937 1217.293091
v 273.779968 -112.305794 1219.016846
v 288.054138 -150.692719 1147.449097
v 276.495972 -119.041809 1233.271362
v 276.495972 -119.041809 1233.271362
v 288.216278 -150.628937 1217.293091
v 277.431793 -121.362877 1249.072388
v 269.549377 -101.814209 1207.704468
v 288.054138 -150.692719 1147.449097
v 273.779968 -112.305794 1219.016846
v 277.431793 -121.362877 1249.072388
v 288.216278 -150.628937 1217.293091
v 276.496033 -119.041748 1264.873657
v 250.973221 -56.668823 1147.448608
v 288.054138 -150.692719 1147.449097
v 269.549377 -101.814209 1207.704468
v 288.054138 -150.692719 1147.449097
v 250.973221 -56.668823 1147.448608
v 287.753235 -150.618073 1079.069580
v 264.218719 -88.594208 1200.441528
v 250.973221 -56.668823 1147.448608
v 269.549377 -101.814209 1207.704468
v 250.973221 -56.668823 1147.448608
v 250.776566 -57.174862 1079.069580
v 287.753235 -150.618073 1079.069580
v 258.309753 -73.939178 1197.938843
v 250.973221 -56.668823 1147.448608
v 264.218719 -88.594208 1200.441528
v 252.400620 -59.284641 1200.441406
v 250.973221 -56.668823 1147.448608
v 258.309753 -73.939178 1197.938843
v 276.496033 -119.041748 1264.873657
v 288.216278 -150.628937 1217.293091
v 288.283508 -150.602570 1265.418823
v 288.283508 -150.602570 1265.418823
v 288.216278 -150.628937 1217.293091
v 303.050354 -188.130402 1265.391724
v 215.948303 30.740660 1147.449097
v 250.973221 -56.668823 1147.448608
v 252.400620 -59.284641 1200.441406
v 250.973221 -56.668823 1147.448608
v 215.948303 30.740660 1147.449097
v 250.776566 -57.174862 1079.069580
v 247.069962 -46.064640 1207.704468
v 215.948303 30.740660 1147.449097
v 252.400620 -59.284641 1200.441406
v 242.839539 -35.573124 1219.016724
v 215.948303 30.740660 1147.449097
v 247.069962 -46.064640 1207.704468
v 240.123459 -28.836826 1233.271118
v 215.948303 30.740660 1147.449097
v 242.839539 -35.573124 1219.016724
v 276.496033 -119.041748 1264.873657
v 288.283508 -150.602570 1265.418823
v 288.344879 -150.578583 1309.349487
v 288.344879 -150.578583 1309.349487
v 288.283508 -150.602570 1265.418823
v 303.050354 -188.130402 1265.391724
v 276.496033 -119.041748 1264.873657
v 288.344879 -150.578583 1309.349487
v 273.779938 -112.305794 1279.128052
v 273.779938 -112.305794 1279.128052
v 288.344879 -150.578583 1309.349487
v 269.549377 -101.814217 1290.440552
v 269.549377 -101.814217 1290.440552
v 288.344879 -150.578583 1309.349487
v 264.218781 -88.594002 1297.703491
v 303.104645 -188.108978 1309.309448
v 288.344879 -150.578583 1309.349487
v 303.050354 -188.130402 1265.391724
v 320.238403 -231.675873 1309.262939
v 303.104645 -188.108978 1309.309448
v 303.050354 -188.130402 1265.391724
v 320.238403 -231.675873 1309.262939
v 320.272034 -231.662567 1342.066040
v 303.104645 -188.108978 1309.309448
v 320.272034 -231.662567 1342.066040
v 320.283783 -231.657990 1379.718384
v 302.886658 -187.952789 1379.718384
v 302.869507 -187.959869 1342.202881
v 320.272034 -231.662567 1342.066040
v 302.886658 -187.952789 1379.718384
v 320.272034 -231.662567 1342.066040
v 302.869507 -187.959869 1342.202881
v 303.104645 -188.108978 1309.309448
v 302.869507 -187.959869 1342.202881
v 302.886658 -187.952789 1379.718384
v 287.899994 -150.303207 1379.718384
v 302.869507 -187.959869 1342.202881
v 287.878296 -150.312469 1342.320923
v 303.104645 -188.108978 1309.309448
v 287.878296 -150.312469 1342.320923
v 302.869507 -187.959869 1342.202881
v 287.899994 -150.303207 1379.718384
v 287.878296 -150.312469 1342.320923
v 288.344879 -150.578583 1309.349487
v 303.104645 -188.108978 1309.309448
v 287.878296 -150.312469 1342.320923
v 287.899994 -150.303207 1379.718384
v 250.696686 -56.841259 1379.718384
v 250.677002 -56.850960 1342.328735
v 287.878296 -150.312469 1342.320923
v 250.696686 -56.841259 1379.718384
v 288.344879 -150.578583 1309.349487
v 287.878296 -150.312469 1342.320923
v 250.677002 -56.850960 1342.328735
v 250.677002 -56.850960 1342.328735
v 250.696686 -56.841259 1379.718384
v 215.747467 30.958942 1379.718384
v 250.972733 -56.668465 1309.349487
v 288.344879 -150.578583 1309.349487
v 250.677002 -56.850960 1342.328735
v 288.344879 -150.578583 1309.349487
v 250.972733 -56.668465 1309.349487
v 264.218781 -88.594002 1297.703491
v 250.972733 -56.668465 1309.349487
v 258.309692 -73.939186 1300.206177
v 264.218781 -88.594002 1297.703491
v 258.309692 -73.939186 1300.206177
v 250.972733 -56.668465 1309.349487
v 252.400497 -59.284737 1297.703491
v 252.400497 -59.284737 1297.703491
v 250.972733 -56.668465 1309.349487
v 247.069962 -46.064644 1290.440552
v 215.729355 30.949024 1342.336060
v 250.677002 -56.850960 1342.328735
v 215.747467 30.958942 1379.718384
v 250.972733 -56.668465 1309.349487
v 250.677002 -56.850960 1342.328735
v 215.729355 30.949024 1342.336060
v 215.729355 30.949024 1342.336060
v 215.747467 30.958942 1379.718384
v 179.619461 121.719299 1379.718384
v 250.972733 -56.668465 1309.349487
v 216.151138 30.832632 1309.349487
v 247.069962 -46.064644 1290.440552
v 216.151138 30.832632 1309.349487
v 250.972733 -56.668465 1309.349487
v 215.729355 30.949024 1342.336060
v 247.069962 -46.064644 1290.440552
v 216.151138 30.832632 1309.349487
v 242.839539 -35.573128 1279.128052
v 242.839539 -35.573128 1279.128052
v 216.151138 30.832632 1309.349487
v 240.123398 -28.836828 1264.873657
v 179.603287 121.708740 1342.351685
v 215.729355 30.949024 1342.336060
v 179.619461 121.719299 1379.718384
v 215.729355 30.949024 1342.336060
v 179.603287 121.708740 1342.351685
v 216.151138 30.832632 1309.349487
v 179.603287 121.708740 1342.351685
v 179.619461 121.719299 1379.718384
v 133.695923 236.944504 1379.718384
v 240.123398 -28.836828 1264.873657
v 216.151138 30.832632 1309.349487
v 216.062698 30.792139 1217.318115
v 240.123398 -28.836828 1264.873657
v 216.062698 30.792139 1217.318115
v 239.187607 -26.515722 1249.072388
v 239.187607 -26.515722 1249.072388
v 216.062698 30.792139 1217.318115
v 240.123459 -28.836826 1233.271118
v 240.123459 -28.836826 1233.271118
v 216.062698 30.792139 1217.318115
v 215.948303 30.740660 1147.449097
v 216.062698 30.792139 1217.318115
v 216.151138 30.832632 1309.349487
v 179.754990 120.682747 1217.317383
v 215.948303 30.740660 1147.449097
v 216.062698 30.792139 1217.318115
v 179.754990 120.682747 1217.317383
v 216.151138 30.832632 1309.349487
v 179.595932 120.633423 1309.330200
v 179.754990 120.682747 1217.317383
v 179.603287 121.708740 1342.351685
v 179.595932 120.633423 1309.330200
v 216.151138 30.832632 1309.349487
v 179.595871 120.633492 1098.439575
v 215.948303 30.740660 1147.449097
v 179.754990 120.682747 1217.317383
v 179.603287 121.708740 1342.351685
v 133.695679 236.944504 1342.361206
v 179.595932 120.633423 1309.330200
v 133.695679 236.944504 1342.361206
v 179.603287 121.708740 1342.351685
v 133.695923 236.944504 1379.718384
v 133.695923 236.944504 1379.718384
v 123.811569 261.782318 1379.718384
v 133.695679 236.944504 1342.361206
v 133.695679 236.944504 1342.361206
v 133.695618 236.945053 1309.323608
v 179.595932 120.633423 1309.330200
v 123.811569 261.782318 1379.718384
v 123.811333 261.782379 1342.360962
v 133.695679 236.944504 1342.361206
v 133.695679 236.944504 1342.361206
v 123.811333 261.782379 1342.360962
v 133.695618 236.945053 1309.323608
v 123.811569 261.782318 1379.718384
v 98.914322 324.344849 1379.718384
v 123.811333 261.782379 1342.360962
v 123.811333 261.782379 1342.360962
v 123.811256 261.782837 1309.328979
v 133.695618 236.945053 1309.323608
v 98.914322 324.344849 1379.718384
v 98.914246 324.345093 1342.360474
v 123.811333 261.782379 1342.360962
v 123.811333 261.782379 1342.360962
v 98.914246 324.345093 1342.360474
v 123.811256 261.782837 1309.328979
v 98.914322 324.344849 1379.718384
v 61.235611 419.024475 1379.718384
v 98.914246 324.345093 1342.360474
v 133.695618 236.945053 1309.323608
v 123.811256 261.782837 1309.328979
v 123.717194 261.749847 1217.317505
v 133.595612 236.912033 1217.317261
v 133.695618 236.945053 1309.323608
v 123.717194 261.749847 1217.317505
v 133.468658 236.871216 1098.439575
v 133.595612 236.912033 1217.317261
v 123.717194 261.749847 1217.317505
v 61.235611 419.024475 1379.718384
v 61.235565 419.024719 1342.368286
v 98.914246 324.345093 1342.360474
v 61.235611 419.024475 1379.718384
v 26.962479 505.839050 1379.718384
v 61.235565 419.024719 1342.368286
v 98.914246 324.345093 1342.360474
v 98.914207 324.345032 1309.342896
v 123.811256 261.782837 1309.328979
v 98.914207 324.345032 1309.342896
v 98.914246 324.345093 1342.360474
v 61.235565 419.024719 1342.368286
v 123.811256 261.782837 1309.328979
v 98.914207 324.345032 1309.342896
v 123.717194 261.749847 1217.317505
v 26.962479 505.839050 1379.718384
v 26.739151 505.752991 1342.375610
v 61.235565 419.024719 1342.368286
v 26.962479 505.839050 1379.718384
v -5.942031 589.062256 1379.718384
v 26.739151 505.752991 1342.375610
v -5.942031 589.062256 1379.718384
v -6.317428 588.801819 1342.116089
v 26.739151 505.752991 1342.375610
v 61.235611 419.024689 1309.342773
v 61.235565 419.024719 1342.368286
v 26.739151 505.752991 1342.375610
v 61.235611 419.024689 1309.342773
v 98.914207 324.345032 1309.342896
v 61.235565 419.024719 1342.368286
v 26.739151 505.752991 1342.375610
v -6.317428 588.801819 1342.116089
v 26.583145 506.101379 1309.342896
v 26.583145 506.101379 1309.342896
v 61.235611 419.024689 1309.342773
v 26.739151 505.752991 1342.375610
v -6.317428 588.801819 1342.116089
v -6.320479 588.796204 1309.254639
v 26.583145 506.101379 1309.342896
v -6.320479 588.796204 1309.254639
v -6.329085 588.780212 1217.265869
v 26.583145 506.101379 1309.342896
v 58.396622 426.125732 1298.105103
v 61.235611 419.024689 1309.342773
v 52.487488 440.780304 1295.602417
v 64.305740 411.471008 1295.602417
v 61.235611 419.024689 1309.342773
v 58.396622 426.125732 1298.105103
v 52.487488 440.780304 1295.602417
v 61.235611 419.024689 1309.342773
v 47.156876 454.000397 1288.339478
v 98.914207 324.345032 1309.342896
v 61.235611 419.024689 1309.342773
v 64.305740 411.471008 1295.602417
v 61.235611 419.024689 1309.342773
v 26.583145 506.101379 1309.342896
v 47.156876 454.000397 1288.339478
v 69.636200 398.250732 1288.339478
v 98.914207 324.345032 1309.342896
v 64.305740 411.471008 1295.602417
v 47.156876 454.000397 1288.339478
v 26.583145 506.101379 1309.342896
v 42.926483 464.491913 1277.026978
v 73.866806 387.759155 1277.026978
v 98.914207 324.345032 1309.342896
v 69.636200 398.250732 1288.339478
v 42.926483 464.491913 1277.026978
v 26.583145 506.101379 1309.342896
v 40.210312 471.228149 1262.772461
v 76.582840 381.023315 1262.772461
v 98.914207 324.345032 1309.342896
v 73.866806 387.759155 1277.026978
v 40.210312 471.228149 1262.772461
v 26.583145 506.101379 1309.342896
v 26.546494 506.069519 1217.295288
v -6.329085 588.780212 1217.265869
v 26.546494 506.069519 1217.295288
v 26.583145 506.101379 1309.342896
v 40.210312 471.228149 1262.772461
v 26.546494 506.069519 1217.295288
v 39.274353 473.549286 1246.971313
v -6.329085 588.780212 1217.265869
v -6.332351 588.773621 1147.483521
v 26.546494 506.069519 1217.295288
v 39.274353 473.549286 1246.971313
v 26.546494 506.069519 1217.295288
v 40.210312 471.228149 1231.170166
v 76.582840 381.023315 1262.772461
v 98.834976 324.312317 1217.318115
v 98.914207 324.345032 1309.342896
v 77.518677 378.702148 1246.971313
v 98.834976 324.312317 1217.318115
v 76.582840 381.023315 1262.772461
v 98.914207 324.345032 1309.342896
v 98.834976 324.312317 1217.318115
v 123.717194 261.749847 1217.317505
v 76.582840 381.023163 1231.170288
v 98.834976 324.312317 1217.318115
v 77.518677 378.702148 1246.971313
v 123.597633 261.708954 1112.375854
v 123.717194 261.749847 1217.317505
v 98.834976 324.312317 1217.318115
v 123.597633 261.708954 1112.375854
v 133.468658 236.871216 1098.439575
v 123.717194 261.749847 1217.317505
v 76.582840 381.023163 1231.170288
v 98.734169 324.271240 1147.479004
v 98.834976 324.312317 1217.318115
v 98.734169 324.271240 1147.479004
v 123.597633 261.708954 1112.375854
v 98.834976 324.312317 1217.318115
v 73.866867 387.759186 1216.915894
v 98.734169 324.271240 1147.479004
v 76.582840 381.023163 1231.170288
v 69.636200 398.250763 1205.603394
v 98.734169 324.271240 1147.479004
v 73.866867 387.759186 1216.915894
v 133.468658 236.871216 1098.439575
v 123.597633 261.708954 1112.375854
v 133.727448 236.159058 1079.028442
v 61.236237 419.024323 1147.479004
v 98.734169 324.271240 1147.479004
v 69.636200 398.250763 1205.603394
v 64.305664 411.470886 1198.340332
v 61.236237 419.024323 1147.479004
v 69.636200 398.250763 1205.603394
v 58.396622 426.125763 1195.837769
v 61.236237 419.024323 1147.479004
v 64.305664 411.470886 1198.340332
v 52.487534 440.780396 1198.340454
v 61.236237 419.024323 1147.479004
v 58.396622 426.125763 1195.837769
v 123.597633 261.708954 1112.375854
v 98.734169 324.271240 1147.479004
v 123.836899 261.045929 1079.040161
v 123.597633 261.708954 1112.375854
v 123.836899 261.045929 1079.040161
v 133.727448 236.159058 1079.028442
v 98.734169 324.271240 1147.479004
v 61.236237 419.024323 1147.479004
v 98.924164 323.731659 1079.069702
v 98.734169 324.271240 1147.479004
v 98.924164 323.731659 1079.069702
v 123.836899 261.045929 1079.040161
v 26.499771 506.028168 1147.479004
v 61.236237 419.024323 1147.479004
v 52.487534 440.780396 1198.340454
v 47.156876 454.000427 1205.603394
v 26.499771 506.028168 1147.479004
v 52.487534 440.780396 1198.340454
v 42.926483 464.491943 1216.915771
v 26.499771 506.028168 1147.479004
v 47.156876 454.000427 1205.603394
v 40.210312 471.228149 1231.170166
v 26.499771 506.028168 1147.479004
v 42.926483 464.491943 1216.915771
v 40.210312 471.228149 1231.170166
v 26.546494 506.069519 1217.295288
v 26.499771 506.028168 1147.479004
v -6.332351 588.773621 1147.483521
v 26.499771 506.028168 1147.479004
v 26.546494 506.069519 1217.295288
v 61.236237 419.024323 1147.479004
v 26.499771 506.028168 1147.479004
v 61.184845 418.915497 1079.069702
v 61.236237 419.024323 1147.479004
v 61.184845 418.915497 1079.069702
v 98.924164 323.731659 1079.069702
v 26.499771 506.028168 1147.479004
v -6.332351 588.773621 1147.483521
v 26.547379 505.846588 1079.069702
v 26.499771 506.028168 1147.479004
v 26.547379 505.846588 1079.069702
v 61.184845 418.915497 1079.069702
v -6.332351 588.773621 1147.483521
v -6.362807 588.730286 1079.069702
v 26.547379 505.846588 1079.069702
v -6.362807 588.730286 1079.069702
v -6.384383 588.700317 1050.536865
v 26.547379 505.846588 1079.069702
v -6.384383 588.700317 1050.536865
v 26.580215 505.720764 1050.536865
v 26.547379 505.846588 1079.069702
v 26.547379 505.846588 1079.069702
v 26.580215 505.720764 1050.536865
v 61.184845 418.915497 1079.069702
v 26.580215 505.720764 1050.536865
v 61.148682 418.840240 1050.536865
v 61.184845 418.915497 1079.069702
v 61.184845 418.915497 1079.069702
v 61.148682 418.840240 1050.536865
v 98.924164 323.731659 1079.069702
v 26.580215 505.720764 1050.536865
v 26.607193 505.617493 1027.124390
v 61.148682 418.840240 1050.536865
v 26.607193 505.617493 1027.124390
v 61.119034 418.778412 1027.124390
v 61.148682 418.840240 1050.536865
v 61.148682 418.840240 1050.536865
v 99.055756 323.357056 1050.536865
v 98.924164 323.731659 1079.069702
v 61.148682 418.840240 1050.536865
v 61.119034 418.778412 1027.124390
v 99.055756 323.357056 1050.536865
v 98.924164 323.731659 1079.069702
v 99.055756 323.357056 1050.536865
v 123.836899 261.045929 1079.040161
v 61.119034 418.778412 1027.124390
v 99.163742 323.049652 1027.124390
v 99.055756 323.357056 1050.536865
v 99.055756 323.357056 1050.536865
v 124.002533 260.585693 1050.523560
v 123.836899 261.045929 1079.040161
v 99.055756 323.357056 1050.536865
v 99.163742 323.049652 1027.124390
v 124.002533 260.585693 1050.523560
v 133.727448 236.159058 1079.028442
v 123.836899 261.045929 1079.040161
v 124.002533 260.585693 1050.523560
v 99.163742 323.049652 1027.124390
v 124.138519 260.208008 1027.124390
v 124.002533 260.585693 1050.523560
v 124.138519 260.208008 1027.124390
v 99.163742 323.049652 1027.124390
v 124.114113 260.198273 946.924377
v 133.906616 235.664764 1050.518311
v 133.727448 236.159058 1079.028442
v 124.002533 260.585693 1050.523560
v 124.138519 260.208008 1027.124390
v 124.114113 260.198273 946.924377
v 134.029312 235.249603 946.921082
v 134.005081 235.240051 867.227234
v 134.029312 235.249603 946.921082
v 124.114113 260.198273 946.924377
v 124.138519 260.208008 1027.124390
v 134.053665 235.259293 1027.124390
v 124.002533 260.585693 1050.523560
v 134.053665 235.259293 1027.124390
v 124.138519 260.208008 1027.124390
v 134.029312 235.249603 946.921082
v 134.053665 235.259293 1027.124390
v 133.906616 235.664764 1050.518311
v 124.002533 260.585693 1050.523560
v 134.029312 235.249603 946.921082
v 134.005081 235.240051 867.227234
v 156.701691 178.201004 946.913818
v 134.053665 235.259293 1027.124390
v 134.029312 235.249603 946.921082
v 156.701691 178.201004 946.913818
v 134.005081 235.240051 867.227234
v 156.677414 178.191452 867.212708
v 156.701691 178.201004 946.913818
v 156.677414 178.191452 867.212708
v 179.203827 121.510063 867.198181
v 156.701691 178.201004 946.913818
v 133.906616 235.664764 1050.518311
v 134.053665 235.259293 1027.124390
v 156.696152 178.299713 1050.518433
v 156.726044 178.210724 1027.124390
v 134.053665 235.259293 1027.124390
v 156.701691 178.201004 946.913818
v 134.053665 235.259293 1027.124390
v 156.726044 178.210724 1027.124390
v 156.696152 178.299713 1050.518433
v 179.203827 121.510063 867.198181
v 179.228058 121.519653 946.906616
v 156.701691 178.201004 946.913818
v 156.726044 178.210724 1027.124390
v 156.701691 178.201004 946.913818
v 179.228058 121.519653 946.906616
v 215.302322 30.749214 946.894958
v 179.228058 121.519653 946.906616
v 179.203827 121.510063 867.198181
v 215.278030 30.739542 867.175049
v 215.302322 30.749214 946.894958
v 179.203827 121.510063 867.198181
v 250.503204 -57.823906 946.883667
v 215.302322 30.749214 946.894958
v 215.278030 30.739542 867.175049
v 250.503204 -57.823906 946.883667
v 250.527618 -57.814236 1027.124390
v 215.302322 30.749214 946.894958
v 250.527618 -57.814236 1027.124390
v 215.326736 30.758884 1027.124390
v 215.302322 30.749214 946.894958
v 215.302322 30.749214 946.894958
v 215.326736 30.758884 1027.124390
v 179.228058 121.519653 946.906616
v 179.252457 121.529327 1027.124390
v 156.726044 178.210724 1027.124390
v 179.228058 121.519653 946.906616
v 215.326736 30.758884 1027.124390
v 179.252457 121.529327 1027.124390
v 179.228058 121.519653 946.906616
v 156.726044 178.210724 1027.124390
v 179.252457 121.529327 1027.124390
v 156.696152 178.299713 1050.518433
v 179.252457 121.529327 1027.124390
v 215.326736 30.758884 1027.124390
v 179.338974 121.303917 1050.518433
v 179.252457 121.529327 1027.124390
v 179.338974 121.303917 1050.518433
v 156.696152 178.299713 1050.518433
v 215.326736 30.758884 1027.124390
v 215.483200 30.754335 1050.536865
v 179.338974 121.303917 1050.518433
v 215.483200 30.754335 1050.536865
v 215.326736 30.758884 1027.124390
v 250.639847 -57.526058 1050.536865
v 215.483200 30.754335 1050.536865
v 250.639847 -57.526058 1050.536865
v 250.776566 -57.174862 1079.069580
v 215.673950 30.748690 1079.069580
v 215.483200 30.754335 1050.536865
v 250.776566 -57.174862 1079.069580
v 215.483200 30.754335 1050.536865
v 215.673950 30.748690 1079.069580
v 179.338974 121.303917 1050.518433
v 215.948303 30.740660 1147.449097
v 215.673950 30.748690 1079.069580
v 250.776566 -57.174862 1079.069580
v 215.673950 30.748690 1079.069580
v 215.948303 30.740660 1147.449097
v 179.444412 121.029167 1079.028442
v 215.673950 30.748690 1079.069580
v 179.444412 121.029167 1079.028442
v 179.338974 121.303917 1050.518433
v 215.948303 30.740660 1147.449097
v 179.595871 120.633492 1098.439575
v 179.444412 121.029167 1079.028442
v 179.595871 120.633492 1098.439575
v 156.606705 178.564713 1098.439575
v 179.444412 121.029167 1079.028442
v 179.338974 121.303917 1050.518433
v 179.444412 121.029167 1079.028442
v 156.659729 178.408203 1079.028442
v 156.606705 178.564713 1098.439575
v 156.659729 178.408203 1079.028442
v 179.444412 121.029167 1079.028442
v 156.696152 178.299713 1050.518433
v 179.338974 121.303917 1050.518433
v 156.659729 178.408203 1079.028442
v 156.606705 178.564713 1098.439575
v 133.468658 236.871216 1098.439575
v 156.659729 178.408203 1079.028442
v 133.906616 235.664764 1050.518311
v 156.696152 178.299713 1050.518433
v 156.659729 178.408203 1079.028442
v 133.468658 236.871216 1098.439575
v 133.727448 236.159058 1079.028442
v 156.659729 178.408203 1079.028442
v 133.727448 236.159058 1079.028442
v 133.906616 235.664764 1050.518311
v 156.659729 178.408203 1079.028442
vt 0.986328 -4.316406
vt 0.986816 -3.722656
vt 0.857422 -4.316406
vt 0.986816 -3.722656
vt 0.857422 -3.718750
vt 0.857422 -4.316406
vt 0.986816 -3.722656
vt 0.988281 -3.257812
vt 0.857422 -3.718750
vt 0.988281 -3.257812
vt 0.859375 -3.265625
vt 0.857422 -3.718750
vt 0.986328 -3.261719
vt 0.359131 -3.261719
vt 0.986328 -3.394531
vt 0.359131 -3.261719
vt 0.358887 -3.394531
vt 0.986328 -3.394531
vt 0.359131 -3.261719
vt 0.359131 -3.722656
vt 0.488281 -3.265625
vt 0.359131 -3.722656
vt 0.488770 -3.718750
vt 0.488281 -3.265625
vt 0.359131 -3.722656
vt 0.358643 -4.316406
vt 0.488770 -3.718750
vt 0.358643 -4.316406
vt 0.489014 -4.316406
vt 0.488770 -3.718750
vt -1.540039 -5.792969
vt -1.540039 -5.929688
vt -1.091797 -5.929688
vt -1.091797 -5.796875
vt -1.540039 -5.792969
vt -1.091797 -5.929688
vt -1.091797 -5.796875
vt -1.091797 -5.929688
vt -0.623047 -5.929688
vt -1.540039 -5.792969
vt -1.091797 -5.796875
vt -1.091797 -5.476562
vt -1.540039 -5.476562
vt -1.540039 -5.792969
vt -1.091797 -5.476562
vt -0.623047 -5.796875
vt -1.091797 -5.796875
vt -0.623047 -5.929688
vt -0.623047 -5.796875
vt -0.623047 -5.929688
vt -0.106384 -5.929688
vt -1.091797 -5.476562
vt -1.091797 -5.796875
vt -0.623047 -5.476562
vt -1.091797 -5.796875
vt -0.623047 -5.796875
vt -0.623047 -5.476562
vt -1.540039 -5.476562
vt -1.091797 -5.476562
vt -1.091797 -5.078125
vt -1.540039 -5.078125
vt -1.540039 -5.476562
vt -1.091797 -5.078125
vt -1.540039 -4.675781
vt -1.540039 -5.078125
vt -1.091797 -5.078125
vt -1.091797 -5.078125
vt -1.091797 -5.476562
vt -0.623047 -5.078125
vt -1.091797 -5.476562
vt -0.623047 -5.476562
vt -0.623047 -5.078125
vt -1.091797 -4.675781
vt -1.540039 -4.675781
vt -1.091797 -5.078125
vt -1.091797 -4.675781
vt -1.091797 -5.078125
vt -0.623047 -5.078125
vt -1.540039 -4.675781
vt -1.091797 -4.675781
vt -1.092773 -4.558594
vt -1.540039 -4.558594
vt -1.540039 -4.675781
vt -1.092773 -4.558594
vt -0.623047 -4.675781
vt -1.091797 -4.675781
vt -0.623047 -5.078125
vt -0.623047 -4.675781
vt -0.623047 -5.078125
vt -0.106384 -5.078125
vt -0.623047 -5.078125
vt -0.623047 -5.476562
vt -0.106384 -5.078125
vt -0.106384 -4.675781
vt -0.623047 -4.675781
vt -0.106384 -5.078125
vt -0.623047 -5.476562
vt -0.106384 -5.476562
vt -0.106384 -5.078125
vt -0.623047 -5.476562
vt -0.623047 -5.796875
vt -0.106384 -5.476562
vt -0.106384 -4.675781
vt -0.106384 -5.078125
vt 0.232910 -5.078125
vt -0.106384 -5.078125
vt -0.106384 -5.476562
vt 0.232910 -5.078125
vt -0.623047 -5.796875
vt -0.106384 -5.796875
vt -0.106384 -5.476562
vt -0.106384 -5.796875
vt -0.623047 -5.796875
vt -0.106384 -5.929688
vt -0.106384 -5.796875
vt -0.106384 -5.929688
vt 0.232910 -5.929688
vt -0.106384 -5.476562
vt -0.106384 -5.796875
vt 0.232910 -5.476562
vt -0.106384 -5.476562
vt 0.232910 -5.476562
vt 0.232910 -5.078125
vt 0.232910 -5.796875
vt -0.106384 -5.796875
vt 0.232910 -5.929688
vt -0.106384 -5.796875
vt 0.232910 -5.796875
vt 0.232910 -5.476562
vt 0.232910 -5.796875
vt 0.232910 -5.929688
vt 0.367676 -5.929688
vt 0.367676 -5.796875
vt 0.232910 -5.796875
vt 0.367676 -5.929688
vt 0.232910 -5.796875
vt 0.367676 -5.796875
vt 0.232910 -5.476562
vt 0.367676 -5.929688
vt 0.675781 -5.929688
vt 0.367676 -5.796875
vt 0.232910 -5.476562
vt 0.367676 -5.476562
vt 0.232910 -5.078125
vt 0.367676 -5.796875
vt 0.367676 -5.476562
vt 0.232910 -5.476562
vt 0.675781 -5.929688
vt 0.675781 -5.796875
vt 0.367676 -5.796875
vt 0.675781 -5.929688
vt 0.981934 -5.929688
vt 0.675781 -5.796875
vt 0.367676 -5.476562
vt 0.367676 -5.796875
vt 0.675781 -5.476562
vt 0.367676 -5.796875
vt 0.675781 -5.796875
vt 0.675781 -5.476562
vt 0.981934 -5.929688
vt 0.981934 -5.796875
vt 0.675781 -5.796875
vt 0.675781 -5.796875
vt 0.981934 -5.796875
vt 0.675781 -5.476562
vt 0.981934 -5.929688
vt 1.471680 -5.929688
vt 0.981934 -5.796875
vt 1.471680 -5.929688
vt 1.471680 -5.796875
vt 0.981934 -5.796875
vt 1.471680 -5.929688
vt 1.950195 -5.929688
vt 1.471680 -5.796875
vt 0.981934 -5.796875
vt 0.981934 -5.476562
vt 0.675781 -5.476562
vt 0.981934 -5.796875
vt 1.471680 -5.796875
vt 0.981934 -5.476562
vt 1.950195 -5.929688
vt 1.950195 -5.796875
vt 1.471680 -5.796875
vt 1.950195 -5.929688
vt 2.449219 -5.929688
vt 1.950195 -5.796875
vt 1.471680 -5.796875
vt 1.471680 -5.476562
vt 0.981934 -5.476562
vt 1.471680 -5.796875
vt 1.950195 -5.796875
vt 1.471680 -5.476562
vt 2.449219 -5.929688
vt 2.449219 -5.796875
vt 1.950195 -5.796875
vt 2.449219 -5.929688
vt 2.654297 -5.929688
vt 2.449219 -5.796875
vt 1.950195 -5.796875
vt 1.950195 -5.476562
vt 1.471680 -5.476562
vt 1.950195 -5.796875
vt 2.449219 -5.796875
vt 1.950195 -5.476562
vt 2.654297 -5.929688
vt 2.654297 -5.796875
vt 2.449219 -5.796875
vt 2.654297 -5.929688
vt 2.888672 -5.929688
vt 2.654297 -5.796875
vt 2.888672 -5.929688
vt 2.888672 -5.796875
vt 2.654297 -5.796875
vt 2.449219 -5.796875
vt 2.654297 -5.796875
vt 2.449219 -5.476562
vt 2.449219 -5.796875
vt 2.449219 -5.476562
vt 1.950195 -5.476562
vt 2.654297 -5.796875
vt 2.888672 -5.796875
vt 2.654297 -5.480469
vt 2.654297 -5.796875
vt 2.654297 -5.480469
vt 2.449219 -5.476562
vt 2.888672 -5.796875
vt 2.888672 -5.480469
vt 2.654297 -5.480469
vt 2.888672 -5.480469
vt 2.888672 -5.078125
vt 2.654297 -5.480469
vt 2.449219 -5.476562
vt 2.449219 -5.078125
vt 1.950195 -5.476562
vt 2.449219 -5.078125
vt 2.449219 -5.476562
vt 2.654297 -5.480469
vt 2.888672 -5.078125
vt 2.654297 -5.078125
vt 2.654297 -5.480469
vt 2.654297 -5.078125
vt 2.449219 -5.078125
vt 2.654297 -5.480469
vt 2.888672 -5.078125
vt 2.888672 -4.675781
vt 2.654297 -5.078125
vt 2.449219 -5.078125
vt 1.950195 -5.078125
vt 1.950195 -5.476562
vt 1.950195 -5.476562
vt 1.950195 -5.078125
vt 1.471680 -5.476562
vt 2.449219 -4.675781
vt 2.449219 -5.078125
vt 2.654297 -5.078125
vt 2.449219 -5.078125
vt 2.449219 -4.675781
vt 1.950195 -5.078125
vt 2.888672 -4.675781
vt 2.654297 -4.675781
vt 2.654297 -5.078125
vt 2.654297 -4.675781
vt 2.449219 -4.675781
vt 2.654297 -5.078125
vt 2.449219 -4.675781
vt 1.950195 -4.675781
vt 1.950195 -5.078125
vt 2.654297 -4.675781
vt 2.888672 -4.675781
vt 2.654297 -4.558594
vt 2.888672 -4.675781
vt 2.888672 -4.558594
vt 2.654297 -4.558594
vt 2.449219 -4.675781
vt 2.654297 -4.675781
vt 2.451172 -4.558594
vt 2.654297 -4.675781
vt 2.654297 -4.558594
vt 2.451172 -4.558594
vt 1.950195 -4.675781
vt 2.449219 -4.675781
vt 2.451172 -4.558594
vt 2.888672 -4.558594
vt 2.888672 -4.414062
vt 2.654297 -4.558594
vt 1.949219 -4.558594
vt 1.950195 -4.675781
vt 2.451172 -4.558594
vt 2.888672 -4.414062
vt 2.654297 -4.414062
vt 2.654297 -4.558594
vt 1.471680 -4.675781
vt 1.950195 -4.675781
vt 1.949219 -4.558594
vt 2.888672 -4.414062
vt 2.888672 -4.070312
vt 2.654297 -4.414062
vt 2.451172 -4.414062
vt 2.451172 -4.558594
vt 2.654297 -4.558594
vt 2.654297 -4.414062
vt 2.451172 -4.414062
vt 2.654297 -4.558594
vt 1.949219 -4.558594
vt 2.451172 -4.558594
vt 2.451172 -4.414062
vt 2.888672 -4.070312
vt 2.654297 -4.070312
vt 2.654297 -4.414062
vt 1.947266 -4.414062
vt 1.949219 -4.558594
vt 2.451172 -4.414062
vt 2.654297 -4.070312
vt 2.888672 -4.070312
vt 2.654297 -3.722656
vt 2.888672 -4.070312
vt 2.888672 -3.722656
vt 2.654297 -3.722656
vt 2.888672 -3.722656
vt 2.888672 -3.480469
vt 2.654297 -3.722656
vt 2.654297 -4.070312
vt 2.453125 -4.070312
vt 2.654297 -4.414062
vt 2.453125 -4.070312
vt 2.451172 -4.414062
vt 2.654297 -4.414062
vt 2.654297 -4.070312
vt 2.654297 -3.722656
vt 2.453125 -3.722656
vt 2.453125 -4.070312
vt 2.654297 -4.070312
vt 2.453125 -3.722656
vt 2.888672 -3.480469
vt 2.654297 -3.480469
vt 2.654297 -3.722656
vt 2.453125 -3.722656
vt 2.654297 -3.722656
vt 2.654297 -3.480469
vt 2.888672 -3.480469
vt 2.888672 -3.257812
vt 2.654297 -3.480469
vt 2.283203 -3.640625
vt 2.453125 -4.070312
vt 2.453125 -3.722656
vt 2.246094 -3.710938
vt 2.453125 -4.070312
vt 2.283203 -3.640625
vt 2.283203 -3.640625
vt 2.453125 -3.722656
vt 2.294922 -3.562500
vt 2.189453 -3.769531
vt 2.453125 -4.070312
vt 2.246094 -3.710938
vt 2.294922 -3.562500
vt 2.453125 -3.722656
vt 2.283203 -3.480469
vt 1.945312 -4.070312
vt 2.453125 -4.070312
vt 2.189453 -3.769531
vt 2.453125 -4.070312
vt 1.945312 -4.070312
vt 2.451172 -4.414062
vt 2.119141 -3.804688
vt 1.945312 -4.070312
vt 2.189453 -3.769531
vt 1.945312 -4.070312
vt 1.947266 -4.414062
vt 2.451172 -4.414062
vt 2.039062 -3.816406
vt 1.945312 -4.070312
vt 2.119141 -3.804688
vt 1.959961 -3.804688
vt 1.945312 -4.070312
vt 2.039062 -3.816406
vt 2.283203 -3.480469
vt 2.453125 -3.722656
vt 2.453125 -3.480469
vt 2.453125 -3.480469
vt 2.453125 -3.722656
vt 2.654297 -3.480469
vt 1.472656 -4.066406
vt 1.945312 -4.070312
vt 1.959961 -3.804688
vt 1.945312 -4.070312
vt 1.472656 -4.066406
vt 1.947266 -4.414062
vt 1.888672 -3.769531
vt 1.472656 -4.066406
vt 1.959961 -3.804688
vt 1.832031 -3.710938
vt 1.472656 -4.066406
vt 1.888672 -3.769531
vt 1.795898 -3.640625
vt 1.472656 -4.066406
vt 1.832031 -3.710938
vt 2.283203 -3.480469
vt 2.453125 -3.480469
vt 2.453125 -3.257812
vt 2.453125 -3.257812
vt 2.453125 -3.480469
vt 2.654297 -3.480469
vt 2.283203 -3.480469
vt 2.453125 -3.257812
vt 2.246094 -3.410156
vt 2.246094 -3.410156
vt 2.453125 -3.257812
vt 2.189453 -3.355469
vt 2.189453 -3.355469
vt 2.453125 -3.257812
vt 2.119141 -3.316406
vt 2.654297 -3.257812
vt 2.453125 -3.257812
vt 2.654297 -3.480469
vt 2.888672 -3.257812
vt 2.654297 -3.257812
vt 2.654297 -3.480469
vt 2.888672 -3.257812
vt 2.888672 -3.093750
vt 2.654297 -3.257812
vt 2.888672 -3.093750
vt 2.888672 -2.906250
vt 2.654297 -2.906250
vt 2.654297 -3.093750
vt 2.888672 -3.093750
vt 2.654297 -2.906250
vt 2.888672 -3.093750
vt 2.654297 -3.093750
vt 2.654297 -3.257812
vt 2.654297 -3.093750
vt 2.654297 -2.906250
vt 2.449219 -2.906250
vt 2.654297 -3.093750
vt 2.449219 -3.093750
vt 2.654297 -3.257812
vt 2.449219 -3.093750
vt 2.654297 -3.093750
vt 2.449219 -2.906250
vt 2.449219 -3.093750
vt 2.453125 -3.257812
vt 2.654297 -3.257812
vt 2.449219 -3.093750
vt 2.449219 -2.906250
vt 1.945312 -2.906250
vt 1.945312 -3.093750
vt 2.449219 -3.093750
vt 1.945312 -2.906250
vt 2.453125 -3.257812
vt 2.449219 -3.093750
vt 1.945312 -3.093750
vt 1.945312 -3.093750
vt 1.945312 -2.906250
vt 1.471680 -2.906250
vt 1.945312 -3.257812
vt 2.453125 -3.257812
vt 1.945312 -3.093750
vt 2.453125 -3.257812
vt 1.945312 -3.257812
vt 2.119141 -3.316406
vt 1.945312 -3.257812
vt 2.039062 -3.304688
vt 2.119141 -3.316406
vt 2.039062 -3.304688
vt 1.945312 -3.257812
vt 1.959961 -3.316406
vt 1.959961 -3.316406
vt 1.945312 -3.257812
vt 1.888672 -3.355469
vt 1.471680 -3.093750
vt 1.945312 -3.093750
vt 1.471680 -2.906250
vt 1.945312 -3.257812
vt 1.945312 -3.093750
vt 1.471680 -3.093750
vt 1.471680 -3.093750
vt 1.471680 -2.906250
vt 0.981445 -2.906250
vt 1.945312 -3.257812
vt 1.472656 -3.257812
vt 1.888672 -3.355469
vt 1.472656 -3.257812
vt 1.945312 -3.257812
vt 1.471680 -3.093750
vt 1.888672 -3.355469
vt 1.472656 -3.257812
vt 1.832031 -3.410156
vt 1.832031 -3.410156
vt 1.472656 -3.257812
vt 1.795898 -3.480469
vt 0.981445 -3.093750
vt 1.471680 -3.093750
vt 0.981445 -2.906250
vt 1.471680 -3.093750
vt 0.981445 -3.093750
vt 1.472656 -3.257812
vt 0.981445 -3.093750
vt 0.981445 -2.906250
vt 0.359131 -2.906250
vt 1.795898 -3.480469
vt 1.472656 -3.257812
vt 1.472656 -3.718750
vt 1.795898 -3.480469
vt 1.472656 -3.718750
vt 1.783203 -3.562500
vt 1.783203 -3.562500
vt 1.472656 -3.718750
vt 1.795898 -3.640625
vt 1.795898 -3.640625
vt 1.472656 -3.718750
vt 1.472656 -4.066406
vt 1.472656 -3.718750
vt 1.472656 -3.257812
vt 0.986816 -3.722656
vt 1.472656 -4.066406
vt 1.472656 -3.718750
vt 0.986816 -3.722656
vt 1.472656 -3.257812
vt 0.986328 -3.261719
vt 0.986816 -3.722656
vt 0.981445 -3.093750
vt 0.986328 -3.261719
vt 1.472656 -3.257812
vt 0.986328 -4.316406
vt 1.472656 -4.066406
vt 0.986816 -3.722656
vt 0.981445 -3.093750
vt 0.359131 -3.093750
vt 0.986328 -3.261719
vt 0.359131 -3.093750
vt 0.981445 -3.093750
vt 0.359131 -2.906250
vt 0.359131 -2.906250
vt 0.224976 -2.906250
vt 0.359131 -3.093750
vt 0.359131 -3.093750
vt 0.359131 -3.261719
vt 0.986328 -3.261719
vt 0.224976 -2.906250
vt 0.224976 -3.093750
vt 0.359131 -3.093750
vt 0.359131 -3.093750
vt 0.224976 -3.093750
vt 0.359131 -3.261719
vt 0.224976 -2.906250
vt -0.112854 -2.906250
vt 0.224976 -3.093750
vt 0.224976 -3.093750
vt 0.224976 -3.257812
vt 0.359131 -3.261719
vt -0.112854 -2.906250
vt -0.112854 -3.093750
vt 0.224976 -3.093750
vt 0.224976 -3.093750
vt -0.112854 -3.093750
vt 0.224976 -3.257812
vt -0.112854 -2.906250
vt -0.624023 -2.906250
vt -0.112854 -3.093750
vt 0.359131 -3.261719
vt 0.224976 -3.257812
vt 0.224976 -3.722656
vt 0.359131 -3.722656
vt 0.359131 -3.261719
vt 0.224976 -3.722656
vt 0.358887 -4.316406
vt 0.359131 -3.722656
vt 0.224976 -3.722656
vt -0.624023 -2.906250
vt -0.624023 -3.093750
vt -0.112854 -3.093750
vt -0.624023 -2.906250
vt -1.091797 -2.906250
vt -0.624023 -3.093750
vt -0.112854 -3.093750
vt -0.112854 -3.257812
vt 0.224976 -3.257812
vt -0.112854 -3.257812
vt -0.112854 -3.093750
vt -0.624023 -3.093750
vt 0.224976 -3.257812
vt -0.112854 -3.257812
vt 0.224976 -3.722656
vt -1.091797 -2.906250
vt -1.091797 -3.093750
vt -0.624023 -3.093750
vt -1.091797 -2.906250
vt -1.541016 -2.906250
vt -1.091797 -3.093750
vt -1.541016 -2.906250
vt -1.541016 -3.093750
vt -1.091797 -3.093750
vt -0.624023 -3.257812
vt -0.624023 -3.093750
vt -1.091797 -3.093750
vt -0.624023 -3.257812
vt -0.112854 -3.257812
vt -0.624023 -3.093750
vt -1.091797 -3.093750
vt -1.541016 -3.093750
vt -1.093750 -3.257812
vt -1.093750 -3.257812
vt -0.624023 -3.257812
vt -1.091797 -3.093750
vt -1.541016 -3.093750
vt -1.541016 -3.257812
vt -1.093750 -3.257812
vt -1.541016 -3.257812
vt -1.541016 -3.722656
vt -1.093750 -3.257812
vt -0.662598 -3.316406
vt -0.624023 -3.257812
vt -0.741699 -3.328125
vt -0.583008 -3.328125
vt -0.624023 -3.257812
vt -0.662598 -3.316406
vt -0.741699 -3.328125
vt -0.624023 -3.257812
vt -0.813477 -3.363281
vt -0.112854 -3.257812
vt -0.624023 -3.257812
vt -0.583008 -3.328125
vt -0.624023 -3.257812
vt -1.093750 -3.257812
vt -0.813477 -3.363281
vt -0.511719 -3.363281
vt -0.112854 -3.257812
vt -0.583008 -3.328125
vt -0.813477 -3.363281
vt -1.093750 -3.257812
vt -0.870117 -3.421875
vt -0.455078 -3.421875
vt -0.112854 -3.257812
vt -0.511719 -3.363281
vt -0.870117 -3.421875
vt -1.093750 -3.257812
vt -0.906738 -3.492188
vt -0.418457 -3.492188
vt -0.112854 -3.257812
vt -0.455078 -3.421875
vt -0.906738 -3.492188
vt -1.093750 -3.257812
vt -1.093750 -3.722656
vt -1.541016 -3.722656
vt -1.093750 -3.722656
vt -1.093750 -3.257812
vt -0.906738 -3.492188
vt -1.093750 -3.722656
vt -0.918945 -3.570312
vt -1.541016 -3.722656
vt -1.541016 -4.070312
vt -1.093750 -3.722656
vt -0.918945 -3.570312
vt -1.093750 -3.722656
vt -0.906738 -3.652344
vt -0.418457 -3.492188
vt -0.112854 -3.722656
vt -0.112854 -3.257812
vt -0.406006 -3.570312
vt -0.112854 -3.722656
vt -0.418457 -3.492188
vt -0.112854 -3.257812
vt -0.112854 -3.722656
vt 0.224976 -3.722656
vt -0.418457 -3.652344
vt -0.112854 -3.722656
vt -0.406006 -3.570312
vt 0.224976 -4.246094
vt 0.224976 -3.722656
vt -0.112854 -3.722656
vt 0.224976 -4.246094
vt 0.358887 -4.316406
vt 0.224976 -3.722656
vt -0.418457 -3.652344
vt -0.112854 -4.070312
vt -0.112854 -3.722656
vt -0.112854 -4.070312
vt 0.224976 -4.246094
vt -0.112854 -3.722656
vt -0.455078 -3.722656
vt -0.112854 -4.070312
vt -0.418457 -3.652344
vt -0.511719 -3.781250
vt -0.112854 -4.070312
vt -0.455078 -3.722656
vt 0.358887 -4.316406
vt 0.224976 -4.246094
vt 0.362793 -4.414062
vt -0.624023 -4.070312
vt -0.112854 -4.070312
vt -0.511719 -3.781250
vt -0.583008 -3.816406
vt -0.624023 -4.070312
vt -0.511719 -3.781250
vt -0.662598 -3.828125
vt -0.624023 -4.070312
vt -0.583008 -3.816406
vt -0.741699 -3.816406
vt -0.624023 -4.070312
vt -0.662598 -3.828125
vt 0.224976 -4.246094
vt -0.112854 -4.070312
vt 0.228516 -4.414062
vt 0.224976 -4.246094
vt 0.228516 -4.414062
vt 0.362793 -4.414062
vt -0.112854 -4.070312
vt -0.624023 -4.070312
vt -0.109985 -4.414062
vt -0.112854 -4.070312
vt -0.109985 -4.414062
vt 0.228516 -4.414062
vt -1.093750 -4.070312
vt -0.624023 -4.070312
vt -0.741699 -3.816406
vt -0.813477 -3.781250
vt -1.093750 -4.070312
vt -0.741699 -3.816406
vt -0.870117 -3.722656
vt -1.093750 -4.070312
vt -0.813477 -3.781250
vt -0.906738 -3.652344
vt -1.093750 -4.070312
vt -0.870117 -3.722656
vt -0.906738 -3.652344
vt -1.093750 -3.722656
vt -1.093750 -4.070312
vt -1.541016 -4.070312
vt -1.093750 -4.070312
vt -1.093750 -3.722656
vt -0.624023 -4.070312
vt -1.093750 -4.070312
vt -0.623535 -4.414062
vt -0.624023 -4.070312
vt -0.623535 -4.414062
vt -0.109985 -4.414062
vt -1.093750 -4.070312
vt -1.541016 -4.070312
vt -1.092773 -4.414062
vt -1.093750 -4.070312
vt -1.092773 -4.414062
vt -0.623535 -4.414062
vt -1.541016 -4.070312
vt -1.541016 -4.414062
vt -1.092773 -4.414062
vt -1.541016 -4.414062
vt -1.540039 -4.558594
vt -1.092773 -4.414062
vt -1.540039 -4.558594
vt -1.092773 -4.558594
vt -1.092773 -4.414062
vt -1.092773 -4.414062
vt -1.092773 -4.558594
vt -0.623535 -4.414062
vt -1.092773 -4.558594
vt -0.623535 -4.558594
vt -0.623535 -4.414062
vt -0.623535 -4.414062
vt -0.623535 -4.558594
vt -0.109985 -4.414062
vt -1.092773 -4.558594
vt -1.091797 -4.675781
vt -0.623535 -4.558594
vt -1.091797 -4.675781
vt -0.623047 -4.675781
vt -0.623535 -4.558594
vt -0.623535 -4.558594
vt -0.107971 -4.558594
vt -0.109985 -4.414062
vt -0.623535 -4.558594
vt -0.623047 -4.675781
vt -0.107971 -4.558594
vt -0.109985 -4.414062
vt -0.107971 -4.558594
vt 0.228516 -4.414062
vt -0.623047 -4.675781
vt -0.106384 -4.675781
vt -0.107971 -4.558594
vt -0.107971 -4.558594
vt 0.230957 -4.558594
vt 0.228516 -4.414062
vt -0.107971 -4.558594
vt -0.106384 -4.675781
vt 0.230957 -4.558594
vt 0.362793 -4.414062
vt 0.228516 -4.414062
vt 0.230957 -4.558594
vt -0.106384 -4.675781
vt 0.232910 -4.675781
vt 0.230957 -4.558594
vt 0.232910 -4.675781
vt -0.106384 -4.675781
vt 0.232910 -5.078125
vt 0.365479 -4.558594
vt 0.362793 -4.414062
vt 0.230957 -4.558594
vt 0.232910 -4.675781
vt 0.232910 -5.078125
vt 0.367676 -5.078125
vt 0.367676 -5.476562
vt 0.367676 -5.078125
vt 0.232910 -5.078125
vt 0.232910 -4.675781
vt 0.367676 -4.675781
vt 0.230957 -4.558594
vt 0.367676 -4.675781
vt 0.232910 -4.675781
vt 0.367676 -5.078125
vt 0.367676 -4.675781
vt 0.365479 -4.558594
vt 0.230957 -4.558594
vt 0.367676 -5.078125
vt 0.367676 -5.476562
vt 0.675781 -5.078125
vt 0.367676 -4.675781
vt 0.367676 -5.078125
vt 0.675781 -5.078125
vt 0.367676 -5.476562
vt 0.675781 -5.476562
vt 0.675781 -5.078125
vt 0.675781 -5.476562
vt 0.981934 -5.476562
vt 0.675781 -5.078125
vt 0.365479 -4.558594
vt 0.367676 -4.675781
vt 0.675293 -4.558594
vt 0.675781 -4.675781
vt 0.367676 -4.675781
vt 0.675781 -5.078125
vt 0.367676 -4.675781
vt 0.675781 -4.675781
vt 0.675293 -4.558594
vt 0.981934 -5.476562
vt 0.981934 -5.078125
vt 0.675781 -5.078125
vt 0.675781 -4.675781
vt 0.675781 -5.078125
vt 0.981934 -5.078125
vt 1.471680 -5.078125
vt 0.981934 -5.078125
vt 0.981934 -5.476562
vt 1.471680 -5.476562
vt 1.471680 -5.078125
vt 0.981934 -5.476562
vt 1.950195 -5.078125
vt 1.471680 -5.078125
vt 1.471680 -5.476562
vt 1.950195 -5.078125
vt 1.950195 -4.675781
vt 1.471680 -5.078125
vt 1.950195 -4.675781
vt 1.471680 -4.675781
vt 1.471680 -5.078125
vt 1.471680 -5.078125
vt 1.471680 -4.675781
vt 0.981934 -5.078125
vt 0.981934 -4.675781
vt 0.675781 -4.675781
vt 0.981934 -5.078125
vt 1.471680 -4.675781
vt 0.981934 -4.675781
vt 0.981934 -5.078125
vt 0.675781 -4.675781
vt 0.981934 -4.675781
vt 0.675293 -4.558594
vt 0.981934 -4.675781
vt 1.471680 -4.675781
vt 0.982910 -4.558594
vt 0.981934 -4.675781
vt 0.982910 -4.558594
vt 0.675293 -4.558594
vt 1.471680 -4.675781
vt 1.471680 -4.558594
vt 0.982910 -4.558594
vt 1.471680 -4.558594
vt 1.471680 -4.675781
vt 1.949219 -4.558594
vt 1.471680 -4.558594
vt 1.949219 -4.558594
vt 1.947266 -4.414062
vt 1.472656 -4.414062
vt 1.471680 -4.558594
vt 1.947266 -4.414062
vt 1.471680 -4.558594
vt 1.472656 -4.414062
vt 0.982910 -4.558594
vt 1.472656 -4.066406
vt 1.472656 -4.414062
vt 1.947266 -4.414062
vt 1.472656 -4.414062
vt 1.472656 -4.066406
vt 0.984375 -4.414062
vt 1.472656 -4.414062
vt 0.984375 -4.414062
vt 0.982910 -4.558594
vt 1.472656 -4.066406
vt 0.986328 -4.316406
vt 0.984375 -4.414062
vt 0.986328 -4.316406
vt 0.673828 -4.316406
vt 0.984375 -4.414062
vt 0.982910 -4.558594
vt 0.984375 -4.414062
vt 0.674316 -4.414062
vt 0.673828 -4.316406
vt 0.674316 -4.414062
vt 0.984375 -4.414062
vt 0.675293 -4.558594
vt 0.982910 -4.558594
vt 0.674316 -4.414062
vt 0.673828 -4.316406
vt 0.358887 -4.316406
vt 0.674316 -4.414062
vt 0.365479 -4.558594
vt 0.675293 -4.558594
vt 0.674316 -4.414062
vt 0.358887 -4.316406
vt 0.362793 -4.414062
vt 0.674316 -4.414062
vt 0.362793 -4.414062
vt 0.365479 -4.558594
vt 0.674316 -4.414062
f 1/1/1 2/2/2 3/3/3
f 4/4/4 5/5/5 6/6/6
f 7/7/7 8/8/8 9/9/9
f 10/10/10 11/11/11 12/12/12
f 13/13/13 14/14/14 15/15/15
f 16/16/16 17/17/17 18/18/18
f 19/19/19 20/20/20 21/21/21
f 22/22/22 23/23/23 24/24/24
f 25/25/25 26/26/26 27/27/27
f 28/28/28 29/29/29 30/30/30
f 31/31/31 32/32/32 33/33/33
f 34/34/34 35/35/35 36/36/36
f 37/37/37 38/38/38 39/39/39
f 40/40/40 41/41/41 42/42/42
f 43/43/43 44/44/44 45/45/45
f 46/46/46 47/47/47 48/48/48
f 49/49/49 50/50/50 51/51/51
f 52/52/52 53/53/53 54/54/54
f 55/55/55 56/56/56 57/57/57
f 58/58/58 59/59/59 60/60/60
f 61/61/61 62/62/62 63/63/63
f 64/64/64 65/65/65 66/66/66
f 67/67/67 68/68/68 69/69/69
f 70/70/70 71/71/71 72/72/72
f 73/73/73 74/74/74 75/75/75
f 76/76/76 77/77/77 78/78/78
f 79/79/79 80/80/80 81/81/81
f 82/82/82 83/83/83 84/84/84
f 85/85/85 86/86/86 87/87/87
f 88/88/88 89/89/89 90/90/90
f 91/91/91 92/92/92 93/93/93
f 94/94/94 95/95/95 96/96/96
f 97/97/97 98/98/98 99/99/99
f 100/100/100 101/101/101 102/102/102
f 103/103/103 104/104/104 105/105/105
f 106/106/106 107/107/107 108/108/108
f 109/109/109 110/110/110 111/111/111
f 112/112/112 113/113/113 114/114/114
f 115/115/115 116/116/116 117/117/117
f 118/118/118 119/119/119 120/120/120
f 121/121/121 122/122/122 123/123/123
f 124/124/124 125/125/125 126/126/126
f 127/127/127 128/128/128 129/129/129
f 130/130/130 131/131/131 132/132/132
f 133/133/133 134/134/134 135/135/135
f 136/136/136 137/137/137 138/138/138
f 139/139/139 140/140/140 141/141/141
f 142/142/142 143/143/143 144/144/144
f 145/145/145 146/146/146 147/147/147
f 148/148/148 149/149/149 150/150/150
f 151/151/151 152/152/152 153/153/153
f 154/154/154 155/155/155 156/156/156
f 157/157/157 158/158/158 159/159/159
f 160/160/160 161/161/161 162/162/162
f 163/163/163 164/164/164 165/165/165
f 166/166/166 167/167/167 168/168/168
f 169/169/169 170/170/170 171/171/171
f 172/172/172 173/173/173 174/174/174
f 175/175/175 176/176/176 177/177/177
f 178/178/178 179/179/179 180/180/180
f 181/181/181 182/182/182 183/183/183
f 184/184/184 185/185/185 186/186/186
f 187/187/187 188/188/188 189/189/189
f 190/190/190 191/191/191 192/192/192
f 193/193/193 194/194/194 195/195/195
f 196/196/196 197/197/197 198/198/198
f 199/199/199 200/200/200 201/201/201
f 202/202/202 203/203/203 204/204/204
f 205/205/205 206/206/206 207/207/207
f 208/208/208 209/209/209 210/210/210
f 211/211/211 212/212/212 213/213/213
f 214/214/214 215/215/215 216/216/216
f 217/217/217 218/218/218 219/219/219
f 220/220/220 221/221/221 222/222/222
f 223/223/223 224/224/224 225/225/225
f 226/226/226 227/227/227 228/228/228
f 229/229/229 230/230/230 231/231/231
f 232/232/232 233/233/233 234/234/234
f 235/235/235 236/236/236 237/237/237
f 238/238/238 239/239/239 240/240/240
f 241/241/241 242/242/242 243/243/243
f 244/244/244 245/245/245 246/246/246
f 247/247/247 248/248/248 249/249/249
f 250/250/250 251/251/251 252/252/252
f 253/253/253 254/254/254 255/255/255
f 256/256/256 257/257/257 258/258/258
f 259/259/259 260/260/260 261/261/261
f 262/262/262 263/263/263 264/264/264
f 265/265/265 266/266/266 267/267/267
f 268/268/268 269/269/269 270/270/270
f 271/271/271 272/272/272 273/273/273
f 274/274/274 275/275/275 276/276/276
f 277/277/277 278/278/278 279/279/279
f 280/280/280 281/281/281 282/282/282
f 283/283/283 284/284/284 285/285/285
f 286/286/286 287/287/287 288/288/288
f 289/289/289 290/290/290 291/291/291
f 292/292/292 293/293/293 294/294/294
f 295/295/295 296/296/296 297/297/297
f 298/298/298 299/299/299 300/300/300
f 301/301/301 302/302/302 303/303/303
f 304/304/304 305/305/305 306/306/306
f 307/307/307 308/308/308 309/309/309
f 310/310/310 311/311/311 312/312/312
f 313/313/313 314/314/314 315/315/315
f 316/316/316 317/317/317 318/318/318
f 319/319/319 320/320/320 321/321/321
f 322/322/322 323/323/323 324/324/324
f 325/325/325 326/326/326 327/327/327
f 328/328/328 329/329/329 330/330/330
f 331/331/331 332/332/332 333/333/333
f 334/334/334 335/335/335 336/336/336
f 337/337/337 338/338/338 339/339/339
f 340/340/340 341/341/341 342/342/342
f 343/343/343 344/344/344 345/345/345
f 346/346/346 347/347/347 348/348/348
f 349/349/349 350/350/350 351/351/351
f 352/352/352 353/353/353 354/354/354
f 355/355/355 356/356/356 357/357/357
f 358/358/358 359/359/359 360/360/360
f 361/361/361 362/362/362 363/363/363
f 364/364/364 365/365/365 366/366/366
f 367/367/367 368/368/368 369/369/369
f 370/370/370 371/371/371 372/372/372
f 373/373/373 374/374/374 375/375/375
f 376/376/376 377/377/377 378/378/378
f 379/379/379 380/380/380 381/381/381
f 382/382/382 383/383/383 384/384/384
f 385/385/385 386/386/386 387/387/387
f 388/388/388 389/389/389 390/390/390
f 391/391/391 392/392/392 393/393/393
f 394/394/394 395/395/395 396/396/396
f 397/397/397 398/398/398 399/399/399
f 400/400/400 401/401/401 402/402/402
f 403/403/403 404/404/404 405/405/405
f 406/406/406 407/407/407 408/408/408
f 409/409/409 410/410/410 411/411/411
f 412/412/412 413/413/413 414/414/414
f 415/415/415 416/416/416 417/417/417
f 418/418/418 419/419/419 420/420/420
f 421/421/421 422/422/422 423/423/423
f 424/424/424 425/425/425 426/426/426
f 427/427/427 428/428/428 429/429/429
f 430/430/430 431/431/431 432/432/432
f 433/433/433 434/434/434 435/435/435
f 436/436/436 437/437/437 438/438/438
f 439/439/439 440/440/440 441/441/441
f 442/442/442 443/443/443 444/444/444
f 445/445/445 446/446/446 447/447/447
f 448/448/448 449/449/449 450/450/450
f 451/451/451 452/452/452 453/453/453
f 454/454/454 455/455/455 456/456/456
f 457/457/457 458/458/458 459/459/459
f 460/460/460 461/461/461 462/462/462
f 463/463/463 464/464/464 465/465/465
f 466/466/466 467/467/467 468/468/468
f 469/469/469 470/470/470 471/471/471
f 472/472/472 473/473/473 474/474/474
f 475/475/475 476/476/476 477/477/477
f 478/478/478 479/479/479 480/480/480
f 481/481/481 482/482/482 483/483/483
f 484/484/484 485/485/485 486/486/486
f 487/487/487 488/488/488 489/489/489
f 490/490/490 491/491/491 492/492/492
f 493/493/493 494/494/494 495/495/495
f 496/496/496 497/497/497 498/498/498
f 499/499/499 500/500/500 501/501/501
f 502/502/502 503/503/503 504/504/504
f 505/505/505 506/506/506 507/507/507
f 508/508/508 509/509/509 510/510/510
f 511/511/511 512/512/512 513/513/513
f 514/514/514 515/515/515 516/516/516
f 517/517/517 518/518/518 519/519/519
f 520/520/520 521/521/521 522/522/522
f 523/523/523 524/524/524 525/525/525
f 526/526/526 527/527/527 528/528/528
f 529/529/529 530/530/530 531/531/531
f 532/532/532 533/533/533 534/534/534
f 535/535/535 536/536/536 537/537/537
f 538/538/538 539/539/539 540/540/540
f 541/541/541 542/542/542 543/543/543
f 544/544/544 545/545/545 546/546/546
f 547/547/547 548/548/548 549/549/549
f 550/550/550 551/551/551 552/552/552
f 553/553/553 554/554/554 555/555/555
f 556/556/556 557/557/557 558/558/558
f 559/559/559 560/560/560 561/561/561
f 562/562/562 563/563/563 564/564/564
f 565/565/565 566/566/566 567/567/567
f 568/568/568 569/569/569 570/570/570
f 571/571/571 572/572/572 573/573/573
f 574/574/574 575/575/575 576/576/576
f 577/577/577 578/578/578 579/579/579
f 580/580/580 581/581/581 582/582/582
f 583/583/583 584/584/584 585/585/585
f 586/586/586 587/587/587 588/588/588
f 589/589/589 590/590/590 591/591/591
f 592/592/592 593/593/593 594/594/594
f 595/595/595 596/596/596 597/597/597
f 598/598/598 599/599/599 600/600/600
f 601/601/601 602/602/602 603/603/603
f 604/604/604 605/605/605 606/606/606
f 607/607/607 608/608/608 609/609/609
f 610/610/610 611/611/611 612/612/612
f 613/613/613 614/614/614 615/615/615
f 616/616/616 617/617/617 618/618/618
f 619/619/619 620/620/620 621/621/621
f 622/622/622 623/623/623 624/624/624
f 625/625/625 626/626/626 627/627/627
f 628/628/628 629/629/629 630/630/630
f 631/631/631 632/632/632 633/633/633
f 634/634/634 635/635/635 636/636/636
f 637/637/637 638/638/638 639/639/639
f 640/640/640 641/641/641 642/642/642
f 643/643/643 644/644/644 645/645/645
f 646/646/646 647/647/647 648/648/648
f 649/649/649 650/650/650 651/651/651
f 652/652/652 653/653/653 654/654/654
f 655/655/655 656/656/656 657/657/657
f 658/658/658 659/659/659 660/660/660
f 661/661/661 662/662/662 663/663/663
f 664/664/664 665/665/665 666/666/666
f 667/667/667 668/668/668 669/669/669
f 670/670/670 671/671/671 672/672/672
f 673/673/673 674/674/674 675/675/675
f 676/676/676 677/677/677 678/678/678
f 679/679/679 680/680/680 681/681/681
f 682/682/682 683/683/683 684/684/684
f 685/685/685 686/686/686 687/687/687
f 688/688/688 689/689/689 690/690/690
f 691/691/691 692/692/692 693/693/693
f 694/694/694 695/695/695 696/696/696
f 697/697/697 698/698/698 699/699/699
f 700/700/700 701/701/701 702/702/702
f 703/703/703 704/704/704 705/705/705
f 706/706/706 707/707/707 708/708/708
f 709/709/709 710/710/710 711/711/711
f 712/712/712 713/713/713 714/714/714
f 715/715/715 716/716/716 717/717/717
f 718/718/718 719/719/719 720/720/720
f 721/721/721 722/722/722 723/723/723
f 724/724/724 725/725/725 726/726/726
f 727/727/727 728/728/728 729/729/729
f 730/730/730 731/731/731 732/732/732
f 733/733/733 734/734/734 735/735/735
f 736/736/736 737/737/737 738/738/738
f 739/739/739 740/740/740 741/741/741
f 742/742/742 743/743/743 744/744/744
f 745/745/745 746/746/746 747/747/747
f 748/748/748 749/749/749 750/750/750
f 751/751/751 752/752/752 753/753/753
f 754/754/754 755/755/755 756/756/756
f 757/757/757 758/758/758 759/759/759
f 760/760/760 761/761/761 762/762/762
f 763/763/763 764/764/764 765/765/765
f 766/766/766 767/767/767 768/768/768
f 769/769/769 770/770/770 771/771/771
f 772/772/772 773/773/773 774/774/774
f 775/775/775 776/776/776 777/777/777
f 778/778/778 779/779/779 780/780/780
f 781/781/781 782/782/782 783/783/783
f 784/784/784 785/785/785 786/786/786
f 787/787/787 788/788/788 789/789/789
f 790/790/790 791/791/791 792/792/792
f 793/793/793 794/794/794 795/795/795
f 796/796/796 797/797/797 798/798/798
f 799/799/799 800/800/800 801/801/801
f 802/802/802 803/803/803 804/804/804
f 805/805/805 806/806/806 807/807/807
f 808/808/808 809/809/809 810/810/810
f 811/811/811 812/812/812 813/813/813
f 814/814/814 815/815/815 816/816/816
f 817/817/817 818/818/818 819/819/819
f 820/820/820 821/821/821 822/822/822
f 823/823/823 824/824/824 825/825/825
f 826/826/826 827/827/827 828/828/828
f 829/829/829 830/830/830 831/831/831
f 832/832/832 833/833/833 834/834/834
f 835/835/835 836/836/836 837/837/837
f 838/838/838 839/839/839 840/840/840
f 841/841/841 842/842/842 843/843/843
f 844/844/844 845/845/845 846/846/846
f 847/847/847 848/848/848 849/849/849
f 850/850/850 851/851/851 852/852/852
f 853/853/853 854/854/854 855/855/855
f 856/856/856 857/857/857 858/858/858
f 859/859/859 860/860/860 861/861/861
f 862/862/862 863/863/863 864/864/864
f 865/865/865 866/866/866 867/867/867
f 868/868/868 869/869/869 870/870/870
f 871/871/871 872/872/872 873/873/873
f 874/874/874 875/875/875 876/876/876
f 877/877/877 878/878/878 879/879/879
f 880/880/880 881/881/881 882/882/882
f 883/883/883 884/884/884 885/885/885
f 886/886/886 887/887/887 888/888/888
f 889/889/889 890/890/890 891/891/891
f 892/892/892 893/893/893 894/894/894
f 895/895/895 896/896/896 897/897/897
f 898/898/898 899/899/899 900/900/900
f 901/901/901 902/902/902 903/903/903
f 904/904/904 905/905/905 906/906/906
f 907/907/907 908/908/908 909/909/909
f 910/910/910 911/911/911 912/912/912
f 913/913/913 914/914/914 915/915/915
f 916/916/916 917/917/917 918/918/918
f 919/919/919 920/920/920 921/921/921
