# OBJ file
v 480.285000 -263.734560 686.985050
v 480.285000 -263.734560 500.548300
v 524.615970 -280.983400 686.985050
v 480.285000 -263.734560 500.548300
v 524.615970 -280.983400 500.548340
v 524.615970 -280.983400 686.985050
v 473.180540 -260.905430 501.410920
v 473.180540 -260.905430 686.985050
v 430.198200 -243.789100 686.985050
v 430.198120 -243.788970 501.410920
v 473.180540 -260.905430 501.410920
v 430.198200 -243.789100 686.985050
v 430.198120 -243.788970 501.410920
v 430.198120 -243.788970 500.548300
v 473.180540 -260.905430 501.410920
v 430.198120 -243.788970 500.548300
v 473.180540 -260.905430 500.548300
v 473.180540 -260.905430 501.410920
vn -0.365285 -0.930888 -0.003928
vn -0.365285 -0.930888 -0.003928
vn -0.365285 -0.930888 -0.003928
vn -0.365285 -0.930888 -0.003928
vn -0.365285 -0.930888 -0.003928
vn -0.365285 -0.930888 -0.003928
vn -0.374786 -0.927103 -0.003945
vn -0.374786 -0.927103 -0.003945
vn -0.374786 -0.927103 -0.003945
vn -0.374786 -0.927103 -0.003945
vn -0.374786 -0.927103 -0.003945
vn -0.374786 -0.927103 -0.003945
vn -0.374786 -0.927103 -0.003945
vn -0.374786 -0.927103 -0.003945
vn -0.374786 -0.927103 -0.003945
vn -0.374786 -0.927103 -0.003945
vn -0.374786 -0.927103 -0.003945
vn -0.374786 -0.927103 -0.003945
vt 1.045898 0.738037
vt -0.017853 0.738037
vt 1.045898 0.436523
vt -0.017853 0.738037
vt -0.017853 0.436523
vt 1.045898 0.436523
vt 0.062622 0.380859
vt 1.122070 0.380859
vt 1.122070 0.682617
vt 0.062622 0.682617
vt 0.062622 0.380859
vt 1.122070 0.682617
vt 0.062622 0.682617
vt 0.057709 0.682617
vt 0.062622 0.380859
vt 0.057709 0.682617
vt 0.057709 0.380859
vt 0.062622 0.380859
f 1/1/1 2/2/2 3/3/3
f 4/4/4 5/5/5 6/6/6
f 7/7/7 8/8/8 9/9/9
f 10/10/10 11/11/11 12/12/12
f 13/13/13 14/14/14 15/15/15
f 16/16/16 17/17/17 18/18/18
