# OBJ file
v 179.181150 187.045170 1116.948400
v 179.181200 187.045030 1301.147100
v 180.883270 187.720810 1116.948400
v 179.181200 187.045030 1301.147100
v 180.886350 187.721880 1301.147100
v 180.883270 187.720810 1116.948400
v 178.376400 187.302100 1116.948400
v 179.172560 187.066940 1116.948400
v 178.376480 187.301900 1301.147100
v 179.172560 187.066940 1116.948400
v 179.172760 187.066400 1301.147100
v 178.376480 187.301900 1301.147100
v 177.433530 191.448150 1116.948400
v 177.433580 191.448010 1301.147100
v 181.405200 193.024630 1116.948400
v 177.433580 191.448010 1301.147100
v 181.405300 193.024520 1301.147100
v 181.405200 193.024630 1116.948400
v 184.881300 184.240190 1116.948500
v 184.881300 184.240170 1301.147200
v 184.881240 184.239720 1301.147100
v 184.881210 184.239780 1116.948500
v 184.881300 184.240190 1116.948500
v 184.881240 184.239720 1301.147100
v 184.881240 184.239720 1301.147100
v 180.920680 182.663540 1301.147100
v 184.881210 184.239780 1116.948500
v 180.920680 182.663540 1301.147100
v 180.920470 182.664080 1116.948400
v 184.881210 184.239780 1116.948500
v 180.920470 182.664080 1116.948400
v 180.920680 182.663540 1301.147100
v 180.130330 182.901370 1301.147100
v 180.130250 182.901580 1116.948400
v 180.920470 182.664080 1116.948400
v 180.130330 182.901370 1301.147100
v 180.130250 182.901580 1116.948400
v 180.130330 182.901370 1301.147100
v 178.729300 186.431100 1301.147100
v 178.729190 186.431370 1116.948400
v 180.130250 182.901580 1116.948400
v 178.729300 186.431100 1301.147100
v 178.729300 186.431100 1301.147100
v 179.181200 187.045030 1301.147100
v 178.729190 186.431370 1116.948400
v 179.181200 187.045030 1301.147100
v 179.181150 187.045170 1116.948400
v 178.729190 186.431370 1116.948400
v 178.376400 187.302100 1116.948400
v 178.376480 187.301900 1301.147100
v 176.975450 190.831620 1301.147100
v 176.975340 190.831880 1116.948400
v 178.376400 187.302100 1116.948400
v 176.975450 190.831620 1301.147100
v 176.975450 190.831620 1301.147100
v 177.433580 191.448010 1301.147100
v 176.975340 190.831880 1116.948400
v 177.433580 191.448010 1301.147100
v 177.433530 191.448150 1116.948400
v 176.975340 190.831880 1116.948400
v 179.172760 187.066400 1301.147100
v 179.172560 187.066940 1116.948400
v 182.700800 188.471000 1116.948500
v 182.700840 188.470920 1301.147200
v 179.172760 187.066400 1301.147100
v 182.700800 188.471000 1116.948500
v 182.700800 188.471000 1116.948500
v 183.082200 188.622740 1116.948500
v 182.700840 188.470920 1301.147200
v 183.082200 188.622740 1116.948500
v 183.082200 188.622730 1301.147200
v 182.700840 188.470920 1301.147200
v 199.070190 143.570470 1111.915400
v 195.306060 142.086640 1111.915800
v 199.070190 143.570450 1306.180500
v 195.306060 142.086640 1111.915800
v 195.439000 142.130080 1306.180800
v 199.070190 143.570450 1306.180500
v 195.306060 142.086640 1111.915800
v 194.820280 140.967960 1111.915800
v 195.439000 142.130080 1306.180800
v 194.820280 140.967960 1111.915800
v 194.953900 141.009670 1306.180800
v 195.439000 142.130080 1306.180800
v 197.246580 135.202000 1306.180300
v 194.953900 141.009670 1306.180800
v 194.820280 140.967960 1111.915800
v 197.123730 135.132900 1111.915300
v 197.246580 135.202000 1306.180300
v 194.820280 140.967960 1111.915800
v 200.082020 140.260240 1298.790300
v 197.066000 139.063890 1299.045200
v 180.914860 187.790730 1298.790300
v 197.066000 139.063890 1299.045200
v 177.992600 186.636290 1299.042600
v 180.914860 187.790730 1298.790300
v 197.066000 139.063890 1299.045200
v 196.265050 138.746150 1299.975300
v 177.992600 186.636290 1299.042600
v 196.265050 138.746150 1299.975300
v 177.190410 186.319380 1299.974400
v 177.992600 186.636290 1299.042600
v 177.172470 186.312210 1306.175400
v 177.190410 186.319380 1299.974400
v 196.265050 138.746150 1299.975300
v 196.253680 138.741350 1306.180800
v 177.172470 186.312210 1306.175400
v 196.265050 138.746150 1299.975300
v 202.280030 140.836610 1252.905200
v 199.237630 139.529340 1253.043100
v 183.112760 188.367390 1252.905500
v 199.237630 139.529340 1253.043100
v 180.164000 187.103030 1253.042400
v 183.112760 188.367390 1252.905500
v 199.237630 139.529340 1253.043100
v 198.857010 139.380520 1253.470600
v 180.164000 187.103030 1253.042400
v 198.857010 139.380520 1253.470600
v 179.782410 186.954150 1253.470200
v 180.164000 187.103030 1253.042400
v 179.751970 187.037770 1256.162600
v 179.782410 186.954150 1253.470200
v 198.857010 139.380520 1253.470600
v 198.832300 139.466540 1256.165200
v 179.751970 187.037770 1256.162600
v 198.857010 139.380520 1253.470600
v 198.832300 139.466540 1256.165200
v 199.210130 139.631000 1256.575400
v 179.751970 187.037770 1256.162600
v 199.210130 139.631000 1256.575400
v 180.129180 187.201170 1256.570100
v 179.751970 187.037770 1256.162600
v 180.129180 187.201170 1256.570100
v 199.210130 139.631000 1256.575400
v 183.365590 188.477970 1256.546400
v 199.210130 139.631000 1256.575400
v 202.532230 140.948720 1256.575200
v 183.365590 188.477970 1256.546400
v 202.268750 140.865940 1204.994300
v 199.181030 139.810880 1205.131800
v 183.101240 188.397480 1204.994500
v 199.181030 139.810880 1205.131800
v 180.107680 187.383770 1205.131100
v 183.101240 188.397480 1204.994500
v 199.181030 139.810880 1205.131800
v 198.797090 139.655100 1205.559100
v 180.107680 187.383770 1205.131100
v 198.797090 139.655100 1205.559100
v 179.722500 187.228710 1205.558700
v 180.107680 187.383770 1205.131100
v 179.744050 187.074050 1208.252000
v 179.722500 187.228710 1205.558700
v 198.797090 139.655100 1205.559100
v 198.824390 139.502790 1208.254500
v 179.744050 187.074050 1208.252000
v 198.797090 139.655100 1205.559100
v 198.824390 139.502790 1208.254500
v 199.210130 139.631010 1208.664400
v 179.744050 187.074050 1208.252000
v 199.210130 139.631010 1208.664400
v 180.129180 187.201170 1208.659000
v 179.744050 187.074050 1208.252000
v 180.129180 187.201170 1208.659000
v 199.210130 139.631010 1208.664400
v 183.365590 188.477970 1208.635400
v 199.210130 139.631010 1208.664400
v 202.532230 140.948730 1208.664300
v 183.365590 188.477970 1208.635400
v 202.266850 140.871610 1157.083000
v 199.133700 139.851960 1157.220800
v 183.099300 188.403320 1157.083400
v 199.133700 139.851960 1157.220800
v 180.060360 187.424730 1157.220300
v 183.099300 188.403320 1157.083400
v 199.133700 139.851960 1157.220800
v 198.753570 139.696460 1157.647700
v 180.060360 187.424730 1157.220300
v 198.753570 139.696460 1157.647700
v 179.678970 187.270070 1157.647300
v 180.060360 187.424730 1157.220300
v 179.738310 187.079500 1160.341400
v 179.678970 187.270070 1157.647300
v 198.753570 139.696460 1157.647700
v 198.818650 139.508220 1160.343900
v 179.738310 187.079500 1160.341400
v 198.753570 139.696460 1157.647700
v 198.818650 139.508220 1160.343900
v 199.210130 139.631010 1160.753300
v 179.738310 187.079500 1160.341400
v 199.210130 139.631010 1160.753300
v 180.129180 187.201190 1160.747900
v 179.738310 187.079500 1160.341400
v 180.129180 187.201190 1160.747900
v 199.210130 139.631010 1160.753300
v 183.365590 188.477980 1160.724200
v 199.210130 139.631010 1160.753300
v 202.532230 140.948730 1160.753200
v 183.365590 188.477980 1160.724200
v 163.929660 231.378940 1306.180500
v 160.478180 230.021320 1306.180800
v 163.929720 231.379030 1111.915400
v 160.478180 230.021320 1306.180800
v 160.353380 229.957290 1111.915800
v 163.929720 231.379030 1111.915400
v 160.478180 230.021320 1306.180800
v 159.358700 230.507890 1306.180800
v 160.353380 229.957290 1111.915800
v 159.358700 230.507890 1306.180800
v 159.235050 230.440950 1111.915600
v 160.353380 229.957290 1111.915800
v 156.914100 236.319990 1111.915200
v 159.235050 230.440950 1111.915600
v 159.358700 230.507890 1306.180800
v 157.057050 236.338010 1306.180300
v 156.914100 236.319990 1111.915200
v 159.358700 230.507890 1306.180800
v 162.660810 234.587620 1119.243200
v 159.800260 233.456040 1119.243200
v 181.171800 187.892330 1119.243200
v 159.800260 233.456040 1119.243200
v 178.007550 186.645000 1119.243200
v 181.171800 187.892330 1119.243200
v 159.800260 233.456040 1119.243200
v 158.954910 233.120710 1118.381800
v 178.007550 186.645000 1119.243200
v 158.954910 233.120710 1118.381800
v 177.183620 186.319050 1118.380900
v 178.007550 186.645000 1119.243200
v 177.023540 186.247280 1111.941500
v 177.183620 186.319050 1118.380900
v 158.954910 233.120710 1118.381800
v 158.630620 232.985410 1111.919800
v 177.023540 186.247280 1111.941500
v 158.954910 233.120710 1118.381800
v 164.855070 235.171980 1256.517600
v 161.704390 233.936040 1256.564500
v 183.365590 188.477970 1256.546400
v 161.704390 233.936040 1256.564500
v 180.129180 187.201170 1256.570100
v 183.365590 188.477970 1256.546400
v 180.129180 187.201170 1256.570100
v 161.704390 233.936040 1256.564500
v 161.327770 233.773740 1256.159900
v 179.751970 187.037770 1256.162600
v 180.129180 187.201170 1256.570100
v 161.327770 233.773740 1256.159900
v 179.751970 187.037770 1256.162600
v 161.327770 233.773740 1256.159900
v 179.782410 186.954150 1253.470200
v 161.327770 233.773740 1256.159900
v 161.363940 233.692540 1253.469800
v 179.782410 186.954150 1253.470200
v 179.782410 186.954150 1253.470200
v 161.363940 233.692540 1253.469800
v 161.746520 233.841450 1253.041700
v 180.164000 187.103030 1253.042400
v 179.782410 186.954150 1253.470200
v 161.746520 233.841450 1253.041700
v 180.164000 187.103030 1253.042400
v 161.746520 233.841450 1253.041700
v 183.112760 188.367390 1252.905500
v 161.746520 233.841450 1253.041700
v 164.601610 235.062930 1252.905800
v 183.112760 188.367390 1252.905500
v 164.855070 235.171980 1208.606400
v 161.704390 233.936040 1208.653400
v 183.365590 188.477970 1208.635400
v 161.704390 233.936040 1208.653400
v 180.129180 187.201170 1208.659000
v 183.365590 188.477970 1208.635400
v 180.129180 187.201170 1208.659000
v 161.704390 233.936040 1208.653400
v 161.319850 233.810060 1208.249400
v 179.744050 187.074050 1208.252000
v 180.129180 187.201170 1208.659000
v 161.319850 233.810060 1208.249400
v 179.744050 187.074050 1208.252000
v 161.319850 233.810060 1208.249400
v 179.722500 187.228710 1205.558700
v 161.319850 233.810060 1208.249400
v 161.304030 233.967070 1205.558500
v 179.722500 187.228710 1205.558700
v 179.722500 187.228710 1205.558700
v 161.304030 233.967070 1205.558500
v 161.690460 234.121380 1205.130500
v 180.107680 187.383770 1205.131100
v 179.722500 187.228710 1205.558700
v 161.690460 234.121380 1205.130500
v 180.107680 187.383770 1205.131100
v 161.690460 234.121380 1205.130500
v 183.101240 188.397480 1204.994500
v 161.690460 234.121380 1205.130500
v 164.589840 235.093830 1204.995100
v 183.101240 188.397480 1204.994500
v 164.855070 235.172000 1160.695400
v 161.704390 233.936050 1160.742300
v 183.365590 188.477980 1160.724200
v 161.704390 233.936050 1160.742300
v 180.129180 187.201190 1160.747900
v 183.365590 188.477980 1160.724200
v 180.129180 187.201190 1160.747900
v 161.704390 233.936050 1160.742300
v 161.314120 233.815490 1160.338700
v 179.738310 187.079500 1160.341400
v 180.129180 187.201190 1160.747900
v 161.314120 233.815490 1160.338700
v 179.738310 187.079500 1160.341400
v 161.314120 233.815490 1160.338700
v 179.678970 187.270070 1157.647300
v 161.314120 233.815490 1160.338700
v 161.260530 234.008420 1157.647000
v 179.678970 187.270070 1157.647300
v 179.678970 187.270070 1157.647300
v 161.260530 234.008420 1157.647000
v 161.643170 234.162200 1157.219500
v 180.060360 187.424730 1157.220300
v 179.678970 187.270070 1157.647300
v 161.643170 234.162200 1157.219500
v 180.060360 187.424730 1157.220300
v 161.643170 234.162200 1157.219500
v 183.099300 188.403320 1157.083400
v 161.643170 234.162200 1157.219500
v 164.587890 235.099820 1157.083900
v 183.099300 188.403320 1157.083400
v 196.810240 138.548220 1111.915400
v 193.046100 137.064390 1111.915800
v 196.810240 138.548200 1306.180500
v 193.046100 137.064390 1111.915800
v 193.179050 137.107830 1306.180800
v 196.810240 138.548200 1306.180500
v 193.046100 137.064390 1111.915800
v 192.560350 135.945710 1111.915800
v 193.179050 137.107830 1306.180800
v 192.560350 135.945710 1111.915800
v 192.693950 135.987430 1306.180800
v 193.179050 137.107830 1306.180800
v 194.986620 130.179750 1306.180300
v 192.693950 135.987430 1306.180800
v 192.560350 135.945710 1111.915800
v 194.863780 130.110670 1111.915300
v 194.986620 130.179750 1306.180300
v 192.560350 135.945710 1111.915800
v 196.919560 136.306080 1302.226400
v 193.903530 135.109730 1302.481400
v 155.945240 238.776750 1302.226400
v 193.903530 135.109730 1302.481400
v 153.022960 237.622310 1302.478800
v 155.945240 238.776750 1302.226400
v 193.903530 135.109730 1302.481400
v 193.102580 134.791980 1303.411500
v 153.022960 237.622310 1302.478800
v 193.102580 134.791980 1303.411500
v 152.220800 237.305390 1303.410500
v 153.022960 237.622310 1302.478800
v 152.202840 237.298250 1309.611600
v 152.220800 237.305390 1303.410500
v 193.102580 134.791980 1303.411500
v 193.091200 134.787170 1309.617000
v 152.202840 237.298250 1309.611600
v 193.102580 134.791980 1303.411500
v 158.887760 233.365400 1306.180500
v 155.436300 232.007800 1306.180800
v 158.887830 233.365510 1111.915500
v 155.436300 232.007800 1306.180800
v 155.311480 231.943760 1111.915800
v 158.887830 233.365510 1111.915500
v 155.436300 232.007800 1306.180800
v 154.316820 232.494350 1306.180800
v 155.311480 231.943760 1111.915800
v 154.316820 232.494350 1306.180800
v 154.193150 232.427430 1111.915800
v 155.311480 231.943760 1111.915800
v 151.872200 238.306470 1111.915200
v 154.193150 232.427430 1111.915800
v 154.316820 232.494350 1306.180800
v 152.015150 238.324480 1306.180300
v 151.872200 238.306470 1111.915200
v 154.316820 232.494350 1306.180800
v 196.870940 138.998840 1119.243200
v 200.338930 140.361830 1119.243200
v 181.171800 187.892330 1119.243200
v 178.007550 186.645000 1119.243200
v 196.870940 138.998840 1119.243200
v 181.171800 187.892330 1119.243200
v 178.007550 186.645000 1119.243200
v 177.183620 186.319050 1118.380900
v 196.870940 138.998840 1119.243200
v 177.183620 186.319050 1118.380900
v 196.068660 138.682220 1118.380600
v 196.870940 138.998840 1119.243200
v 196.072630 138.673900 1111.963100
v 196.068660 138.682220 1118.380600
v 177.183620 186.319050 1118.380900
v 177.023540 186.247280 1111.941500
v 196.072630 138.673900 1111.963100
v 177.183620 186.319050 1118.380900
v 159.575350 233.373350 1299.040000
v 162.403820 234.485950 1298.790300
v 180.914860 187.790730 1298.790300
v 177.992600 186.636290 1299.042600
v 159.575350 233.373350 1299.040000
v 180.914860 187.790730 1298.790300
v 177.992600 186.636290 1299.042600
v 177.190410 186.319380 1299.974400
v 159.575350 233.373350 1299.040000
v 177.190410 186.319380 1299.974400
v 158.771930 233.057340 1299.973100
v 159.575350 233.373350 1299.040000
v 158.747420 233.047840 1306.170200
v 158.771930 233.057340 1299.973100
v 177.190410 186.319380 1299.974400
v 177.172470 186.312210 1306.175400
v 158.747420 233.047840 1306.170200
v 177.190410 186.319380 1299.974400
vn -0.369376 0.929272 -0.003888
vn -0.369376 0.929272 -0.003888
vn -0.369376 0.929272 -0.003888
vn -0.369376 0.929272 -0.003888
vn -0.369376 0.929272 -0.003888
vn -0.369376 0.929272 -0.003888
vn -0.287707 -0.957710 -0.003941
vn -0.287707 -0.957710 -0.003941
vn -0.287707 -0.957710 -0.003941
vn -0.287707 -0.957710 -0.003941
vn -0.287707 -0.957710 -0.003941
vn -0.287707 -0.957710 -0.003941
vn -0.369376 0.929272 -0.003888
vn -0.369376 0.929272 -0.003888
vn -0.369376 0.929272 -0.003888
vn -0.369376 0.929272 -0.003888
vn -0.369376 0.929272 -0.003888
vn -0.369376 0.929272 -0.003888
vn 0.986912 -0.161209 -0.003932
vn 0.986912 -0.161209 -0.003932
vn 0.791885 -0.610658 -0.003940
vn 0.778158 -0.628056 -0.003950
vn 0.986912 -0.161209 -0.003932
vn 0.791885 -0.610658 -0.003940
vn 0.791885 -0.610658 -0.003940
vn 0.374786 -0.927103 -0.003945
vn 0.778158 -0.628056 -0.003950
vn 0.374786 -0.927103 -0.003945
vn 0.374786 -0.927103 -0.003945
vn 0.778158 -0.628056 -0.003950
vn 0.374786 -0.927103 -0.003945
vn 0.374786 -0.927103 -0.003945
vn -0.931924 -0.362632 -0.003899
vn -0.931924 -0.362632 -0.003899
vn 0.374786 -0.927103 -0.003945
vn -0.931924 -0.362632 -0.003899
vn -0.931924 -0.362632 -0.003899
vn -0.931924 -0.362632 -0.003899
vn -0.931924 -0.362632 -0.003899
vn -0.931924 -0.362632 -0.003899
vn -0.931924 -0.362632 -0.003899
vn -0.931924 -0.362632 -0.003899
vn -0.931924 -0.362632 -0.003899
vn -0.804170 0.594387 -0.003885
vn -0.931924 -0.362632 -0.003899
vn -0.804170 0.594387 -0.003885
vn -0.804170 0.594387 -0.003885
vn -0.931924 -0.362632 -0.003899
vn -0.931924 -0.362632 -0.003899
vn -0.931924 -0.362632 -0.003899
vn -0.931924 -0.362632 -0.003899
vn -0.931924 -0.362632 -0.003899
vn -0.931924 -0.362632 -0.003899
vn -0.931924 -0.362632 -0.003899
vn -0.931924 -0.362632 -0.003899
vn -0.801399 0.598117 -0.003909
vn -0.931924 -0.362632 -0.003899
vn -0.801399 0.598117 -0.003909
vn -0.801399 0.598117 -0.003909
vn -0.931924 -0.362632 -0.003899
vn 0.367974 -0.929828 -0.003957
vn 0.367974 -0.929828 -0.003957
vn 0.367974 -0.929828 -0.003957
vn 0.367974 -0.929828 -0.003957
vn 0.367974 -0.929828 -0.003957
vn 0.367974 -0.929828 -0.003957
vn 0.367974 -0.929828 -0.003957
vn 0.367974 -0.929828 -0.003957
vn 0.367974 -0.929828 -0.003957
vn 0.367974 -0.929828 -0.003957
vn 0.367974 -0.929828 -0.003957
vn 0.367974 -0.929828 -0.003957
vn -0.369376 0.929272 -0.003888
vn -0.369376 0.929272 -0.003888
vn -0.369376 0.929272 -0.003888
vn -0.369376 0.929272 -0.003888
vn -0.369376 0.929272 -0.003888
vn -0.369376 0.929272 -0.003888
vn -0.369376 0.929272 -0.003888
vn -0.931924 -0.362632 -0.003899
vn -0.369376 0.929272 -0.003888
vn -0.931924 -0.362632 -0.003899
vn -0.931924 -0.362632 -0.003899
vn -0.369376 0.929272 -0.003888
vn -0.931924 -0.362632 -0.003899
vn -0.931924 -0.362632 -0.003899
vn -0.931924 -0.362632 -0.003899
vn -0.931924 -0.362632 -0.003899
vn -0.931924 -0.362632 -0.003899
vn -0.931924 -0.362632 -0.003899
vn -0.074276 -0.027365 -0.996862
vn -0.074276 -0.027365 -0.996862
vn -0.074276 -0.027365 -0.996862
vn -0.074276 -0.027365 -0.996862
vn -0.074276 -0.027365 -0.996862
vn -0.074276 -0.027365 -0.996862
vn -0.074276 -0.027365 -0.996862
vn -0.931924 -0.362632 -0.003899
vn -0.074276 -0.027365 -0.996862
vn -0.931924 -0.362632 -0.003899
vn -0.931924 -0.362632 -0.003899
vn -0.074276 -0.027365 -0.996862
vn -0.930887 -0.365285 -0.003928
vn -0.931924 -0.362632 -0.003899
vn -0.931924 -0.362632 -0.003899
vn -0.930887 -0.365285 -0.003928
vn -0.930887 -0.365285 -0.003928
vn -0.931924 -0.362632 -0.003899
vn -0.043094 -0.011753 -0.999002
vn -0.043094 -0.011753 -0.999002
vn -0.043094 -0.011753 -0.999002
vn -0.043094 -0.011753 -0.999002
vn -0.043094 -0.011753 -0.999002
vn -0.043094 -0.011753 -0.999002
vn -0.043094 -0.011753 -0.999002
vn -0.931924 -0.362632 -0.003899
vn -0.043094 -0.011753 -0.999002
vn -0.931924 -0.362632 -0.003899
vn -0.931924 -0.362632 -0.003899
vn -0.043094 -0.011753 -0.999002
vn -0.931924 -0.362632 -0.003899
vn -0.931924 -0.362632 -0.003899
vn -0.931924 -0.362632 -0.003899
vn -0.931924 -0.362632 -0.003899
vn -0.931924 -0.362632 -0.003899
vn -0.931924 -0.362632 -0.003899
vn -0.931924 -0.362632 -0.003899
vn -0.003952 0.003952 0.999984
vn -0.931924 -0.362632 -0.003899
vn -0.003952 0.003952 0.999984
vn -0.003952 0.003952 0.999984
vn -0.931924 -0.362632 -0.003899
vn -0.003952 0.003952 0.999984
vn -0.003952 0.003952 0.999984
vn -0.003952 0.003952 0.999984
vn -0.003952 0.003952 0.999984
vn -0.003952 0.003952 0.999984
vn -0.003952 0.003952 0.999984
vn -0.043094 -0.011753 -0.999002
vn -0.043094 -0.011753 -0.999002
vn -0.043094 -0.011753 -0.999002
vn -0.043094 -0.011753 -0.999002
vn -0.043094 -0.011753 -0.999002
vn -0.043094 -0.011753 -0.999002
vn -0.043094 -0.011753 -0.999002
vn -0.931754 -0.362566 -0.019493
vn -0.043094 -0.011753 -0.999002
vn -0.931754 -0.362566 -0.019493
vn -0.931754 -0.362566 -0.019493
vn -0.043094 -0.011753 -0.999002
vn -0.931754 -0.362566 -0.019493
vn -0.931754 -0.362566 -0.019493
vn -0.931754 -0.362566 -0.019493
vn -0.931754 -0.362566 -0.019493
vn -0.931754 -0.362566 -0.019493
vn -0.931754 -0.362566 -0.019493
vn -0.931754 -0.362566 -0.019493
vn -0.003952 0.003952 0.999984
vn -0.931754 -0.362566 -0.019493
vn -0.003952 0.003952 0.999984
vn -0.003952 0.003952 0.999984
vn -0.931754 -0.362566 -0.019493
vn -0.003952 0.003952 0.999984
vn -0.003952 0.003952 0.999984
vn -0.003952 0.003952 0.999984
vn -0.003952 0.003952 0.999984
vn -0.003952 0.003952 0.999984
vn -0.003952 0.003952 0.999984
vn -0.043094 -0.011753 -0.999002
vn -0.043094 -0.011753 -0.999002
vn -0.043094 -0.011753 -0.999002
vn -0.043094 -0.011753 -0.999002
vn -0.043094 -0.011753 -0.999002
vn -0.043094 -0.011753 -0.999002
vn -0.043094 -0.011753 -0.999002
vn -0.931868 -0.362610 -0.011697
vn -0.043094 -0.011753 -0.999002
vn -0.931868 -0.362610 -0.011697
vn -0.931868 -0.362610 -0.011697
vn -0.043094 -0.011753 -0.999002
vn -0.931868 -0.362610 -0.011697
vn -0.931868 -0.362610 -0.011697
vn -0.931868 -0.362610 -0.011697
vn -0.931868 -0.362610 -0.011697
vn -0.931868 -0.362610 -0.011697
vn -0.931868 -0.362610 -0.011697
vn -0.931868 -0.362610 -0.011697
vn -0.003952 0.003952 0.999984
vn -0.931868 -0.362610 -0.011697
vn -0.003952 0.003952 0.999984
vn -0.003952 0.003952 0.999984
vn -0.931868 -0.362610 -0.011697
vn -0.003952 0.003952 0.999984
vn -0.003952 0.003952 0.999984
vn -0.003952 0.003952 0.999984
vn -0.003952 0.003952 0.999984
vn -0.003952 0.003952 0.999984
vn -0.003952 0.003952 0.999984
vn 0.365285 -0.930887 -0.003928
vn 0.365285 -0.930887 -0.003928
vn 0.365285 -0.930887 -0.003928
vn 0.365285 -0.930887 -0.003928
vn 0.365285 -0.930887 -0.003928
vn 0.365285 -0.930887 -0.003928
vn 0.365285 -0.930887 -0.003928
vn -0.931924 -0.362632 -0.003899
vn 0.365285 -0.930887 -0.003928
vn -0.931924 -0.362632 -0.003899
vn -0.931924 -0.362632 -0.003899
vn 0.365285 -0.930887 -0.003928
vn -0.931924 -0.362632 -0.003899
vn -0.931924 -0.362632 -0.003899
vn -0.931924 -0.362632 -0.003899
vn -0.931924 -0.362632 -0.003899
vn -0.931924 -0.362632 -0.003899
vn -0.931924 -0.362632 -0.003899
vn -0.003921 0.003921 0.999985
vn -0.003921 0.003921 0.999985
vn -0.003921 0.003921 0.999985
vn -0.003921 0.003921 0.999985
vn -0.003921 0.003921 0.999985
vn -0.003921 0.003921 0.999985
vn -0.003921 0.003921 0.999985
vn -0.933971 -0.355613 0.035171
vn -0.003921 0.003921 0.999985
vn -0.933971 -0.355613 0.035171
vn -0.933971 -0.355613 0.035171
vn -0.003921 0.003921 0.999985
vn -0.933971 -0.355613 0.035171
vn -0.933971 -0.355613 0.035171
vn -0.933971 -0.355613 0.035171
vn -0.933971 -0.355613 0.035171
vn -0.933971 -0.355613 0.035171
vn -0.933971 -0.355613 0.035171
vn 0.003952 0.011857 0.999922
vn 0.003952 0.011857 0.999922
vn 0.003952 0.011857 0.999922
vn 0.003952 0.011857 0.999922
vn 0.003952 0.011857 0.999922
vn 0.003952 0.011857 0.999922
vn 0.003952 0.011857 0.999922
vn 0.003952 0.011857 0.999922
vn -0.931924 -0.362632 -0.003899
vn -0.931924 -0.362632 -0.003899
vn 0.003952 0.011857 0.999922
vn -0.931924 -0.362632 -0.003899
vn -0.931924 -0.362632 -0.003899
vn -0.931924 -0.362632 -0.003899
vn -0.931924 -0.362632 -0.003899
vn -0.931924 -0.362632 -0.003899
vn -0.931924 -0.362632 -0.003899
vn -0.931924 -0.362632 -0.003899
vn -0.931924 -0.362632 -0.003899
vn -0.931924 -0.362632 -0.003899
vn -0.043094 -0.011753 -0.999002
vn -0.043094 -0.011753 -0.999002
vn -0.931924 -0.362632 -0.003899
vn -0.043094 -0.011753 -0.999002
vn -0.043094 -0.011753 -0.999002
vn -0.043094 -0.011753 -0.999002
vn -0.043094 -0.011753 -0.999002
vn -0.043094 -0.011753 -0.999002
vn -0.043094 -0.011753 -0.999002
vn -0.043094 -0.011753 -0.999002
vn 0.003952 0.011857 0.999922
vn 0.003952 0.011857 0.999922
vn 0.003952 0.011857 0.999922
vn 0.003952 0.011857 0.999922
vn 0.003952 0.011857 0.999922
vn 0.003952 0.011857 0.999922
vn 0.003952 0.011857 0.999922
vn 0.003952 0.011857 0.999922
vn -0.931754 -0.362566 -0.019493
vn -0.931754 -0.362566 -0.019493
vn 0.003952 0.011857 0.999922
vn -0.931754 -0.362566 -0.019493
vn -0.931754 -0.362566 -0.019493
vn -0.931754 -0.362566 -0.019493
vn -0.931754 -0.362566 -0.019493
vn -0.931754 -0.362566 -0.019493
vn -0.931754 -0.362566 -0.019493
vn -0.931754 -0.362566 -0.019493
vn -0.931754 -0.362566 -0.019493
vn -0.931754 -0.362566 -0.019493
vn -0.043094 -0.011753 -0.999002
vn -0.043094 -0.011753 -0.999002
vn -0.931754 -0.362566 -0.019493
vn -0.043094 -0.011753 -0.999002
vn -0.043094 -0.011753 -0.999002
vn -0.043094 -0.011753 -0.999002
vn -0.043094 -0.011753 -0.999002
vn -0.043094 -0.011753 -0.999002
vn -0.043094 -0.011753 -0.999002
vn -0.043094 -0.011753 -0.999002
vn 0.003952 0.011857 0.999922
vn 0.003952 0.011857 0.999922
vn 0.003952 0.011857 0.999922
vn 0.003952 0.011857 0.999922
vn 0.003952 0.011857 0.999922
vn 0.003952 0.011857 0.999922
vn 0.003952 0.011857 0.999922
vn 0.003952 0.011857 0.999922
vn -0.931868 -0.362610 -0.011697
vn -0.931868 -0.362610 -0.011697
vn 0.003952 0.011857 0.999922
vn -0.931868 -0.362610 -0.011697
vn -0.931868 -0.362610 -0.011697
vn -0.931868 -0.362610 -0.011697
vn -0.931868 -0.362610 -0.011697
vn -0.931868 -0.362610 -0.011697
vn -0.931868 -0.362610 -0.011697
vn -0.931868 -0.362610 -0.011697
vn -0.931868 -0.362610 -0.011697
vn -0.931868 -0.362610 -0.011697
vn -0.043094 -0.011753 -0.999002
vn -0.043094 -0.011753 -0.999002
vn -0.931868 -0.362610 -0.011697
vn -0.043094 -0.011753 -0.999002
vn -0.043094 -0.011753 -0.999002
vn -0.043094 -0.011753 -0.999002
vn -0.043094 -0.011753 -0.999002
vn -0.043094 -0.011753 -0.999002
vn -0.043094 -0.011753 -0.999002
vn -0.043094 -0.011753 -0.999002
vn -0.369376 0.929272 -0.003888
vn -0.369376 0.929272 -0.003888
vn -0.369376 0.929272 -0.003888
vn -0.369376 0.929272 -0.003888
vn -0.369376 0.929272 -0.003888
vn -0.369376 0.929272 -0.003888
vn -0.369376 0.929272 -0.003888
vn -0.931924 -0.362632 -0.003899
vn -0.369376 0.929272 -0.003888
vn -0.931924 -0.362632 -0.003899
vn -0.931924 -0.362632 -0.003899
vn -0.369376 0.929272 -0.003888
vn -0.931924 -0.362632 -0.003899
vn -0.931924 -0.362632 -0.003899
vn -0.931924 -0.362632 -0.003899
vn -0.931924 -0.362632 -0.003899
vn -0.931924 -0.362632 -0.003899
vn -0.931924 -0.362632 -0.003899
vn -0.074276 -0.027365 -0.996862
vn -0.074276 -0.027365 -0.996862
vn -0.074276 -0.027365 -0.996862
vn -0.074276 -0.027365 -0.996862
vn -0.074276 -0.027365 -0.996862
vn -0.074276 -0.027365 -0.996862
vn -0.074276 -0.027365 -0.996862
vn -0.930887 -0.365285 -0.003928
vn -0.074276 -0.027365 -0.996862
vn -0.930887 -0.365285 -0.003928
vn -0.930887 -0.365285 -0.003928
vn -0.074276 -0.027365 -0.996862
vn -0.930887 -0.365285 -0.003928
vn -0.930887 -0.365285 -0.003928
vn -0.930887 -0.365285 -0.003928
vn -0.930887 -0.365285 -0.003928
vn -0.930887 -0.365285 -0.003928
vn -0.930887 -0.365285 -0.003928
vn 0.365285 -0.930887 -0.003928
vn 0.365285 -0.930887 -0.003928
vn 0.365285 -0.930887 -0.003928
vn 0.365285 -0.930887 -0.003928
vn 0.365285 -0.930887 -0.003928
vn 0.365285 -0.930887 -0.003928
vn 0.365285 -0.930887 -0.003928
vn -0.931924 -0.362632 -0.003899
vn 0.365285 -0.930887 -0.003928
vn -0.931924 -0.362632 -0.003899
vn -0.931924 -0.362632 -0.003899
vn 0.365285 -0.930887 -0.003928
vn -0.931924 -0.362632 -0.003899
vn -0.931924 -0.362632 -0.003899
vn -0.931924 -0.362632 -0.003899
vn -0.931924 -0.362632 -0.003899
vn -0.931924 -0.362632 -0.003899
vn -0.931924 -0.362632 -0.003899
vn -0.003921 0.003921 0.999985
vn -0.003921 0.003921 0.999985
vn -0.003921 0.003921 0.999985
vn -0.003921 0.003921 0.999985
vn -0.003921 0.003921 0.999985
vn -0.003921 0.003921 0.999985
vn -0.003921 0.003921 0.999985
vn -0.934485 -0.355808 0.011730
vn -0.003921 0.003921 0.999985
vn -0.934485 -0.355808 0.011730
vn -0.934485 -0.355808 0.011730
vn -0.003921 0.003921 0.999985
vn -0.930830 -0.365262 0.011783
vn -0.934485 -0.355808 0.011730
vn -0.934485 -0.355808 0.011730
vn -0.930830 -0.365262 0.011783
vn -0.930830 -0.365262 0.011783
vn -0.934485 -0.355808 0.011730
vn -0.082044 -0.027348 -0.996253
vn -0.082044 -0.027348 -0.996253
vn -0.082044 -0.027348 -0.996253
vn -0.082044 -0.027348 -0.996253
vn -0.082044 -0.027348 -0.996253
vn -0.082044 -0.027348 -0.996253
vn -0.082044 -0.027348 -0.996253
vn -0.931924 -0.362632 -0.003899
vn -0.082044 -0.027348 -0.996253
vn -0.931924 -0.362632 -0.003899
vn -0.931924 -0.362632 -0.003899
vn -0.082044 -0.027348 -0.996253
vn -0.931924 -0.362632 -0.003899
vn -0.931924 -0.362632 -0.003899
vn -0.931924 -0.362632 -0.003899
vn -0.931924 -0.362632 -0.003899
vn -0.931924 -0.362632 -0.003899
vn -0.931924 -0.362632 -0.003899
vt -0.000000 0.276855
vt 1.043945 0.276855
vt -0.000000 0.276855
vt 1.043945 0.276855
vt 1.043945 0.276855
vt -0.000000 0.276855
vt -0.000000 0.183594
vt -0.000000 0.170898
vt 1.043945 0.184570
vt -0.000000 0.170898
vt 1.043945 0.170898
vt 1.043945 0.184570
vt -0.000000 0.276855
vt 1.043945 0.276855
vt -0.000000 0.276855
vt 1.043945 0.276855
vt 1.043945 0.276855
vt -0.000000 0.276855
vt -0.000000 0.152832
vt 1.043945 0.152832
vt 1.043945 0.154297
vt -0.000000 0.154297
vt -0.000000 0.152832
vt 1.043945 0.154297
vt 1.043945 0.154297
vt 1.043945 0.170898
vt -0.000000 0.154297
vt 1.043945 0.170898
vt -0.000000 0.170898
vt -0.000000 0.154297
vt -0.000000 0.170898
vt 1.043945 0.170898
vt 1.043945 0.184570
vt -0.000000 0.183594
vt -0.000000 0.170898
vt 1.043945 0.184570
vt -0.000000 0.183594
vt 1.043945 0.184570
vt 1.043945 0.265137
vt -0.000000 0.266113
vt -0.000000 0.183594
vt 1.043945 0.265137
vt 1.043945 0.265137
vt 1.043945 0.276855
vt -0.000000 0.266113
vt 1.043945 0.276855
vt -0.000000 0.276855
vt -0.000000 0.266113
vt -0.000000 0.183594
vt 1.043945 0.184570
vt 1.043945 0.265137
vt -0.000000 0.266113
vt -0.000000 0.183594
vt 1.043945 0.265137
vt 1.043945 0.265137
vt 1.043945 0.276855
vt -0.000000 0.266113
vt 1.043945 0.276855
vt -0.000000 0.276855
vt -0.000000 0.266113
vt 1.043945 0.170898
vt -0.000000 0.170898
vt -0.000000 0.154297
vt 1.043945 0.154297
vt 1.043945 0.170898
vt -0.000000 0.154297
vt -0.000000 0.154297
vt -0.000000 0.152832
vt 1.043945 0.154297
vt -0.000000 0.152832
vt 1.043945 0.152832
vt 1.043945 0.154297
vt -0.000002 0.296875
vt -0.000000 0.280762
vt 1.053711 0.296875
vt -0.000000 0.280762
vt 1.053711 0.280762
vt 1.053711 0.296875
vt -0.000000 0.280762
vt -0.000000 0.264648
vt 1.053711 0.280762
vt -0.000000 0.264648
vt 1.053711 0.264160
vt 1.053711 0.280762
vt 1.053711 0.172852
vt 1.053711 0.264160
vt -0.000000 0.264648
vt -0.000000 0.172852
vt 1.053711 0.172852
vt -0.000000 0.264648
vt 0.653809 0.152832
vt 0.653809 0.168457
vt 0.326904 0.152832
vt 0.653809 0.168457
vt 0.326904 0.168457
vt 0.326904 0.152832
vt 0.653809 0.168457
vt 0.653809 0.185547
vt 0.326904 0.168457
vt 0.653809 0.185547
vt 0.326904 0.185547
vt 0.326904 0.168457
vt 0.326904 0.276855
vt 0.326904 0.185547
vt 0.653809 0.185547
vt 0.653809 0.276855
vt 0.326904 0.276855
vt 0.653809 0.185547
vt 0.653809 0.916382
vt 0.653809 0.933044
vt 0.326904 0.916443
vt 0.653809 0.933044
vt 0.326904 0.932983
vt 0.326904 0.916443
vt 0.653809 0.933044
vt 0.653809 0.939514
vt 0.326904 0.932983
vt 0.653809 0.939514
vt 0.326904 0.939514
vt 0.326904 0.932983
vt 0.326904 0.968719
vt 0.326904 0.939514
vt 0.653809 0.939514
vt 0.653809 0.968719
vt 0.326904 0.968719
vt 0.653809 0.939514
vt 0.653809 0.968719
vt 0.653809 0.975098
vt 0.326904 0.968719
vt 0.653809 0.975098
vt 0.326904 0.975128
vt 0.326904 0.968719
vt 0.326904 0.975128
vt 0.653809 0.975098
vt 0.326904 0.991951
vt 0.653809 0.975098
vt 0.653809 0.991997
vt 0.326904 0.991951
vt 0.653809 0.916382
vt 0.653809 0.932983
vt 0.326904 0.916443
vt 0.653809 0.932983
vt 0.326904 0.932922
vt 0.326904 0.916443
vt 0.653809 0.932983
vt 0.653809 0.939514
vt 0.326904 0.932922
vt 0.653809 0.939514
vt 0.326904 0.939514
vt 0.326904 0.932922
vt 0.326904 0.968719
vt 0.326904 0.939514
vt 0.653809 0.939514
vt 0.653809 0.968719
vt 0.326904 0.968719
vt 0.653809 0.939514
vt 0.653809 0.968719
vt 0.653809 0.975098
vt 0.326904 0.968719
vt 0.653809 0.975098
vt 0.326904 0.975128
vt 0.326904 0.968719
vt 0.326904 0.975128
vt 0.653809 0.975098
vt 0.326904 0.991951
vt 0.653809 0.975098
vt 0.653809 0.991997
vt 0.326904 0.991951
vt 0.653809 0.916382
vt 0.653809 0.933044
vt 0.326904 0.916443
vt 0.653809 0.933044
vt 0.326904 0.932983
vt 0.326904 0.916443
vt 0.653809 0.933044
vt 0.653809 0.939514
vt 0.326904 0.932983
vt 0.653809 0.939514
vt 0.326904 0.939514
vt 0.326904 0.932983
vt 0.326904 0.968719
vt 0.326904 0.939514
vt 0.653809 0.939514
vt 0.653809 0.968719
vt 0.326904 0.968719
vt 0.653809 0.939514
vt 0.653809 0.968719
vt 0.653809 0.975098
vt 0.326904 0.968719
vt 0.653809 0.975098
vt 0.326904 0.975128
vt 0.326904 0.968719
vt 0.326904 0.975128
vt 0.653809 0.975098
vt 0.326904 0.991951
vt 0.653809 0.975098
vt 0.653809 0.991997
vt 0.326904 0.991951
vt 1.053711 0.152832
vt 1.053711 0.168945
vt -0.000000 0.152832
vt 1.053711 0.168945
vt -0.000000 0.168945
vt -0.000000 0.152832
vt 1.053711 0.168945
vt 1.053711 0.185059
vt -0.000000 0.168945
vt 1.053711 0.185059
vt -0.000000 0.185059
vt -0.000000 0.168945
vt -0.000000 0.276855
vt -0.000000 0.185059
vt 1.053711 0.185059
vt 1.053711 0.276855
vt -0.000000 0.276855
vt 1.053711 0.185059
vt -0.000000 0.296875
vt -0.000000 0.281250
vt 0.352051 0.296875
vt -0.000000 0.281250
vt 0.352051 0.281250
vt 0.352051 0.296875
vt -0.000000 0.281250
vt -0.000000 0.264648
vt 0.352051 0.281250
vt -0.000000 0.264648
vt 0.352051 0.264648
vt 0.352051 0.281250
vt 0.352051 0.172852
vt 0.352051 0.264648
vt -0.000000 0.264648
vt -0.000000 0.172852
vt 0.352051 0.172852
vt -0.000000 0.264648
vt -0.000047 0.991905
vt -0.000047 0.975174
vt 0.326904 0.991951
vt -0.000047 0.975174
vt 0.326904 0.975128
vt 0.326904 0.991951
vt 0.326904 0.975128
vt -0.000047 0.975174
vt -0.000047 0.968719
vt 0.326904 0.968719
vt 0.326904 0.975128
vt -0.000047 0.968719
vt 0.326904 0.968719
vt -0.000047 0.968719
vt 0.326904 0.939514
vt -0.000047 0.968719
vt -0.000047 0.939514
vt 0.326904 0.939514
vt 0.326904 0.939514
vt -0.000047 0.939514
vt -0.000047 0.932922
vt 0.326904 0.932983
vt 0.326904 0.939514
vt -0.000047 0.932922
vt 0.326904 0.932983
vt -0.000047 0.932922
vt 0.326904 0.916443
vt -0.000047 0.932922
vt -0.000047 0.916504
vt 0.326904 0.916443
vt -0.000047 0.991905
vt -0.000047 0.975174
vt 0.326904 0.991951
vt -0.000047 0.975174
vt 0.326904 0.975128
vt 0.326904 0.991951
vt 0.326904 0.975128
vt -0.000047 0.975174
vt -0.000047 0.968719
vt 0.326904 0.968719
vt 0.326904 0.975128
vt -0.000047 0.968719
vt 0.326904 0.968719
vt -0.000047 0.968719
vt 0.326904 0.939514
vt -0.000047 0.968719
vt -0.000047 0.939514
vt 0.326904 0.939514
vt 0.326904 0.939514
vt -0.000047 0.939514
vt -0.000047 0.932922
vt 0.326904 0.932922
vt 0.326904 0.939514
vt -0.000047 0.932922
vt 0.326904 0.932922
vt -0.000047 0.932922
vt 0.326904 0.916443
vt -0.000047 0.932922
vt -0.000047 0.916504
vt 0.326904 0.916443
vt -0.000047 0.991905
vt -0.000047 0.975174
vt 0.326904 0.991951
vt -0.000047 0.975174
vt 0.326904 0.975128
vt 0.326904 0.991951
vt 0.326904 0.975128
vt -0.000047 0.975174
vt -0.000047 0.968719
vt 0.326904 0.968719
vt 0.326904 0.975128
vt -0.000047 0.968719
vt 0.326904 0.968719
vt -0.000047 0.968719
vt 0.326904 0.939514
vt -0.000047 0.968719
vt -0.000047 0.939514
vt 0.326904 0.939514
vt 0.326904 0.939514
vt -0.000047 0.939514
vt -0.000047 0.932922
vt 0.326904 0.932983
vt 0.326904 0.939514
vt -0.000047 0.932922
vt 0.326904 0.932983
vt -0.000047 0.932922
vt 0.326904 0.916443
vt -0.000047 0.932922
vt -0.000047 0.916504
vt 0.326904 0.916443
vt -0.000002 0.296875
vt -0.000000 0.280762
vt 1.053711 0.296875
vt -0.000000 0.280762
vt 1.053711 0.280762
vt 1.053711 0.296875
vt -0.000000 0.280762
vt -0.000000 0.264648
vt 1.053711 0.280762
vt -0.000000 0.264648
vt 1.053711 0.264160
vt 1.053711 0.280762
vt 1.053711 0.172852
vt 1.053711 0.264160
vt -0.000000 0.264648
vt -0.000000 0.172852
vt 1.053711 0.172852
vt -0.000000 0.264648
vt 0.653809 0.152832
vt 0.653809 0.168457
vt 0.326904 0.152832
vt 0.653809 0.168457
vt 0.326904 0.168457
vt 0.326904 0.152832
vt 0.653809 0.168457
vt 0.653809 0.185547
vt 0.326904 0.168457
vt 0.653809 0.185547
vt 0.326904 0.185547
vt 0.326904 0.168457
vt 0.326904 0.276855
vt 0.326904 0.185547
vt 0.653809 0.185547
vt 0.653809 0.276855
vt 0.326904 0.276855
vt 0.653809 0.185547
vt 1.053711 0.152832
vt 1.053711 0.168945
vt -0.000000 0.152832
vt 1.053711 0.168945
vt -0.000000 0.168945
vt -0.000000 0.152832
vt 1.053711 0.168945
vt 1.053711 0.185059
vt -0.000000 0.168945
vt 1.053711 0.185059
vt -0.000000 0.185059
vt -0.000000 0.168945
vt -0.000000 0.276855
vt -0.000000 0.185059
vt 1.053711 0.185059
vt 1.053711 0.276855
vt -0.000000 0.276855
vt 1.053711 0.185059
vt 0.704102 0.280762
vt 0.704102 0.296875
vt 0.352051 0.296875
vt 0.352051 0.281250
vt 0.704102 0.280762
vt 0.352051 0.296875
vt 0.352051 0.281250
vt 0.352051 0.264648
vt 0.704102 0.280762
vt 0.352051 0.264648
vt 0.704102 0.264648
vt 0.704102 0.280762
vt 0.704102 0.172852
vt 0.704102 0.264648
vt 0.352051 0.264648
vt 0.352051 0.172852
vt 0.704102 0.172852
vt 0.352051 0.264648
vt -0.000000 0.168457
vt -0.000000 0.152832
vt 0.326904 0.152832
vt 0.326904 0.168457
vt -0.000000 0.168457
vt 0.326904 0.152832
vt 0.326904 0.168457
vt 0.326904 0.185547
vt -0.000000 0.168457
vt 0.326904 0.185547
vt -0.000000 0.185547
vt -0.000000 0.168457
vt -0.000000 0.276855
vt -0.000000 0.185547
vt 0.326904 0.185547
vt 0.326904 0.276855
vt -0.000000 0.276855
vt 0.326904 0.185547
f 1/1/1 2/2/2 3/3/3
f 4/4/4 5/5/5 6/6/6
f 7/7/7 8/8/8 9/9/9
f 10/10/10 11/11/11 12/12/12
f 13/13/13 14/14/14 15/15/15
f 16/16/16 17/17/17 18/18/18
f 19/19/19 20/20/20 21/21/21
f 22/22/22 23/23/23 24/24/24
f 25/25/25 26/26/26 27/27/27
f 28/28/28 29/29/29 30/30/30
f 31/31/31 32/32/32 33/33/33
f 34/34/34 35/35/35 36/36/36
f 37/37/37 38/38/38 39/39/39
f 40/40/40 41/41/41 42/42/42
f 43/43/43 44/44/44 45/45/45
f 46/46/46 47/47/47 48/48/48
f 49/49/49 50/50/50 51/51/51
f 52/52/52 53/53/53 54/54/54
f 55/55/55 56/56/56 57/57/57
f 58/58/58 59/59/59 60/60/60
f 61/61/61 62/62/62 63/63/63
f 64/64/64 65/65/65 66/66/66
f 67/67/67 68/68/68 69/69/69
f 70/70/70 71/71/71 72/72/72
f 73/73/73 74/74/74 75/75/75
f 76/76/76 77/77/77 78/78/78
f 79/79/79 80/80/80 81/81/81
f 82/82/82 83/83/83 84/84/84
f 85/85/85 86/86/86 87/87/87
f 88/88/88 89/89/89 90/90/90
f 91/91/91 92/92/92 93/93/93
f 94/94/94 95/95/95 96/96/96
f 97/97/97 98/98/98 99/99/99
f 100/100/100 101/101/101 102/102/102
f 103/103/103 104/104/104 105/105/105
f 106/106/106 107/107/107 108/108/108
f 109/109/109 110/110/110 111/111/111
f 112/112/112 113/113/113 114/114/114
f 115/115/115 116/116/116 117/117/117
f 118/118/118 119/119/119 120/120/120
f 121/121/121 122/122/122 123/123/123
f 124/124/124 125/125/125 126/126/126
f 127/127/127 128/128/128 129/129/129
f 130/130/130 131/131/131 132/132/132
f 133/133/133 134/134/134 135/135/135
f 136/136/136 137/137/137 138/138/138
f 139/139/139 140/140/140 141/141/141
f 142/142/142 143/143/143 144/144/144
f 145/145/145 146/146/146 147/147/147
f 148/148/148 149/149/149 150/150/150
f 151/151/151 152/152/152 153/153/153
f 154/154/154 155/155/155 156/156/156
f 157/157/157 158/158/158 159/159/159
f 160/160/160 161/161/161 162/162/162
f 163/163/163 164/164/164 165/165/165
f 166/166/166 167/167/167 168/168/168
f 169/169/169 170/170/170 171/171/171
f 172/172/172 173/173/173 174/174/174
f 175/175/175 176/176/176 177/177/177
f 178/178/178 179/179/179 180/180/180
f 181/181/181 182/182/182 183/183/183
f 184/184/184 185/185/185 186/186/186
f 187/187/187 188/188/188 189/189/189
f 190/190/190 191/191/191 192/192/192
f 193/193/193 194/194/194 195/195/195
f 196/196/196 197/197/197 198/198/198
f 199/199/199 200/200/200 201/201/201
f 202/202/202 203/203/203 204/204/204
f 205/205/205 206/206/206 207/207/207
f 208/208/208 209/209/209 210/210/210
f 211/211/211 212/212/212 213/213/213
f 214/214/214 215/215/215 216/216/216
f 217/217/217 218/218/218 219/219/219
f 220/220/220 221/221/221 222/222/222
f 223/223/223 224/224/224 225/225/225
f 226/226/226 227/227/227 228/228/228
f 229/229/229 230/230/230 231/231/231
f 232/232/232 233/233/233 234/234/234
f 235/235/235 236/236/236 237/237/237
f 238/238/238 239/239/239 240/240/240
f 241/241/241 242/242/242 243/243/243
f 244/244/244 245/245/245 246/246/246
f 247/247/247 248/248/248 249/249/249
f 250/250/250 251/251/251 252/252/252
f 253/253/253 254/254/254 255/255/255
f 256/256/256 257/257/257 258/258/258
f 259/259/259 260/260/260 261/261/261
f 262/262/262 263/263/263 264/264/264
f 265/265/265 266/266/266 267/267/267
f 268/268/268 269/269/269 270/270/270
f 271/271/271 272/272/272 273/273/273
f 274/274/274 275/275/275 276/276/276
f 277/277/277 278/278/278 279/279/279
f 280/280/280 281/281/281 282/282/282
f 283/283/283 284/284/284 285/285/285
f 286/286/286 287/287/287 288/288/288
f 289/289/289 290/290/290 291/291/291
f 292/292/292 293/293/293 294/294/294
f 295/295/295 296/296/296 297/297/297
f 298/298/298 299/299/299 300/300/300
f 301/301/301 302/302/302 303/303/303
f 304/304/304 305/305/305 306/306/306
f 307/307/307 308/308/308 309/309/309
f 310/310/310 311/311/311 312/312/312
f 313/313/313 314/314/314 315/315/315
f 316/316/316 317/317/317 318/318/318
f 319/319/319 320/320/320 321/321/321
f 322/322/322 323/323/323 324/324/324
f 325/325/325 326/326/326 327/327/327
f 328/328/328 329/329/329 330/330/330
f 331/331/331 332/332/332 333/333/333
f 334/334/334 335/335/335 336/336/336
f 337/337/337 338/338/338 339/339/339
f 340/340/340 341/341/341 342/342/342
f 343/343/343 344/344/344 345/345/345
f 346/346/346 347/347/347 348/348/348
f 349/349/349 350/350/350 351/351/351
f 352/352/352 353/353/353 354/354/354
f 355/355/355 356/356/356 357/357/357
f 358/358/358 359/359/359 360/360/360
f 361/361/361 362/362/362 363/363/363
f 364/364/364 365/365/365 366/366/366
f 367/367/367 368/368/368 369/369/369
f 370/370/370 371/371/371 372/372/372
f 373/373/373 374/374/374 375/375/375
f 376/376/376 377/377/377 378/378/378
f 379/379/379 380/380/380 381/381/381
f 382/382/382 383/383/383 384/384/384
f 385/385/385 386/386/386 387/387/387
f 388/388/388 389/389/389 390/390/390
f 391/391/391 392/392/392 393/393/393
f 394/394/394 395/395/395 396/396/396
f 397/397/397 398/398/398 399/399/399
f 400/400/400 401/401/401 402/402/402
f 403/403/403 404/404/404 405/405/405
f 406/406/406 407/407/407 408/408/408
f 409/409/409 410/410/410 411/411/411
f 412/412/412 413/413/413 414/414/414
