# OBJ file
v 462.158691 352.296722 1686.892578
v 515.687866 229.207031 1686.892578
v 462.854736 352.488831 1677.895264
v 515.687866 229.207031 1686.892578
v 516.731934 229.495224 1677.735107
v 462.854736 352.488831 1677.895264
v 569.217102 106.117393 1686.892578
v 622.746460 -16.972162 1686.892456
v 570.609131 106.501648 1677.575073
v 622.746460 -16.972162 1686.892456
v 624.486328 -16.491968 1677.415039
v 570.609131 106.501648 1677.575073
v 515.687866 229.207031 1686.892578
v 569.217102 106.117393 1686.892578
v 516.731934 229.495224 1677.735107
v 569.217102 106.117393 1686.892578
v 570.609131 106.501648 1677.575073
v 516.731934 229.495224 1677.735107
v 408.977539 475.482422 1678.055298
v 355.100464 598.476013 1678.215332
v 408.629517 475.386353 1686.892578
v 355.100464 598.476013 1678.215332
v 355.100464 598.476013 1686.892578
v 408.629517 475.386353 1686.892578
v 462.854736 352.488831 1677.895264
v 408.977539 475.482422 1678.055298
v 462.158691 352.296722 1686.892578
v 408.977539 475.482422 1678.055298
v 408.629517 475.386353 1686.892578
v 462.158691 352.296722 1686.892578
v 622.746460 -16.972162 1686.892456
v 686.474121 -42.178246 1686.892334
v 623.289124 -12.554284 1678.214966
v 686.474121 -42.178246 1686.892334
v 687.016541 -37.760490 1678.214966
v 623.289124 -12.554284 1678.214966
v 965.453308 -152.498947 1686.892334
v 1242.255127 -257.680939 1686.894653
v 965.995728 -148.081192 1678.215210
v 1242.255127 -257.680939 1686.894653
v 1242.255127 -257.680939 1678.217651
v 965.995728 -148.081192 1678.215210
v 391.752808 667.182495 1686.892456
v 355.100464 598.476013 1686.892578
v 391.752808 667.182495 1678.215210
v 355.100464 598.476013 1686.892578
v 355.100464 598.476013 1678.215332
v 391.752808 667.182495 1678.215210
v 547.321472 951.031372 1686.892456
v 535.612427 931.055237 1686.892456
v 547.321472 951.031372 1678.214966
v 535.612427 931.055237 1686.892456
v 535.612427 931.055237 1678.214966
v 547.321472 951.031372 1678.214966
v 612.805420 -22.609522 1676.865112
v 612.805420 -22.609522 1686.892456
v 559.133423 101.332138 1686.892456
v 559.133423 101.332138 1676.865112
v 612.805420 -22.609522 1676.865112
v 559.133423 101.332138 1686.892456
v 559.133423 101.332138 1676.865112
v 559.133423 101.332138 1686.892456
v 505.461670 225.273895 1686.892456
v 505.461670 225.273895 1676.865112
v 559.133423 101.332138 1676.865112
v 505.461670 225.273895 1686.892456
v 505.461670 225.273895 1676.865112
v 505.461670 225.273895 1686.892456
v 451.789856 349.215698 1686.892578
v 451.789856 349.215698 1676.865234
v 505.461670 225.273895 1676.865112
v 451.789856 349.215698 1686.892578
v 451.789856 349.215698 1686.892578
v 398.118103 473.157471 1686.892578
v 451.789856 349.215698 1676.865234
v 398.118103 473.157471 1686.892578
v 398.118103 473.157471 1676.865234
v 451.789856 349.215698 1676.865234
v 398.118103 473.157471 1686.892578
v 344.446289 597.099304 1686.892456
v 398.118103 473.157471 1676.865234
v 344.446289 597.099304 1686.892456
v 344.446289 597.099304 1676.865112
v 398.118103 473.157471 1676.865234
v 612.805420 -22.609522 1686.892456
v 622.746460 -16.972162 1686.892456
v 569.217102 106.117393 1686.892578
v 559.133423 101.332138 1686.892456
v 612.805420 -22.609522 1686.892456
v 569.217102 106.117393 1686.892578
v 559.133423 101.332138 1686.892456
v 569.217102 106.117393 1686.892578
v 515.687866 229.207031 1686.892578
v 505.461670 225.273895 1686.892456
v 559.133423 101.332138 1686.892456
v 515.687866 229.207031 1686.892578
v 505.461670 225.273895 1686.892456
v 515.687866 229.207031 1686.892578
v 462.158691 352.296722 1686.892578
v 451.789856 349.215698 1686.892578
v 505.461670 225.273895 1686.892456
v 462.158691 352.296722 1686.892578
v 462.158691 352.296722 1686.892578
v 408.629517 475.386353 1686.892578
v 451.789856 349.215698 1686.892578
v 408.629517 475.386353 1686.892578
v 398.118103 473.157471 1686.892578
v 451.789856 349.215698 1686.892578
v 408.629517 475.386353 1686.892578
v 355.100464 598.476013 1686.892578
v 398.118103 473.157471 1686.892578
v 355.100464 598.476013 1686.892578
v 344.446289 597.099304 1686.892456
v 398.118103 473.157471 1686.892578
v 1238.982788 -265.956696 1676.867188
v 1238.982788 -265.956696 1686.894653
v 962.180481 -160.774612 1686.892334
v 962.180481 -160.774612 1676.864868
v 1238.982788 -265.956696 1676.867188
v 962.180481 -160.774612 1686.892334
v 962.180481 -160.774612 1676.864868
v 962.180481 -160.774612 1686.892334
v 853.269653 -117.706413 1686.892334
v 853.269653 -117.706413 1676.864868
v 962.180481 -160.774612 1676.864868
v 853.269653 -117.706413 1686.892334
v 853.269653 -117.706413 1676.864868
v 853.269653 -117.706413 1686.892334
v 767.678406 -83.859703 1686.892334
v 767.678406 -83.859703 1676.864990
v 853.269653 -117.706413 1676.864868
v 767.678406 -83.859703 1686.892334
v 767.678406 -83.859703 1676.864990
v 767.678406 -83.859703 1686.892334
v 683.201538 -50.453880 1686.892334
v 683.201538 -50.453880 1676.864990
v 767.678406 -83.859703 1676.864990
v 683.201538 -50.453880 1686.892334
v 683.201538 -50.453880 1676.864990
v 683.201538 -50.453880 1686.892334
v 612.805420 -22.609522 1686.892456
v 612.805420 -22.609522 1676.865112
v 683.201538 -50.453880 1676.864990
v 612.805420 -22.609522 1686.892456
v 1238.982788 -265.956696 1686.894653
v 1242.255127 -257.680939 1686.894653
v 965.453308 -152.498947 1686.892334
v 962.180481 -160.774612 1686.892334
v 1238.982788 -265.956696 1686.894653
v 965.453308 -152.498947 1686.892334
v 962.180481 -160.774612 1686.892334
v 965.453308 -152.498947 1686.892334
v 856.542236 -109.430656 1686.892334
v 853.269653 -117.706413 1686.892334
v 962.180481 -160.774612 1686.892334
v 856.542236 -109.430656 1686.892334
v 853.269653 -117.706413 1686.892334
v 856.542236 -109.430656 1686.892334
v 770.950989 -75.584221 1686.892334
v 767.678406 -83.859703 1686.892334
v 853.269653 -117.706413 1686.892334
v 770.950989 -75.584221 1686.892334
v 767.678406 -83.859703 1686.892334
v 770.950989 -75.584221 1686.892334
v 686.474121 -42.178246 1686.892334
v 683.201538 -50.453880 1686.892334
v 767.678406 -83.859703 1686.892334
v 686.474121 -42.178246 1686.892334
v 683.201538 -50.453880 1686.892334
v 686.474121 -42.178246 1686.892334
v 622.746460 -16.972162 1686.892456
v 612.805420 -22.609522 1686.892456
v 683.201538 -50.453880 1686.892334
v 622.746460 -16.972162 1686.892456
v 965.453308 -152.498947 1686.892334
v 965.995728 -148.081192 1678.215210
v 857.084656 -105.012901 1678.215210
v 856.542236 -109.430656 1686.892334
v 965.453308 -152.498947 1686.892334
v 857.084656 -105.012901 1678.215210
v 856.542236 -109.430656 1686.892334
v 857.084656 -105.012901 1678.215210
v 771.493347 -71.166344 1678.215088
v 770.950989 -75.584221 1686.892334
v 856.542236 -109.430656 1686.892334
v 771.493347 -71.166344 1678.215088
v 770.950989 -75.584221 1686.892334
v 771.493347 -71.166344 1678.215088
v 687.016541 -37.760490 1678.214966
v 686.474121 -42.178246 1686.892334
v 770.950989 -75.584221 1686.892334
v 687.016541 -37.760490 1678.214966
v 344.446289 597.099304 1676.865112
v 344.446289 597.099304 1686.892456
v 384.923706 671.217041 1686.892456
v 384.923706 671.217041 1676.865112
v 344.446289 597.099304 1676.865112
v 384.923706 671.217041 1686.892456
v 384.923706 671.217041 1676.865112
v 384.923706 671.217041 1686.892456
v 428.356567 752.369446 1686.892456
v 428.356689 752.369568 1676.864868
v 384.923706 671.217041 1676.865112
v 428.356567 752.369446 1686.892456
v 428.356689 752.369568 1676.864868
v 428.356567 752.369446 1686.892456
v 471.840149 832.128357 1686.892456
v 471.840149 832.128357 1676.864624
v 428.356689 752.369568 1676.864868
v 471.840149 832.128357 1686.892456
v 471.840149 832.128357 1676.864624
v 471.840149 832.128357 1686.892456
v 527.900879 934.956238 1686.892212
v 527.900879 934.956238 1676.864624
v 471.840149 832.128357 1676.864624
v 527.900879 934.956238 1686.892212
v 527.900879 934.956238 1676.864624
v 527.900879 934.956238 1686.892212
v 539.609436 954.932495 1686.892212
v 539.609436 954.932495 1676.864624
v 527.900879 934.956238 1676.864624
v 539.609436 954.932495 1686.892212
v 344.446289 597.099304 1686.892456
v 355.100464 598.476013 1686.892578
v 391.752808 667.182495 1686.892456
v 384.923706 671.217041 1686.892456
v 344.446289 597.099304 1686.892456
v 391.752808 667.182495 1686.892456
v 384.923706 671.217041 1686.892456
v 391.752808 667.182495 1686.892456
v 436.069214 748.468689 1686.892456
v 428.356567 752.369446 1686.892456
v 384.923706 671.217041 1686.892456
v 436.069214 748.468689 1686.892456
v 428.356567 752.369446 1686.892456
v 436.069214 748.468689 1686.892456
v 479.552673 828.227234 1686.892456
v 471.840149 832.128357 1686.892456
v 428.356567 752.369446 1686.892456
v 479.552673 828.227234 1686.892456
v 471.840149 832.128357 1686.892456
v 479.552673 828.227234 1686.892456
v 535.612427 931.055237 1686.892456
v 527.900879 934.956238 1686.892212
v 471.840149 832.128357 1686.892456
v 535.612427 931.055237 1686.892456
v 527.900879 934.956238 1686.892212
v 535.612427 931.055237 1686.892456
v 547.321472 951.031372 1686.892456
v 539.609436 954.932495 1686.892212
v 527.900879 934.956238 1686.892212
v 547.321472 951.031372 1686.892456
v 391.752808 667.182495 1686.892456
v 391.752808 667.182495 1678.215210
v 436.069214 748.468689 1678.215088
v 436.069214 748.468689 1686.892456
v 391.752808 667.182495 1686.892456
v 436.069214 748.468689 1678.215088
v 436.069214 748.468689 1686.892456
v 436.069214 748.468689 1678.215088
v 479.552673 828.227234 1678.214966
v 479.552673 828.227234 1686.892456
v 436.069214 748.468689 1686.892456
v 479.552673 828.227234 1678.214966
v 479.552673 828.227234 1686.892456
v 479.552673 828.227234 1678.214966
v 535.612427 931.055237 1678.214966
v 535.612427 931.055237 1686.892456
v 479.552673 828.227234 1686.892456
v 535.612427 931.055237 1678.214966
v 518.652405 -91.973656 1665.617310
v 612.805420 -22.609522 1676.865112
v 559.133423 101.332138 1676.865112
v 461.084778 45.121937 1665.618774
v 518.652405 -91.973656 1665.617310
v 559.133423 101.332138 1676.865112
v 461.084778 45.121937 1665.618774
v 559.133423 101.332138 1676.865112
v 505.461670 225.273895 1676.865112
v 447.045715 -141.896194 1631.874390
v 518.652405 -91.973656 1665.617310
v 461.084778 45.121937 1665.618774
v 403.517334 182.217560 1665.620117
v 461.084778 45.121937 1665.618774
v 505.461670 225.273895 1676.865112
v 505.461670 225.273895 1676.865112
v 451.789856 349.215698 1676.865234
v 403.517334 182.217560 1665.620117
v 386.751038 4.852639 1631.874512
v 447.045715 -141.896194 1631.874390
v 461.084778 45.121937 1665.618774
v 386.751038 4.852639 1631.874512
v 461.084778 45.121937 1665.618774
v 403.517334 182.217560 1665.620117
v 389.997009 -183.627029 1574.393799
v 447.045715 -141.896194 1631.874390
v 386.751038 4.852639 1631.874512
v 451.789856 349.215698 1676.865234
v 345.949951 319.313232 1665.621582
v 403.517334 182.217560 1665.620117
v 451.789856 349.215698 1676.865234
v 398.118103 473.157471 1676.865234
v 345.949951 319.313232 1665.621582
v 326.456604 151.601562 1631.874512
v 386.751038 4.852639 1631.874512
v 403.517334 182.217560 1665.620117
v 403.517334 182.217560 1665.620117
v 345.949951 319.313232 1665.621582
v 326.456604 151.601562 1631.874512
v 327.337830 -28.925922 1574.393921
v 389.997009 -183.627029 1574.393799
v 386.751038 4.852639 1631.874512
v 327.337830 -28.925922 1574.393921
v 386.751038 4.852639 1631.874512
v 326.456604 151.601562 1631.874512
v 348.872620 -213.862442 1496.901978
v 389.997009 -183.627029 1574.393799
v 327.337830 -28.925922 1574.393921
v 398.118103 473.157471 1676.865234
v 288.382538 456.408844 1665.622925
v 345.949951 319.313232 1665.621582
v 398.118103 473.157471 1676.865234
v 344.446289 597.099304 1676.865112
v 288.382538 456.408844 1665.622925
v 344.446289 597.099304 1676.865112
v 230.815018 593.504517 1665.624268
v 288.382538 456.408844 1665.622925
v 284.520721 -53.300278 1496.902100
v 348.872620 -213.862442 1496.901978
v 327.337830 -28.925922 1574.393921
v 332.290466 -225.741074 1450.210571
v 348.872620 -213.862442 1496.901978
v 284.520721 -53.300278 1496.902100
v 288.382538 456.408844 1665.622925
v 230.815018 593.504517 1665.624268
v 205.867661 445.099335 1631.874634
v 230.815018 593.504517 1665.624268
v 145.573074 591.848328 1631.874512
v 205.867661 445.099335 1631.874634
v 345.949951 319.313232 1665.621582
v 288.382538 456.408844 1665.622925
v 266.162109 298.350464 1631.874634
v 288.382538 456.408844 1665.622925
v 205.867661 445.099335 1631.874634
v 266.162109 298.350464 1631.874634
v 345.949951 319.313232 1665.621582
v 266.162109 298.350464 1631.874634
v 326.456604 151.601562 1631.874512
v 205.867661 445.099335 1631.874634
v 145.573074 591.848328 1631.874512
v 139.360611 435.177490 1574.393921
v 145.573074 591.848328 1631.874512
v 76.701431 589.878723 1574.393921
v 139.360611 435.177490 1574.393921
v 266.162109 298.350464 1631.874634
v 205.867661 445.099335 1631.874634
v 202.019669 280.476379 1574.393921
v 205.867661 445.099335 1631.874634
v 139.360611 435.177490 1574.393921
v 202.019669 280.476379 1574.393921
v 326.456604 151.601562 1631.874512
v 266.162109 298.350464 1631.874634
v 264.678772 125.775200 1574.393921
v 264.678772 125.775200 1574.393921
v 327.337830 -28.925922 1574.393921
v 326.456604 151.601562 1631.874512
v 266.162109 298.350464 1631.874634
v 202.019669 280.476379 1574.393921
v 264.678772 125.775200 1574.393921
v 284.520721 -53.300278 1496.902100
v 327.337830 -28.925922 1574.393921
v 264.678772 125.775200 1574.393921
v 220.169022 107.261948 1496.902100
v 264.678772 125.775200 1574.393921
v 202.019669 280.476379 1574.393921
v 220.169022 107.261948 1496.902100
v 284.520721 -53.300278 1496.902100
v 264.678772 125.775200 1574.393921
v 202.019669 280.476379 1574.393921
v 139.360611 435.177490 1574.393921
v 155.817337 267.824097 1496.901978
v 155.817337 267.824097 1496.901978
v 220.169022 107.261948 1496.902100
v 202.019669 280.476379 1574.393921
v 139.360611 435.177490 1574.393921
v 76.701431 589.878723 1574.393921
v 91.465652 428.386292 1496.901978
v 139.360611 435.177490 1574.393921
v 91.465652 428.386292 1496.901978
v 155.817337 267.824097 1496.901978
v 76.701431 589.878723 1574.393921
v 27.113846 588.948608 1496.901855
v 91.465652 428.386292 1496.901978
v 267.296692 -62.951916 1450.210693
v 284.520721 -53.300278 1496.902100
v 220.169022 107.261948 1496.902100
v 267.296692 -62.951916 1450.210693
v 332.290466 -225.741074 1450.210571
v 284.520721 -53.300278 1496.902100
v 323.952454 -231.651138 1426.865112
v 332.290466 -225.741074 1450.210571
v 267.296692 -62.951916 1450.210693
v 258.607910 -67.545273 1426.865234
v 323.952454 -231.651138 1426.865112
v 267.296692 -62.951916 1450.210693
v 202.303116 99.837265 1450.210693
v 267.296692 -62.951916 1450.210693
v 220.169022 107.261948 1496.902100
v 258.607910 -67.545273 1426.865234
v 267.296692 -62.951916 1450.210693
v 202.303116 99.837265 1450.210693
v 202.303116 99.837265 1450.210693
v 220.169022 107.261948 1496.902100
v 155.817337 267.824097 1496.901978
v 193.263565 96.558670 1426.865234
v 258.607910 -67.545273 1426.865234
v 202.303116 99.837265 1450.210693
v 137.309525 262.626434 1450.210693
v 202.303116 99.837265 1450.210693
v 155.817337 267.824097 1496.901978
v 193.263565 96.558670 1426.865234
v 202.303116 99.837265 1450.210693
v 137.309525 262.626434 1450.210693
v 155.817337 267.824097 1496.901978
v 91.465652 428.386292 1496.901978
v 137.309525 262.626434 1450.210693
v 127.919113 260.662598 1426.865234
v 193.263565 96.558670 1426.865234
v 137.309525 262.626434 1450.210693
v 91.465652 428.386292 1496.901978
v 72.315933 425.415588 1450.210693
v 137.309525 262.626434 1450.210693
v 137.309525 262.626434 1450.210693
v 72.315933 425.415588 1450.210693
v 127.919113 260.662598 1426.865234
v 91.465652 428.386292 1496.901978
v 27.113846 588.948608 1496.901855
v 72.315933 425.415588 1450.210693
v 72.315933 425.415588 1450.210693
v 62.574783 424.766541 1426.865234
v 127.919113 260.662598 1426.865234
v 27.113846 588.948608 1496.901855
v 7.322220 588.204773 1450.210571
v 72.315933 425.415588 1450.210693
v 72.315933 425.415588 1450.210693
v 7.322220 588.204773 1450.210571
v 62.574783 424.766541 1426.865234
v 7.322220 588.204773 1450.210571
v -2.769759 588.870544 1426.865112
v 62.574783 424.766541 1426.865234
v 1202.863525 -357.295990 1665.619507
v 1238.982788 -265.956696 1676.867188
v 962.180481 -160.774612 1676.864868
v 926.060974 -252.113968 1665.617188
v 1202.863525 -357.295990 1665.619507
v 962.180481 -160.774612 1676.864868
v 926.060974 -252.113968 1665.617188
v 962.180481 -160.774612 1676.864868
v 853.269653 -117.706413 1676.864868
v 1175.639526 -426.137787 1631.876465
v 1202.863525 -357.295990 1665.619507
v 926.060974 -252.113968 1665.617188
v 817.150085 -209.045334 1665.617188
v 926.060974 -252.113968 1665.617188
v 853.269653 -117.706413 1676.864868
v 853.269653 -117.706413 1676.864868
v 767.678406 -83.859703 1676.864990
v 817.150085 -209.045334 1665.617188
v 898.837708 -320.955963 1631.874146
v 1175.639526 -426.137787 1631.876465
v 926.060974 -252.113968 1665.617188
v 898.837708 -320.955963 1631.874146
v 926.060974 -252.113968 1665.617188
v 817.150085 -209.045334 1665.617188
v 1153.715576 -481.580048 1574.395874
v 1175.639526 -426.137787 1631.876465
v 898.837708 -320.955963 1631.874146
v 767.678406 -83.859703 1676.864990
v 731.558716 -175.198837 1665.617188
v 817.150085 -209.045334 1665.617188
v 731.558716 -175.198837 1665.617188
v 767.678406 -83.859703 1676.864990
v 683.201538 -50.453880 1676.864990
v 789.926941 -277.887665 1631.874146
v 898.837708 -320.955963 1631.874146
v 817.150085 -209.045334 1665.617188
v 817.150085 -209.045334 1665.617188
v 731.558716 -175.198837 1665.617188
v 789.926941 -277.887665 1631.874146
v 876.913452 -376.397797 1574.393555
v 1153.715576 -481.580048 1574.395874
v 898.837708 -320.955963 1631.874146
v 876.913452 -376.397797 1574.393555
v 898.837708 -320.955963 1631.874146
v 789.926941 -277.887665 1631.874146
v 1137.943604 -521.464294 1496.904053
v 1153.715576 -481.580048 1574.395874
v 876.913452 -376.397797 1574.393555
v 647.082153 -141.792984 1665.617188
v 731.558716 -175.198837 1665.617188
v 683.201538 -50.453880 1676.864990
v 647.082153 -141.792984 1665.617188
v 683.201538 -50.453880 1676.864990
v 612.805420 -22.609522 1676.865112
v 731.558716 -175.198837 1665.617188
v 704.335388 -244.040970 1631.874268
v 789.926941 -277.887665 1631.874146
v 704.335388 -244.040970 1631.874268
v 731.558716 -175.198837 1665.617188
v 647.082153 -141.792984 1665.617188
v 564.815063 -109.260887 1665.617188
v 647.082153 -141.792984 1665.617188
v 612.805420 -22.609522 1676.865112
v 612.805420 -22.609522 1676.865112
v 518.652405 -91.973656 1665.617310
v 564.815063 -109.260887 1665.617188
v 619.858765 -210.635208 1631.874268
v 704.335388 -244.040970 1631.874268
v 647.082153 -141.792984 1665.617188
v 619.858765 -210.635208 1631.874268
v 647.082153 -141.792984 1665.617188
v 564.815063 -109.260887 1665.617188
v 564.815063 -109.260887 1665.617188
v 518.652405 -91.973656 1665.617310
v 520.106079 -171.188339 1631.874268
v 520.106079 -171.188339 1631.874268
v 619.858765 -210.635208 1631.874268
v 564.815063 -109.260887 1665.617188
v 518.652405 -91.973656 1665.617310
v 447.045715 -141.896194 1631.874390
v 520.106079 -171.188339 1631.874268
v 520.106079 -171.188339 1631.874268
v 447.045715 -141.896194 1631.874390
v 504.093781 -228.836105 1574.393677
v 447.045715 -141.896194 1631.874390
v 389.997009 -183.627029 1574.393799
v 504.093781 -228.836105 1574.393677
v 504.093781 -228.836105 1574.393677
v 389.997009 -183.627029 1574.393799
v 488.321930 -268.720520 1496.901733
v 389.997009 -183.627029 1574.393799
v 348.872620 -213.862442 1496.901978
v 488.321930 -268.720520 1496.901733
v 504.093781 -228.836105 1574.393677
v 587.297668 -262.203857 1574.393677
v 520.106079 -171.188339 1631.874268
v 587.297668 -262.203857 1574.393677
v 619.858765 -210.635208 1631.874268
v 520.106079 -171.188339 1631.874268
v 481.982025 -284.752808 1450.210449
v 488.321930 -268.720520 1496.901733
v 348.872620 -213.862442 1496.901978
v 332.290466 -225.741074 1450.210571
v 481.982025 -284.752808 1450.210449
v 348.872620 -213.862442 1496.901978
v 332.290466 -225.741074 1450.210571
v 323.952454 -231.651138 1426.865112
v 481.982025 -284.752808 1450.210449
v 323.952454 -231.651138 1426.865112
v 478.811981 -292.769226 1426.864990
v 481.982025 -284.752808 1450.210449
v 481.982025 -284.752808 1450.210449
v 478.811981 -292.769226 1426.864990
v 565.186096 -318.120728 1450.210693
v 478.811981 -292.769226 1426.864990
v 562.015686 -326.136719 1426.864990
v 565.186096 -318.120728 1450.210693
v 565.186096 -318.120728 1450.210693
v 562.015686 -326.136719 1426.864990
v 660.299072 -355.399719 1450.210449
v 562.015686 -326.136719 1426.864990
v 657.129211 -363.415863 1426.864990
v 660.299072 -355.399719 1450.210449
v 660.299072 -355.399719 1450.210449
v 666.639160 -339.367249 1496.901733
v 565.186096 -318.120728 1450.210693
v 666.639160 -339.367249 1496.901733
v 571.526062 -302.088318 1496.901733
v 565.186096 -318.120728 1450.210693
v 571.526062 -302.088318 1496.901733
v 666.639160 -339.367249 1496.901733
v 587.297668 -262.203857 1574.393677
v 660.299072 -355.399719 1450.210449
v 657.129211 -363.415863 1426.864990
v 745.890381 -389.246368 1450.210449
v 660.299072 -355.399719 1450.210449
v 745.890381 -389.246368 1450.210449
v 666.639160 -339.367249 1496.901733
v 657.129211 -363.415863 1426.864990
v 742.720825 -397.262726 1426.864990
v 745.890381 -389.246368 1450.210449
v 666.639160 -339.367249 1496.901733
v 682.411133 -299.482910 1574.393677
v 587.297668 -262.203857 1574.393677
v 587.297668 -262.203857 1574.393677
v 682.411133 -299.482910 1574.393677
v 619.858765 -210.635208 1631.874268
v 682.411133 -299.482910 1574.393677
v 704.335388 -244.040970 1631.874268
v 619.858765 -210.635208 1631.874268
v 682.411133 -299.482910 1574.393677
v 666.639160 -339.367249 1496.901733
v 752.230469 -373.214081 1496.901733
v 745.890381 -389.246368 1450.210449
v 752.230469 -373.214081 1496.901733
v 666.639160 -339.367249 1496.901733
v 704.335388 -244.040970 1631.874268
v 682.411133 -299.482910 1574.393677
v 768.002686 -333.329651 1574.393555
v 768.002686 -333.329651 1574.393555
v 682.411133 -299.482910 1574.393677
v 752.230469 -373.214081 1496.901733
v 789.926941 -277.887665 1631.874146
v 704.335388 -244.040970 1631.874268
v 768.002686 -333.329651 1574.393555
v 768.002686 -333.329651 1574.393555
v 876.913452 -376.397797 1574.393555
v 789.926941 -277.887665 1631.874146
v 876.913452 -376.397797 1574.393555
v 768.002686 -333.329651 1574.393555
v 752.230469 -373.214081 1496.901733
v 861.141174 -416.282196 1496.901733
v 876.913452 -376.397797 1574.393555
v 752.230469 -373.214081 1496.901733
v 861.141174 -416.282196 1496.901733
v 752.230469 -373.214081 1496.901733
v 745.890381 -389.246368 1450.210449
v 861.141174 -416.282196 1496.901733
v 1137.943604 -521.464294 1496.904053
v 876.913452 -376.397797 1574.393555
v 854.801697 -432.314789 1450.210449
v 861.141174 -416.282196 1496.901733
v 745.890381 -389.246368 1450.210449
v 1137.943604 -521.464294 1496.904053
v 861.141174 -416.282196 1496.901733
v 854.801697 -432.314789 1450.210449
v 745.890381 -389.246368 1450.210449
v 742.720825 -397.262726 1426.864990
v 854.801697 -432.314789 1450.210449
v 1131.603271 -537.496460 1450.212769
v 1137.943604 -521.464294 1496.904053
v 854.801697 -432.314789 1450.210449
v 742.720825 -397.262726 1426.864990
v 851.631653 -440.331085 1426.864990
v 854.801697 -432.314789 1450.210449
v 854.801697 -432.314789 1450.210449
v 851.631653 -440.331085 1426.864990
v 1131.603271 -537.496460 1450.212769
v 851.631653 -440.331085 1426.864990
v 1125.880615 -547.407288 1426.864746
v 1131.603271 -537.496460 1450.212769
v 72.116043 727.053528 1426.864990
v -2.769759 588.870544 1426.865112
v 7.322220 588.204773 1450.210571
v 79.684769 722.927368 1450.210693
v 72.116043 727.053528 1426.864990
v 7.322220 588.204773 1450.210571
v 116.738136 808.206726 1426.864990
v 72.116043 727.053528 1426.864990
v 79.684769 722.927368 1450.210693
v 7.322220 588.204773 1450.210571
v 27.113846 588.948608 1496.901855
v 79.684769 722.927368 1450.210693
v 27.113846 588.948608 1496.901855
v 94.821854 714.674866 1496.901733
v 79.684769 722.927368 1450.210693
v 124.306381 804.080261 1450.210449
v 116.738136 808.206726 1426.864990
v 79.684769 722.927368 1450.210693
v 94.821854 714.674866 1496.901733
v 27.113846 588.948608 1496.901855
v 132.478226 694.144714 1574.393799
v 164.413223 896.267273 1426.864868
v 116.738136 808.206726 1426.864990
v 124.306381 804.080261 1450.210449
v 27.113846 588.948608 1496.901855
v 76.701431 589.878723 1574.393921
v 132.478226 694.144714 1574.393799
v 171.981918 892.141296 1450.210327
v 164.413223 896.267273 1426.864868
v 124.306381 804.080261 1450.210449
v 207.896988 976.026489 1426.864868
v 164.413223 896.267273 1426.864868
v 171.981918 892.141296 1450.210327
v 132.478226 694.144714 1574.393799
v 76.701431 589.878723 1574.393921
v 184.823959 663.962708 1631.874390
v 76.701431 589.878723 1574.393921
v 145.573074 591.848328 1631.874512
v 184.823959 663.962708 1631.874390
v 215.465530 971.900208 1450.210205
v 207.896988 976.026489 1426.864868
v 171.981918 892.141296 1450.210327
v 264.592529 1078.062012 1426.864746
v 207.896988 976.026489 1426.864868
v 215.465530 971.900208 1450.210205
v 171.981918 892.141296 1450.210327
v 124.306381 804.080261 1450.210449
v 187.119034 883.888977 1496.901733
v 171.981918 892.141296 1450.210327
v 187.119034 883.888977 1496.901733
v 215.465530 971.900208 1450.210205
v 124.306381 804.080261 1450.210449
v 139.443130 795.827576 1496.901733
v 187.119034 883.888977 1496.901733
v 275.882355 1098.561157 1426.864868
v 264.592529 1078.062012 1426.864746
v 283.234863 1094.704468 1450.210327
v 264.592529 1078.062012 1426.864746
v 271.525940 1074.728394 1450.210327
v 283.234863 1094.704468 1450.210327
v 271.525940 1074.728394 1450.210327
v 264.592529 1078.062012 1426.864746
v 215.465530 971.900208 1450.210205
v 283.234863 1094.704468 1450.210327
v 271.525940 1074.728394 1450.210327
v 298.372162 1086.451904 1496.901733
v 215.465530 971.900208 1450.210205
v 230.602737 963.647827 1496.901611
v 271.525940 1074.728394 1450.210327
v 187.119034 883.888977 1496.901733
v 230.602737 963.647827 1496.901611
v 215.465530 971.900208 1450.210205
v 271.525940 1074.728394 1450.210327
v 286.663147 1066.475708 1496.901733
v 298.372162 1086.451904 1496.901733
v 230.602737 963.647827 1496.901611
v 286.663147 1066.475708 1496.901733
v 271.525940 1074.728394 1450.210327
v 336.028564 1065.921753 1574.393433
v 298.372162 1086.451904 1496.901733
v 286.663147 1066.475708 1496.901733
v 230.602737 963.647827 1496.901611
v 187.119034 883.888977 1496.901733
v 268.259583 943.117554 1574.393311
v 230.602737 963.647827 1496.901611
v 268.259583 943.117554 1574.393311
v 286.663147 1066.475708 1496.901733
v 324.319550 1045.945557 1574.393433
v 336.028564 1065.921753 1574.393433
v 286.663147 1066.475708 1496.901733
v 268.259583 943.117554 1574.393311
v 324.319550 1045.945557 1574.393433
v 286.663147 1066.475708 1496.901733
v 388.374023 1037.383667 1631.873901
v 336.028564 1065.921753 1574.393433
v 324.319550 1045.945557 1574.393433
v 376.664917 1017.407471 1631.873901
v 388.374023 1037.383667 1631.873901
v 324.319550 1045.945557 1574.393433
v 324.319550 1045.945557 1574.393433
v 268.259583 943.117554 1574.393311
v 376.664917 1017.407471 1631.873901
v 453.371399 1001.948120 1665.617065
v 388.374023 1037.383667 1631.873901
v 376.664917 1017.407471 1631.873901
v 187.119034 883.888977 1496.901733
v 224.775833 863.359192 1574.393433
v 268.259583 943.117554 1574.393311
v 224.775833 863.359192 1574.393433
v 187.119034 883.888977 1496.901733
v 139.443130 795.827576 1496.901733
v 177.100357 775.297668 1574.393799
v 224.775833 863.359192 1574.393433
v 139.443130 795.827576 1496.901733
v 268.259583 943.117554 1574.393311
v 320.605103 914.579529 1631.873901
v 376.664917 1017.407471 1631.873901
v 268.259583 943.117554 1574.393311
v 224.775833 863.359192 1574.393433
v 320.605103 914.579529 1631.873901
v 441.662842 981.972168 1665.617065
v 453.371399 1001.948120 1665.617065
v 376.664917 1017.407471 1631.873901
v 376.664917 1017.407471 1631.873901
v 320.605103 914.579529 1631.873901
v 441.662842 981.972168 1665.617065
v 539.609436 954.932495 1676.864624
v 453.371399 1001.948120 1665.617065
v 441.662842 981.972168 1665.617065
v 527.900879 934.956238 1676.864624
v 539.609436 954.932495 1676.864624
v 441.662842 981.972168 1665.617065
v 441.662842 981.972168 1665.617065
v 385.602417 879.144104 1665.617065
v 527.900879 934.956238 1676.864624
v 320.605103 914.579529 1631.873901
v 385.602417 879.144104 1665.617065
v 441.662842 981.972168 1665.617065
v 385.602417 879.144104 1665.617065
v 471.840149 832.128357 1676.864624
v 527.900879 934.956238 1676.864624
v 224.775833 863.359192 1574.393433
v 277.121490 834.820862 1631.874146
v 320.605103 914.579529 1631.873901
v 320.605103 914.579529 1631.873901
v 277.121490 834.820862 1631.874146
v 385.602417 879.144104 1665.617065
v 277.121490 834.820862 1631.874146
v 224.775833 863.359192 1574.393433
v 177.100357 775.297668 1574.393799
v 385.602417 879.144104 1665.617065
v 342.118835 799.385071 1665.617188
v 471.840149 832.128357 1676.864624
v 277.121490 834.820862 1631.874146
v 342.118835 799.385071 1665.617188
v 385.602417 879.144104 1665.617065
v 342.118835 799.385071 1665.617188
v 428.356689 752.369568 1676.864868
v 471.840149 832.128357 1676.864624
v 231.502335 748.318909 1631.874390
v 277.121490 834.820862 1631.874146
v 177.100357 775.297668 1574.393799
v 342.118835 799.385071 1665.617188
v 277.121490 834.820862 1631.874146
v 231.502335 748.318909 1631.874390
v 177.100357 775.297668 1574.393799
v 132.478226 694.144714 1574.393799
v 231.502335 748.318909 1631.874390
v 132.478226 694.144714 1574.393799
v 184.823959 663.962708 1631.874390
v 231.502335 748.318909 1631.874390
v 428.356689 752.369568 1676.864868
v 342.118835 799.385071 1665.617188
v 298.686279 718.232788 1665.617310
v 298.686279 718.232788 1665.617310
v 342.118835 799.385071 1665.617188
v 231.502335 748.318909 1631.874390
v 231.502335 748.318909 1631.874390
v 184.823959 663.962708 1631.874390
v 298.686279 718.232788 1665.617310
v 384.923706 671.217041 1676.865112
v 428.356689 752.369568 1676.864868
v 298.686279 718.232788 1665.617310
v 184.823959 663.962708 1631.874390
v 249.521866 628.054382 1665.617310
v 298.686279 718.232788 1665.617310
v 298.686279 718.232788 1665.617310
v 249.521866 628.054382 1665.617310
v 384.923706 671.217041 1676.865112
v 184.823959 663.962708 1631.874390
v 145.573074 591.848328 1631.874512
v 249.521866 628.054382 1665.617310
v 249.521866 628.054382 1665.617310
v 344.446289 597.099304 1676.865112
v 384.923706 671.217041 1676.865112
v 145.573074 591.848328 1631.874512
v 230.815018 593.504517 1665.624268
v 249.521866 628.054382 1665.617310
v 249.521866 628.054382 1665.617310
v 230.815018 593.504517 1665.624268
v 344.446289 597.099304 1676.865112
vt 1.248047 2.776367
vt 2.345703 2.776367
vt 1.249023 2.851562
vt 2.345703 2.776367
vt 2.347656 2.851562
vt 1.249023 2.851562
vt 3.443359 2.776367
vt 4.539062 2.776367
vt 3.445312 2.851562
vt 4.539062 2.776367
vt 4.542969 2.851562
vt 3.445312 2.851562
vt 2.345703 2.776367
vt 3.443359 2.776367
vt 2.347656 2.851562
vt 3.443359 2.776367
vt 3.445312 2.851562
vt 2.347656 2.851562
vt 0.151123 2.851562
vt -0.946777 2.851562
vt 0.150879 2.776367
vt -0.946777 2.851562
vt -0.946777 2.776367
vt 0.150879 2.776367
vt 1.249023 2.851562
vt 0.151123 2.851562
vt 1.248047 2.776367
vt 0.151123 2.851562
vt 0.150879 2.776367
vt 1.248047 2.776367
vt -2.080078 2.776367
vt -1.481445 2.776367
vt -2.089844 2.851562
vt -1.481445 2.776367
vt -1.491211 2.851562
vt -2.089844 2.851562
vt 1.139648 2.776367
vt 3.728516 2.776367
vt 1.130859 2.851562
vt 3.728516 2.776367
vt 3.728516 2.851562
vt 1.130859 2.851562
vt 3.433594 2.776367
vt 4.164062 2.776367
vt 3.433594 2.851562
vt 4.164062 2.776367
vt 4.164062 2.851562
vt 3.433594 2.851562
vt 0.397461 2.776367
vt 0.614746 2.776367
vt 0.398438 2.851562
vt 0.614746 2.776367
vt 0.615234 2.851562
vt 0.398438 2.851562
vt 4.550781 2.604492
vt 4.550781 2.691406
vt 3.447266 2.691406
vt 3.447266 2.604492
vt 4.550781 2.604492
vt 3.447266 2.691406
vt 3.447266 2.604492
vt 3.447266 2.691406
vt 2.341797 2.691406
vt 2.341797 2.604492
vt 3.447266 2.604492
vt 2.341797 2.691406
vt 2.341797 2.604492
vt 2.341797 2.691406
vt 1.237305 2.691406
vt 1.237305 2.604492
vt 2.341797 2.604492
vt 1.237305 2.691406
vt 1.237305 2.691406
vt 0.133301 2.691406
vt 1.237305 2.604492
vt 0.133301 2.691406
vt 0.133301 2.604492
vt 1.237305 2.604492
vt 0.133301 2.691406
vt -0.971191 2.691406
vt 0.133301 2.604492
vt -0.971191 2.691406
vt -0.971191 2.604492
vt 0.133301 2.604492
vt 4.550781 2.691406
vt 4.539062 2.776367
vt 3.443359 2.776367
vt 3.447266 2.691406
vt 4.550781 2.691406
vt 3.443359 2.776367
vt 3.447266 2.691406
vt 3.443359 2.776367
vt 2.345703 2.776367
vt 2.341797 2.691406
vt 3.447266 2.691406
vt 2.345703 2.776367
vt 2.341797 2.691406
vt 2.345703 2.776367
vt 1.248047 2.776367
vt 1.237305 2.691406
vt 2.341797 2.691406
vt 1.248047 2.776367
vt 1.248047 2.776367
vt 0.150879 2.776367
vt 1.237305 2.691406
vt 0.150879 2.776367
vt 0.133301 2.691406
vt 1.237305 2.691406
vt 0.150879 2.776367
vt -0.946777 2.776367
vt 0.133301 2.691406
vt -0.946777 2.776367
vt -0.971191 2.691406
vt 0.133301 2.691406
vt 3.726562 2.604492
vt 3.726562 2.691406
vt 1.139648 2.691406
vt 1.139648 2.604492
vt 3.726562 2.604492
vt 1.139648 2.691406
vt 1.139648 2.604492
vt 1.139648 2.691406
vt 0.116516 2.691406
vt 0.116455 2.604492
vt 1.139648 2.604492
vt 0.116516 2.691406
vt 0.116455 2.604492
vt 0.116516 2.691406
vt -0.687500 2.691406
vt -0.687500 2.604492
vt 0.116455 2.604492
vt -0.687500 2.691406
vt -0.687500 2.604492
vt -0.687500 2.691406
vt -1.481445 2.691406
vt -1.481445 2.604492
vt -0.687500 2.604492
vt -1.481445 2.691406
vt -1.481445 2.604492
vt -1.481445 2.691406
vt -2.142578 2.691406
vt -2.142578 2.604492
vt -1.481445 2.604492
vt -2.142578 2.691406
vt 3.726562 2.691406
vt 3.728516 2.776367
vt 1.139648 2.776367
vt 1.139648 2.691406
vt 3.726562 2.691406
vt 1.139648 2.776367
vt 1.139648 2.691406
vt 1.139648 2.776367
vt 0.116638 2.776367
vt 0.116516 2.691406
vt 1.139648 2.691406
vt 0.116638 2.776367
vt 0.116516 2.691406
vt 0.116638 2.776367
vt -0.687500 2.776367
vt -0.687500 2.691406
vt 0.116516 2.691406
vt -0.687500 2.776367
vt -0.687500 2.691406
vt -0.687500 2.776367
vt -1.481445 2.776367
vt -1.481445 2.691406
vt -0.687500 2.691406
vt -1.481445 2.776367
vt -1.481445 2.691406
vt -1.481445 2.776367
vt -2.080078 2.776367
vt -2.142578 2.691406
vt -1.481445 2.691406
vt -2.080078 2.776367
vt 1.139648 2.776367
vt 1.130859 2.851562
vt 0.106934 2.851562
vt 0.116638 2.776367
vt 1.139648 2.776367
vt 0.106934 2.851562
vt 0.116638 2.776367
vt 0.106934 2.851562
vt -0.697266 2.851562
vt -0.687500 2.776367
vt 0.116638 2.776367
vt -0.697266 2.851562
vt -0.687500 2.776367
vt -0.697266 2.851562
vt -1.491211 2.851562
vt -1.481445 2.776367
vt -0.687500 2.776367
vt -1.491211 2.851562
vt 4.222656 2.604492
vt 4.222656 2.691406
vt 3.431641 2.691406
vt 3.429688 2.604492
vt 4.222656 2.604492
vt 3.431641 2.691406
vt 3.429688 2.604492
vt 3.431641 2.691406
vt 2.566406 2.691406
vt 2.568359 2.604492
vt 3.429688 2.604492
vt 2.566406 2.691406
vt 2.568359 2.604492
vt 2.566406 2.691406
vt 1.715820 2.691406
vt 1.715820 2.604492
vt 2.568359 2.604492
vt 1.715820 2.691406
vt 1.715820 2.604492
vt 1.715820 2.691406
vt 0.618164 2.691406
vt 0.617188 2.604492
vt 1.715820 2.604492
vt 0.618164 2.691406
vt 0.617188 2.604492
vt 0.618164 2.691406
vt 0.401123 2.691406
vt 0.400146 2.604492
vt 0.617188 2.604492
vt 0.401123 2.691406
vt 4.222656 2.691406
vt 4.164062 2.776367
vt 3.433594 2.776367
vt 3.431641 2.691406
vt 4.222656 2.691406
vt 3.433594 2.776367
vt 3.431641 2.691406
vt 3.433594 2.776367
vt 2.564453 2.776367
vt 2.566406 2.691406
vt 3.431641 2.691406
vt 2.564453 2.776367
vt 2.566406 2.691406
vt 2.564453 2.776367
vt 1.713867 2.776367
vt 1.715820 2.691406
vt 2.566406 2.691406
vt 1.713867 2.776367
vt 1.715820 2.691406
vt 1.713867 2.776367
vt 0.614746 2.776367
vt 0.618164 2.691406
vt 1.715820 2.691406
vt 0.614746 2.776367
vt 0.618164 2.691406
vt 0.614746 2.776367
vt 0.397461 2.776367
vt 0.401123 2.691406
vt 0.618164 2.691406
vt 0.397461 2.776367
vt 3.433594 2.776367
vt 3.433594 2.851562
vt 2.564453 2.851562
vt 2.564453 2.776367
vt 3.433594 2.776367
vt 2.564453 2.851562
vt 2.564453 2.776367
vt 2.564453 2.851562
vt 1.713867 2.851562
vt 1.713867 2.776367
vt 2.564453 2.776367
vt 1.713867 2.851562
vt 1.713867 2.776367
vt 1.713867 2.851562
vt 0.615234 2.851562
vt 0.614746 2.776367
vt 1.713867 2.776367
vt 0.615234 2.851562
vt 7.558594 0.812500
vt 7.414062 1.295654
vt 6.738281 1.295654
vt 6.816406 0.812500
vt 7.558594 0.812500
vt 6.738281 1.295654
vt 6.816406 0.812500
vt 6.738281 1.295654
vt 6.066406 1.295654
vt 7.656250 0.381836
vt 7.558594 0.812500
vt 6.816406 0.812500
vt 6.074219 0.812500
vt 6.816406 0.812500
vt 6.066406 1.295654
vt 6.066406 1.295654
vt 5.390625 1.295654
vt 6.074219 0.812500
vt 6.863281 0.381836
vt 7.656250 0.381836
vt 6.816406 0.812500
vt 6.863281 0.381836
vt 6.816406 0.812500
vt 6.074219 0.812500
vt 7.742188 -0.045898
vt 7.656250 0.381836
vt 6.863281 0.381836
vt 5.390625 1.295654
vt 5.328125 0.812500
vt 6.074219 0.812500
vt 5.390625 1.295654
vt 4.714844 1.295654
vt 5.328125 0.812500
vt 6.070312 0.381836
vt 6.863281 0.381836
vt 6.074219 0.812500
vt 6.074219 0.812500
vt 5.328125 0.812500
vt 6.070312 0.381836
vt 6.910156 -0.045898
vt 7.742188 -0.045898
vt 6.863281 0.381836
vt 6.910156 -0.045898
vt 6.863281 0.381836
vt 6.070312 0.381836
vt 7.808594 -0.490234
vt 7.742188 -0.045898
vt 6.910156 -0.045898
vt 4.714844 1.295654
vt 4.585938 0.812500
vt 5.328125 0.812500
vt 4.714844 1.295654
vt 4.039062 1.295654
vt 4.585938 0.812500
vt 4.039062 1.295654
vt 3.843750 0.812500
vt 4.585938 0.812500
vt 6.941406 -0.490234
vt 7.808594 -0.490234
vt 6.910156 -0.045898
vt 7.832031 -0.739258
vt 7.808594 -0.490234
vt 6.941406 -0.490234
vt 4.585938 0.812500
vt 3.843750 0.812500
vt 4.484375 0.381836
vt 3.843750 0.812500
vt 3.691406 0.381836
vt 4.484375 0.381836
vt 5.328125 0.812500
vt 4.585938 0.812500
vt 5.277344 0.381836
vt 4.585938 0.812500
vt 4.484375 0.381836
vt 5.277344 0.381836
vt 5.328125 0.812500
vt 5.277344 0.381836
vt 6.070312 0.381836
vt 4.484375 0.381836
vt 3.691406 0.381836
vt 4.406250 -0.045898
vt 3.691406 0.381836
vt 3.572266 -0.045898
vt 4.406250 -0.045898
vt 5.277344 0.381836
vt 4.484375 0.381836
vt 5.242188 -0.045898
vt 4.484375 0.381836
vt 4.406250 -0.045898
vt 5.242188 -0.045898
vt 6.070312 0.381836
vt 5.277344 0.381836
vt 6.074219 -0.045898
vt 6.074219 -0.045898
vt 6.910156 -0.045898
vt 6.070312 0.381836
vt 5.277344 0.381836
vt 5.242188 -0.045898
vt 6.074219 -0.045898
vt 6.941406 -0.490234
vt 6.910156 -0.045898
vt 6.074219 -0.045898
vt 6.078125 -0.490234
vt 6.074219 -0.045898
vt 5.242188 -0.045898
vt 6.078125 -0.490234
vt 6.941406 -0.490234
vt 6.074219 -0.045898
vt 5.242188 -0.045898
vt 4.406250 -0.045898
vt 5.210938 -0.490234
vt 5.210938 -0.490234
vt 6.078125 -0.490234
vt 5.242188 -0.045898
vt 4.406250 -0.045898
vt 3.572266 -0.045898
vt 4.347656 -0.490234
vt 4.406250 -0.045898
vt 4.347656 -0.490234
vt 5.210938 -0.490234
vt 3.572266 -0.045898
vt 3.484375 -0.490234
vt 4.347656 -0.490234
vt 6.957031 -0.739258
vt 6.941406 -0.490234
vt 6.078125 -0.490234
vt 6.957031 -0.739258
vt 7.832031 -0.739258
vt 6.941406 -0.490234
vt 7.843750 -0.864258
vt 7.832031 -0.739258
vt 6.957031 -0.739258
vt 6.960938 -0.864258
vt 7.843750 -0.864258
vt 6.957031 -0.739258
vt 6.078125 -0.739258
vt 6.957031 -0.739258
vt 6.078125 -0.490234
vt 6.960938 -0.864258
vt 6.957031 -0.739258
vt 6.078125 -0.739258
vt 6.078125 -0.739258
vt 6.078125 -0.490234
vt 5.210938 -0.490234
vt 6.078125 -0.864258
vt 6.960938 -0.864258
vt 6.078125 -0.739258
vt 5.203125 -0.739258
vt 6.078125 -0.739258
vt 5.210938 -0.490234
vt 6.078125 -0.864258
vt 6.078125 -0.739258
vt 5.203125 -0.739258
vt 5.210938 -0.490234
vt 4.347656 -0.490234
vt 5.203125 -0.739258
vt 5.195312 -0.864258
vt 6.078125 -0.864258
vt 5.203125 -0.739258
vt 4.347656 -0.490234
vt 4.324219 -0.739258
vt 5.203125 -0.739258
vt 5.203125 -0.739258
vt 4.324219 -0.739258
vt 5.195312 -0.864258
vt 4.347656 -0.490234
vt 3.484375 -0.490234
vt 4.324219 -0.739258
vt 4.324219 -0.739258
vt 4.312500 -0.864258
vt 5.195312 -0.864258
vt 3.484375 -0.490234
vt 3.451172 -0.739258
vt 4.324219 -0.739258
vt 4.324219 -0.739258
vt 3.451172 -0.739258
vt 4.312500 -0.864258
vt 3.451172 -0.739258
vt 3.429688 -0.864258
vt 4.312500 -0.864258
vt 7.375000 0.812500
vt 7.375000 1.295654
vt 5.894531 1.295654
vt 5.894531 0.812500
vt 7.375000 0.812500
vt 5.894531 1.295654
vt 5.894531 0.812500
vt 5.894531 1.295654
vt 5.304688 1.295654
vt 7.375000 0.381836
vt 7.375000 0.812500
vt 5.894531 0.812500
vt 5.308594 0.812500
vt 5.894531 0.812500
vt 5.304688 1.295654
vt 5.304688 1.295654
vt 4.847656 1.295654
vt 5.308594 0.812500
vt 5.894531 0.381836
vt 7.375000 0.381836
vt 5.894531 0.812500
vt 5.894531 0.381836
vt 5.894531 0.812500
vt 5.308594 0.812500
vt 7.375000 -0.045898
vt 7.375000 0.381836
vt 5.894531 0.381836
vt 4.847656 1.295654
vt 4.847656 0.812500
vt 5.308594 0.812500
vt 4.847656 0.812500
vt 4.847656 1.295654
vt 4.390625 1.295654
vt 5.308594 0.381836
vt 5.894531 0.381836
vt 5.308594 0.812500
vt 5.308594 0.812500
vt 4.847656 0.812500
vt 5.308594 0.381836
vt 5.894531 -0.045898
vt 7.375000 -0.045898
vt 5.894531 0.381836
vt 5.894531 -0.045898
vt 5.894531 0.381836
vt 5.308594 0.381836
vt 7.378906 -0.490234
vt 7.375000 -0.045898
vt 5.894531 -0.045898
vt 4.394531 0.812500
vt 4.847656 0.812500
vt 4.390625 1.295654
vt 4.394531 0.812500
vt 4.390625 1.295654
vt 4.011719 1.295654
vt 4.847656 0.812500
vt 4.847656 0.381836
vt 5.308594 0.381836
vt 4.847656 0.381836
vt 4.847656 0.812500
vt 4.394531 0.812500
vt 3.951172 0.812500
vt 4.394531 0.812500
vt 4.011719 1.295654
vt 4.011719 1.295654
vt 3.705078 0.812500
vt 3.951172 0.812500
vt 4.394531 0.381836
vt 4.847656 0.381836
vt 4.394531 0.812500
vt 4.394531 0.381836
vt 4.394531 0.812500
vt 3.951172 0.812500
vt 3.951172 0.812500
vt 3.705078 0.812500
vt 3.859375 0.381836
vt 3.859375 0.381836
vt 4.394531 0.381836
vt 3.951172 0.812500
vt 3.705078 0.812500
vt 3.464844 0.381836
vt 3.859375 0.381836
vt 3.859375 0.381836
vt 3.464844 0.381836
vt 3.892578 -0.044922
vt 3.464844 0.381836
vt 3.277344 -0.045898
vt 3.892578 -0.044922
vt 3.892578 -0.044922
vt 3.277344 -0.045898
vt 3.892578 -0.489258
vt 3.277344 -0.045898
vt 3.144531 -0.490234
vt 3.892578 -0.489258
vt 3.892578 -0.044922
vt 4.339844 -0.046875
vt 3.859375 0.381836
vt 4.339844 -0.046875
vt 4.394531 0.381836
vt 3.859375 0.381836
vt 3.894531 -0.738281
vt 3.892578 -0.489258
vt 3.144531 -0.490234
vt 3.089844 -0.739258
vt 3.894531 -0.738281
vt 3.144531 -0.490234
vt 3.089844 -0.739258
vt 3.062500 -0.864258
vt 3.894531 -0.738281
vt 3.062500 -0.864258
vt 3.894531 -0.863281
vt 3.894531 -0.738281
vt 3.894531 -0.738281
vt 3.894531 -0.863281
vt 4.339844 -0.739258
vt 3.894531 -0.863281
vt 4.343750 -0.864258
vt 4.339844 -0.739258
vt 4.339844 -0.739258
vt 4.343750 -0.864258
vt 4.851562 -0.739258
vt 4.343750 -0.864258
vt 4.851562 -0.864258
vt 4.851562 -0.739258
vt 4.851562 -0.739258
vt 4.851562 -0.490234
vt 4.339844 -0.739258
vt 4.851562 -0.490234
vt 4.339844 -0.491211
vt 4.339844 -0.739258
vt 4.339844 -0.491211
vt 4.851562 -0.490234
vt 4.339844 -0.046875
vt 4.851562 -0.739258
vt 4.851562 -0.864258
vt 5.312500 -0.739258
vt 4.851562 -0.739258
vt 5.312500 -0.739258
vt 4.851562 -0.490234
vt 4.851562 -0.864258
vt 5.312500 -0.864258
vt 5.312500 -0.739258
vt 4.851562 -0.490234
vt 4.851562 -0.045898
vt 4.339844 -0.046875
vt 4.339844 -0.046875
vt 4.851562 -0.045898
vt 4.394531 0.381836
vt 4.851562 -0.045898
vt 4.847656 0.381836
vt 4.394531 0.381836
vt 4.851562 -0.045898
vt 4.851562 -0.490234
vt 5.312500 -0.490234
vt 5.312500 -0.739258
vt 5.312500 -0.490234
vt 4.851562 -0.490234
vt 4.847656 0.381836
vt 4.851562 -0.045898
vt 5.308594 -0.045898
vt 5.308594 -0.045898
vt 4.851562 -0.045898
vt 5.312500 -0.490234
vt 5.308594 0.381836
vt 4.847656 0.381836
vt 5.308594 -0.045898
vt 5.308594 -0.045898
vt 5.894531 -0.045898
vt 5.308594 0.381836
vt 5.894531 -0.045898
vt 5.308594 -0.045898
vt 5.312500 -0.490234
vt 5.898438 -0.490234
vt 5.894531 -0.045898
vt 5.312500 -0.490234
vt 5.898438 -0.490234
vt 5.312500 -0.490234
vt 5.312500 -0.739258
vt 5.898438 -0.490234
vt 7.378906 -0.490234
vt 5.894531 -0.045898
vt 5.898438 -0.739258
vt 5.898438 -0.490234
vt 5.312500 -0.739258
vt 7.378906 -0.490234
vt 5.898438 -0.490234
vt 5.898438 -0.739258
vt 5.312500 -0.739258
vt 5.312500 -0.864258
vt 5.898438 -0.739258
vt 7.378906 -0.739258
vt 7.378906 -0.490234
vt 5.898438 -0.739258
vt 5.312500 -0.864258
vt 5.898438 -0.864258
vt 5.898438 -0.739258
vt 5.898438 -0.739258
vt 5.898438 -0.864258
vt 7.378906 -0.739258
vt 5.898438 -0.864258
vt 7.378906 -0.864258
vt 7.378906 -0.739258
vt 7.074219 -0.865234
vt 7.863281 -0.864258
vt 7.839844 -0.739258
vt 7.074219 -0.740234
vt 7.074219 -0.865234
vt 7.839844 -0.739258
vt 6.613281 -0.865234
vt 7.074219 -0.865234
vt 7.074219 -0.740234
vt 7.839844 -0.739258
vt 7.789062 -0.490234
vt 7.074219 -0.740234
vt 7.789062 -0.490234
vt 7.074219 -0.491211
vt 7.074219 -0.740234
vt 6.613281 -0.740234
vt 6.613281 -0.865234
vt 7.074219 -0.740234
vt 7.074219 -0.491211
vt 7.789062 -0.490234
vt 7.078125 -0.048828
vt 6.113281 -0.864258
vt 6.613281 -0.865234
vt 6.613281 -0.740234
vt 7.789062 -0.490234
vt 7.667969 -0.045898
vt 7.078125 -0.048828
vt 6.113281 -0.739258
vt 6.113281 -0.864258
vt 6.613281 -0.740234
vt 5.660156 -0.864258
vt 6.113281 -0.864258
vt 6.113281 -0.739258
vt 7.078125 -0.048828
vt 7.667969 -0.045898
vt 7.082031 0.382324
vt 7.667969 -0.045898
vt 7.492188 0.381836
vt 7.082031 0.382324
vt 5.660156 -0.739258
vt 5.660156 -0.864258
vt 6.113281 -0.739258
vt 5.078125 -0.864258
vt 5.660156 -0.864258
vt 5.660156 -0.739258
vt 6.113281 -0.739258
vt 6.613281 -0.740234
vt 6.113281 -0.490234
vt 6.113281 -0.739258
vt 6.113281 -0.490234
vt 5.660156 -0.739258
vt 6.613281 -0.740234
vt 6.613281 -0.491211
vt 6.113281 -0.490234
vt 4.960938 -0.864258
vt 5.078125 -0.864258
vt 4.960938 -0.739258
vt 5.078125 -0.864258
vt 5.074219 -0.739258
vt 4.960938 -0.739258
vt 5.074219 -0.739258
vt 5.078125 -0.864258
vt 5.660156 -0.739258
vt 4.960938 -0.739258
vt 5.074219 -0.739258
vt 4.957031 -0.490234
vt 5.660156 -0.739258
vt 5.660156 -0.490234
vt 5.074219 -0.739258
vt 6.113281 -0.490234
vt 5.660156 -0.490234
vt 5.660156 -0.739258
vt 5.074219 -0.739258
vt 5.074219 -0.490234
vt 4.957031 -0.490234
vt 5.660156 -0.490234
vt 5.074219 -0.490234
vt 5.074219 -0.739258
vt 4.953125 -0.045898
vt 4.957031 -0.490234
vt 5.074219 -0.490234
vt 5.660156 -0.490234
vt 6.113281 -0.490234
vt 5.656250 -0.045898
vt 5.660156 -0.490234
vt 5.656250 -0.045898
vt 5.074219 -0.490234
vt 5.070312 -0.045898
vt 4.953125 -0.045898
vt 5.074219 -0.490234
vt 5.656250 -0.045898
vt 5.070312 -0.045898
vt 5.074219 -0.490234
vt 4.957031 0.381836
vt 4.953125 -0.045898
vt 5.070312 -0.045898
vt 5.070312 0.381836
vt 4.957031 0.381836
vt 5.070312 -0.045898
vt 5.070312 -0.045898
vt 5.656250 -0.045898
vt 5.070312 0.381836
vt 4.957031 0.812500
vt 4.957031 0.381836
vt 5.070312 0.381836
vt 6.113281 -0.490234
vt 6.113281 -0.045898
vt 5.656250 -0.045898
vt 6.113281 -0.045898
vt 6.113281 -0.490234
vt 6.613281 -0.491211
vt 6.613281 -0.046875
vt 6.113281 -0.045898
vt 6.613281 -0.491211
vt 5.656250 -0.045898
vt 5.656250 0.381836
vt 5.070312 0.381836
vt 5.656250 -0.045898
vt 6.113281 -0.045898
vt 5.656250 0.381836
vt 5.074219 0.812500
vt 4.957031 0.812500
vt 5.070312 0.381836
vt 5.070312 0.381836
vt 5.656250 0.381836
vt 5.074219 0.812500
vt 4.957031 1.295654
vt 4.957031 0.812500
vt 5.074219 0.812500
vt 5.074219 1.295654
vt 4.957031 1.295654
vt 5.074219 0.812500
vt 5.074219 0.812500
vt 5.660156 0.812500
vt 5.074219 1.295654
vt 5.656250 0.381836
vt 5.660156 0.812500
vt 5.074219 0.812500
vt 5.660156 0.812500
vt 5.660156 1.295654
vt 5.074219 1.295654
vt 6.113281 -0.045898
vt 6.113281 0.381836
vt 5.656250 0.381836
vt 5.656250 0.381836
vt 6.113281 0.381836
vt 5.660156 0.812500
vt 6.113281 0.381836
vt 6.113281 -0.045898
vt 6.613281 -0.046875
vt 5.660156 0.812500
vt 6.113281 0.812500
vt 5.660156 1.295654
vt 6.113281 0.381836
vt 6.113281 0.812500
vt 5.660156 0.812500
vt 6.113281 0.812500
vt 6.113281 1.295654
vt 5.660156 1.295654
vt 6.601562 0.384277
vt 6.113281 0.381836
vt 6.613281 -0.046875
vt 6.113281 0.812500
vt 6.113281 0.381836
vt 6.601562 0.384277
vt 6.613281 -0.046875
vt 7.078125 -0.048828
vt 6.601562 0.384277
vt 7.078125 -0.048828
vt 7.082031 0.382324
vt 6.601562 0.384277
vt 6.113281 1.295654
vt 6.113281 0.812500
vt 6.574219 0.812500
vt 6.574219 0.812500
vt 6.113281 0.812500
vt 6.601562 0.384277
vt 6.601562 0.384277
vt 7.082031 0.382324
vt 6.574219 0.812500
vt 6.574219 1.295654
vt 6.113281 1.295654
vt 6.574219 0.812500
vt 7.082031 0.382324
vt 7.085938 0.812500
vt 6.574219 0.812500
vt 6.574219 0.812500
vt 7.085938 0.812500
vt 6.574219 1.295654
vt 7.082031 0.382324
vt 7.492188 0.381836
vt 7.085938 0.812500
vt 7.085938 0.812500
vt 6.996094 1.295654
vt 6.574219 1.295654
vt 7.492188 0.381836
vt 7.281250 0.812500
vt 7.085938 0.812500
vt 7.085938 0.812500
vt 7.281250 0.812500
vt 6.996094 1.295654
f 1/1/1 2/2/2 3/3/3
f 4/4/4 5/5/5 6/6/6
f 7/7/7 8/8/8 9/9/9
f 10/10/10 11/11/11 12/12/12
f 13/13/13 14/14/14 15/15/15
f 16/16/16 17/17/17 18/18/18
f 19/19/19 20/20/20 21/21/21
f 22/22/22 23/23/23 24/24/24
f 25/25/25 26/26/26 27/27/27
f 28/28/28 29/29/29 30/30/30
f 31/31/31 32/32/32 33/33/33
f 34/34/34 35/35/35 36/36/36
f 37/37/37 38/38/38 39/39/39
f 40/40/40 41/41/41 42/42/42
f 43/43/43 44/44/44 45/45/45
f 46/46/46 47/47/47 48/48/48
f 49/49/49 50/50/50 51/51/51
f 52/52/52 53/53/53 54/54/54
f 55/55/55 56/56/56 57/57/57
f 58/58/58 59/59/59 60/60/60
f 61/61/61 62/62/62 63/63/63
f 64/64/64 65/65/65 66/66/66
f 67/67/67 68/68/68 69/69/69
f 70/70/70 71/71/71 72/72/72
f 73/73/73 74/74/74 75/75/75
f 76/76/76 77/77/77 78/78/78
f 79/79/79 80/80/80 81/81/81
f 82/82/82 83/83/83 84/84/84
f 85/85/85 86/86/86 87/87/87
f 88/88/88 89/89/89 90/90/90
f 91/91/91 92/92/92 93/93/93
f 94/94/94 95/95/95 96/96/96
f 97/97/97 98/98/98 99/99/99
f 100/100/100 101/101/101 102/102/102
f 103/103/103 104/104/104 105/105/105
f 106/106/106 107/107/107 108/108/108
f 109/109/109 110/110/110 111/111/111
f 112/112/112 113/113/113 114/114/114
f 115/115/115 116/116/116 117/117/117
f 118/118/118 119/119/119 120/120/120
f 121/121/121 122/122/122 123/123/123
f 124/124/124 125/125/125 126/126/126
f 127/127/127 128/128/128 129/129/129
f 130/130/130 131/131/131 132/132/132
f 133/133/133 134/134/134 135/135/135
f 136/136/136 137/137/137 138/138/138
f 139/139/139 140/140/140 141/141/141
f 142/142/142 143/143/143 144/144/144
f 145/145/145 146/146/146 147/147/147
f 148/148/148 149/149/149 150/150/150
f 151/151/151 152/152/152 153/153/153
f 154/154/154 155/155/155 156/156/156
f 157/157/157 158/158/158 159/159/159
f 160/160/160 161/161/161 162/162/162
f 163/163/163 164/164/164 165/165/165
f 166/166/166 167/167/167 168/168/168
f 169/169/169 170/170/170 171/171/171
f 172/172/172 173/173/173 174/174/174
f 175/175/175 176/176/176 177/177/177
f 178/178/178 179/179/179 180/180/180
f 181/181/181 182/182/182 183/183/183
f 184/184/184 185/185/185 186/186/186
f 187/187/187 188/188/188 189/189/189
f 190/190/190 191/191/191 192/192/192
f 193/193/193 194/194/194 195/195/195
f 196/196/196 197/197/197 198/198/198
f 199/199/199 200/200/200 201/201/201
f 202/202/202 203/203/203 204/204/204
f 205/205/205 206/206/206 207/207/207
f 208/208/208 209/209/209 210/210/210
f 211/211/211 212/212/212 213/213/213
f 214/214/214 215/215/215 216/216/216
f 217/217/217 218/218/218 219/219/219
f 220/220/220 221/221/221 222/222/222
f 223/223/223 224/224/224 225/225/225
f 226/226/226 227/227/227 228/228/228
f 229/229/229 230/230/230 231/231/231
f 232/232/232 233/233/233 234/234/234
f 235/235/235 236/236/236 237/237/237
f 238/238/238 239/239/239 240/240/240
f 241/241/241 242/242/242 243/243/243
f 244/244/244 245/245/245 246/246/246
f 247/247/247 248/248/248 249/249/249
f 250/250/250 251/251/251 252/252/252
f 253/253/253 254/254/254 255/255/255
f 256/256/256 257/257/257 258/258/258
f 259/259/259 260/260/260 261/261/261
f 262/262/262 263/263/263 264/264/264
f 265/265/265 266/266/266 267/267/267
f 268/268/268 269/269/269 270/270/270
f 271/271/271 272/272/272 273/273/273
f 274/274/274 275/275/275 276/276/276
f 277/277/277 278/278/278 279/279/279
f 280/280/280 281/281/281 282/282/282
f 283/283/283 284/284/284 285/285/285
f 286/286/286 287/287/287 288/288/288
f 289/289/289 290/290/290 291/291/291
f 292/292/292 293/293/293 294/294/294
f 295/295/295 296/296/296 297/297/297
f 298/298/298 299/299/299 300/300/300
f 301/301/301 302/302/302 303/303/303
f 304/304/304 305/305/305 306/306/306
f 307/307/307 308/308/308 309/309/309
f 310/310/310 311/311/311 312/312/312
f 313/313/313 314/314/314 315/315/315
f 316/316/316 317/317/317 318/318/318
f 319/319/319 320/320/320 321/321/321
f 322/322/322 323/323/323 324/324/324
f 325/325/325 326/326/326 327/327/327
f 328/328/328 329/329/329 330/330/330
f 331/331/331 332/332/332 333/333/333
f 334/334/334 335/335/335 336/336/336
f 337/337/337 338/338/338 339/339/339
f 340/340/340 341/341/341 342/342/342
f 343/343/343 344/344/344 345/345/345
f 346/346/346 347/347/347 348/348/348
f 349/349/349 350/350/350 351/351/351
f 352/352/352 353/353/353 354/354/354
f 355/355/355 356/356/356 357/357/357
f 358/358/358 359/359/359 360/360/360
f 361/361/361 362/362/362 363/363/363
f 364/364/364 365/365/365 366/366/366
f 367/367/367 368/368/368 369/369/369
f 370/370/370 371/371/371 372/372/372
f 373/373/373 374/374/374 375/375/375
f 376/376/376 377/377/377 378/378/378
f 379/379/379 380/380/380 381/381/381
f 382/382/382 383/383/383 384/384/384
f 385/385/385 386/386/386 387/387/387
f 388/388/388 389/389/389 390/390/390
f 391/391/391 392/392/392 393/393/393
f 394/394/394 395/395/395 396/396/396
f 397/397/397 398/398/398 399/399/399
f 400/400/400 401/401/401 402/402/402
f 403/403/403 404/404/404 405/405/405
f 406/406/406 407/407/407 408/408/408
f 409/409/409 410/410/410 411/411/411
f 412/412/412 413/413/413 414/414/414
f 415/415/415 416/416/416 417/417/417
f 418/418/418 419/419/419 420/420/420
f 421/421/421 422/422/422 423/423/423
f 424/424/424 425/425/425 426/426/426
f 427/427/427 428/428/428 429/429/429
f 430/430/430 431/431/431 432/432/432
f 433/433/433 434/434/434 435/435/435
f 436/436/436 437/437/437 438/438/438
f 439/439/439 440/440/440 441/441/441
f 442/442/442 443/443/443 444/444/444
f 445/445/445 446/446/446 447/447/447
f 448/448/448 449/449/449 450/450/450
f 451/451/451 452/452/452 453/453/453
f 454/454/454 455/455/455 456/456/456
f 457/457/457 458/458/458 459/459/459
f 460/460/460 461/461/461 462/462/462
f 463/463/463 464/464/464 465/465/465
f 466/466/466 467/467/467 468/468/468
f 469/469/469 470/470/470 471/471/471
f 472/472/472 473/473/473 474/474/474
f 475/475/475 476/476/476 477/477/477
f 478/478/478 479/479/479 480/480/480
f 481/481/481 482/482/482 483/483/483
f 484/484/484 485/485/485 486/486/486
f 487/487/487 488/488/488 489/489/489
f 490/490/490 491/491/491 492/492/492
f 493/493/493 494/494/494 495/495/495
f 496/496/496 497/497/497 498/498/498
f 499/499/499 500/500/500 501/501/501
f 502/502/502 503/503/503 504/504/504
f 505/505/505 506/506/506 507/507/507
f 508/508/508 509/509/509 510/510/510
f 511/511/511 512/512/512 513/513/513
f 514/514/514 515/515/515 516/516/516
f 517/517/517 518/518/518 519/519/519
f 520/520/520 521/521/521 522/522/522
f 523/523/523 524/524/524 525/525/525
f 526/526/526 527/527/527 528/528/528
f 529/529/529 530/530/530 531/531/531
f 532/532/532 533/533/533 534/534/534
f 535/535/535 536/536/536 537/537/537
f 538/538/538 539/539/539 540/540/540
f 541/541/541 542/542/542 543/543/543
f 544/544/544 545/545/545 546/546/546
f 547/547/547 548/548/548 549/549/549
f 550/550/550 551/551/551 552/552/552
f 553/553/553 554/554/554 555/555/555
f 556/556/556 557/557/557 558/558/558
f 559/559/559 560/560/560 561/561/561
f 562/562/562 563/563/563 564/564/564
f 565/565/565 566/566/566 567/567/567
f 568/568/568 569/569/569 570/570/570
f 571/571/571 572/572/572 573/573/573
f 574/574/574 575/575/575 576/576/576
f 577/577/577 578/578/578 579/579/579
f 580/580/580 581/581/581 582/582/582
f 583/583/583 584/584/584 585/585/585
f 586/586/586 587/587/587 588/588/588
f 589/589/589 590/590/590 591/591/591
f 592/592/592 593/593/593 594/594/594
f 595/595/595 596/596/596 597/597/597
f 598/598/598 599/599/599 600/600/600
f 601/601/601 602/602/602 603/603/603
f 604/604/604 605/605/605 606/606/606
f 607/607/607 608/608/608 609/609/609
f 610/610/610 611/611/611 612/612/612
f 613/613/613 614/614/614 615/615/615
f 616/616/616 617/617/617 618/618/618
f 619/619/619 620/620/620 621/621/621
f 622/622/622 623/623/623 624/624/624
f 625/625/625 626/626/626 627/627/627
f 628/628/628 629/629/629 630/630/630
f 631/631/631 632/632/632 633/633/633
f 634/634/634 635/635/635 636/636/636
f 637/637/637 638/638/638 639/639/639
f 640/640/640 641/641/641 642/642/642
f 643/643/643 644/644/644 645/645/645
f 646/646/646 647/647/647 648/648/648
f 649/649/649 650/650/650 651/651/651
f 652/652/652 653/653/653 654/654/654
f 655/655/655 656/656/656 657/657/657
f 658/658/658 659/659/659 660/660/660
f 661/661/661 662/662/662 663/663/663
f 664/664/664 665/665/665 666/666/666
f 667/667/667 668/668/668 669/669/669
f 670/670/670 671/671/671 672/672/672
f 673/673/673 674/674/674 675/675/675
f 676/676/676 677/677/677 678/678/678
f 679/679/679 680/680/680 681/681/681
f 682/682/682 683/683/683 684/684/684
f 685/685/685 686/686/686 687/687/687
f 688/688/688 689/689/689 690/690/690
f 691/691/691 692/692/692 693/693/693
f 694/694/694 695/695/695 696/696/696
f 697/697/697 698/698/698 699/699/699
f 700/700/700 701/701/701 702/702/702
f 703/703/703 704/704/704 705/705/705
f 706/706/706 707/707/707 708/708/708
f 709/709/709 710/710/710 711/711/711
f 712/712/712 713/713/713 714/714/714
f 715/715/715 716/716/716 717/717/717
f 718/718/718 719/719/719 720/720/720
f 721/721/721 722/722/722 723/723/723
f 724/724/724 725/725/725 726/726/726
f 727/727/727 728/728/728 729/729/729
f 730/730/730 731/731/731 732/732/732
f 733/733/733 734/734/734 735/735/735
f 736/736/736 737/737/737 738/738/738
f 739/739/739 740/740/740 741/741/741
f 742/742/742 743/743/743 744/744/744
f 745/745/745 746/746/746 747/747/747
f 748/748/748 749/749/749 750/750/750
f 751/751/751 752/752/752 753/753/753
f 754/754/754 755/755/755 756/756/756
f 757/757/757 758/758/758 759/759/759
f 760/760/760 761/761/761 762/762/762
f 763/763/763 764/764/764 765/765/765
f 766/766/766 767/767/767 768/768/768
f 769/769/769 770/770/770 771/771/771
f 772/772/772 773/773/773 774/774/774
f 775/775/775 776/776/776 777/777/777
f 778/778/778 779/779/779 780/780/780
f 781/781/781 782/782/782 783/783/783
f 784/784/784 785/785/785 786/786/786
f 787/787/787 788/788/788 789/789/789
f 790/790/790 791/791/791 792/792/792
f 793/793/793 794/794/794 795/795/795
f 796/796/796 797/797/797 798/798/798
f 799/799/799 800/800/800 801/801/801
f 802/802/802 803/803/803 804/804/804
f 805/805/805 806/806/806 807/807/807
f 808/808/808 809/809/809 810/810/810
f 811/811/811 812/812/812 813/813/813
f 814/814/814 815/815/815 816/816/816
f 817/817/817 818/818/818 819/819/819
f 820/820/820 821/821/821 822/822/822
f 823/823/823 824/824/824 825/825/825
f 826/826/826 827/827/827 828/828/828
f 829/829/829 830/830/830 831/831/831
f 832/832/832 833/833/833 834/834/834
f 835/835/835 836/836/836 837/837/837
f 838/838/838 839/839/839 840/840/840
f 841/841/841 842/842/842 843/843/843
f 844/844/844 845/845/845 846/846/846
f 847/847/847 848/848/848 849/849/849
f 850/850/850 851/851/851 852/852/852
