####
#
# OBJ File Generated by Meshlab
#
####
# Object shape-plane.obj
#
# Vertices: 289
# Faces: 512
#
####
v -5.791989 1.636199 4.137889
v -6.134179 1.488480 5.415973
v -6.249983 1.162724 4.127048
v -5.683449 1.958109 5.459336
v -5.973996 1.804259 6.760345
v -5.532950 2.268760 6.847081
v -5.223033 2.432866 5.459336
v -5.331574 2.110957 4.137889
v -5.072535 2.743517 6.847081
v -6.565539 1.029107 5.285868
v -6.703135 0.691813 4.094522
v -6.987215 0.574863 5.112402
v -7.153865 0.222184 4.051156
v -6.376302 1.360272 6.500145
v -6.720498 0.947054 5.979741
v -6.737445 0.342260 2.949028
v -6.277030 0.817017 2.949028
v -6.636199 -0.035939 1.959047
v -6.175783 0.438819 1.959047
v -7.197861 -0.132498 2.949028
v -7.096614 -0.510696 1.959048
v -5.816615 1.291775 2.949028
v -5.356200 1.766532 2.949028
v -5.715368 0.913576 1.959047
v -5.254953 1.388333 1.959047
v -3.841788 3.857138 5.459336
v -4.410743 3.060472 4.137889
v -3.950328 3.535229 4.137889
v -4.302203 3.382380 5.459336
v -3.691289 4.167789 6.847081
v -4.151705 3.693032 6.847081
v -3.381372 4.331895 5.459336
v -3.489913 4.009986 4.137889
v -3.230874 4.642547 6.847081
v -4.871159 2.585714 4.137889
v -4.762618 2.907623 5.459336
v -4.612120 3.218275 6.847081
v -4.895784 2.241289 2.949028
v -4.435369 2.716047 2.949028
v -4.794538 1.863091 1.959047
v -4.334122 2.337848 1.959047
v -3.974954 3.190804 2.949028
v -3.514539 3.665561 2.949028
v -3.873707 2.812605 1.959047
v -3.413292 3.287362 1.959047
v -5.054221 0.035239 0.728754
v -5.906707 0.015588 1.234241
v -5.514637 -0.439519 0.728754
v -5.446292 0.490346 1.234241
v -4.593806 0.509997 0.728754
v -4.985876 0.965103 1.234241
v -6.367122 -0.459170 1.234241
v -5.975052 -0.914276 0.728754
v -6.827538 -0.933927 1.234241
v -6.435467 -1.389033 0.728754
v -5.044410 -0.913345 0.396736
v -5.504825 -1.388103 0.396736
v -5.001277 -1.867495 0.192332
v -4.540862 -1.392737 0.192332
v -5.965240 -1.862860 0.396736
v -5.461691 -2.342251 0.192332
v -4.583994 -0.438588 0.396736
v -4.123579 0.036169 0.396736
v -4.080447 -0.917980 0.192332
v -3.620031 -0.443222 0.192332
v -3.212560 1.934269 0.728754
v -4.065045 1.914618 1.234241
v -3.672976 1.459511 0.728754
v -3.604630 2.389375 1.234241
v -2.752145 2.409026 0.728754
v -3.144216 2.864132 1.234241
v -4.525461 1.439860 1.234241
v -4.133391 0.984754 0.728754
v -3.202748 0.985684 0.396736
v -3.663164 0.510927 0.396736
v -3.159616 0.031535 0.192332
v -2.699201 0.506292 0.192332
v -2.742333 1.460442 0.396736
v -2.281918 1.935199 0.396736
v -2.238785 0.981050 0.192332
v -1.778370 1.455807 0.192332
v -2.000127 5.756167 5.459336
v -2.569083 4.959501 4.137889
v -2.108667 5.434258 4.137889
v -2.460542 5.281410 5.459336
v -1.849628 6.066818 6.847081
v -2.310044 5.592061 6.847081
v -1.539711 6.230925 5.459336
v -1.648252 5.909016 4.137889
v -1.389213 6.541576 6.847081
v -3.029498 4.484743 4.137889
v -2.920957 4.806653 5.459336
v -2.770459 5.117304 6.847081
v -3.054123 4.140318 2.949028
v -2.593708 4.615076 2.949028
v -2.952877 3.762120 1.959047
v -2.492461 4.236877 1.959047
v -2.133293 5.089834 2.949028
v -1.672878 5.564590 2.949028
v -2.032046 4.711635 1.959047
v -1.571631 5.186392 1.959047
v -0.234831 7.557020 5.285868
v -0.732195 6.852394 4.127048
v -0.286097 7.308743 4.094522
v -0.637972 7.155895 5.415973
v -0.160698 7.769494 6.500145
v -0.506565 7.442003 6.760345
v 0.149221 7.933602 5.112402
v 0.155227 7.758958 4.051156
v 0.070627 7.949725 5.979741
v -1.187837 6.383773 4.137889
v -1.079296 6.705682 5.459336
v -0.928798 7.016333 6.847081
v -1.212462 6.039348 2.949028
v -0.752047 6.514106 2.949028
v -1.111216 5.661150 1.959047
v -0.650800 6.135907 1.959047
v -0.291632 6.988863 2.949028
v 0.168781 7.463619 2.949028
v -0.190386 6.610664 1.959047
v 0.270031 7.085423 1.959048
v -1.370899 3.833298 0.728754
v -2.223385 3.813647 1.234241
v -1.831315 3.358541 0.728754
v -1.762970 4.288404 1.234241
v -0.910484 4.308055 0.728754
v -1.302554 4.763162 1.234241
v -2.683800 3.338890 1.234241
v -2.291730 2.883783 0.728754
v -1.361088 2.884714 0.396736
v -1.821503 2.409956 0.396736
v -1.317955 1.930565 0.192332
v -0.857540 2.405322 0.192332
v -0.900672 3.359471 0.396736
v -0.440257 3.834229 0.396736
v -0.397125 2.880079 0.192332
v 0.063291 3.354837 0.192332
v 0.470762 5.732327 0.728754
v -0.381724 5.712677 1.234241
v 0.010346 5.257570 0.728754
v 0.078691 6.187434 1.234241
v 0.931177 6.207086 0.728754
v 0.539107 6.662192 1.234241
v -0.842139 5.237919 1.234241
v -0.450069 4.782813 0.728754
v 0.480574 4.783744 0.396736
v 0.020158 4.308986 0.396736
v 0.523706 3.829594 0.192332
v 0.984121 4.304351 0.192332
v 0.940989 5.258501 0.396736
v 1.401404 5.733258 0.396736
v 1.444537 4.779109 0.192332
v 1.904952 5.253866 0.192332
v -3.565436 -2.330647 0.008369
v -3.588415 -1.389781 0.069690
v -4.048831 -1.864538 0.069690
v -3.105021 -1.855889 0.008369
v -3.128000 -0.915023 0.069690
v -2.644605 -1.381132 0.008369
v -4.025851 -2.805404 0.008369
v -4.509246 -2.339296 0.069690
v -4.486265 -3.280161 0.008369
v -4.969660 -2.814052 0.069690
v -3.548215 -3.267717 -0.012071
v -3.087800 -2.792960 -0.012071
v -2.613042 -3.253375 -0.012071
v -3.073457 -3.728133 -0.012071
v -4.008630 -3.742475 -0.012071
v -3.533873 -4.202890 -0.012071
v -2.627385 -2.318202 -0.012071
v -2.166969 -1.843445 -0.012071
v -2.152627 -2.778618 -0.012071
v -1.692212 -2.303860 -0.012071
v -1.723775 -0.431617 0.008369
v -1.746754 0.509249 0.069690
v -2.207169 0.034491 0.069690
v -1.263360 0.043141 0.008369
v -1.286339 0.984006 0.069690
v -0.802944 0.517898 0.008369
v -2.184190 -0.906374 0.008369
v -2.667585 -0.440266 0.069690
v -1.706554 -1.368687 -0.012071
v -1.246138 -0.893930 -0.012071
v -0.771381 -1.354345 -0.012071
v -1.231796 -1.829102 -0.012071
v -0.785723 -0.419173 -0.012071
v -0.325308 0.055585 -0.012071
v -0.310965 -0.879588 -0.012071
v 0.149450 -0.404830 -0.012071
v -1.663639 -4.166900 -0.012071
v -1.677870 -3.239033 -0.012071
v -2.138284 -3.713790 -0.012071
v -1.203112 -3.699448 -0.012071
v -0.742696 -3.224691 -0.012071
v -1.217454 -2.764276 -0.012071
v -2.124390 -4.619739 -0.012071
v -2.598700 -4.188548 -0.012071
v -2.585254 -5.065272 -0.012071
v -3.059115 -4.663305 -0.012071
v -1.650977 -4.992482 -0.012071
v -1.189218 -4.605397 -0.012071
v -1.178013 -5.336001 -0.012071
v -0.714909 -5.036589 -0.012071
v -2.113186 -5.350343 -0.012071
v -1.643806 -5.460069 -0.012071
v -0.728354 -4.159863 -0.012071
v -0.267939 -3.685106 -0.012071
v -0.253597 -4.620279 -0.012071
v 0.206819 -4.145522 -0.012071
v 0.638549 -1.800418 -0.012071
v -0.296623 -1.814761 -0.012071
v 0.178134 -2.275176 -0.012071
v 0.163792 -1.340003 -0.012071
v 1.098965 -1.325661 -0.012071
v 0.624207 -0.865246 -0.012071
v -0.757039 -2.289518 -0.012071
v -0.282281 -2.749933 -0.012071
v 0.652892 -2.735591 -0.012071
v 0.192477 -3.210349 -0.012071
v 1.127649 -3.196006 -0.012071
v 0.667234 -3.670764 -0.012071
v 1.113307 -2.260834 -0.012071
v 1.573722 -1.786076 -0.012071
v 1.588064 -2.721249 -0.012071
v 2.048480 -2.246491 -0.012071
v 0.117886 1.467413 0.008369
v 0.094907 2.408278 0.069690
v -0.365509 1.933521 0.069690
v 0.578301 1.942170 0.008369
v 0.555322 2.883036 0.069690
v 1.038717 2.416928 0.008369
v -0.342529 0.992655 0.008369
v -0.825924 1.458763 0.069690
v 0.135107 0.530342 -0.012071
v 0.595522 1.005100 -0.012071
v 1.070280 0.544685 -0.012071
v 0.609865 0.069927 -0.012071
v 1.055938 1.479857 -0.012071
v 1.516353 1.954615 -0.012071
v 1.530695 1.019442 -0.012071
v 1.991111 1.494200 -0.012071
v 1.959547 3.366442 0.008369
v 1.936568 4.307308 0.069690
v 1.476153 3.832550 0.069690
v 2.419962 3.841200 0.008369
v 2.396983 4.782065 0.069690
v 2.880378 4.315958 0.008369
v 1.499132 2.891685 0.008369
v 1.015737 3.357793 0.069690
v 1.976769 2.429372 -0.012071
v 2.437184 2.904130 -0.012071
v 2.911941 2.443714 -0.012071
v 2.451526 1.968957 -0.012071
v 2.897599 3.378887 -0.012071
v 3.358014 3.853644 -0.012071
v 3.372357 2.918472 -0.012071
v 3.832772 3.393229 -0.012071
v 2.480210 0.098612 -0.012071
v 1.545038 0.084269 -0.012071
v 2.019795 -0.376146 -0.012071
v 2.005453 0.559027 -0.012071
v 2.940626 0.573369 -0.012071
v 2.465868 1.033784 -0.012071
v 1.084622 -0.390488 -0.012071
v 1.559380 -0.850903 -0.012071
v 2.494553 -0.836561 -0.012071
v 2.034137 -1.311319 -0.012071
v 2.969310 -1.296976 -0.012071
v 2.508895 -1.771734 -0.012071
v 2.954968 -0.361804 -0.012071
v 3.415383 0.112954 -0.012071
v 3.429725 -0.822219 -0.012071
v 3.890141 -0.347461 -0.012071
v 4.292647 1.997193 -0.012071
v 3.386699 1.983299 -0.012071
v 3.854150 1.522772 -0.012071
v 3.847114 2.458057 -0.012071
v 4.723838 2.471503 -0.012071
v 4.307529 2.932814 -0.012071
v 2.926284 1.508542 -0.012071
v 3.401041 1.048126 -0.012071
v 4.306990 1.062021 -0.012071
v 3.875799 0.587711 -0.012071
v 4.752523 0.601157 -0.012071
v 4.350556 0.127296 -0.012071
v 4.679732 1.535434 -0.012071
v 5.023251 2.008398 -0.012071
v 5.037593 1.073225 -0.012071
v 5.147319 1.542604 -0.012071
# 289 vertices, 0 vertices normals

f 1 2 3
f 2 1 4
f 4 5 2
f 5 4 6
f 7 1 8
f 1 7 4
f 9 4 7
f 4 9 6
f 3 10 11
f 10 3 2
f 11 12 13
f 12 11 10
f 2 14 10
f 14 2 5
f 10 15 12
f 15 10 14
f 3 16 17
f 16 3 11
f 17 18 19
f 18 17 16
f 11 20 16
f 20 11 13
f 16 21 18
f 21 16 20
f 1 17 22
f 17 1 3
f 8 22 23
f 22 8 1
f 22 19 24
f 19 22 17
f 23 24 25
f 24 23 22
f 26 27 28
f 27 26 29
f 30 29 26
f 29 30 31
f 32 28 33
f 28 32 26
f 34 26 32
f 26 34 30
f 29 35 27
f 35 29 36
f 36 8 35
f 8 36 7
f 31 36 29
f 36 31 37
f 37 7 36
f 7 37 9
f 27 38 39
f 38 27 35
f 39 40 41
f 40 39 38
f 35 23 38
f 23 35 8
f 38 25 40
f 25 38 23
f 28 39 42
f 39 28 27
f 33 42 43
f 42 33 28
f 42 41 44
f 41 42 39
f 43 44 45
f 44 43 42
f 46 47 48
f 47 46 49
f 24 47 49
f 47 24 19
f 50 49 46
f 49 50 51
f 25 49 51
f 49 25 24
f 48 52 53
f 52 48 47
f 53 54 55
f 54 53 52
f 19 52 47
f 52 19 18
f 18 54 52
f 54 18 21
f 56 53 57
f 53 56 48
f 58 56 57
f 56 58 59
f 57 55 60
f 55 57 53
f 61 57 60
f 57 61 58
f 62 48 56
f 48 62 46
f 63 46 62
f 46 63 50
f 59 62 56
f 62 59 64
f 64 63 62
f 63 64 65
f 66 67 68
f 67 66 69
f 44 67 69
f 67 44 41
f 70 69 66
f 69 70 71
f 45 69 71
f 69 45 44
f 68 72 73
f 72 68 67
f 73 51 50
f 51 73 72
f 41 72 67
f 72 41 40
f 40 51 72
f 51 40 25
f 74 73 75
f 73 74 68
f 76 74 75
f 74 76 77
f 75 50 63
f 50 75 73
f 65 75 63
f 75 65 76
f 78 68 74
f 68 78 66
f 79 66 78
f 66 79 70
f 77 78 74
f 78 77 80
f 80 79 78
f 79 80 81
f 82 83 84
f 83 82 85
f 86 85 82
f 85 86 87
f 88 84 89
f 84 88 82
f 90 82 88
f 82 90 86
f 85 91 83
f 91 85 92
f 92 33 91
f 33 92 32
f 87 92 85
f 92 87 93
f 93 32 92
f 32 93 34
f 83 94 95
f 94 83 91
f 95 96 97
f 96 95 94
f 91 43 94
f 43 91 33
f 94 45 96
f 45 94 43
f 84 95 98
f 95 84 83
f 89 98 99
f 98 89 84
f 98 97 100
f 97 98 95
f 99 100 101
f 100 99 98
f 102 103 104
f 103 102 105
f 106 105 102
f 105 106 107
f 108 104 109
f 104 108 102
f 110 102 108
f 102 110 106
f 105 111 103
f 111 105 112
f 112 89 111
f 89 112 88
f 107 112 105
f 112 107 113
f 113 88 112
f 88 113 90
f 103 114 115
f 114 103 111
f 115 116 117
f 116 115 114
f 111 99 114
f 99 111 89
f 114 101 116
f 101 114 99
f 104 115 118
f 115 104 103
f 109 118 119
f 118 109 104
f 118 117 120
f 117 118 115
f 121 118 120
f 118 121 119
f 122 123 124
f 123 122 125
f 100 123 125
f 123 100 97
f 126 125 122
f 125 126 127
f 101 125 127
f 125 101 100
f 124 128 129
f 128 124 123
f 129 71 70
f 71 129 128
f 97 128 123
f 128 97 96
f 96 71 128
f 71 96 45
f 130 129 131
f 129 130 124
f 132 130 131
f 130 132 133
f 131 70 79
f 70 131 129
f 81 131 79
f 131 81 132
f 134 124 130
f 124 134 122
f 135 122 134
f 122 135 126
f 133 134 130
f 134 133 136
f 136 135 134
f 135 136 137
f 138 139 140
f 139 138 141
f 120 139 141
f 139 120 117
f 142 141 138
f 141 142 143
f 121 141 143
f 141 121 120
f 140 144 145
f 144 140 139
f 145 127 126
f 127 145 144
f 117 144 139
f 144 117 116
f 116 127 144
f 127 116 101
f 146 145 147
f 145 146 140
f 148 146 147
f 146 148 149
f 147 126 135
f 126 147 145
f 137 147 135
f 147 137 148
f 150 140 146
f 140 150 138
f 151 138 150
f 138 151 142
f 149 150 146
f 150 149 152
f 152 151 150
f 151 152 153
f 154 155 156
f 155 154 157
f 156 64 59
f 64 156 155
f 157 158 155
f 158 157 159
f 155 65 64
f 65 155 158
f 160 156 161
f 156 160 154
f 162 161 163
f 161 162 160
f 161 59 58
f 59 161 156
f 163 58 61
f 58 163 161
f 164 154 160
f 154 164 165
f 166 164 167
f 164 166 165
f 168 160 162
f 160 168 164
f 167 168 169
f 168 167 164
f 165 157 154
f 157 165 170
f 170 159 157
f 159 170 171
f 172 165 166
f 165 172 170
f 173 170 172
f 170 173 171
f 174 175 176
f 175 174 177
f 176 80 77
f 80 176 175
f 177 178 175
f 178 177 179
f 175 81 80
f 81 175 178
f 180 176 181
f 176 180 174
f 159 181 158
f 181 159 180
f 181 77 76
f 77 181 176
f 158 76 65
f 76 158 181
f 182 174 180
f 174 182 183
f 184 182 185
f 182 184 183
f 171 180 159
f 180 171 182
f 185 171 173
f 171 185 182
f 183 177 174
f 177 183 186
f 186 179 177
f 179 186 187
f 188 183 184
f 183 188 186
f 189 186 188
f 186 189 187
f 190 191 192
f 191 190 193
f 191 166 192
f 166 191 172
f 194 191 193
f 191 194 195
f 195 172 191
f 172 195 173
f 196 192 197
f 192 196 190
f 198 197 199
f 197 198 196
f 192 167 197
f 167 192 166
f 197 169 199
f 169 197 167
f 200 190 196
f 190 200 201
f 202 201 200
f 201 202 203
f 204 196 198
f 196 204 200
f 205 200 204
f 200 205 202
f 201 193 190
f 193 201 206
f 207 193 206
f 193 207 194
f 203 206 201
f 206 203 208
f 209 206 208
f 206 209 207
f 210 211 212
f 211 210 213
f 213 184 211
f 184 213 188
f 214 213 210
f 213 214 215
f 215 188 213
f 188 215 189
f 212 216 217
f 216 212 211
f 217 195 194
f 195 217 216
f 211 185 216
f 185 211 184
f 216 173 195
f 173 216 185
f 218 217 219
f 217 218 212
f 220 219 221
f 219 220 218
f 219 194 207
f 194 219 217
f 221 207 209
f 207 221 219
f 222 212 218
f 212 222 210
f 223 210 222
f 210 223 214
f 224 218 220
f 218 224 222
f 225 222 224
f 222 225 223
f 226 227 228
f 227 226 229
f 228 136 133
f 136 228 227
f 229 230 227
f 230 229 231
f 227 137 136
f 137 227 230
f 232 228 233
f 228 232 226
f 179 233 178
f 233 179 232
f 233 133 132
f 133 233 228
f 178 132 81
f 132 178 233
f 234 226 232
f 226 234 235
f 236 234 237
f 234 236 235
f 187 232 179
f 232 187 234
f 237 187 189
f 187 237 234
f 235 229 226
f 229 235 238
f 238 231 229
f 231 238 239
f 240 235 236
f 235 240 238
f 241 238 240
f 238 241 239
f 242 243 244
f 243 242 245
f 244 152 149
f 152 244 243
f 245 246 243
f 246 245 247
f 243 153 152
f 153 243 246
f 248 244 249
f 244 248 242
f 231 249 230
f 249 231 248
f 249 149 148
f 149 249 244
f 230 148 137
f 148 230 249
f 250 242 248
f 242 250 251
f 252 250 253
f 250 252 251
f 239 248 231
f 248 239 250
f 253 239 241
f 239 253 250
f 251 245 242
f 245 251 254
f 254 247 245
f 247 254 255
f 256 251 252
f 251 256 254
f 257 254 256
f 254 257 255
f 258 259 260
f 259 258 261
f 261 236 259
f 236 261 240
f 262 261 258
f 261 262 263
f 263 240 261
f 240 263 241
f 260 264 265
f 264 260 259
f 265 215 214
f 215 265 264
f 259 237 264
f 237 259 236
f 264 189 215
f 189 264 237
f 266 265 267
f 265 266 260
f 268 267 269
f 267 268 266
f 267 214 223
f 214 267 265
f 269 223 225
f 223 269 267
f 270 260 266
f 260 270 258
f 271 258 270
f 258 271 262
f 272 266 268
f 266 272 270
f 273 270 272
f 270 273 271
f 274 275 276
f 275 274 277
f 277 252 275
f 252 277 256
f 278 277 274
f 277 278 279
f 279 256 277
f 256 279 257
f 276 280 281
f 280 276 275
f 281 263 262
f 263 281 280
f 275 253 280
f 253 275 252
f 280 241 263
f 241 280 253
f 282 281 283
f 281 282 276
f 284 283 285
f 283 284 282
f 283 262 271
f 262 283 281
f 285 271 273
f 271 285 283
f 286 276 282
f 276 286 274
f 287 274 286
f 274 287 278
f 288 282 284
f 282 288 286
f 289 286 288
f 286 289 287
# 512 faces, 0 coords texture

# End of File
